<?xml version='1.0' encoding='UTF-8' ?>
<svg xmlns='http://www.w3.org/2000/svg' xmlns:xlink='http://www.w3.org/1999/xlink' viewBox='0 0 302.40 288.00'>
<defs>
  <style type='text/css'><![CDATA[
    line, polyline, path, rect, circle {
      fill: none;
      stroke: #000000;
      stroke-linecap: round;
      stroke-linejoin: round;
      stroke-miterlimit: 10.00;
    }
  ]]></style>
</defs>
<rect width='100%' height='100%' style='stroke: none; fill: #FFFFFF;'/>
<rect x='0.00' y='0.00' width='302.40' height='288.00' style='stroke-width: 1.07; stroke: #FFFFFF; fill: #FFFFFF;' />
<defs>
  <clipPath id='cpNTYuMTAyM3wyOTYuOTIxfDI1My43NXwyMC43ODky'>
    <rect x='56.10' y='20.79' width='240.82' height='232.96' />
  </clipPath>
</defs>
<rect x='56.10' y='20.79' width='240.82' height='232.96' style='stroke-width: 1.07; stroke: none; fill: #FFFFFF;' clip-path='url(#cpNTYuMTAyM3wyOTYuOTIxfDI1My43NXwyMC43ODky)' />
<polyline points='56.10,233.08 296.92,233.08 ' style='stroke-width: 0.53; stroke: #EBEBEB; stroke-linecap: butt;' clip-path='url(#cpNTYuMTAyM3wyOTYuOTIxfDI1My43NXwyMC43ODky)' />
<polyline points='56.10,183.21 296.92,183.21 ' style='stroke-width: 0.53; stroke: #EBEBEB; stroke-linecap: butt;' clip-path='url(#cpNTYuMTAyM3wyOTYuOTIxfDI1My43NXwyMC43ODky)' />
<polyline points='56.10,133.33 296.92,133.33 ' style='stroke-width: 0.53; stroke: #EBEBEB; stroke-linecap: butt;' clip-path='url(#cpNTYuMTAyM3wyOTYuOTIxfDI1My43NXwyMC43ODky)' />
<polyline points='56.10,83.46 296.92,83.46 ' style='stroke-width: 0.53; stroke: #EBEBEB; stroke-linecap: butt;' clip-path='url(#cpNTYuMTAyM3wyOTYuOTIxfDI1My43NXwyMC43ODky)' />
<polyline points='56.10,33.59 296.92,33.59 ' style='stroke-width: 0.53; stroke: #EBEBEB; stroke-linecap: butt;' clip-path='url(#cpNTYuMTAyM3wyOTYuOTIxfDI1My43NXwyMC43ODky)' />
<polyline points='103.42,253.75 103.42,20.79 ' style='stroke-width: 0.53; stroke: #EBEBEB; stroke-linecap: butt;' clip-path='url(#cpNTYuMTAyM3wyOTYuOTIxfDI1My43NXwyMC43ODky)' />
<polyline points='174.04,253.75 174.04,20.79 ' style='stroke-width: 0.53; stroke: #EBEBEB; stroke-linecap: butt;' clip-path='url(#cpNTYuMTAyM3wyOTYuOTIxfDI1My43NXwyMC43ODky)' />
<polyline points='244.66,253.75 244.66,20.79 ' style='stroke-width: 0.53; stroke: #EBEBEB; stroke-linecap: butt;' clip-path='url(#cpNTYuMTAyM3wyOTYuOTIxfDI1My43NXwyMC43ODky)' />
<polyline points='56.10,208.14 296.92,208.14 ' style='stroke-width: 1.07; stroke: #EBEBEB; stroke-linecap: butt;' clip-path='url(#cpNTYuMTAyM3wyOTYuOTIxfDI1My43NXwyMC43ODky)' />
<polyline points='56.10,158.27 296.92,158.27 ' style='stroke-width: 1.07; stroke: #EBEBEB; stroke-linecap: butt;' clip-path='url(#cpNTYuMTAyM3wyOTYuOTIxfDI1My43NXwyMC43ODky)' />
<polyline points='56.10,108.40 296.92,108.40 ' style='stroke-width: 1.07; stroke: #EBEBEB; stroke-linecap: butt;' clip-path='url(#cpNTYuMTAyM3wyOTYuOTIxfDI1My43NXwyMC43ODky)' />
<polyline points='56.10,58.52 296.92,58.52 ' style='stroke-width: 1.07; stroke: #EBEBEB; stroke-linecap: butt;' clip-path='url(#cpNTYuMTAyM3wyOTYuOTIxfDI1My43NXwyMC43ODky)' />
<polyline points='68.11,253.75 68.11,20.79 ' style='stroke-width: 1.07; stroke: #EBEBEB; stroke-linecap: butt;' clip-path='url(#cpNTYuMTAyM3wyOTYuOTIxfDI1My43NXwyMC43ODky)' />
<polyline points='138.73,253.75 138.73,20.79 ' style='stroke-width: 1.07; stroke: #EBEBEB; stroke-linecap: butt;' clip-path='url(#cpNTYuMTAyM3wyOTYuOTIxfDI1My43NXwyMC43ODky)' />
<polyline points='209.35,253.75 209.35,20.79 ' style='stroke-width: 1.07; stroke: #EBEBEB; stroke-linecap: butt;' clip-path='url(#cpNTYuMTAyM3wyOTYuOTIxfDI1My43NXwyMC43ODky)' />
<polyline points='279.97,253.75 279.97,20.79 ' style='stroke-width: 1.07; stroke: #EBEBEB; stroke-linecap: butt;' clip-path='url(#cpNTYuMTAyM3wyOTYuOTIxfDI1My43NXwyMC43ODky)' />
<circle cx='68.11' cy='213.60' r='3.56pt' style='stroke-width: 0.71; stroke: #000000; stroke-opacity: 0.70; fill: #D1EEEE; fill-opacity: 0.70;' clip-path='url(#cpNTYuMTAyM3wyOTYuOTIxfDI1My43NXwyMC43ODky)' />
<circle cx='103.42' cy='216.95' r='3.56pt' style='stroke-width: 0.71; stroke: #000000; stroke-opacity: 0.70; fill: #D1EEEE; fill-opacity: 0.70;' clip-path='url(#cpNTYuMTAyM3wyOTYuOTIxfDI1My43NXwyMC43ODky)' />
<circle cx='138.73' cy='228.75' r='3.56pt' style='stroke-width: 0.71; stroke: #000000; stroke-opacity: 0.70; fill: #D1EEEE; fill-opacity: 0.70;' clip-path='url(#cpNTYuMTAyM3wyOTYuOTIxfDI1My43NXwyMC43ODky)' />
<circle cx='174.04' cy='243.16' r='3.56pt' style='stroke-width: 0.71; stroke: #000000; stroke-opacity: 0.70; fill: #D1EEEE; fill-opacity: 0.70;' clip-path='url(#cpNTYuMTAyM3wyOTYuOTIxfDI1My43NXwyMC43ODky)' />
<circle cx='244.66' cy='36.12' r='3.56pt' style='stroke-width: 0.71; stroke: #000000; stroke-opacity: 0.70; fill: #D1EEEE; fill-opacity: 0.70;' clip-path='url(#cpNTYuMTAyM3wyOTYuOTIxfDI1My43NXwyMC43ODky)' />
<circle cx='279.97' cy='31.38' r='3.56pt' style='stroke-width: 0.71; stroke: #000000; stroke-opacity: 0.70; fill: #D1EEEE; fill-opacity: 0.70;' clip-path='url(#cpNTYuMTAyM3wyOTYuOTIxfDI1My43NXwyMC43ODky)' />
<polyline points='67.05,235.68 68.15,235.43 69.25,235.17 70.35,234.91 71.45,234.65 72.55,234.39 73.65,234.12 74.75,233.85 75.85,233.58 76.95,233.30 78.05,233.02 79.15,232.74 80.25,232.46 81.35,232.17 82.45,231.88 83.55,231.59 84.65,231.30 85.75,231.00 86.85,230.70 87.95,230.39 89.05,230.08 90.15,229.77 91.25,229.46 92.35,229.14 93.45,228.82 94.55,228.50 95.65,228.18 96.75,227.85 97.85,227.51 98.95,227.18 100.05,226.84 101.15,226.50 102.25,226.15 103.35,225.80 104.45,225.45 105.55,225.09 106.65,224.73 107.75,224.37 108.85,224.00 109.95,223.63 111.05,223.26 112.15,222.88 113.25,222.50 114.35,222.12 115.45,221.73 116.55,221.34 117.65,220.94 118.75,220.54 119.85,220.14 120.95,219.73 122.06,219.32 123.16,218.90 124.26,218.48 125.36,218.06 126.46,217.63 127.56,217.20 128.66,216.76 129.76,216.32 130.86,215.88 131.96,215.43 133.06,214.98 134.16,214.52 135.26,214.06 136.36,213.59 137.46,213.12 138.56,212.65 139.66,212.17 140.76,211.68 141.86,211.20 142.96,210.70 144.06,210.21 145.16,209.70 146.26,209.20 147.36,208.68 148.46,208.17 149.56,207.65 150.66,207.12 151.76,206.59 152.86,206.05 153.96,205.51 155.06,204.97 156.16,204.42 157.26,203.86 158.36,203.30 159.46,202.73 160.56,202.16 161.66,201.58 162.76,201.00 163.86,200.41 164.96,199.82 166.06,199.22 167.16,198.62 168.26,198.01 169.36,197.39 170.46,196.77 171.56,196.14 172.66,195.51 173.76,194.87 174.86,194.23 175.96,193.58 177.06,192.92 178.16,192.26 179.26,191.59 180.36,190.92 181.46,190.24 182.56,189.55 183.66,188.86 184.76,188.16 185.86,187.46 186.96,186.75 188.06,186.03 189.16,185.31 190.26,184.58 191.36,183.84 192.46,183.10 193.56,182.35 194.66,181.59 195.76,180.83 196.86,180.05 197.96,179.28 199.06,178.49 200.16,177.70 201.26,176.90 202.36,176.10 203.46,175.29 204.56,174.47 205.66,173.64 206.76,172.81 207.87,171.97 208.97,171.12 210.07,170.26 211.17,169.40 212.27,168.53 213.37,167.65 214.47,166.76 215.57,165.87 216.67,164.96 217.77,164.05 218.87,163.14 219.97,162.21 221.07,161.28 222.17,160.33 223.27,159.38 224.37,158.42 225.47,157.46 226.57,156.48 227.67,155.50 228.77,154.51 229.87,153.51 230.97,152.50 232.07,151.48 233.17,150.45 234.27,149.42 235.37,148.37 236.47,147.32 237.57,146.26 238.67,145.19 239.77,144.11 240.87,143.02 241.97,141.92 243.07,140.81 244.17,139.69 245.27,138.57 246.37,137.43 247.47,136.28 248.57,135.13 249.67,133.96 250.77,132.79 251.87,131.60 252.97,130.41 254.07,129.20 255.17,127.98 256.27,126.76 257.37,125.52 258.47,124.28 259.57,123.02 260.67,121.75 261.77,120.48 262.87,119.19 263.97,117.89 265.07,116.58 266.17,115.26 267.27,113.93 268.37,112.58 269.47,111.23 270.57,109.87 271.67,108.49 272.77,107.10 273.87,105.70 274.97,104.29 276.07,102.87 277.17,101.44 278.27,99.99 279.37,98.53 280.47,97.06 281.57,95.58 282.67,94.09 283.77,92.58 284.87,91.07 285.97,89.54 ' style='stroke-width: 2.77; stroke: #1B9E77; stroke-linecap: butt;' clip-path='url(#cpNTYuMTAyM3wyOTYuOTIxfDI1My43NXwyMC43ODky)' />
<g clip-path='url(#cpNTYuMTAyM3wyOTYuOTIxfDI1My43NXwyMC43ODky)'><text x='68.11' y='152.59' style='font-size: 8.54px; font-style: italic; font-family: Arial;' textLength='60.01px' lengthAdjust='spacingAndGlyphs'>R^2 sch= 0.63 </text></g>
<g clip-path='url(#cpNTYuMTAyM3wyOTYuOTIxfDI1My43NXwyMC43ODky)'><text x='68.11' y='164.88' style='font-size: 8.54px; font-style: italic; font-family: Arial;' textLength='55.29px' lengthAdjust='spacingAndGlyphs'>E sch= 0.466 </text></g>
<g clip-path='url(#cpNTYuMTAyM3wyOTYuOTIxfDI1My43NXwyMC43ODky)'><text x='68.11' y='177.17' style='font-size: 8.54px; font-style: italic; font-family: Arial;' textLength='56.78px' lengthAdjust='spacingAndGlyphs'>AIC sch= 23.5</text></g>
<rect x='56.10' y='20.79' width='240.82' height='232.96' style='stroke-width: 1.07; stroke: #333333;' clip-path='url(#cpNTYuMTAyM3wyOTYuOTIxfDI1My43NXwyMC43ODky)' />
<defs>
  <clipPath id='cpMHwzMDIuNHwyODh8MA=='>
    <rect x='0.00' y='0.00' width='302.40' height='288.00' />
  </clipPath>
</defs>
<g clip-path='url(#cpMHwzMDIuNHwyODh8MA==)'><text x='20.65' y='211.36' style='font-size: 8.80px; fill: #4D4D4D; font-family: Arial;' textLength='30.52px' lengthAdjust='spacingAndGlyphs'>5.0e-06</text></g>
<g clip-path='url(#cpMHwzMDIuNHwyODh8MA==)'><text x='20.65' y='161.49' style='font-size: 8.80px; fill: #4D4D4D; font-family: Arial;' textLength='30.52px' lengthAdjust='spacingAndGlyphs'>1.0e-05</text></g>
<g clip-path='url(#cpMHwzMDIuNHwyODh8MA==)'><text x='20.65' y='111.62' style='font-size: 8.80px; fill: #4D4D4D; font-family: Arial;' textLength='30.52px' lengthAdjust='spacingAndGlyphs'>1.5e-05</text></g>
<g clip-path='url(#cpMHwzMDIuNHwyODh8MA==)'><text x='20.65' y='61.74' style='font-size: 8.80px; fill: #4D4D4D; font-family: Arial;' textLength='30.52px' lengthAdjust='spacingAndGlyphs'>2.0e-05</text></g>
<polyline points='53.36,208.14 56.10,208.14 ' style='stroke-width: 1.07; stroke: #333333; stroke-linecap: butt;' clip-path='url(#cpMHwzMDIuNHwyODh8MA==)' />
<polyline points='53.36,158.27 56.10,158.27 ' style='stroke-width: 1.07; stroke: #333333; stroke-linecap: butt;' clip-path='url(#cpMHwzMDIuNHwyODh8MA==)' />
<polyline points='53.36,108.40 56.10,108.40 ' style='stroke-width: 1.07; stroke: #333333; stroke-linecap: butt;' clip-path='url(#cpMHwzMDIuNHwyODh8MA==)' />
<polyline points='53.36,58.52 56.10,58.52 ' style='stroke-width: 1.07; stroke: #333333; stroke-linecap: butt;' clip-path='url(#cpMHwzMDIuNHwyODh8MA==)' />
<polyline points='68.11,256.49 68.11,253.75 ' style='stroke-width: 1.07; stroke: #333333; stroke-linecap: butt;' clip-path='url(#cpMHwzMDIuNHwyODh8MA==)' />
<polyline points='138.73,256.49 138.73,253.75 ' style='stroke-width: 1.07; stroke: #333333; stroke-linecap: butt;' clip-path='url(#cpMHwzMDIuNHwyODh8MA==)' />
<polyline points='209.35,256.49 209.35,253.75 ' style='stroke-width: 1.07; stroke: #333333; stroke-linecap: butt;' clip-path='url(#cpMHwzMDIuNHwyODh8MA==)' />
<polyline points='279.97,256.49 279.97,253.75 ' style='stroke-width: 1.07; stroke: #333333; stroke-linecap: butt;' clip-path='url(#cpMHwzMDIuNHwyODh8MA==)' />
<g clip-path='url(#cpMHwzMDIuNHwyODh8MA==)'><text x='65.61' y='265.12' style='font-size: 8.80px; fill: #4D4D4D; font-family: Arial;' textLength='5.01px' lengthAdjust='spacingAndGlyphs'>0</text></g>
<g clip-path='url(#cpMHwzMDIuNHwyODh8MA==)'><text x='133.72' y='265.12' style='font-size: 8.80px; fill: #4D4D4D; font-family: Arial;' textLength='10.01px' lengthAdjust='spacingAndGlyphs'>10</text></g>
<g clip-path='url(#cpMHwzMDIuNHwyODh8MA==)'><text x='204.34' y='265.12' style='font-size: 8.80px; fill: #4D4D4D; font-family: Arial;' textLength='10.01px' lengthAdjust='spacingAndGlyphs'>20</text></g>
<g clip-path='url(#cpMHwzMDIuNHwyODh8MA==)'><text x='274.97' y='265.12' style='font-size: 8.80px; fill: #4D4D4D; font-family: Arial;' textLength='10.01px' lengthAdjust='spacingAndGlyphs'>30</text></g>
<g clip-path='url(#cpMHwzMDIuNHwyODh8MA==)'><text x='137.56' y='277.88' style='font-size: 10.00px; font-family: Arial;' textLength='63.35px' lengthAdjust='spacingAndGlyphs'>Temperature (</text></g>
<g clip-path='url(#cpMHwzMDIuNHwyODh8MA==)'><text x='200.91' y='277.88' style='font-size: 10.00px; font-family: Symbol;' textLength='4.00px' lengthAdjust='spacingAndGlyphs'>°</text></g>
<g clip-path='url(#cpMHwzMDIuNHwyODh8MA==)'><text x='204.91' y='277.88' style='font-size: 10.00px; font-family: Arial;' textLength='7.22px' lengthAdjust='spacingAndGlyphs'>C</text></g>
<g clip-path='url(#cpMHwzMDIuNHwyODh8MA==)'><text x='212.13' y='277.88' style='font-size: 10.00px; font-family: Arial;' textLength='3.33px' lengthAdjust='spacingAndGlyphs'>)</text></g>
<g clip-path='url(#cpMHwzMDIuNHwyODh8MA==)'><text transform='translate(12.64,238.16) rotate(-90)' style='font-size: 10.00px; font-family: Arial;' textLength='201.77px' lengthAdjust='spacingAndGlyphs'>POC Photosynthetic Oxygen Production Rate</text></g>
<g clip-path='url(#cpMHwzMDIuNHwyODh8MA==)'><text x='56.10' y='14.07' style='font-size: 12.00px; font-family: Arial;' textLength='124.69px' lengthAdjust='spacingAndGlyphs'>Prorocentrum minimum</text></g>
</svg>
