<?xml version='1.0' encoding='UTF-8' ?>
<svg xmlns='http://www.w3.org/2000/svg' xmlns:xlink='http://www.w3.org/1999/xlink' viewBox='0 0 302.40 288.00'>
<defs>
  <style type='text/css'><![CDATA[
    line, polyline, path, rect, circle {
      fill: none;
      stroke: #000000;
      stroke-linecap: round;
      stroke-linejoin: round;
      stroke-miterlimit: 10.00;
    }
  ]]></style>
</defs>
<rect width='100%' height='100%' style='stroke: none; fill: #FFFFFF;'/>
<rect x='0.00' y='0.00' width='302.40' height='288.00' style='stroke-width: 1.07; stroke: #FFFFFF; fill: #FFFFFF;' />
<defs>
  <clipPath id='cpNDguNDU1OHwyOTYuOTIxfDI1My43NXwyMy4xNzk4'>
    <rect x='48.46' y='23.18' width='248.46' height='230.57' />
  </clipPath>
</defs>
<rect x='48.46' y='23.18' width='248.46' height='230.57' style='stroke-width: 1.07; stroke: none; fill: #FFFFFF;' clip-path='url(#cpNDguNDU1OHwyOTYuOTIxfDI1My43NXwyMy4xNzk4)' />
<polyline points='48.46,237.15 296.92,237.15 ' style='stroke-width: 0.53; stroke: #EBEBEB; stroke-linecap: butt;' clip-path='url(#cpNDguNDU1OHwyOTYuOTIxfDI1My43NXwyMy4xNzk4)' />
<polyline points='48.46,165.44 296.92,165.44 ' style='stroke-width: 0.53; stroke: #EBEBEB; stroke-linecap: butt;' clip-path='url(#cpNDguNDU1OHwyOTYuOTIxfDI1My43NXwyMy4xNzk4)' />
<polyline points='48.46,93.72 296.92,93.72 ' style='stroke-width: 0.53; stroke: #EBEBEB; stroke-linecap: butt;' clip-path='url(#cpNDguNDU1OHwyOTYuOTIxfDI1My43NXwyMy4xNzk4)' />
<polyline points='88.25,253.75 88.25,23.18 ' style='stroke-width: 0.53; stroke: #EBEBEB; stroke-linecap: butt;' clip-path='url(#cpNDguNDU1OHwyOTYuOTIxfDI1My43NXwyMy4xNzk4)' />
<polyline points='142.03,253.75 142.03,23.18 ' style='stroke-width: 0.53; stroke: #EBEBEB; stroke-linecap: butt;' clip-path='url(#cpNDguNDU1OHwyOTYuOTIxfDI1My43NXwyMy4xNzk4)' />
<polyline points='195.81,253.75 195.81,23.18 ' style='stroke-width: 0.53; stroke: #EBEBEB; stroke-linecap: butt;' clip-path='url(#cpNDguNDU1OHwyOTYuOTIxfDI1My43NXwyMy4xNzk4)' />
<polyline points='249.59,253.75 249.59,23.18 ' style='stroke-width: 0.53; stroke: #EBEBEB; stroke-linecap: butt;' clip-path='url(#cpNDguNDU1OHwyOTYuOTIxfDI1My43NXwyMy4xNzk4)' />
<polyline points='48.46,201.29 296.92,201.29 ' style='stroke-width: 1.07; stroke: #EBEBEB; stroke-linecap: butt;' clip-path='url(#cpNDguNDU1OHwyOTYuOTIxfDI1My43NXwyMy4xNzk4)' />
<polyline points='48.46,129.58 296.92,129.58 ' style='stroke-width: 1.07; stroke: #EBEBEB; stroke-linecap: butt;' clip-path='url(#cpNDguNDU1OHwyOTYuOTIxfDI1My43NXwyMy4xNzk4)' />
<polyline points='48.46,57.86 296.92,57.86 ' style='stroke-width: 1.07; stroke: #EBEBEB; stroke-linecap: butt;' clip-path='url(#cpNDguNDU1OHwyOTYuOTIxfDI1My43NXwyMy4xNzk4)' />
<polyline points='61.36,253.75 61.36,23.18 ' style='stroke-width: 1.07; stroke: #EBEBEB; stroke-linecap: butt;' clip-path='url(#cpNDguNDU1OHwyOTYuOTIxfDI1My43NXwyMy4xNzk4)' />
<polyline points='115.14,253.75 115.14,23.18 ' style='stroke-width: 1.07; stroke: #EBEBEB; stroke-linecap: butt;' clip-path='url(#cpNDguNDU1OHwyOTYuOTIxfDI1My43NXwyMy4xNzk4)' />
<polyline points='168.92,253.75 168.92,23.18 ' style='stroke-width: 1.07; stroke: #EBEBEB; stroke-linecap: butt;' clip-path='url(#cpNDguNDU1OHwyOTYuOTIxfDI1My43NXwyMy4xNzk4)' />
<polyline points='222.70,253.75 222.70,23.18 ' style='stroke-width: 1.07; stroke: #EBEBEB; stroke-linecap: butt;' clip-path='url(#cpNDguNDU1OHwyOTYuOTIxfDI1My43NXwyMy4xNzk4)' />
<polyline points='276.48,253.75 276.48,23.18 ' style='stroke-width: 1.07; stroke: #EBEBEB; stroke-linecap: butt;' clip-path='url(#cpNDguNDU1OHwyOTYuOTIxfDI1My43NXwyMy4xNzk4)' />
<circle cx='61.36' cy='239.09' r='3.56pt' style='stroke-width: 0.71; stroke: #000000; stroke-opacity: 0.70; fill: #D1EEEE; fill-opacity: 0.70;' clip-path='url(#cpNDguNDU1OHwyOTYuOTIxfDI1My43NXwyMy4xNzk4)' />
<circle cx='115.14' cy='160.71' r='3.56pt' style='stroke-width: 0.71; stroke: #000000; stroke-opacity: 0.70; fill: #D1EEEE; fill-opacity: 0.70;' clip-path='url(#cpNDguNDU1OHwyOTYuOTIxfDI1My43NXwyMy4xNzk4)' />
<circle cx='168.92' cy='51.77' r='3.56pt' style='stroke-width: 0.71; stroke: #000000; stroke-opacity: 0.70; fill: #D1EEEE; fill-opacity: 0.70;' clip-path='url(#cpNDguNDU1OHwyOTYuOTIxfDI1My43NXwyMy4xNzk4)' />
<circle cx='222.70' cy='42.95' r='3.56pt' style='stroke-width: 0.71; stroke: #000000; stroke-opacity: 0.70; fill: #D1EEEE; fill-opacity: 0.70;' clip-path='url(#cpNDguNDU1OHwyOTYuOTIxfDI1My43NXwyMy4xNzk4)' />
<circle cx='276.48' cy='97.22' r='3.56pt' style='stroke-width: 0.71; stroke: #000000; stroke-opacity: 0.70; fill: #D1EEEE; fill-opacity: 0.70;' clip-path='url(#cpNDguNDU1OHwyOTYuOTIxfDI1My43NXwyMy4xNzk4)' />
<polyline points='59.75,243.27 60.88,241.64 62.02,240.00 63.15,238.34 64.29,236.68 65.42,235.00 66.56,233.32 67.70,231.62 68.83,229.91 69.97,228.20 71.10,226.47 72.24,224.73 73.37,222.98 74.51,221.22 75.64,219.45 76.78,217.67 77.91,215.88 79.05,214.08 80.18,212.27 81.32,210.45 82.45,208.62 83.59,206.78 84.72,204.93 85.86,203.07 86.99,201.21 88.13,199.33 89.26,197.45 90.40,195.56 91.53,193.66 92.67,191.75 93.80,189.83 94.94,187.91 96.07,185.98 97.21,184.04 98.34,182.10 99.48,180.14 100.61,178.19 101.75,176.22 102.88,174.25 104.02,172.28 105.15,170.30 106.29,168.31 107.42,166.32 108.56,164.32 109.69,162.32 110.83,160.32 111.96,158.32 113.10,156.31 114.23,154.30 115.37,152.28 116.50,150.27 117.64,148.25 118.77,146.23 119.91,144.21 121.04,142.19 122.18,140.17 123.31,138.16 124.45,136.14 125.58,134.13 126.72,132.11 127.85,130.10 128.99,128.10 130.12,126.09 131.26,124.10 132.39,122.10 133.53,120.11 134.66,118.13 135.80,116.16 136.93,114.19 138.07,112.23 139.20,110.27 140.34,108.33 141.47,106.40 142.61,104.47 143.74,102.56 144.88,100.66 146.01,98.77 147.15,96.89 148.28,95.03 149.42,93.18 150.55,91.34 151.69,89.52 152.82,87.72 153.96,85.94 155.09,84.17 156.23,82.42 157.36,80.69 158.50,78.98 159.64,77.29 160.77,75.62 161.91,73.97 163.04,72.35 164.18,70.75 165.31,69.17 166.45,67.62 167.58,66.09 168.72,64.59 169.85,63.12 170.99,61.68 172.12,60.26 173.26,58.87 174.39,57.52 175.53,56.19 176.66,54.90 177.80,53.64 178.93,52.41 180.07,51.21 181.20,50.05 182.34,48.92 183.47,47.83 184.61,46.78 185.74,45.76 186.88,44.78 188.01,43.83 189.15,42.93 190.28,42.07 191.42,41.24 192.55,40.45 193.69,39.71 194.82,39.01 195.96,38.34 197.09,37.72 198.23,37.15 199.36,36.61 200.50,36.12 201.63,35.67 202.77,35.27 203.90,34.91 205.04,34.60 206.17,34.33 207.31,34.10 208.44,33.92 209.58,33.79 210.71,33.70 211.85,33.66 212.98,33.66 214.12,33.71 215.25,33.81 216.39,33.95 217.52,34.14 218.66,34.38 219.79,34.66 220.93,34.98 222.06,35.35 223.20,35.77 224.33,36.24 225.47,36.74 226.60,37.30 227.74,37.90 228.87,38.54 230.01,39.23 231.14,39.96 232.28,40.73 233.41,41.55 234.55,42.41 235.68,43.32 236.82,44.26 237.95,45.25 239.09,46.28 240.22,47.34 241.36,48.45 242.49,49.60 243.63,50.79 244.76,52.01 245.90,53.27 247.03,54.57 248.17,55.90 249.30,57.27 250.44,58.68 251.57,60.12 252.71,61.59 253.85,63.10 254.98,64.63 256.12,66.20 257.25,67.80 258.39,69.43 259.52,71.09 260.66,72.78 261.79,74.49 262.93,76.23 264.06,77.99 265.20,79.79 266.33,81.60 267.47,83.44 268.60,85.30 269.74,87.18 270.87,89.09 272.01,91.01 273.14,92.95 274.28,94.92 275.41,96.89 276.55,98.89 277.68,100.90 278.82,102.93 279.95,104.97 281.09,107.03 282.22,109.10 283.36,111.18 284.49,113.27 285.63,115.38 ' style='stroke-width: 2.77; stroke: #1B9E77; stroke-linecap: butt;' clip-path='url(#cpNDguNDU1OHwyOTYuOTIxfDI1My43NXwyMy4xNzk4)' />
<g clip-path='url(#cpNDguNDU1OHwyOTYuOTIxfDI1My43NXwyMy4xNzk4)'><text x='61.36' y='109.28' style='font-size: 8.54px; font-style: italic; font-family: Arial;' textLength='60.01px' lengthAdjust='spacingAndGlyphs'>R^2 sch= 0.99 </text></g>
<g clip-path='url(#cpNDguNDU1OHwyOTYuOTIxfDI1My43NXwyMy4xNzk4)'><text x='61.36' y='121.57' style='font-size: 8.54px; font-style: italic; font-family: Arial;' textLength='55.29px' lengthAdjust='spacingAndGlyphs'>E sch= 0.661 </text></g>
<g clip-path='url(#cpNDguNDU1OHwyOTYuOTIxfDI1My43NXwyMy4xNzk4)'><text x='61.36' y='133.86' style='font-size: 8.54px; font-style: italic; font-family: Arial;' textLength='59.78px' lengthAdjust='spacingAndGlyphs'>AIC sch= -13.4</text></g>
<rect x='48.46' y='23.18' width='248.46' height='230.57' style='stroke-width: 1.07; stroke: #333333;' clip-path='url(#cpNDguNDU1OHwyOTYuOTIxfDI1My43NXwyMy4xNzk4)' />
<defs>
  <clipPath id='cpMHwzMDIuNHwyODh8MA=='>
    <rect x='0.00' y='0.00' width='302.40' height='288.00' />
  </clipPath>
</defs>
<g clip-path='url(#cpMHwzMDIuNHwyODh8MA==)'><text x='20.51' y='204.51' style='font-size: 8.80px; fill: #4D4D4D; font-family: Arial;' textLength='23.02px' lengthAdjust='spacingAndGlyphs'>3e-06</text></g>
<g clip-path='url(#cpMHwzMDIuNHwyODh8MA==)'><text x='20.51' y='132.80' style='font-size: 8.80px; fill: #4D4D4D; font-family: Arial;' textLength='23.02px' lengthAdjust='spacingAndGlyphs'>4e-06</text></g>
<g clip-path='url(#cpMHwzMDIuNHwyODh8MA==)'><text x='20.51' y='61.08' style='font-size: 8.80px; fill: #4D4D4D; font-family: Arial;' textLength='23.02px' lengthAdjust='spacingAndGlyphs'>5e-06</text></g>
<polyline points='45.72,201.29 48.46,201.29 ' style='stroke-width: 1.07; stroke: #333333; stroke-linecap: butt;' clip-path='url(#cpMHwzMDIuNHwyODh8MA==)' />
<polyline points='45.72,129.58 48.46,129.58 ' style='stroke-width: 1.07; stroke: #333333; stroke-linecap: butt;' clip-path='url(#cpMHwzMDIuNHwyODh8MA==)' />
<polyline points='45.72,57.86 48.46,57.86 ' style='stroke-width: 1.07; stroke: #333333; stroke-linecap: butt;' clip-path='url(#cpMHwzMDIuNHwyODh8MA==)' />
<polyline points='61.36,256.49 61.36,253.75 ' style='stroke-width: 1.07; stroke: #333333; stroke-linecap: butt;' clip-path='url(#cpMHwzMDIuNHwyODh8MA==)' />
<polyline points='115.14,256.49 115.14,253.75 ' style='stroke-width: 1.07; stroke: #333333; stroke-linecap: butt;' clip-path='url(#cpMHwzMDIuNHwyODh8MA==)' />
<polyline points='168.92,256.49 168.92,253.75 ' style='stroke-width: 1.07; stroke: #333333; stroke-linecap: butt;' clip-path='url(#cpMHwzMDIuNHwyODh8MA==)' />
<polyline points='222.70,256.49 222.70,253.75 ' style='stroke-width: 1.07; stroke: #333333; stroke-linecap: butt;' clip-path='url(#cpMHwzMDIuNHwyODh8MA==)' />
<polyline points='276.48,256.49 276.48,253.75 ' style='stroke-width: 1.07; stroke: #333333; stroke-linecap: butt;' clip-path='url(#cpMHwzMDIuNHwyODh8MA==)' />
<g clip-path='url(#cpMHwzMDIuNHwyODh8MA==)'><text x='56.36' y='265.12' style='font-size: 8.80px; fill: #4D4D4D; font-family: Arial;' textLength='10.01px' lengthAdjust='spacingAndGlyphs'>10</text></g>
<g clip-path='url(#cpMHwzMDIuNHwyODh8MA==)'><text x='110.14' y='265.12' style='font-size: 8.80px; fill: #4D4D4D; font-family: Arial;' textLength='10.01px' lengthAdjust='spacingAndGlyphs'>15</text></g>
<g clip-path='url(#cpMHwzMDIuNHwyODh8MA==)'><text x='163.92' y='265.12' style='font-size: 8.80px; fill: #4D4D4D; font-family: Arial;' textLength='10.01px' lengthAdjust='spacingAndGlyphs'>20</text></g>
<g clip-path='url(#cpMHwzMDIuNHwyODh8MA==)'><text x='217.70' y='265.12' style='font-size: 8.80px; fill: #4D4D4D; font-family: Arial;' textLength='10.01px' lengthAdjust='spacingAndGlyphs'>25</text></g>
<g clip-path='url(#cpMHwzMDIuNHwyODh8MA==)'><text x='271.48' y='265.12' style='font-size: 8.80px; fill: #4D4D4D; font-family: Arial;' textLength='10.01px' lengthAdjust='spacingAndGlyphs'>30</text></g>
<g clip-path='url(#cpMHwzMDIuNHwyODh8MA==)'><text x='133.74' y='277.88' style='font-size: 10.00px; font-family: Arial;' textLength='63.35px' lengthAdjust='spacingAndGlyphs'>Temperature (</text></g>
<g clip-path='url(#cpMHwzMDIuNHwyODh8MA==)'><text x='197.09' y='277.88' style='font-size: 10.00px; font-family: Symbol;' textLength='4.00px' lengthAdjust='spacingAndGlyphs'>°</text></g>
<g clip-path='url(#cpMHwzMDIuNHwyODh8MA==)'><text x='201.09' y='277.88' style='font-size: 10.00px; font-family: Arial;' textLength='7.22px' lengthAdjust='spacingAndGlyphs'>C</text></g>
<g clip-path='url(#cpMHwzMDIuNHwyODh8MA==)'><text x='208.31' y='277.88' style='font-size: 10.00px; font-family: Arial;' textLength='3.33px' lengthAdjust='spacingAndGlyphs'>)</text></g>
<g clip-path='url(#cpMHwzMDIuNHwyODh8MA==)'><text transform='translate(12.64,208.21) rotate(-90)' style='font-size: 10.00px; font-family: Arial;' textLength='139.50px' lengthAdjust='spacingAndGlyphs'>Mass-Specific Respiration Rate</text></g>
<g clip-path='url(#cpMHwzMDIuNHwyODh8MA==)'><text x='48.46' y='14.07' style='font-size: 12.00px; font-family: Arial;' textLength='128.06px' lengthAdjust='spacingAndGlyphs'>Lithophyllum margaritae</text></g>
</svg>
