<?xml version='1.0' encoding='UTF-8' ?>
<svg xmlns='http://www.w3.org/2000/svg' xmlns:xlink='http://www.w3.org/1999/xlink' viewBox='0 0 302.40 288.00'>
<defs>
  <style type='text/css'><![CDATA[
    line, polyline, path, rect, circle {
      fill: none;
      stroke: #000000;
      stroke-linecap: round;
      stroke-linejoin: round;
      stroke-miterlimit: 10.00;
    }
  ]]></style>
</defs>
<rect width='100%' height='100%' style='stroke: none; fill: #FFFFFF;'/>
<rect x='0.00' y='0.00' width='302.40' height='288.00' style='stroke-width: 1.07; stroke: #FFFFFF; fill: #FFFFFF;' />
<defs>
  <clipPath id='cpNTMuMTA1M3wyOTYuOTIxfDI1My43NXwyMC43ODky'>
    <rect x='53.11' y='20.79' width='243.82' height='232.96' />
  </clipPath>
</defs>
<rect x='53.11' y='20.79' width='243.82' height='232.96' style='stroke-width: 1.07; stroke: none; fill: #FFFFFF;' clip-path='url(#cpNTMuMTA1M3wyOTYuOTIxfDI1My43NXwyMC43ODky)' />
<polyline points='53.11,230.40 296.92,230.40 ' style='stroke-width: 0.53; stroke: #EBEBEB; stroke-linecap: butt;' clip-path='url(#cpNTMuMTA1M3wyOTYuOTIxfDI1My43NXwyMC43ODky)' />
<polyline points='53.11,191.81 296.92,191.81 ' style='stroke-width: 0.53; stroke: #EBEBEB; stroke-linecap: butt;' clip-path='url(#cpNTMuMTA1M3wyOTYuOTIxfDI1My43NXwyMC43ODky)' />
<polyline points='53.11,153.23 296.92,153.23 ' style='stroke-width: 0.53; stroke: #EBEBEB; stroke-linecap: butt;' clip-path='url(#cpNTMuMTA1M3wyOTYuOTIxfDI1My43NXwyMC43ODky)' />
<polyline points='53.11,114.64 296.92,114.64 ' style='stroke-width: 0.53; stroke: #EBEBEB; stroke-linecap: butt;' clip-path='url(#cpNTMuMTA1M3wyOTYuOTIxfDI1My43NXwyMC43ODky)' />
<polyline points='53.11,76.06 296.92,76.06 ' style='stroke-width: 0.53; stroke: #EBEBEB; stroke-linecap: butt;' clip-path='url(#cpNTMuMTA1M3wyOTYuOTIxfDI1My43NXwyMC43ODky)' />
<polyline points='53.11,37.47 296.92,37.47 ' style='stroke-width: 0.53; stroke: #EBEBEB; stroke-linecap: butt;' clip-path='url(#cpNTMuMTA1M3wyOTYuOTIxfDI1My43NXwyMC43ODky)' />
<polyline points='70.19,253.75 70.19,20.79 ' style='stroke-width: 0.53; stroke: #EBEBEB; stroke-linecap: butt;' clip-path='url(#cpNTMuMTA1M3wyOTYuOTIxfDI1My43NXwyMC43ODky)' />
<polyline points='116.37,253.75 116.37,20.79 ' style='stroke-width: 0.53; stroke: #EBEBEB; stroke-linecap: butt;' clip-path='url(#cpNTMuMTA1M3wyOTYuOTIxfDI1My43NXwyMC43ODky)' />
<polyline points='162.55,253.75 162.55,20.79 ' style='stroke-width: 0.53; stroke: #EBEBEB; stroke-linecap: butt;' clip-path='url(#cpNTMuMTA1M3wyOTYuOTIxfDI1My43NXwyMC43ODky)' />
<polyline points='208.72,253.75 208.72,20.79 ' style='stroke-width: 0.53; stroke: #EBEBEB; stroke-linecap: butt;' clip-path='url(#cpNTMuMTA1M3wyOTYuOTIxfDI1My43NXwyMC43ODky)' />
<polyline points='254.90,253.75 254.90,20.79 ' style='stroke-width: 0.53; stroke: #EBEBEB; stroke-linecap: butt;' clip-path='url(#cpNTMuMTA1M3wyOTYuOTIxfDI1My43NXwyMC43ODky)' />
<polyline points='53.11,249.69 296.92,249.69 ' style='stroke-width: 1.07; stroke: #EBEBEB; stroke-linecap: butt;' clip-path='url(#cpNTMuMTA1M3wyOTYuOTIxfDI1My43NXwyMC43ODky)' />
<polyline points='53.11,211.11 296.92,211.11 ' style='stroke-width: 1.07; stroke: #EBEBEB; stroke-linecap: butt;' clip-path='url(#cpNTMuMTA1M3wyOTYuOTIxfDI1My43NXwyMC43ODky)' />
<polyline points='53.11,172.52 296.92,172.52 ' style='stroke-width: 1.07; stroke: #EBEBEB; stroke-linecap: butt;' clip-path='url(#cpNTMuMTA1M3wyOTYuOTIxfDI1My43NXwyMC43ODky)' />
<polyline points='53.11,133.94 296.92,133.94 ' style='stroke-width: 1.07; stroke: #EBEBEB; stroke-linecap: butt;' clip-path='url(#cpNTMuMTA1M3wyOTYuOTIxfDI1My43NXwyMC43ODky)' />
<polyline points='53.11,95.35 296.92,95.35 ' style='stroke-width: 1.07; stroke: #EBEBEB; stroke-linecap: butt;' clip-path='url(#cpNTMuMTA1M3wyOTYuOTIxfDI1My43NXwyMC43ODky)' />
<polyline points='53.11,56.76 296.92,56.76 ' style='stroke-width: 1.07; stroke: #EBEBEB; stroke-linecap: butt;' clip-path='url(#cpNTMuMTA1M3wyOTYuOTIxfDI1My43NXwyMC43ODky)' />
<polyline points='93.28,253.75 93.28,20.79 ' style='stroke-width: 1.07; stroke: #EBEBEB; stroke-linecap: butt;' clip-path='url(#cpNTMuMTA1M3wyOTYuOTIxfDI1My43NXwyMC43ODky)' />
<polyline points='139.46,253.75 139.46,20.79 ' style='stroke-width: 1.07; stroke: #EBEBEB; stroke-linecap: butt;' clip-path='url(#cpNTMuMTA1M3wyOTYuOTIxfDI1My43NXwyMC43ODky)' />
<polyline points='185.63,253.75 185.63,20.79 ' style='stroke-width: 1.07; stroke: #EBEBEB; stroke-linecap: butt;' clip-path='url(#cpNTMuMTA1M3wyOTYuOTIxfDI1My43NXwyMC43ODky)' />
<polyline points='231.81,253.75 231.81,20.79 ' style='stroke-width: 1.07; stroke: #EBEBEB; stroke-linecap: butt;' clip-path='url(#cpNTMuMTA1M3wyOTYuOTIxfDI1My43NXwyMC43ODky)' />
<polyline points='277.99,253.75 277.99,20.79 ' style='stroke-width: 1.07; stroke: #EBEBEB; stroke-linecap: butt;' clip-path='url(#cpNTMuMTA1M3wyOTYuOTIxfDI1My43NXwyMC43ODky)' />
<circle cx='73.13' cy='214.10' r='3.56pt' style='stroke-width: 0.71; stroke: #000000; stroke-opacity: 0.70; fill: #D1EEEE; fill-opacity: 0.70;' clip-path='url(#cpNTMuMTA1M3wyOTYuOTIxfDI1My43NXwyMC43ODky)' />
<circle cx='111.84' cy='184.02' r='3.56pt' style='stroke-width: 0.71; stroke: #000000; stroke-opacity: 0.70; fill: #D1EEEE; fill-opacity: 0.70;' clip-path='url(#cpNTMuMTA1M3wyOTYuOTIxfDI1My43NXwyMC43ODky)' />
<circle cx='130.16' cy='153.58' r='3.56pt' style='stroke-width: 0.71; stroke: #000000; stroke-opacity: 0.70; fill: #D1EEEE; fill-opacity: 0.70;' clip-path='url(#cpNTMuMTA1M3wyOTYuOTIxfDI1My43NXwyMC43ODky)' />
<circle cx='176.66' cy='31.38' r='3.56pt' style='stroke-width: 0.71; stroke: #000000; stroke-opacity: 0.70; fill: #D1EEEE; fill-opacity: 0.70;' clip-path='url(#cpNTMuMTA1M3wyOTYuOTIxfDI1My43NXwyMC43ODky)' />
<circle cx='213.45' cy='103.77' r='3.56pt' style='stroke-width: 0.71; stroke: #000000; stroke-opacity: 0.70; fill: #D1EEEE; fill-opacity: 0.70;' clip-path='url(#cpNTMuMTA1M3wyOTYuOTIxfDI1My43NXwyMC43ODky)' />
<circle cx='241.76' cy='141.42' r='3.56pt' style='stroke-width: 0.71; stroke: #000000; stroke-opacity: 0.70; fill: #D1EEEE; fill-opacity: 0.70;' clip-path='url(#cpNTMuMTA1M3wyOTYuOTIxfDI1My43NXwyMC43ODky)' />
<circle cx='278.68' cy='170.25' r='3.56pt' style='stroke-width: 0.71; stroke: #000000; stroke-opacity: 0.70; fill: #D1EEEE; fill-opacity: 0.70;' clip-path='url(#cpNTMuMTA1M3wyOTYuOTIxfDI1My43NXwyMC43ODky)' />
<polyline points='64.19,243.16 65.30,241.19 66.42,239.21 67.53,237.24 68.64,235.26 69.76,233.29 70.87,231.32 71.98,229.35 73.10,227.38 74.21,225.41 75.33,223.45 76.44,221.48 77.55,219.52 78.67,217.56 79.78,215.61 80.90,213.66 82.01,211.71 83.12,209.76 84.24,207.82 85.35,205.88 86.46,203.95 87.58,202.02 88.69,200.10 89.81,198.18 90.92,196.26 92.03,194.35 93.15,192.45 94.26,190.56 95.37,188.67 96.49,186.78 97.60,184.91 98.72,183.04 99.83,181.17 100.94,179.32 102.06,177.48 103.17,175.64 104.29,173.81 105.40,171.99 106.51,170.18 107.63,168.38 108.74,166.59 109.85,164.81 110.97,163.04 112.08,161.28 113.20,159.53 114.31,157.80 115.42,156.07 116.54,154.36 117.65,152.66 118.76,150.98 119.88,149.31 120.99,147.65 122.11,146.00 123.22,144.37 124.33,142.75 125.45,141.15 126.56,139.57 127.68,138.00 128.79,136.45 129.90,134.91 131.02,133.39 132.13,131.88 133.24,130.40 134.36,128.93 135.47,127.48 136.59,126.05 137.70,124.64 138.81,123.25 139.93,121.88 141.04,120.52 142.16,119.19 143.27,117.88 144.38,116.59 145.50,115.32 146.61,114.08 147.72,112.85 148.84,111.65 149.95,110.47 151.07,109.32 152.18,108.19 153.29,107.08 154.41,106.00 155.52,104.94 156.63,103.91 157.75,102.90 158.86,101.92 159.98,100.97 161.09,100.04 162.20,99.14 163.32,98.26 164.43,97.42 165.55,96.60 166.66,95.81 167.77,95.05 168.89,94.31 170.00,93.61 171.11,92.93 172.23,92.29 173.34,91.67 174.46,91.09 175.57,90.53 176.68,90.01 177.80,89.52 178.91,89.06 180.03,88.63 181.14,88.23 182.25,87.87 183.37,87.53 184.48,87.23 185.59,86.96 186.71,86.73 187.82,86.53 188.94,86.36 190.05,86.22 191.16,86.12 192.28,86.05 193.39,86.02 194.50,86.02 195.62,86.05 196.73,86.12 197.85,86.23 198.96,86.36 200.07,86.54 201.19,86.74 202.30,86.99 203.42,87.26 204.53,87.58 205.64,87.92 206.76,88.30 207.87,88.72 208.98,89.17 210.10,89.66 211.21,90.18 212.33,90.74 213.44,91.33 214.55,91.96 215.67,92.62 216.78,93.32 217.89,94.05 219.01,94.82 220.12,95.62 221.24,96.46 222.35,97.33 223.46,98.23 224.58,99.17 225.69,100.14 226.81,101.15 227.92,102.19 229.03,103.26 230.15,104.37 231.26,105.51 232.37,106.68 233.49,107.89 234.60,109.13 235.72,110.40 236.83,111.70 237.94,113.03 239.06,114.40 240.17,115.79 241.29,117.22 242.40,118.67 243.51,120.16 244.63,121.68 245.74,123.23 246.85,124.80 247.97,126.41 249.08,128.04 250.20,129.70 251.31,131.39 252.42,133.10 253.54,134.85 254.65,136.62 255.76,138.41 256.88,140.24 257.99,142.08 259.11,143.96 260.22,145.85 261.33,147.77 262.45,149.72 263.56,151.69 264.68,153.68 265.79,155.69 266.90,157.73 268.02,159.79 269.13,161.86 270.24,163.96 271.36,166.08 272.47,168.22 273.59,170.38 274.70,172.55 275.81,174.75 276.93,176.96 278.04,179.19 279.16,181.44 280.27,183.70 281.38,185.98 282.50,188.28 283.61,190.59 284.72,192.91 285.84,195.25 ' style='stroke-width: 2.77; stroke: #1B9E77; stroke-linecap: butt;' clip-path='url(#cpNTMuMTA1M3wyOTYuOTIxfDI1My43NXwyMC43ODky)' />
<g clip-path='url(#cpNTMuMTA1M3wyOTYuOTIxfDI1My43NXwyMC43ODky)'><text x='73.13' y='133.57' style='font-size: 8.54px; font-style: italic; font-family: Arial;' textLength='60.01px' lengthAdjust='spacingAndGlyphs'>R^2 sch= 0.75 </text></g>
<g clip-path='url(#cpNTMuMTA1M3wyOTYuOTIxfDI1My43NXwyMC43ODky)'><text x='73.13' y='145.86' style='font-size: 8.54px; font-style: italic; font-family: Arial;' textLength='55.29px' lengthAdjust='spacingAndGlyphs'>E sch= 0.313 </text></g>
<g clip-path='url(#cpNTMuMTA1M3wyOTYuOTIxfDI1My43NXwyMC43ODky)'><text x='73.13' y='158.16' style='font-size: 8.54px; font-style: italic; font-family: Arial;' textLength='59.78px' lengthAdjust='spacingAndGlyphs'>AIC sch= -12.7</text></g>
<rect x='53.11' y='20.79' width='243.82' height='232.96' style='stroke-width: 1.07; stroke: #333333;' clip-path='url(#cpNTMuMTA1M3wyOTYuOTIxfDI1My43NXwyMC43ODky)' />
<defs>
  <clipPath id='cpMHwzMDIuNHwyODh8MA=='>
    <rect x='0.00' y='0.00' width='302.40' height='288.00' />
  </clipPath>
</defs>
<g clip-path='url(#cpMHwzMDIuNHwyODh8MA==)'><text x='20.65' y='252.91' style='font-size: 8.80px; fill: #4D4D4D; font-family: Arial;' textLength='27.53px' lengthAdjust='spacingAndGlyphs'>0.0055</text></g>
<g clip-path='url(#cpMHwzMDIuNHwyODh8MA==)'><text x='20.65' y='214.33' style='font-size: 8.80px; fill: #4D4D4D; font-family: Arial;' textLength='27.53px' lengthAdjust='spacingAndGlyphs'>0.0060</text></g>
<g clip-path='url(#cpMHwzMDIuNHwyODh8MA==)'><text x='20.65' y='175.74' style='font-size: 8.80px; fill: #4D4D4D; font-family: Arial;' textLength='27.53px' lengthAdjust='spacingAndGlyphs'>0.0065</text></g>
<g clip-path='url(#cpMHwzMDIuNHwyODh8MA==)'><text x='20.65' y='137.15' style='font-size: 8.80px; fill: #4D4D4D; font-family: Arial;' textLength='27.53px' lengthAdjust='spacingAndGlyphs'>0.0070</text></g>
<g clip-path='url(#cpMHwzMDIuNHwyODh8MA==)'><text x='20.65' y='98.57' style='font-size: 8.80px; fill: #4D4D4D; font-family: Arial;' textLength='27.53px' lengthAdjust='spacingAndGlyphs'>0.0075</text></g>
<g clip-path='url(#cpMHwzMDIuNHwyODh8MA==)'><text x='20.65' y='59.98' style='font-size: 8.80px; fill: #4D4D4D; font-family: Arial;' textLength='27.53px' lengthAdjust='spacingAndGlyphs'>0.0080</text></g>
<polyline points='50.37,249.69 53.11,249.69 ' style='stroke-width: 1.07; stroke: #333333; stroke-linecap: butt;' clip-path='url(#cpMHwzMDIuNHwyODh8MA==)' />
<polyline points='50.37,211.11 53.11,211.11 ' style='stroke-width: 1.07; stroke: #333333; stroke-linecap: butt;' clip-path='url(#cpMHwzMDIuNHwyODh8MA==)' />
<polyline points='50.37,172.52 53.11,172.52 ' style='stroke-width: 1.07; stroke: #333333; stroke-linecap: butt;' clip-path='url(#cpMHwzMDIuNHwyODh8MA==)' />
<polyline points='50.37,133.94 53.11,133.94 ' style='stroke-width: 1.07; stroke: #333333; stroke-linecap: butt;' clip-path='url(#cpMHwzMDIuNHwyODh8MA==)' />
<polyline points='50.37,95.35 53.11,95.35 ' style='stroke-width: 1.07; stroke: #333333; stroke-linecap: butt;' clip-path='url(#cpMHwzMDIuNHwyODh8MA==)' />
<polyline points='50.37,56.76 53.11,56.76 ' style='stroke-width: 1.07; stroke: #333333; stroke-linecap: butt;' clip-path='url(#cpMHwzMDIuNHwyODh8MA==)' />
<polyline points='93.28,256.49 93.28,253.75 ' style='stroke-width: 1.07; stroke: #333333; stroke-linecap: butt;' clip-path='url(#cpMHwzMDIuNHwyODh8MA==)' />
<polyline points='139.46,256.49 139.46,253.75 ' style='stroke-width: 1.07; stroke: #333333; stroke-linecap: butt;' clip-path='url(#cpMHwzMDIuNHwyODh8MA==)' />
<polyline points='185.63,256.49 185.63,253.75 ' style='stroke-width: 1.07; stroke: #333333; stroke-linecap: butt;' clip-path='url(#cpMHwzMDIuNHwyODh8MA==)' />
<polyline points='231.81,256.49 231.81,253.75 ' style='stroke-width: 1.07; stroke: #333333; stroke-linecap: butt;' clip-path='url(#cpMHwzMDIuNHwyODh8MA==)' />
<polyline points='277.99,256.49 277.99,253.75 ' style='stroke-width: 1.07; stroke: #333333; stroke-linecap: butt;' clip-path='url(#cpMHwzMDIuNHwyODh8MA==)' />
<g clip-path='url(#cpMHwzMDIuNHwyODh8MA==)'><text x='88.27' y='265.12' style='font-size: 8.80px; fill: #4D4D4D; font-family: Arial;' textLength='10.01px' lengthAdjust='spacingAndGlyphs'>10</text></g>
<g clip-path='url(#cpMHwzMDIuNHwyODh8MA==)'><text x='134.45' y='265.12' style='font-size: 8.80px; fill: #4D4D4D; font-family: Arial;' textLength='10.01px' lengthAdjust='spacingAndGlyphs'>15</text></g>
<g clip-path='url(#cpMHwzMDIuNHwyODh8MA==)'><text x='180.63' y='265.12' style='font-size: 8.80px; fill: #4D4D4D; font-family: Arial;' textLength='10.01px' lengthAdjust='spacingAndGlyphs'>20</text></g>
<g clip-path='url(#cpMHwzMDIuNHwyODh8MA==)'><text x='226.81' y='265.12' style='font-size: 8.80px; fill: #4D4D4D; font-family: Arial;' textLength='10.01px' lengthAdjust='spacingAndGlyphs'>25</text></g>
<g clip-path='url(#cpMHwzMDIuNHwyODh8MA==)'><text x='272.98' y='265.12' style='font-size: 8.80px; fill: #4D4D4D; font-family: Arial;' textLength='10.01px' lengthAdjust='spacingAndGlyphs'>30</text></g>
<g clip-path='url(#cpMHwzMDIuNHwyODh8MA==)'><text x='136.06' y='277.88' style='font-size: 10.00px; font-family: Arial;' textLength='63.35px' lengthAdjust='spacingAndGlyphs'>Temperature (</text></g>
<g clip-path='url(#cpMHwzMDIuNHwyODh8MA==)'><text x='199.41' y='277.88' style='font-size: 10.00px; font-family: Symbol;' textLength='4.00px' lengthAdjust='spacingAndGlyphs'>°</text></g>
<g clip-path='url(#cpMHwzMDIuNHwyODh8MA==)'><text x='203.41' y='277.88' style='font-size: 10.00px; font-family: Arial;' textLength='7.22px' lengthAdjust='spacingAndGlyphs'>C</text></g>
<g clip-path='url(#cpMHwzMDIuNHwyODh8MA==)'><text x='210.64' y='277.88' style='font-size: 10.00px; font-family: Arial;' textLength='3.33px' lengthAdjust='spacingAndGlyphs'>)</text></g>
<g clip-path='url(#cpMHwzMDIuNHwyODh8MA==)'><text transform='translate(12.64,178.96) rotate(-90)' style='font-size: 10.00px; font-family: Arial;' textLength='83.39px' lengthAdjust='spacingAndGlyphs'>net photosynthesis</text></g>
<g clip-path='url(#cpMHwzMDIuNHwyODh8MA==)'><text x='53.11' y='14.07' style='font-size: 12.00px; font-family: Arial;' textLength='80.70px' lengthAdjust='spacingAndGlyphs'>Zostera marina</text></g>
</svg>
