<?xml version='1.0' encoding='UTF-8' ?>
<svg xmlns='http://www.w3.org/2000/svg' xmlns:xlink='http://www.w3.org/1999/xlink' viewBox='0 0 302.40 288.00'>
<defs>
  <style type='text/css'><![CDATA[
    line, polyline, path, rect, circle {
      fill: none;
      stroke: #000000;
      stroke-linecap: round;
      stroke-linejoin: round;
      stroke-miterlimit: 10.00;
    }
  ]]></style>
</defs>
<rect width='100%' height='100%' style='stroke: none; fill: #FFFFFF;'/>
<rect x='0.00' y='0.00' width='302.40' height='288.00' style='stroke-width: 1.07; stroke: #FFFFFF; fill: #FFFFFF;' />
<defs>
  <clipPath id='cpNTAuNzE0NnwyOTYuOTIxfDI1My43NXwyMC43ODky'>
    <rect x='50.71' y='20.79' width='246.21' height='232.96' />
  </clipPath>
</defs>
<rect x='50.71' y='20.79' width='246.21' height='232.96' style='stroke-width: 1.07; stroke: none; fill: #FFFFFF;' clip-path='url(#cpNTAuNzE0NnwyOTYuOTIxfDI1My43NXwyMC43ODky)' />
<polyline points='50.71,205.74 296.92,205.74 ' style='stroke-width: 0.53; stroke: #EBEBEB; stroke-linecap: butt;' clip-path='url(#cpNTAuNzE0NnwyOTYuOTIxfDI1My43NXwyMC43ODky)' />
<polyline points='50.71,122.33 296.92,122.33 ' style='stroke-width: 0.53; stroke: #EBEBEB; stroke-linecap: butt;' clip-path='url(#cpNTAuNzE0NnwyOTYuOTIxfDI1My43NXwyMC43ODky)' />
<polyline points='50.71,38.93 296.92,38.93 ' style='stroke-width: 0.53; stroke: #EBEBEB; stroke-linecap: butt;' clip-path='url(#cpNTAuNzE0NnwyOTYuOTIxfDI1My43NXwyMC43ODky)' />
<polyline points='73.94,253.75 73.94,20.79 ' style='stroke-width: 0.53; stroke: #EBEBEB; stroke-linecap: butt;' clip-path='url(#cpNTAuNzE0NnwyOTYuOTIxfDI1My43NXwyMC43ODky)' />
<polyline points='129.89,253.75 129.89,20.79 ' style='stroke-width: 0.53; stroke: #EBEBEB; stroke-linecap: butt;' clip-path='url(#cpNTAuNzE0NnwyOTYuOTIxfDI1My43NXwyMC43ODky)' />
<polyline points='185.85,253.75 185.85,20.79 ' style='stroke-width: 0.53; stroke: #EBEBEB; stroke-linecap: butt;' clip-path='url(#cpNTAuNzE0NnwyOTYuOTIxfDI1My43NXwyMC43ODky)' />
<polyline points='241.80,253.75 241.80,20.79 ' style='stroke-width: 0.53; stroke: #EBEBEB; stroke-linecap: butt;' clip-path='url(#cpNTAuNzE0NnwyOTYuOTIxfDI1My43NXwyMC43ODky)' />
<polyline points='50.71,247.44 296.92,247.44 ' style='stroke-width: 1.07; stroke: #EBEBEB; stroke-linecap: butt;' clip-path='url(#cpNTAuNzE0NnwyOTYuOTIxfDI1My43NXwyMC43ODky)' />
<polyline points='50.71,164.04 296.92,164.04 ' style='stroke-width: 1.07; stroke: #EBEBEB; stroke-linecap: butt;' clip-path='url(#cpNTAuNzE0NnwyOTYuOTIxfDI1My43NXwyMC43ODky)' />
<polyline points='50.71,80.63 296.92,80.63 ' style='stroke-width: 1.07; stroke: #EBEBEB; stroke-linecap: butt;' clip-path='url(#cpNTAuNzE0NnwyOTYuOTIxfDI1My43NXwyMC43ODky)' />
<polyline points='101.91,253.75 101.91,20.79 ' style='stroke-width: 1.07; stroke: #EBEBEB; stroke-linecap: butt;' clip-path='url(#cpNTAuNzE0NnwyOTYuOTIxfDI1My43NXwyMC43ODky)' />
<polyline points='157.87,253.75 157.87,20.79 ' style='stroke-width: 1.07; stroke: #EBEBEB; stroke-linecap: butt;' clip-path='url(#cpNTAuNzE0NnwyOTYuOTIxfDI1My43NXwyMC43ODky)' />
<polyline points='213.83,253.75 213.83,20.79 ' style='stroke-width: 1.07; stroke: #EBEBEB; stroke-linecap: butt;' clip-path='url(#cpNTAuNzE0NnwyOTYuOTIxfDI1My43NXwyMC43ODky)' />
<polyline points='269.78,253.75 269.78,20.79 ' style='stroke-width: 1.07; stroke: #EBEBEB; stroke-linecap: butt;' clip-path='url(#cpNTAuNzE0NnwyOTYuOTIxfDI1My43NXwyMC43ODky)' />
<circle cx='62.75' cy='240.20' r='3.56pt' style='stroke-width: 0.71; stroke: #000000; stroke-opacity: 0.70; fill: #D1EEEE; fill-opacity: 0.70;' clip-path='url(#cpNTAuNzE0NnwyOTYuOTIxfDI1My43NXwyMC43ODky)' />
<circle cx='135.49' cy='233.40' r='3.56pt' style='stroke-width: 0.71; stroke: #000000; stroke-opacity: 0.70; fill: #D1EEEE; fill-opacity: 0.70;' clip-path='url(#cpNTAuNzE0NnwyOTYuOTIxfDI1My43NXwyMC43ODky)' />
<circle cx='185.85' cy='213.27' r='3.56pt' style='stroke-width: 0.71; stroke: #000000; stroke-opacity: 0.70; fill: #D1EEEE; fill-opacity: 0.70;' clip-path='url(#cpNTAuNzE0NnwyOTYuOTIxfDI1My43NXwyMC43ODky)' />
<circle cx='213.83' cy='214.28' r='3.56pt' style='stroke-width: 0.71; stroke: #000000; stroke-opacity: 0.70; fill: #D1EEEE; fill-opacity: 0.70;' clip-path='url(#cpNTAuNzE0NnwyOTYuOTIxfDI1My43NXwyMC43ODky)' />
<circle cx='280.97' cy='132.47' r='3.56pt' style='stroke-width: 0.71; stroke: #000000; stroke-opacity: 0.70; fill: #D1EEEE; fill-opacity: 0.70;' clip-path='url(#cpNTAuNzE0NnwyOTYuOTIxfDI1My43NXwyMC43ODky)' />
<polyline points='61.91,243.16 63.03,243.09 64.16,243.02 65.28,242.94 66.40,242.87 67.53,242.79 68.65,242.71 69.78,242.63 70.90,242.55 72.03,242.47 73.15,242.39 74.28,242.30 75.40,242.22 76.53,242.13 77.65,242.04 78.78,241.95 79.90,241.86 81.03,241.77 82.15,241.67 83.28,241.57 84.40,241.48 85.53,241.38 86.65,241.27 87.77,241.17 88.90,241.07 90.02,240.96 91.15,240.85 92.27,240.74 93.40,240.63 94.52,240.51 95.65,240.40 96.77,240.28 97.90,240.16 99.02,240.03 100.15,239.91 101.27,239.78 102.40,239.65 103.52,239.52 104.65,239.39 105.77,239.25 106.90,239.12 108.02,238.98 109.14,238.83 110.27,238.69 111.39,238.54 112.52,238.39 113.64,238.23 114.77,238.08 115.89,237.92 117.02,237.76 118.14,237.59 119.27,237.43 120.39,237.26 121.52,237.08 122.64,236.91 123.77,236.73 124.89,236.55 126.02,236.36 127.14,236.17 128.27,235.98 129.39,235.78 130.52,235.58 131.64,235.38 132.76,235.17 133.89,234.96 135.01,234.75 136.14,234.53 137.26,234.31 138.39,234.08 139.51,233.85 140.64,233.61 141.76,233.37 142.89,233.13 144.01,232.88 145.14,232.63 146.26,232.37 147.39,232.11 148.51,231.84 149.64,231.57 150.76,231.29 151.89,231.01 153.01,230.72 154.13,230.43 155.26,230.13 156.38,229.83 157.51,229.52 158.63,229.20 159.76,228.88 160.88,228.55 162.01,228.21 163.13,227.87 164.26,227.52 165.38,227.17 166.51,226.81 167.63,226.44 168.76,226.06 169.88,225.68 171.01,225.29 172.13,224.89 173.26,224.48 174.38,224.06 175.50,223.64 176.63,223.21 177.75,222.77 178.88,222.32 180.00,221.86 181.13,221.39 182.25,220.91 183.38,220.42 184.50,219.92 185.63,219.41 186.75,218.89 187.88,218.36 189.00,217.82 190.13,217.27 191.25,216.70 192.38,216.12 193.50,215.53 194.63,214.93 195.75,214.32 196.87,213.69 198.00,213.04 199.12,212.39 200.25,211.71 201.37,211.03 202.50,210.32 203.62,209.61 204.75,208.87 205.87,208.12 207.00,207.35 208.12,206.57 209.25,205.76 210.37,204.94 211.50,204.09 212.62,203.23 213.75,202.35 214.87,201.44 216.00,200.52 217.12,199.57 218.24,198.60 219.37,197.60 220.49,196.58 221.62,195.54 222.74,194.46 223.87,193.36 224.99,192.24 226.12,191.08 227.24,189.90 228.37,188.68 229.49,187.43 230.62,186.15 231.74,184.83 232.87,183.48 233.99,182.09 235.12,180.67 236.24,179.20 237.37,177.70 238.49,176.15 239.61,174.56 240.74,172.92 241.86,171.23 242.99,169.50 244.11,167.72 245.24,165.88 246.36,163.98 247.49,162.03 248.61,160.02 249.74,157.95 250.86,155.82 251.99,153.61 253.11,151.34 254.24,148.99 255.36,146.56 256.49,144.05 257.61,141.46 258.74,138.79 259.86,136.02 260.99,133.15 262.11,130.18 263.23,127.11 264.36,123.92 265.48,120.62 266.61,117.19 267.73,113.63 268.86,109.94 269.98,106.10 271.11,102.12 272.23,97.97 273.36,93.65 274.48,89.15 275.61,84.46 276.73,79.56 277.86,74.45 278.98,69.12 280.11,63.54 281.23,57.70 282.36,51.59 283.48,45.17 284.60,38.45 285.73,31.38 ' style='stroke-width: 2.77; stroke: #1B9E77; stroke-linecap: butt;' clip-path='url(#cpNTAuNzE0NnwyOTYuOTIxfDI1My43NXwyMC43ODky)' />
<g clip-path='url(#cpNTAuNzE0NnwyOTYuOTIxfDI1My43NXwyMC43ODky)'><text x='62.75' y='197.65' style='font-size: 8.54px; font-style: italic; font-family: Arial;' textLength='60.01px' lengthAdjust='spacingAndGlyphs'>R^2 sch= 0.25 </text></g>
<g clip-path='url(#cpNTAuNzE0NnwyOTYuOTIxfDI1My43NXwyMC43ODky)'><text x='62.75' y='209.94' style='font-size: 8.54px; font-style: italic; font-family: Arial;' textLength='55.29px' lengthAdjust='spacingAndGlyphs'>E sch= 0.383 </text></g>
<g clip-path='url(#cpNTAuNzE0NnwyOTYuOTIxfDI1My43NXwyMC43ODky)'><text x='62.75' y='222.24' style='font-size: 8.54px; font-style: italic; font-family: Arial;' textLength='49.28px' lengthAdjust='spacingAndGlyphs'>AIC sch= 14</text></g>
<rect x='50.71' y='20.79' width='246.21' height='232.96' style='stroke-width: 1.07; stroke: #333333;' clip-path='url(#cpNTAuNzE0NnwyOTYuOTIxfDI1My43NXwyMC43ODky)' />
<defs>
  <clipPath id='cpMHwzMDIuNHwyODh8MA=='>
    <rect x='0.00' y='0.00' width='302.40' height='288.00' />
  </clipPath>
</defs>
<g clip-path='url(#cpMHwzMDIuNHwyODh8MA==)'><text x='20.51' y='250.66' style='font-size: 8.80px; fill: #4D4D4D; font-family: Arial;' textLength='25.28px' lengthAdjust='spacingAndGlyphs'>0e+00</text></g>
<g clip-path='url(#cpMHwzMDIuNHwyODh8MA==)'><text x='22.76' y='167.26' style='font-size: 8.80px; fill: #4D4D4D; font-family: Arial;' textLength='23.02px' lengthAdjust='spacingAndGlyphs'>5e-06</text></g>
<g clip-path='url(#cpMHwzMDIuNHwyODh8MA==)'><text x='22.76' y='83.85' style='font-size: 8.80px; fill: #4D4D4D; font-family: Arial;' textLength='23.02px' lengthAdjust='spacingAndGlyphs'>1e-05</text></g>
<polyline points='47.97,247.44 50.71,247.44 ' style='stroke-width: 1.07; stroke: #333333; stroke-linecap: butt;' clip-path='url(#cpMHwzMDIuNHwyODh8MA==)' />
<polyline points='47.97,164.04 50.71,164.04 ' style='stroke-width: 1.07; stroke: #333333; stroke-linecap: butt;' clip-path='url(#cpMHwzMDIuNHwyODh8MA==)' />
<polyline points='47.97,80.63 50.71,80.63 ' style='stroke-width: 1.07; stroke: #333333; stroke-linecap: butt;' clip-path='url(#cpMHwzMDIuNHwyODh8MA==)' />
<polyline points='101.91,256.49 101.91,253.75 ' style='stroke-width: 1.07; stroke: #333333; stroke-linecap: butt;' clip-path='url(#cpMHwzMDIuNHwyODh8MA==)' />
<polyline points='157.87,256.49 157.87,253.75 ' style='stroke-width: 1.07; stroke: #333333; stroke-linecap: butt;' clip-path='url(#cpMHwzMDIuNHwyODh8MA==)' />
<polyline points='213.83,256.49 213.83,253.75 ' style='stroke-width: 1.07; stroke: #333333; stroke-linecap: butt;' clip-path='url(#cpMHwzMDIuNHwyODh8MA==)' />
<polyline points='269.78,256.49 269.78,253.75 ' style='stroke-width: 1.07; stroke: #333333; stroke-linecap: butt;' clip-path='url(#cpMHwzMDIuNHwyODh8MA==)' />
<g clip-path='url(#cpMHwzMDIuNHwyODh8MA==)'><text x='96.91' y='265.12' style='font-size: 8.80px; fill: #4D4D4D; font-family: Arial;' textLength='10.01px' lengthAdjust='spacingAndGlyphs'>10</text></g>
<g clip-path='url(#cpMHwzMDIuNHwyODh8MA==)'><text x='152.86' y='265.12' style='font-size: 8.80px; fill: #4D4D4D; font-family: Arial;' textLength='10.01px' lengthAdjust='spacingAndGlyphs'>20</text></g>
<g clip-path='url(#cpMHwzMDIuNHwyODh8MA==)'><text x='208.82' y='265.12' style='font-size: 8.80px; fill: #4D4D4D; font-family: Arial;' textLength='10.01px' lengthAdjust='spacingAndGlyphs'>30</text></g>
<g clip-path='url(#cpMHwzMDIuNHwyODh8MA==)'><text x='264.78' y='265.12' style='font-size: 8.80px; fill: #4D4D4D; font-family: Arial;' textLength='10.01px' lengthAdjust='spacingAndGlyphs'>40</text></g>
<g clip-path='url(#cpMHwzMDIuNHwyODh8MA==)'><text x='134.86' y='277.88' style='font-size: 10.00px; font-family: Arial;' textLength='63.35px' lengthAdjust='spacingAndGlyphs'>Temperature (</text></g>
<g clip-path='url(#cpMHwzMDIuNHwyODh8MA==)'><text x='198.22' y='277.88' style='font-size: 10.00px; font-family: Symbol;' textLength='4.00px' lengthAdjust='spacingAndGlyphs'>°</text></g>
<g clip-path='url(#cpMHwzMDIuNHwyODh8MA==)'><text x='202.22' y='277.88' style='font-size: 10.00px; font-family: Arial;' textLength='7.22px' lengthAdjust='spacingAndGlyphs'>C</text></g>
<g clip-path='url(#cpMHwzMDIuNHwyODh8MA==)'><text x='209.44' y='277.88' style='font-size: 10.00px; font-family: Arial;' textLength='3.33px' lengthAdjust='spacingAndGlyphs'>)</text></g>
<g clip-path='url(#cpMHwzMDIuNHwyODh8MA==)'><text transform='translate(12.64,170.62) rotate(-90)' style='font-size: 10.00px; font-family: Arial;' textLength='66.70px' lengthAdjust='spacingAndGlyphs'>respiration rate</text></g>
<g clip-path='url(#cpMHwzMDIuNHwyODh8MA==)'><text x='50.71' y='14.07' style='font-size: 12.00px; font-family: Arial;' textLength='86.03px' lengthAdjust='spacingAndGlyphs'>Zostera muelleri</text></g>
</svg>
