<?xml version='1.0' encoding='UTF-8' ?>
<svg xmlns='http://www.w3.org/2000/svg' xmlns:xlink='http://www.w3.org/1999/xlink' viewBox='0 0 302.40 288.00'>
<defs>
  <style type='text/css'><![CDATA[
    line, polyline, path, rect, circle {
      fill: none;
      stroke: #000000;
      stroke-linecap: round;
      stroke-linejoin: round;
      stroke-miterlimit: 10.00;
    }
  ]]></style>
</defs>
<rect width='100%' height='100%' style='stroke: none; fill: #FFFFFF;'/>
<rect x='0.00' y='0.00' width='302.40' height='288.00' style='stroke-width: 1.07; stroke: #FFFFFF; fill: #FFFFFF;' />
<defs>
  <clipPath id='cpNTAuODU1M3wyOTYuOTIxfDI1My43NXwyMC43ODky'>
    <rect x='50.86' y='20.79' width='246.07' height='232.96' />
  </clipPath>
</defs>
<rect x='50.86' y='20.79' width='246.07' height='232.96' style='stroke-width: 1.07; stroke: none; fill: #FFFFFF;' clip-path='url(#cpNTAuODU1M3wyOTYuOTIxfDI1My43NXwyMC43ODky)' />
<polyline points='50.86,203.99 296.92,203.99 ' style='stroke-width: 0.53; stroke: #EBEBEB; stroke-linecap: butt;' clip-path='url(#cpNTAuODU1M3wyOTYuOTIxfDI1My43NXwyMC43ODky)' />
<polyline points='50.86,122.07 296.92,122.07 ' style='stroke-width: 0.53; stroke: #EBEBEB; stroke-linecap: butt;' clip-path='url(#cpNTAuODU1M3wyOTYuOTIxfDI1My43NXwyMC43ODky)' />
<polyline points='50.86,40.16 296.92,40.16 ' style='stroke-width: 0.53; stroke: #EBEBEB; stroke-linecap: butt;' clip-path='url(#cpNTAuODU1M3wyOTYuOTIxfDI1My43NXwyMC43ODky)' />
<polyline points='100.25,253.75 100.25,20.79 ' style='stroke-width: 0.53; stroke: #EBEBEB; stroke-linecap: butt;' clip-path='url(#cpNTAuODU1M3wyOTYuOTIxfDI1My43NXwyMC43ODky)' />
<polyline points='162.39,253.75 162.39,20.79 ' style='stroke-width: 0.53; stroke: #EBEBEB; stroke-linecap: butt;' clip-path='url(#cpNTAuODU1M3wyOTYuOTIxfDI1My43NXwyMC43ODky)' />
<polyline points='224.53,253.75 224.53,20.79 ' style='stroke-width: 0.53; stroke: #EBEBEB; stroke-linecap: butt;' clip-path='url(#cpNTAuODU1M3wyOTYuOTIxfDI1My43NXwyMC43ODky)' />
<polyline points='286.67,253.75 286.67,20.79 ' style='stroke-width: 0.53; stroke: #EBEBEB; stroke-linecap: butt;' clip-path='url(#cpNTAuODU1M3wyOTYuOTIxfDI1My43NXwyMC43ODky)' />
<polyline points='50.86,244.94 296.92,244.94 ' style='stroke-width: 1.07; stroke: #EBEBEB; stroke-linecap: butt;' clip-path='url(#cpNTAuODU1M3wyOTYuOTIxfDI1My43NXwyMC43ODky)' />
<polyline points='50.86,163.03 296.92,163.03 ' style='stroke-width: 1.07; stroke: #EBEBEB; stroke-linecap: butt;' clip-path='url(#cpNTAuODU1M3wyOTYuOTIxfDI1My43NXwyMC43ODky)' />
<polyline points='50.86,81.12 296.92,81.12 ' style='stroke-width: 1.07; stroke: #EBEBEB; stroke-linecap: butt;' clip-path='url(#cpNTAuODU1M3wyOTYuOTIxfDI1My43NXwyMC43ODky)' />
<polyline points='69.19,253.75 69.19,20.79 ' style='stroke-width: 1.07; stroke: #EBEBEB; stroke-linecap: butt;' clip-path='url(#cpNTAuODU1M3wyOTYuOTIxfDI1My43NXwyMC43ODky)' />
<polyline points='131.32,253.75 131.32,20.79 ' style='stroke-width: 1.07; stroke: #EBEBEB; stroke-linecap: butt;' clip-path='url(#cpNTAuODU1M3wyOTYuOTIxfDI1My43NXwyMC43ODky)' />
<polyline points='193.46,253.75 193.46,20.79 ' style='stroke-width: 1.07; stroke: #EBEBEB; stroke-linecap: butt;' clip-path='url(#cpNTAuODU1M3wyOTYuOTIxfDI1My43NXwyMC43ODky)' />
<polyline points='255.60,253.75 255.60,20.79 ' style='stroke-width: 1.07; stroke: #EBEBEB; stroke-linecap: butt;' clip-path='url(#cpNTAuODU1M3wyOTYuOTIxfDI1My43NXwyMC43ODky)' />
<circle cx='67.60' cy='229.78' r='3.56pt' style='stroke-width: 0.71; stroke: #000000; stroke-opacity: 0.70; fill: #D1EEEE; fill-opacity: 0.70;' clip-path='url(#cpNTAuODU1M3wyOTYuOTIxfDI1My43NXwyMC43ODky)' />
<circle cx='101.36' cy='233.60' r='3.56pt' style='stroke-width: 0.71; stroke: #000000; stroke-opacity: 0.70; fill: #D1EEEE; fill-opacity: 0.70;' clip-path='url(#cpNTAuODU1M3wyOTYuOTIxfDI1My43NXwyMC43ODky)' />
<circle cx='130.98' cy='86.97' r='3.56pt' style='stroke-width: 0.71; stroke: #000000; stroke-opacity: 0.70; fill: #D1EEEE; fill-opacity: 0.70;' clip-path='url(#cpNTAuODU1M3wyOTYuOTIxfDI1My43NXwyMC43ODky)' />
<circle cx='162.10' cy='96.92' r='3.56pt' style='stroke-width: 0.71; stroke: #000000; stroke-opacity: 0.70; fill: #D1EEEE; fill-opacity: 0.70;' clip-path='url(#cpNTAuODU1M3wyOTYuOTIxfDI1My43NXwyMC43ODky)' />
<circle cx='193.02' cy='85.66' r='3.56pt' style='stroke-width: 0.71; stroke: #000000; stroke-opacity: 0.70; fill: #D1EEEE; fill-opacity: 0.70;' clip-path='url(#cpNTAuODU1M3wyOTYuOTIxfDI1My43NXwyMC43ODky)' />
<circle cx='223.56' cy='176.77' r='3.56pt' style='stroke-width: 0.71; stroke: #000000; stroke-opacity: 0.70; fill: #D1EEEE; fill-opacity: 0.70;' clip-path='url(#cpNTAuODU1M3wyOTYuOTIxfDI1My43NXwyMC43ODky)' />
<circle cx='254.92' cy='211.18' r='3.56pt' style='stroke-width: 0.71; stroke: #000000; stroke-opacity: 0.70; fill: #D1EEEE; fill-opacity: 0.70;' clip-path='url(#cpNTAuODU1M3wyOTYuOTIxfDI1My43NXwyMC43ODky)' />
<circle cx='284.90' cy='243.16' r='3.56pt' style='stroke-width: 0.71; stroke: #000000; stroke-opacity: 0.70; fill: #D1EEEE; fill-opacity: 0.70;' clip-path='url(#cpNTAuODU1M3wyOTYuOTIxfDI1My43NXwyMC43ODky)' />
<polyline points='62.04,234.80 63.16,234.48 64.29,234.15 65.41,233.80 66.54,233.45 67.66,233.08 68.78,232.71 69.91,232.32 71.03,231.92 72.16,231.51 73.28,231.08 74.41,230.65 75.53,230.20 76.65,229.73 77.78,229.26 78.90,228.76 80.03,228.26 81.15,227.74 82.27,227.20 83.40,226.65 84.52,226.08 85.65,225.49 86.77,224.88 87.89,224.26 89.02,223.62 90.14,222.96 91.27,222.28 92.39,221.58 93.51,220.86 94.64,220.12 95.76,219.36 96.89,218.57 98.01,217.76 99.14,216.93 100.26,216.07 101.38,215.19 102.51,214.28 103.63,213.35 104.76,212.39 105.88,211.40 107.00,210.38 108.13,209.33 109.25,208.25 110.38,207.14 111.50,206.00 112.62,204.83 113.75,203.62 114.87,202.38 116.00,201.10 117.12,199.79 118.24,198.43 119.37,197.04 120.49,195.61 121.62,194.14 122.74,192.63 123.87,191.08 124.99,189.48 126.11,187.84 127.24,186.15 128.36,184.41 129.49,182.63 130.61,180.80 131.73,178.91 132.86,176.98 133.98,174.99 135.11,172.95 136.23,170.85 137.35,168.70 138.48,166.49 139.60,164.22 140.73,161.89 141.85,159.50 142.98,157.05 144.10,154.54 145.22,151.96 146.35,149.32 147.47,146.62 148.60,143.85 149.72,141.01 150.84,138.11 151.97,135.15 153.09,132.12 154.22,129.02 155.34,125.86 156.46,122.63 157.59,119.34 158.71,116.00 159.84,112.59 160.96,109.14 162.08,105.63 163.21,102.07 164.33,98.47 165.46,94.83 166.58,91.17 167.71,87.48 168.83,83.78 169.95,80.07 171.08,76.37 172.20,72.69 173.33,69.04 174.45,65.44 175.57,61.91 176.70,58.45 177.82,55.10 178.95,51.87 180.07,48.78 181.19,45.86 182.32,43.14 183.44,40.63 184.57,38.37 185.69,36.37 186.82,34.68 187.94,33.31 189.06,32.29 190.19,31.64 191.31,31.38 192.44,31.53 193.56,32.11 194.68,33.13 195.81,34.60 196.93,36.52 198.06,38.88 199.18,41.67 200.30,44.90 201.43,48.53 202.55,52.55 203.68,56.92 204.80,61.63 205.92,66.62 207.05,71.87 208.17,77.34 209.30,82.98 210.42,88.77 211.55,94.65 212.67,100.59 213.79,106.55 214.92,112.51 216.04,118.43 217.17,124.27 218.29,130.02 219.41,135.65 220.54,141.15 221.66,146.49 222.79,151.67 223.91,156.67 225.03,161.49 226.16,166.12 227.28,170.55 228.41,174.80 229.53,178.84 230.65,182.70 231.78,186.36 232.90,189.85 234.03,193.15 235.15,196.27 236.28,199.23 237.40,202.02 238.52,204.65 239.65,207.14 240.77,209.48 241.90,211.68 243.02,213.75 244.14,215.70 245.27,217.54 246.39,219.26 247.52,220.87 248.64,222.39 249.76,223.81 250.89,225.15 252.01,226.40 253.14,227.57 254.26,228.67 255.39,229.70 256.51,230.67 257.63,231.57 258.76,232.42 259.88,233.22 261.01,233.96 262.13,234.65 263.25,235.31 264.38,235.92 265.50,236.49 266.63,237.02 267.75,237.52 268.87,237.99 270.00,238.43 271.12,238.84 272.25,239.23 273.37,239.59 274.49,239.92 275.62,240.24 276.74,240.54 277.87,240.81 278.99,241.07 280.12,241.31 281.24,241.54 282.36,241.75 283.49,241.95 284.61,242.14 285.74,242.31 ' style='stroke-width: 2.77; stroke: #1B9E77; stroke-linecap: butt;' clip-path='url(#cpNTAuODU1M3wyOTYuOTIxfDI1My43NXwyMC43ODky)' />
<g clip-path='url(#cpNTAuODU1M3wyOTYuOTIxfDI1My43NXwyMC43ODky)'><text x='67.60' y='161.43' style='font-size: 8.54px; font-style: italic; font-family: Arial;' textLength='60.01px' lengthAdjust='spacingAndGlyphs'>R^2 sch= 0.62 </text></g>
<g clip-path='url(#cpNTAuODU1M3wyOTYuOTIxfDI1My43NXwyMC43ODky)'><text x='67.60' y='173.72' style='font-size: 8.54px; font-style: italic; font-family: Arial;' textLength='50.28px' lengthAdjust='spacingAndGlyphs'>E sch= 1.19 </text></g>
<g clip-path='url(#cpNTAuODU1M3wyOTYuOTIxfDI1My43NXwyMC43ODky)'><text x='67.60' y='186.02' style='font-size: 8.54px; font-style: italic; font-family: Arial;' textLength='56.78px' lengthAdjust='spacingAndGlyphs'>AIC sch= 24.1</text></g>
<rect x='50.86' y='20.79' width='246.07' height='232.96' style='stroke-width: 1.07; stroke: #333333;' clip-path='url(#cpNTAuODU1M3wyOTYuOTIxfDI1My43NXwyMC43ODky)' />
<defs>
  <clipPath id='cpMHwzMDIuNHwyODh8MA=='>
    <rect x='0.00' y='0.00' width='302.40' height='288.00' />
  </clipPath>
</defs>
<g clip-path='url(#cpMHwzMDIuNHwyODh8MA==)'><text x='20.65' y='248.16' style='font-size: 8.80px; fill: #4D4D4D; font-family: Arial;' textLength='25.28px' lengthAdjust='spacingAndGlyphs'>0e+00</text></g>
<g clip-path='url(#cpMHwzMDIuNHwyODh8MA==)'><text x='22.91' y='166.25' style='font-size: 8.80px; fill: #4D4D4D; font-family: Arial;' textLength='23.02px' lengthAdjust='spacingAndGlyphs'>1e-06</text></g>
<g clip-path='url(#cpMHwzMDIuNHwyODh8MA==)'><text x='22.91' y='84.34' style='font-size: 8.80px; fill: #4D4D4D; font-family: Arial;' textLength='23.02px' lengthAdjust='spacingAndGlyphs'>2e-06</text></g>
<polyline points='48.12,244.94 50.86,244.94 ' style='stroke-width: 1.07; stroke: #333333; stroke-linecap: butt;' clip-path='url(#cpMHwzMDIuNHwyODh8MA==)' />
<polyline points='48.12,163.03 50.86,163.03 ' style='stroke-width: 1.07; stroke: #333333; stroke-linecap: butt;' clip-path='url(#cpMHwzMDIuNHwyODh8MA==)' />
<polyline points='48.12,81.12 50.86,81.12 ' style='stroke-width: 1.07; stroke: #333333; stroke-linecap: butt;' clip-path='url(#cpMHwzMDIuNHwyODh8MA==)' />
<polyline points='69.19,256.49 69.19,253.75 ' style='stroke-width: 1.07; stroke: #333333; stroke-linecap: butt;' clip-path='url(#cpMHwzMDIuNHwyODh8MA==)' />
<polyline points='131.32,256.49 131.32,253.75 ' style='stroke-width: 1.07; stroke: #333333; stroke-linecap: butt;' clip-path='url(#cpMHwzMDIuNHwyODh8MA==)' />
<polyline points='193.46,256.49 193.46,253.75 ' style='stroke-width: 1.07; stroke: #333333; stroke-linecap: butt;' clip-path='url(#cpMHwzMDIuNHwyODh8MA==)' />
<polyline points='255.60,256.49 255.60,253.75 ' style='stroke-width: 1.07; stroke: #333333; stroke-linecap: butt;' clip-path='url(#cpMHwzMDIuNHwyODh8MA==)' />
<g clip-path='url(#cpMHwzMDIuNHwyODh8MA==)'><text x='64.18' y='265.12' style='font-size: 8.80px; fill: #4D4D4D; font-family: Arial;' textLength='10.01px' lengthAdjust='spacingAndGlyphs'>10</text></g>
<g clip-path='url(#cpMHwzMDIuNHwyODh8MA==)'><text x='126.32' y='265.12' style='font-size: 8.80px; fill: #4D4D4D; font-family: Arial;' textLength='10.01px' lengthAdjust='spacingAndGlyphs'>20</text></g>
<g clip-path='url(#cpMHwzMDIuNHwyODh8MA==)'><text x='188.46' y='265.12' style='font-size: 8.80px; fill: #4D4D4D; font-family: Arial;' textLength='10.01px' lengthAdjust='spacingAndGlyphs'>30</text></g>
<g clip-path='url(#cpMHwzMDIuNHwyODh8MA==)'><text x='250.59' y='265.12' style='font-size: 8.80px; fill: #4D4D4D; font-family: Arial;' textLength='10.01px' lengthAdjust='spacingAndGlyphs'>40</text></g>
<g clip-path='url(#cpMHwzMDIuNHwyODh8MA==)'><text x='134.93' y='277.88' style='font-size: 10.00px; font-family: Arial;' textLength='63.35px' lengthAdjust='spacingAndGlyphs'>Temperature (</text></g>
<g clip-path='url(#cpMHwzMDIuNHwyODh8MA==)'><text x='198.29' y='277.88' style='font-size: 10.00px; font-family: Symbol;' textLength='4.00px' lengthAdjust='spacingAndGlyphs'>°</text></g>
<g clip-path='url(#cpMHwzMDIuNHwyODh8MA==)'><text x='202.29' y='277.88' style='font-size: 10.00px; font-family: Arial;' textLength='7.22px' lengthAdjust='spacingAndGlyphs'>C</text></g>
<g clip-path='url(#cpMHwzMDIuNHwyODh8MA==)'><text x='209.51' y='277.88' style='font-size: 10.00px; font-family: Arial;' textLength='3.33px' lengthAdjust='spacingAndGlyphs'>)</text></g>
<g clip-path='url(#cpMHwzMDIuNHwyODh8MA==)'><text transform='translate(12.64,178.96) rotate(-90)' style='font-size: 10.00px; font-family: Arial;' textLength='83.39px' lengthAdjust='spacingAndGlyphs'>net photosynthesis</text></g>
<g clip-path='url(#cpMHwzMDIuNHwyODh8MA==)'><text x='50.86' y='14.07' style='font-size: 12.00px; font-family: Arial;' textLength='70.03px' lengthAdjust='spacingAndGlyphs'>Lemna minor</text></g>
</svg>
