<?xml version='1.0' encoding='UTF-8' ?>
<svg xmlns='http://www.w3.org/2000/svg' xmlns:xlink='http://www.w3.org/1999/xlink' viewBox='0 0 302.40 288.00'>
<defs>
  <style type='text/css'><![CDATA[
    line, polyline, path, rect, circle {
      fill: none;
      stroke: #000000;
      stroke-linecap: round;
      stroke-linejoin: round;
      stroke-miterlimit: 10.00;
    }
  ]]></style>
</defs>
<rect width='100%' height='100%' style='stroke: none; fill: #FFFFFF;'/>
<rect x='0.00' y='0.00' width='302.40' height='288.00' style='stroke-width: 1.07; stroke: #FFFFFF; fill: #FFFFFF;' />
<defs>
  <clipPath id='cpNDguNDU1OHwyOTYuOTIxfDI1My43NXwyMC43ODky'>
    <rect x='48.46' y='20.79' width='248.46' height='232.96' />
  </clipPath>
</defs>
<rect x='48.46' y='20.79' width='248.46' height='232.96' style='stroke-width: 1.07; stroke: none; fill: #FFFFFF;' clip-path='url(#cpNDguNDU1OHwyOTYuOTIxfDI1My43NXwyMC43ODky)' />
<polyline points='48.46,222.90 296.92,222.90 ' style='stroke-width: 0.53; stroke: #EBEBEB; stroke-linecap: butt;' clip-path='url(#cpNDguNDU1OHwyOTYuOTIxfDI1My43NXwyMC43ODky)' />
<polyline points='48.46,130.57 296.92,130.57 ' style='stroke-width: 0.53; stroke: #EBEBEB; stroke-linecap: butt;' clip-path='url(#cpNDguNDU1OHwyOTYuOTIxfDI1My43NXwyMC43ODky)' />
<polyline points='48.46,38.23 296.92,38.23 ' style='stroke-width: 0.53; stroke: #EBEBEB; stroke-linecap: butt;' clip-path='url(#cpNDguNDU1OHwyOTYuOTIxfDI1My43NXwyMC43ODky)' />
<polyline points='61.05,253.75 61.05,20.79 ' style='stroke-width: 0.53; stroke: #EBEBEB; stroke-linecap: butt;' clip-path='url(#cpNDguNDU1OHwyOTYuOTIxfDI1My43NXwyMC43ODky)' />
<polyline points='147.93,253.75 147.93,20.79 ' style='stroke-width: 0.53; stroke: #EBEBEB; stroke-linecap: butt;' clip-path='url(#cpNDguNDU1OHwyOTYuOTIxfDI1My43NXwyMC43ODky)' />
<polyline points='234.80,253.75 234.80,20.79 ' style='stroke-width: 0.53; stroke: #EBEBEB; stroke-linecap: butt;' clip-path='url(#cpNDguNDU1OHwyOTYuOTIxfDI1My43NXwyMC43ODky)' />
<polyline points='48.46,176.74 296.92,176.74 ' style='stroke-width: 1.07; stroke: #EBEBEB; stroke-linecap: butt;' clip-path='url(#cpNDguNDU1OHwyOTYuOTIxfDI1My43NXwyMC43ODky)' />
<polyline points='48.46,84.40 296.92,84.40 ' style='stroke-width: 1.07; stroke: #EBEBEB; stroke-linecap: butt;' clip-path='url(#cpNDguNDU1OHwyOTYuOTIxfDI1My43NXwyMC43ODky)' />
<polyline points='104.49,253.75 104.49,20.79 ' style='stroke-width: 1.07; stroke: #EBEBEB; stroke-linecap: butt;' clip-path='url(#cpNDguNDU1OHwyOTYuOTIxfDI1My43NXwyMC43ODky)' />
<polyline points='191.37,253.75 191.37,20.79 ' style='stroke-width: 1.07; stroke: #EBEBEB; stroke-linecap: butt;' clip-path='url(#cpNDguNDU1OHwyOTYuOTIxfDI1My43NXwyMC43ODky)' />
<polyline points='278.24,253.75 278.24,20.79 ' style='stroke-width: 1.07; stroke: #EBEBEB; stroke-linecap: butt;' clip-path='url(#cpNDguNDU1OHwyOTYuOTIxfDI1My43NXwyMC43ODky)' />
<circle cx='61.05' cy='225.64' r='3.56pt' style='stroke-width: 0.71; stroke: #000000; stroke-opacity: 0.70; fill: #D1EEEE; fill-opacity: 0.70;' clip-path='url(#cpNDguNDU1OHwyOTYuOTIxfDI1My43NXwyMC43ODky)' />
<circle cx='104.49' cy='243.16' r='3.56pt' style='stroke-width: 0.71; stroke: #000000; stroke-opacity: 0.70; fill: #D1EEEE; fill-opacity: 0.70;' clip-path='url(#cpNDguNDU1OHwyOTYuOTIxfDI1My43NXwyMC43ODky)' />
<circle cx='147.93' cy='170.38' r='3.56pt' style='stroke-width: 0.71; stroke: #000000; stroke-opacity: 0.70; fill: #D1EEEE; fill-opacity: 0.70;' clip-path='url(#cpNDguNDU1OHwyOTYuOTIxfDI1My43NXwyMC43ODky)' />
<circle cx='191.37' cy='31.38' r='3.56pt' style='stroke-width: 0.71; stroke: #000000; stroke-opacity: 0.70; fill: #D1EEEE; fill-opacity: 0.70;' clip-path='url(#cpNDguNDU1OHwyOTYuOTIxfDI1My43NXwyMC43ODky)' />
<circle cx='234.80' cy='161.78' r='3.56pt' style='stroke-width: 0.71; stroke: #000000; stroke-opacity: 0.70; fill: #D1EEEE; fill-opacity: 0.70;' clip-path='url(#cpNDguNDU1OHwyOTYuOTIxfDI1My43NXwyMC43ODky)' />
<circle cx='278.24' cy='125.12' r='3.56pt' style='stroke-width: 0.71; stroke: #000000; stroke-opacity: 0.70; fill: #D1EEEE; fill-opacity: 0.70;' clip-path='url(#cpNDguNDU1OHwyOTYuOTIxfDI1My43NXwyMC43ODky)' />
<polyline points='59.75,240.34 60.88,239.88 62.02,239.40 63.15,238.92 64.29,238.43 65.42,237.94 66.56,237.43 67.70,236.92 68.83,236.41 69.97,235.88 71.10,235.35 72.24,234.81 73.37,234.26 74.51,233.70 75.64,233.14 76.78,232.57 77.91,231.99 79.05,231.40 80.18,230.80 81.32,230.19 82.45,229.58 83.59,228.95 84.72,228.32 85.86,227.68 86.99,227.03 88.13,226.37 89.26,225.70 90.40,225.03 91.53,224.34 92.67,223.64 93.80,222.94 94.94,222.22 96.07,221.50 97.21,220.76 98.34,220.02 99.48,219.26 100.61,218.50 101.75,217.72 102.88,216.94 104.02,216.14 105.15,215.34 106.29,214.52 107.42,213.70 108.56,212.86 109.69,212.02 110.83,211.16 111.96,210.29 113.10,209.41 114.23,208.52 115.37,207.62 116.50,206.71 117.64,205.79 118.77,204.86 119.91,203.92 121.04,202.97 122.18,202.00 123.31,201.03 124.45,200.04 125.58,199.04 126.72,198.04 127.85,197.02 128.99,195.99 130.12,194.95 131.26,193.90 132.39,192.84 133.53,191.77 134.66,190.69 135.80,189.60 136.93,188.50 138.07,187.39 139.20,186.27 140.34,185.14 141.47,184.00 142.61,182.85 143.74,181.70 144.88,180.53 146.01,179.36 147.15,178.17 148.28,176.98 149.42,175.78 150.55,174.57 151.69,173.36 152.82,172.14 153.96,170.91 155.09,169.68 156.23,168.43 157.36,167.19 158.50,165.94 159.64,164.68 160.77,163.42 161.91,162.16 163.04,160.89 164.18,159.62 165.31,158.35 166.45,157.08 167.58,155.81 168.72,154.53 169.85,153.26 170.99,151.98 172.12,150.71 173.26,149.44 174.39,148.18 175.53,146.91 176.66,145.65 177.80,144.40 178.93,143.16 180.07,141.92 181.20,140.68 182.34,139.46 183.47,138.25 184.61,137.04 185.74,135.85 186.88,134.67 188.01,133.50 189.15,132.35 190.28,131.22 191.42,130.09 192.55,128.99 193.69,127.91 194.82,126.84 195.96,125.79 197.09,124.77 198.23,123.77 199.36,122.79 200.50,121.83 201.63,120.90 202.77,120.00 203.90,119.12 205.04,118.28 206.17,117.46 207.31,116.67 208.44,115.91 209.58,115.19 210.71,114.50 211.85,113.84 212.98,113.22 214.12,112.63 215.25,112.08 216.39,111.56 217.52,111.09 218.66,110.65 219.79,110.25 220.93,109.89 222.06,109.57 223.20,109.29 224.33,109.06 225.47,108.86 226.60,108.70 227.74,108.59 228.87,108.52 230.01,108.49 231.14,108.51 232.28,108.57 233.41,108.67 234.55,108.81 235.68,108.99 236.82,109.22 237.95,109.49 239.09,109.80 240.22,110.15 241.36,110.54 242.49,110.98 243.63,111.45 244.76,111.97 245.90,112.52 247.03,113.11 248.17,113.74 249.30,114.40 250.44,115.10 251.57,115.84 252.71,116.61 253.85,117.42 254.98,118.25 256.12,119.12 257.25,120.02 258.39,120.95 259.52,121.91 260.66,122.90 261.79,123.91 262.93,124.95 264.06,126.02 265.20,127.10 266.33,128.21 267.47,129.34 268.60,130.49 269.74,131.67 270.87,132.85 272.01,134.06 273.14,135.28 274.28,136.52 275.41,137.77 276.55,139.03 277.68,140.31 278.82,141.59 279.95,142.89 281.09,144.19 282.22,145.50 283.36,146.82 284.49,148.14 285.63,149.47 ' style='stroke-width: 2.77; stroke: #1B9E77; stroke-linecap: butt;' clip-path='url(#cpNDguNDU1OHwyOTYuOTIxfDI1My43NXwyMC43ODky)' />
<g clip-path='url(#cpNDguNDU1OHwyOTYuOTIxfDI1My43NXwyMC43ODky)'><text x='61.05' y='150.50' style='font-size: 8.54px; font-style: italic; font-family: Arial;' textLength='60.01px' lengthAdjust='spacingAndGlyphs'>R^2 sch= 0.53 </text></g>
<g clip-path='url(#cpNDguNDU1OHwyOTYuOTIxfDI1My43NXwyMC43ODky)'><text x='61.05' y='162.79' style='font-size: 8.54px; font-style: italic; font-family: Arial;' textLength='50.28px' lengthAdjust='spacingAndGlyphs'>E sch= 0.83 </text></g>
<g clip-path='url(#cpNDguNDU1OHwyOTYuOTIxfDI1My43NXwyMC43ODky)'><text x='61.05' y='175.09' style='font-size: 8.54px; font-style: italic; font-family: Arial;' textLength='56.78px' lengthAdjust='spacingAndGlyphs'>AIC sch= 17.1</text></g>
<rect x='48.46' y='20.79' width='248.46' height='232.96' style='stroke-width: 1.07; stroke: #333333;' clip-path='url(#cpNDguNDU1OHwyOTYuOTIxfDI1My43NXwyMC43ODky)' />
<defs>
  <clipPath id='cpMHwzMDIuNHwyODh8MA=='>
    <rect x='0.00' y='0.00' width='302.40' height='288.00' />
  </clipPath>
</defs>
<g clip-path='url(#cpMHwzMDIuNHwyODh8MA==)'><text x='20.51' y='179.95' style='font-size: 8.80px; fill: #4D4D4D; font-family: Arial;' textLength='23.02px' lengthAdjust='spacingAndGlyphs'>5e-07</text></g>
<g clip-path='url(#cpMHwzMDIuNHwyODh8MA==)'><text x='20.51' y='87.62' style='font-size: 8.80px; fill: #4D4D4D; font-family: Arial;' textLength='23.02px' lengthAdjust='spacingAndGlyphs'>1e-06</text></g>
<polyline points='45.72,176.74 48.46,176.74 ' style='stroke-width: 1.07; stroke: #333333; stroke-linecap: butt;' clip-path='url(#cpMHwzMDIuNHwyODh8MA==)' />
<polyline points='45.72,84.40 48.46,84.40 ' style='stroke-width: 1.07; stroke: #333333; stroke-linecap: butt;' clip-path='url(#cpMHwzMDIuNHwyODh8MA==)' />
<polyline points='104.49,256.49 104.49,253.75 ' style='stroke-width: 1.07; stroke: #333333; stroke-linecap: butt;' clip-path='url(#cpMHwzMDIuNHwyODh8MA==)' />
<polyline points='191.37,256.49 191.37,253.75 ' style='stroke-width: 1.07; stroke: #333333; stroke-linecap: butt;' clip-path='url(#cpMHwzMDIuNHwyODh8MA==)' />
<polyline points='278.24,256.49 278.24,253.75 ' style='stroke-width: 1.07; stroke: #333333; stroke-linecap: butt;' clip-path='url(#cpMHwzMDIuNHwyODh8MA==)' />
<g clip-path='url(#cpMHwzMDIuNHwyODh8MA==)'><text x='99.49' y='265.12' style='font-size: 8.80px; fill: #4D4D4D; font-family: Arial;' textLength='10.01px' lengthAdjust='spacingAndGlyphs'>10</text></g>
<g clip-path='url(#cpMHwzMDIuNHwyODh8MA==)'><text x='186.36' y='265.12' style='font-size: 8.80px; fill: #4D4D4D; font-family: Arial;' textLength='10.01px' lengthAdjust='spacingAndGlyphs'>20</text></g>
<g clip-path='url(#cpMHwzMDIuNHwyODh8MA==)'><text x='273.24' y='265.12' style='font-size: 8.80px; fill: #4D4D4D; font-family: Arial;' textLength='10.01px' lengthAdjust='spacingAndGlyphs'>30</text></g>
<g clip-path='url(#cpMHwzMDIuNHwyODh8MA==)'><text x='133.74' y='277.88' style='font-size: 10.00px; font-family: Arial;' textLength='63.35px' lengthAdjust='spacingAndGlyphs'>Temperature (</text></g>
<g clip-path='url(#cpMHwzMDIuNHwyODh8MA==)'><text x='197.09' y='277.88' style='font-size: 10.00px; font-family: Symbol;' textLength='4.00px' lengthAdjust='spacingAndGlyphs'>°</text></g>
<g clip-path='url(#cpMHwzMDIuNHwyODh8MA==)'><text x='201.09' y='277.88' style='font-size: 10.00px; font-family: Arial;' textLength='7.22px' lengthAdjust='spacingAndGlyphs'>C</text></g>
<g clip-path='url(#cpMHwzMDIuNHwyODh8MA==)'><text x='208.31' y='277.88' style='font-size: 10.00px; font-family: Arial;' textLength='3.33px' lengthAdjust='spacingAndGlyphs'>)</text></g>
<g clip-path='url(#cpMHwzMDIuNHwyODh8MA==)'><text transform='translate(12.64,170.62) rotate(-90)' style='font-size: 10.00px; font-family: Arial;' textLength='66.70px' lengthAdjust='spacingAndGlyphs'>respiration rate</text></g>
<g clip-path='url(#cpMHwzMDIuNHwyODh8MA==)'><text x='48.46' y='14.07' style='font-size: 12.00px; font-family: Arial;' textLength='80.70px' lengthAdjust='spacingAndGlyphs'>Zostera marina</text></g>
</svg>
