<?xml version='1.0' encoding='UTF-8' ?>
<svg xmlns='http://www.w3.org/2000/svg' xmlns:xlink='http://www.w3.org/1999/xlink' viewBox='0 0 302.40 288.00'>
<defs>
  <style type='text/css'><![CDATA[
    line, polyline, path, rect, circle {
      fill: none;
      stroke: #000000;
      stroke-linecap: round;
      stroke-linejoin: round;
      stroke-miterlimit: 10.00;
    }
  ]]></style>
</defs>
<rect width='100%' height='100%' style='stroke: none; fill: #FFFFFF;'/>
<rect x='0.00' y='0.00' width='302.40' height='288.00' style='stroke-width: 1.07; stroke: #FFFFFF; fill: #FFFFFF;' />
<defs>
  <clipPath id='cpMzUuNTg4N3wyOTYuOTIxfDI1My43NXwyMy4xNzk4'>
    <rect x='35.59' y='23.18' width='261.33' height='230.57' />
  </clipPath>
</defs>
<rect x='35.59' y='23.18' width='261.33' height='230.57' style='stroke-width: 1.07; stroke: none; fill: #FFFFFF;' clip-path='url(#cpMzUuNTg4N3wyOTYuOTIxfDI1My43NXwyMy4xNzk4)' />
<polyline points='35.59,232.23 296.92,232.23 ' style='stroke-width: 0.53; stroke: #EBEBEB; stroke-linecap: butt;' clip-path='url(#cpMzUuNTg4N3wyOTYuOTIxfDI1My43NXwyMy4xNzk4)' />
<polyline points='35.59,170.84 296.92,170.84 ' style='stroke-width: 0.53; stroke: #EBEBEB; stroke-linecap: butt;' clip-path='url(#cpMzUuNTg4N3wyOTYuOTIxfDI1My43NXwyMy4xNzk4)' />
<polyline points='35.59,109.46 296.92,109.46 ' style='stroke-width: 0.53; stroke: #EBEBEB; stroke-linecap: butt;' clip-path='url(#cpMzUuNTg4N3wyOTYuOTIxfDI1My43NXwyMy4xNzk4)' />
<polyline points='35.59,48.08 296.92,48.08 ' style='stroke-width: 0.53; stroke: #EBEBEB; stroke-linecap: butt;' clip-path='url(#cpMzUuNTg4N3wyOTYuOTIxfDI1My43NXwyMy4xNzk4)' />
<polyline points='48.66,253.75 48.66,23.18 ' style='stroke-width: 0.53; stroke: #EBEBEB; stroke-linecap: butt;' clip-path='url(#cpMzUuNTg4N3wyOTYuOTIxfDI1My43NXwyMy4xNzk4)' />
<polyline points='127.85,253.75 127.85,23.18 ' style='stroke-width: 0.53; stroke: #EBEBEB; stroke-linecap: butt;' clip-path='url(#cpMzUuNTg4N3wyOTYuOTIxfDI1My43NXwyMy4xNzk4)' />
<polyline points='207.04,253.75 207.04,23.18 ' style='stroke-width: 0.53; stroke: #EBEBEB; stroke-linecap: butt;' clip-path='url(#cpMzUuNTg4N3wyOTYuOTIxfDI1My43NXwyMy4xNzk4)' />
<polyline points='286.23,253.75 286.23,23.18 ' style='stroke-width: 0.53; stroke: #EBEBEB; stroke-linecap: butt;' clip-path='url(#cpMzUuNTg4N3wyOTYuOTIxfDI1My43NXwyMy4xNzk4)' />
<polyline points='35.59,201.54 296.92,201.54 ' style='stroke-width: 1.07; stroke: #EBEBEB; stroke-linecap: butt;' clip-path='url(#cpMzUuNTg4N3wyOTYuOTIxfDI1My43NXwyMy4xNzk4)' />
<polyline points='35.59,140.15 296.92,140.15 ' style='stroke-width: 1.07; stroke: #EBEBEB; stroke-linecap: butt;' clip-path='url(#cpMzUuNTg4N3wyOTYuOTIxfDI1My43NXwyMy4xNzk4)' />
<polyline points='35.59,78.77 296.92,78.77 ' style='stroke-width: 1.07; stroke: #EBEBEB; stroke-linecap: butt;' clip-path='url(#cpMzUuNTg4N3wyOTYuOTIxfDI1My43NXwyMy4xNzk4)' />
<polyline points='88.25,253.75 88.25,23.18 ' style='stroke-width: 1.07; stroke: #EBEBEB; stroke-linecap: butt;' clip-path='url(#cpMzUuNTg4N3wyOTYuOTIxfDI1My43NXwyMy4xNzk4)' />
<polyline points='167.44,253.75 167.44,23.18 ' style='stroke-width: 1.07; stroke: #EBEBEB; stroke-linecap: butt;' clip-path='url(#cpMzUuNTg4N3wyOTYuOTIxfDI1My43NXwyMy4xNzk4)' />
<polyline points='246.63,253.75 246.63,23.18 ' style='stroke-width: 1.07; stroke: #EBEBEB; stroke-linecap: butt;' clip-path='url(#cpMzUuNTg4N3wyOTYuOTIxfDI1My43NXwyMy4xNzk4)' />
<circle cx='49.71' cy='216.15' r='3.56pt' style='stroke-width: 0.71; stroke: #000000; stroke-opacity: 0.70; fill: #D1EEEE; fill-opacity: 0.70;' clip-path='url(#cpMzUuNTg4N3wyOTYuOTIxfDI1My43NXwyMy4xNzk4)' />
<circle cx='88.69' cy='168.95' r='3.56pt' style='stroke-width: 0.71; stroke: #000000; stroke-opacity: 0.70; fill: #D1EEEE; fill-opacity: 0.70;' clip-path='url(#cpMzUuNTg4N3wyOTYuOTIxfDI1My43NXwyMy4xNzk4)' />
<circle cx='126.35' cy='44.49' r='3.56pt' style='stroke-width: 0.71; stroke: #000000; stroke-opacity: 0.70; fill: #D1EEEE; fill-opacity: 0.70;' clip-path='url(#cpMzUuNTg4N3wyOTYuOTIxfDI1My43NXwyMy4xNzk4)' />
<circle cx='165.46' cy='89.74' r='3.56pt' style='stroke-width: 0.71; stroke: #000000; stroke-opacity: 0.70; fill: #D1EEEE; fill-opacity: 0.70;' clip-path='url(#cpMzUuNTg4N3wyOTYuOTIxfDI1My43NXwyMy4xNzk4)' />
<circle cx='204.21' cy='93.32' r='3.56pt' style='stroke-width: 0.71; stroke: #000000; stroke-opacity: 0.70; fill: #D1EEEE; fill-opacity: 0.70;' clip-path='url(#cpMzUuNTg4N3wyOTYuOTIxfDI1My43NXwyMy4xNzk4)' />
<circle cx='246.06' cy='148.12' r='3.56pt' style='stroke-width: 0.71; stroke: #000000; stroke-opacity: 0.70; fill: #D1EEEE; fill-opacity: 0.70;' clip-path='url(#cpMzUuNTg4N3wyOTYuOTIxfDI1My43NXwyMy4xNzk4)' />
<circle cx='284.95' cy='243.27' r='3.56pt' style='stroke-width: 0.71; stroke: #000000; stroke-opacity: 0.70; fill: #D1EEEE; fill-opacity: 0.70;' clip-path='url(#cpMzUuNTg4N3wyOTYuOTIxfDI1My43NXwyMy4xNzk4)' />
<polyline points='47.47,207.75 48.66,206.93 49.86,206.10 51.05,205.26 52.24,204.41 53.44,203.55 54.63,202.67 55.82,201.79 57.02,200.89 58.21,199.98 59.41,199.05 60.60,198.12 61.79,197.17 62.99,196.21 64.18,195.24 65.37,194.25 66.57,193.25 67.76,192.24 68.96,191.21 70.15,190.17 71.34,189.12 72.54,188.05 73.73,186.97 74.93,185.87 76.12,184.76 77.31,183.63 78.51,182.49 79.70,181.34 80.89,180.17 82.09,178.98 83.28,177.78 84.48,176.56 85.67,175.33 86.86,174.08 88.06,172.82 89.25,171.53 90.45,170.24 91.64,168.92 92.83,167.59 94.03,166.24 95.22,164.88 96.41,163.50 97.61,162.10 98.80,160.68 100.00,159.25 101.19,157.79 102.38,156.32 103.58,154.84 104.77,153.33 105.97,151.80 107.16,150.26 108.35,148.70 109.55,147.12 110.74,145.52 111.93,143.91 113.13,142.27 114.32,140.62 115.52,138.94 116.71,137.25 117.90,135.54 119.10,133.81 120.29,132.07 121.49,130.30 122.68,128.51 123.87,126.71 125.07,124.89 126.26,123.05 127.45,121.19 128.65,119.32 129.84,117.43 131.04,115.52 132.23,113.60 133.42,111.65 134.62,109.70 135.81,107.73 137.01,105.74 138.20,103.74 139.39,101.73 140.59,99.70 141.78,97.67 142.97,95.62 144.17,93.57 145.36,91.50 146.56,89.43 147.75,87.36 148.94,85.28 150.14,83.20 151.33,81.11 152.53,79.03 153.72,76.96 154.91,74.88 156.11,72.82 157.30,70.77 158.49,68.73 159.69,66.70 160.88,64.70 162.08,62.71 163.27,60.76 164.46,58.83 165.66,56.93 166.85,55.07 168.05,53.26 169.24,51.49 170.43,49.77 171.63,48.10 172.82,46.50 174.01,44.96 175.21,43.50 176.40,42.11 177.60,40.80 178.79,39.58 179.98,38.46 181.18,37.44 182.37,36.53 183.57,35.73 184.76,35.05 185.95,34.50 187.15,34.08 188.34,33.80 189.53,33.66 190.73,33.67 191.92,33.84 193.12,34.17 194.31,34.67 195.50,35.33 196.70,36.17 197.89,37.18 199.09,38.37 200.28,39.74 201.47,41.29 202.67,43.02 203.86,44.93 205.05,47.02 206.25,49.28 207.44,51.72 208.64,54.33 209.83,57.10 211.02,60.02 212.22,63.10 213.41,66.32 214.61,69.68 215.80,73.16 216.99,76.76 218.19,80.47 219.38,84.28 220.57,88.17 221.77,92.14 222.96,96.17 224.16,100.26 225.35,104.39 226.54,108.55 227.74,112.74 228.93,116.93 230.13,121.13 231.32,125.31 232.51,129.48 233.71,133.62 234.90,137.73 236.09,141.79 237.29,145.80 238.48,149.76 239.68,153.65 240.87,157.47 242.06,161.22 243.26,164.90 244.45,168.49 245.65,172.00 246.84,175.43 248.03,178.76 249.23,182.01 250.42,185.16 251.61,188.22 252.81,191.19 254.00,194.07 255.20,196.86 256.39,199.55 257.58,202.16 258.78,204.67 259.97,207.10 261.16,209.43 262.36,211.69 263.55,213.86 264.75,215.95 265.94,217.96 267.13,219.89 268.33,221.75 269.52,223.53 270.72,225.24 271.91,226.88 273.10,228.46 274.30,229.97 275.49,231.42 276.68,232.80 277.88,234.13 279.07,235.41 280.27,236.63 281.46,237.79 282.65,238.91 283.85,239.98 285.04,241.00 ' style='stroke-width: 2.77; stroke: #1B9E77; stroke-linecap: butt;' clip-path='url(#cpMzUuNTg4N3wyOTYuOTIxfDI1My43NXwyMy4xNzk4)' />
<g clip-path='url(#cpMzUuNTg4N3wyOTYuOTIxfDI1My43NXwyMy4xNzk4)'><text x='49.71' y='134.36' style='font-size: 8.54px; font-style: italic; font-family: Arial;' textLength='60.01px' lengthAdjust='spacingAndGlyphs'>R^2 sch= 0.67 </text></g>
<g clip-path='url(#cpMzUuNTg4N3wyOTYuOTIxfDI1My43NXwyMy4xNzk4)'><text x='49.71' y='146.65' style='font-size: 8.54px; font-style: italic; font-family: Arial;' textLength='50.28px' lengthAdjust='spacingAndGlyphs'>E sch= 0.65 </text></g>
<g clip-path='url(#cpMzUuNTg4N3wyOTYuOTIxfDI1My43NXwyMy4xNzk4)'><text x='49.71' y='158.94' style='font-size: 8.54px; font-style: italic; font-family: Arial;' textLength='56.78px' lengthAdjust='spacingAndGlyphs'>AIC sch= 9.85</text></g>
<rect x='35.59' y='23.18' width='261.33' height='230.57' style='stroke-width: 1.07; stroke: #333333;' clip-path='url(#cpMzUuNTg4N3wyOTYuOTIxfDI1My43NXwyMy4xNzk4)' />
<defs>
  <clipPath id='cpMHwzMDIuNHwyODh8MA=='>
    <rect x='0.00' y='0.00' width='302.40' height='288.00' />
  </clipPath>
</defs>
<g clip-path='url(#cpMHwzMDIuNHwyODh8MA==)'><text x='25.65' y='204.75' style='font-size: 8.80px; fill: #4D4D4D; font-family: Arial;' textLength='5.01px' lengthAdjust='spacingAndGlyphs'>4</text></g>
<g clip-path='url(#cpMHwzMDIuNHwyODh8MA==)'><text x='25.65' y='143.37' style='font-size: 8.80px; fill: #4D4D4D; font-family: Arial;' textLength='5.01px' lengthAdjust='spacingAndGlyphs'>8</text></g>
<g clip-path='url(#cpMHwzMDIuNHwyODh8MA==)'><text x='20.65' y='81.99' style='font-size: 8.80px; fill: #4D4D4D; font-family: Arial;' textLength='10.01px' lengthAdjust='spacingAndGlyphs'>12</text></g>
<polyline points='32.85,201.54 35.59,201.54 ' style='stroke-width: 1.07; stroke: #333333; stroke-linecap: butt;' clip-path='url(#cpMHwzMDIuNHwyODh8MA==)' />
<polyline points='32.85,140.15 35.59,140.15 ' style='stroke-width: 1.07; stroke: #333333; stroke-linecap: butt;' clip-path='url(#cpMHwzMDIuNHwyODh8MA==)' />
<polyline points='32.85,78.77 35.59,78.77 ' style='stroke-width: 1.07; stroke: #333333; stroke-linecap: butt;' clip-path='url(#cpMHwzMDIuNHwyODh8MA==)' />
<polyline points='88.25,256.49 88.25,253.75 ' style='stroke-width: 1.07; stroke: #333333; stroke-linecap: butt;' clip-path='url(#cpMHwzMDIuNHwyODh8MA==)' />
<polyline points='167.44,256.49 167.44,253.75 ' style='stroke-width: 1.07; stroke: #333333; stroke-linecap: butt;' clip-path='url(#cpMHwzMDIuNHwyODh8MA==)' />
<polyline points='246.63,256.49 246.63,253.75 ' style='stroke-width: 1.07; stroke: #333333; stroke-linecap: butt;' clip-path='url(#cpMHwzMDIuNHwyODh8MA==)' />
<g clip-path='url(#cpMHwzMDIuNHwyODh8MA==)'><text x='83.25' y='265.12' style='font-size: 8.80px; fill: #4D4D4D; font-family: Arial;' textLength='10.01px' lengthAdjust='spacingAndGlyphs'>10</text></g>
<g clip-path='url(#cpMHwzMDIuNHwyODh8MA==)'><text x='162.44' y='265.12' style='font-size: 8.80px; fill: #4D4D4D; font-family: Arial;' textLength='10.01px' lengthAdjust='spacingAndGlyphs'>20</text></g>
<g clip-path='url(#cpMHwzMDIuNHwyODh8MA==)'><text x='241.63' y='265.12' style='font-size: 8.80px; fill: #4D4D4D; font-family: Arial;' textLength='10.01px' lengthAdjust='spacingAndGlyphs'>30</text></g>
<g clip-path='url(#cpMHwzMDIuNHwyODh8MA==)'><text x='127.30' y='277.88' style='font-size: 10.00px; font-family: Arial;' textLength='63.35px' lengthAdjust='spacingAndGlyphs'>Temperature (</text></g>
<g clip-path='url(#cpMHwzMDIuNHwyODh8MA==)'><text x='190.66' y='277.88' style='font-size: 10.00px; font-family: Symbol;' textLength='4.00px' lengthAdjust='spacingAndGlyphs'>°</text></g>
<g clip-path='url(#cpMHwzMDIuNHwyODh8MA==)'><text x='194.66' y='277.88' style='font-size: 10.00px; font-family: Arial;' textLength='7.22px' lengthAdjust='spacingAndGlyphs'>C</text></g>
<g clip-path='url(#cpMHwzMDIuNHwyODh8MA==)'><text x='201.88' y='277.88' style='font-size: 10.00px; font-family: Arial;' textLength='3.33px' lengthAdjust='spacingAndGlyphs'>)</text></g>
<g clip-path='url(#cpMHwzMDIuNHwyODh8MA==)'><text transform='translate(12.64,180.16) rotate(-90)' style='font-size: 10.00px; font-family: Arial;' textLength='83.39px' lengthAdjust='spacingAndGlyphs'>net photosynthesis</text></g>
<g clip-path='url(#cpMHwzMDIuNHwyODh8MA==)'><text x='35.59' y='14.07' style='font-size: 12.00px; font-family: Arial;' textLength='99.39px' lengthAdjust='spacingAndGlyphs'>Isochrysis galbana</text></g>
</svg>
