<?xml version='1.0' encoding='UTF-8' ?>
<svg xmlns='http://www.w3.org/2000/svg' xmlns:xlink='http://www.w3.org/1999/xlink' viewBox='0 0 302.40 288.00'>
<defs>
  <style type='text/css'><![CDATA[
    line, polyline, path, rect, circle {
      fill: none;
      stroke: #000000;
      stroke-linecap: round;
      stroke-linejoin: round;
      stroke-miterlimit: 10.00;
    }
  ]]></style>
</defs>
<rect width='100%' height='100%' style='stroke: none; fill: #FFFFFF;'/>
<rect x='-0.00' y='0.00' width='302.40' height='288.00' style='stroke-width: 1.07; stroke: #FFFFFF; fill: #FFFFFF;' />
<defs>
  <clipPath id='cpNTguMzYxMXwyOTYuOTIxfDI1My43NXwyMy4wMzky'>
    <rect x='58.36' y='23.04' width='238.56' height='230.71' />
  </clipPath>
</defs>
<rect x='58.36' y='23.04' width='238.56' height='230.71' style='stroke-width: 1.07; stroke: none; fill: #FFFFFF;' clip-path='url(#cpNTguMzYxMXwyOTYuOTIxfDI1My43NXwyMy4wMzky)' />
<polyline points='58.36,224.28 296.92,224.28 ' style='stroke-width: 0.53; stroke: #EBEBEB; stroke-linecap: butt;' clip-path='url(#cpNTguMzYxMXwyOTYuOTIxfDI1My43NXwyMy4wMzky)' />
<polyline points='58.36,182.64 296.92,182.64 ' style='stroke-width: 0.53; stroke: #EBEBEB; stroke-linecap: butt;' clip-path='url(#cpNTguMzYxMXwyOTYuOTIxfDI1My43NXwyMy4wMzky)' />
<polyline points='58.36,140.99 296.92,140.99 ' style='stroke-width: 0.53; stroke: #EBEBEB; stroke-linecap: butt;' clip-path='url(#cpNTguMzYxMXwyOTYuOTIxfDI1My43NXwyMy4wMzky)' />
<polyline points='58.36,99.35 296.92,99.35 ' style='stroke-width: 0.53; stroke: #EBEBEB; stroke-linecap: butt;' clip-path='url(#cpNTguMzYxMXwyOTYuOTIxfDI1My43NXwyMy4wMzky)' />
<polyline points='58.36,57.71 296.92,57.71 ' style='stroke-width: 0.53; stroke: #EBEBEB; stroke-linecap: butt;' clip-path='url(#cpNTguMzYxMXwyOTYuOTIxfDI1My43NXwyMy4wMzky)' />
<polyline points='105.25,253.75 105.25,23.04 ' style='stroke-width: 0.53; stroke: #EBEBEB; stroke-linecap: butt;' clip-path='url(#cpNTguMzYxMXwyOTYuOTIxfDI1My43NXwyMy4wMzky)' />
<polyline points='163.87,253.75 163.87,23.04 ' style='stroke-width: 0.53; stroke: #EBEBEB; stroke-linecap: butt;' clip-path='url(#cpNTguMzYxMXwyOTYuOTIxfDI1My43NXwyMy4wMzky)' />
<polyline points='222.48,253.75 222.48,23.04 ' style='stroke-width: 0.53; stroke: #EBEBEB; stroke-linecap: butt;' clip-path='url(#cpNTguMzYxMXwyOTYuOTIxfDI1My43NXwyMy4wMzky)' />
<polyline points='281.09,253.75 281.09,23.04 ' style='stroke-width: 0.53; stroke: #EBEBEB; stroke-linecap: butt;' clip-path='url(#cpNTguMzYxMXwyOTYuOTIxfDI1My43NXwyMy4wMzky)' />
<polyline points='58.36,245.10 296.92,245.10 ' style='stroke-width: 1.07; stroke: #EBEBEB; stroke-linecap: butt;' clip-path='url(#cpNTguMzYxMXwyOTYuOTIxfDI1My43NXwyMy4wMzky)' />
<polyline points='58.36,203.46 296.92,203.46 ' style='stroke-width: 1.07; stroke: #EBEBEB; stroke-linecap: butt;' clip-path='url(#cpNTguMzYxMXwyOTYuOTIxfDI1My43NXwyMy4wMzky)' />
<polyline points='58.36,161.81 296.92,161.81 ' style='stroke-width: 1.07; stroke: #EBEBEB; stroke-linecap: butt;' clip-path='url(#cpNTguMzYxMXwyOTYuOTIxfDI1My43NXwyMy4wMzky)' />
<polyline points='58.36,120.17 296.92,120.17 ' style='stroke-width: 1.07; stroke: #EBEBEB; stroke-linecap: butt;' clip-path='url(#cpNTguMzYxMXwyOTYuOTIxfDI1My43NXwyMy4wMzky)' />
<polyline points='58.36,78.53 296.92,78.53 ' style='stroke-width: 1.07; stroke: #EBEBEB; stroke-linecap: butt;' clip-path='url(#cpNTguMzYxMXwyOTYuOTIxfDI1My43NXwyMy4wMzky)' />
<polyline points='58.36,36.89 296.92,36.89 ' style='stroke-width: 1.07; stroke: #EBEBEB; stroke-linecap: butt;' clip-path='url(#cpNTguMzYxMXwyOTYuOTIxfDI1My43NXwyMy4wMzky)' />
<polyline points='75.95,253.75 75.95,23.04 ' style='stroke-width: 1.07; stroke: #EBEBEB; stroke-linecap: butt;' clip-path='url(#cpNTguMzYxMXwyOTYuOTIxfDI1My43NXwyMy4wMzky)' />
<polyline points='134.56,253.75 134.56,23.04 ' style='stroke-width: 1.07; stroke: #EBEBEB; stroke-linecap: butt;' clip-path='url(#cpNTguMzYxMXwyOTYuOTIxfDI1My43NXwyMy4wMzky)' />
<polyline points='193.17,253.75 193.17,23.04 ' style='stroke-width: 1.07; stroke: #EBEBEB; stroke-linecap: butt;' clip-path='url(#cpNTguMzYxMXwyOTYuOTIxfDI1My43NXwyMy4wMzky)' />
<polyline points='251.79,253.75 251.79,23.04 ' style='stroke-width: 1.07; stroke: #EBEBEB; stroke-linecap: butt;' clip-path='url(#cpNTguMzYxMXwyOTYuOTIxfDI1My43NXwyMy4wMzky)' />
<circle cx='74.51' cy='236.32' r='3.56pt' style='stroke-width: 0.71; stroke: #000000; stroke-opacity: 0.70; fill: #D1EEEE; fill-opacity: 0.70;' clip-path='url(#cpNTguMzYxMXwyOTYuOTIxfDI1My43NXwyMy4wMzky)' />
<circle cx='103.32' cy='233.17' r='3.56pt' style='stroke-width: 0.71; stroke: #000000; stroke-opacity: 0.70; fill: #D1EEEE; fill-opacity: 0.70;' clip-path='url(#cpNTguMzYxMXwyOTYuOTIxfDI1My43NXwyMy4wMzky)' />
<circle cx='134.74' cy='93.18' r='3.56pt' style='stroke-width: 0.71; stroke: #000000; stroke-opacity: 0.70; fill: #D1EEEE; fill-opacity: 0.70;' clip-path='url(#cpNTguMzYxMXwyOTYuOTIxfDI1My43NXwyMy4wMzky)' />
<circle cx='163.23' cy='149.33' r='3.56pt' style='stroke-width: 0.71; stroke: #000000; stroke-opacity: 0.70; fill: #D1EEEE; fill-opacity: 0.70;' clip-path='url(#cpNTguMzYxMXwyOTYuOTIxfDI1My43NXwyMy4wMzky)' />
<circle cx='192.79' cy='40.03' r='3.56pt' style='stroke-width: 0.71; stroke: #000000; stroke-opacity: 0.70; fill: #D1EEEE; fill-opacity: 0.70;' clip-path='url(#cpNTguMzYxMXwyOTYuOTIxfDI1My43NXwyMy4wMzky)' />
<circle cx='221.74' cy='195.68' r='3.56pt' style='stroke-width: 0.71; stroke: #000000; stroke-opacity: 0.70; fill: #D1EEEE; fill-opacity: 0.70;' clip-path='url(#cpNTguMzYxMXwyOTYuOTIxfDI1My43NXwyMy4wMzky)' />
<circle cx='251.54' cy='207.45' r='3.56pt' style='stroke-width: 0.71; stroke: #000000; stroke-opacity: 0.70; fill: #D1EEEE; fill-opacity: 0.70;' clip-path='url(#cpNTguMzYxMXwyOTYuOTIxfDI1My43NXwyMy4wMzky)' />
<circle cx='282.39' cy='243.26' r='3.56pt' style='stroke-width: 0.71; stroke: #000000; stroke-opacity: 0.70; fill: #D1EEEE; fill-opacity: 0.70;' clip-path='url(#cpNTguMzYxMXwyOTYuOTIxfDI1My43NXwyMy4wMzky)' />
<polyline points='69.20,238.44 70.29,238.18 71.38,237.91 72.47,237.63 73.56,237.34 74.65,237.04 75.74,236.73 76.83,236.40 77.92,236.07 79.01,235.72 80.10,235.36 81.19,234.98 82.28,234.60 83.37,234.19 84.46,233.78 85.55,233.34 86.64,232.89 87.73,232.43 88.82,231.95 89.91,231.45 91.00,230.93 92.09,230.39 93.18,229.83 94.27,229.25 95.36,228.66 96.45,228.04 97.54,227.39 98.63,226.73 99.72,226.04 100.81,225.32 101.90,224.58 102.99,223.81 104.08,223.02 105.17,222.19 106.26,221.34 107.35,220.45 108.44,219.54 109.53,218.59 110.62,217.61 111.71,216.59 112.80,215.53 113.89,214.44 114.98,213.31 116.07,212.14 117.16,210.93 118.25,209.68 119.34,208.38 120.43,207.04 121.52,205.65 122.61,204.21 123.70,202.73 124.79,201.19 125.87,199.59 126.96,197.95 128.05,196.24 129.14,194.48 130.23,192.66 131.32,190.78 132.41,188.83 133.50,186.82 134.59,184.74 135.68,182.59 136.77,180.37 137.86,178.08 138.95,175.72 140.04,173.28 141.13,170.76 142.22,168.16 143.31,165.48 144.40,162.72 145.49,159.88 146.58,156.95 147.67,153.94 148.76,150.84 149.85,147.65 150.94,144.38 152.03,141.01 153.12,137.57 154.21,134.03 155.30,130.42 156.39,126.72 157.48,122.94 158.57,119.09 159.66,115.17 160.75,111.18 161.84,107.13 162.93,103.03 164.02,98.88 165.11,94.71 166.20,90.51 167.29,86.30 168.38,82.10 169.47,77.92 170.56,73.79 171.65,69.71 172.74,65.71 173.83,61.82 174.92,58.07 176.01,54.47 177.10,51.05 178.19,47.85 179.28,44.90 180.37,42.22 181.46,39.84 182.54,37.80 183.63,36.13 184.72,34.84 185.81,33.97 186.90,33.53 187.99,33.54 189.08,34.01 190.17,34.96 191.26,36.38 192.35,38.27 193.44,40.62 194.53,43.42 195.62,46.65 196.71,50.29 197.80,54.31 198.89,58.66 199.98,63.33 201.07,68.27 202.16,73.44 203.25,78.81 204.34,84.33 205.43,89.96 206.52,95.67 207.61,101.42 208.70,107.17 209.79,112.90 210.88,118.58 211.97,124.19 213.06,129.69 214.15,135.08 215.24,140.33 216.33,145.43 217.42,150.38 218.51,155.17 219.60,159.78 220.69,164.22 221.78,168.47 222.87,172.55 223.96,176.46 225.05,180.18 226.14,183.74 227.23,187.12 228.32,190.34 229.41,193.40 230.50,196.30 231.59,199.06 232.68,201.67 233.77,204.14 234.86,206.48 235.95,208.69 237.04,210.78 238.13,212.75 239.22,214.61 240.30,216.37 241.39,218.03 242.48,219.60 243.57,221.08 244.66,222.47 245.75,223.78 246.84,225.02 247.93,226.19 249.02,227.28 250.11,228.32 251.20,229.29 252.29,230.21 253.38,231.07 254.47,231.89 255.56,232.65 256.65,233.38 257.74,234.06 258.83,234.69 259.92,235.30 261.01,235.86 262.10,236.40 263.19,236.90 264.28,237.37 265.37,237.82 266.46,238.24 267.55,238.63 268.64,239.01 269.73,239.36 270.82,239.69 271.91,240.00 273.00,240.29 274.09,240.56 275.18,240.82 276.27,241.07 277.36,241.30 278.45,241.51 279.54,241.72 280.63,241.91 281.72,242.09 282.81,242.26 283.90,242.42 284.99,242.57 286.08,242.72 ' style='stroke-width: 2.77; stroke: #1B9E77; stroke-linecap: butt;' clip-path='url(#cpNTguMzYxMXwyOTYuOTIxfDI1My43NXwyMy4wMzky)' />
<g clip-path='url(#cpNTguMzYxMXwyOTYuOTIxfDI1My43NXwyMy4wMzky)'><text x='74.51' y='165.73' style='font-size: 8.54px; font-style: italic; font-family: Arial;' textLength='60.01px' lengthAdjust='spacingAndGlyphs'>R^2 sch= 0.69 </text></g>
<g clip-path='url(#cpNTguMzYxMXwyOTYuOTIxfDI1My43NXwyMy4wMzky)'><text x='74.51' y='178.02' style='font-size: 8.54px; font-style: italic; font-family: Arial;' textLength='50.28px' lengthAdjust='spacingAndGlyphs'>E sch= 1.41 </text></g>
<g clip-path='url(#cpNTguMzYxMXwyOTYuOTIxfDI1My43NXwyMy4wMzky)'><text x='74.51' y='190.31' style='font-size: 8.54px; font-style: italic; font-family: Arial;' textLength='56.78px' lengthAdjust='spacingAndGlyphs'>AIC sch= 23.6</text></g>
<rect x='58.36' y='23.04' width='238.56' height='230.71' style='stroke-width: 1.07; stroke: #333333;' clip-path='url(#cpNTguMzYxMXwyOTYuOTIxfDI1My43NXwyMy4wMzky)' />
<defs>
  <clipPath id='cpMHwzMDIuNHwyODh8MA=='>
    <rect x='0.00' y='0.00' width='302.40' height='288.00' />
  </clipPath>
</defs>
<g clip-path='url(#cpMHwzMDIuNHwyODh8MA==)'><text x='20.65' y='248.32' style='font-size: 8.80px; fill: #4D4D4D; font-family: Arial;' textLength='32.78px' lengthAdjust='spacingAndGlyphs'>0.0e+00</text></g>
<g clip-path='url(#cpMHwzMDIuNHwyODh8MA==)'><text x='22.91' y='206.68' style='font-size: 8.80px; fill: #4D4D4D; font-family: Arial;' textLength='30.52px' lengthAdjust='spacingAndGlyphs'>5.0e-07</text></g>
<g clip-path='url(#cpMHwzMDIuNHwyODh8MA==)'><text x='22.91' y='165.03' style='font-size: 8.80px; fill: #4D4D4D; font-family: Arial;' textLength='30.52px' lengthAdjust='spacingAndGlyphs'>1.0e-06</text></g>
<g clip-path='url(#cpMHwzMDIuNHwyODh8MA==)'><text x='22.91' y='123.39' style='font-size: 8.80px; fill: #4D4D4D; font-family: Arial;' textLength='30.52px' lengthAdjust='spacingAndGlyphs'>1.5e-06</text></g>
<g clip-path='url(#cpMHwzMDIuNHwyODh8MA==)'><text x='22.91' y='81.75' style='font-size: 8.80px; fill: #4D4D4D; font-family: Arial;' textLength='30.52px' lengthAdjust='spacingAndGlyphs'>2.0e-06</text></g>
<g clip-path='url(#cpMHwzMDIuNHwyODh8MA==)'><text x='22.91' y='40.11' style='font-size: 8.80px; fill: #4D4D4D; font-family: Arial;' textLength='30.52px' lengthAdjust='spacingAndGlyphs'>2.5e-06</text></g>
<polyline points='55.62,245.10 58.36,245.10 ' style='stroke-width: 1.07; stroke: #333333; stroke-linecap: butt;' clip-path='url(#cpMHwzMDIuNHwyODh8MA==)' />
<polyline points='55.62,203.46 58.36,203.46 ' style='stroke-width: 1.07; stroke: #333333; stroke-linecap: butt;' clip-path='url(#cpMHwzMDIuNHwyODh8MA==)' />
<polyline points='55.62,161.81 58.36,161.81 ' style='stroke-width: 1.07; stroke: #333333; stroke-linecap: butt;' clip-path='url(#cpMHwzMDIuNHwyODh8MA==)' />
<polyline points='55.62,120.17 58.36,120.17 ' style='stroke-width: 1.07; stroke: #333333; stroke-linecap: butt;' clip-path='url(#cpMHwzMDIuNHwyODh8MA==)' />
<polyline points='55.62,78.53 58.36,78.53 ' style='stroke-width: 1.07; stroke: #333333; stroke-linecap: butt;' clip-path='url(#cpMHwzMDIuNHwyODh8MA==)' />
<polyline points='55.62,36.89 58.36,36.89 ' style='stroke-width: 1.07; stroke: #333333; stroke-linecap: butt;' clip-path='url(#cpMHwzMDIuNHwyODh8MA==)' />
<polyline points='75.95,256.49 75.95,253.75 ' style='stroke-width: 1.07; stroke: #333333; stroke-linecap: butt;' clip-path='url(#cpMHwzMDIuNHwyODh8MA==)' />
<polyline points='134.56,256.49 134.56,253.75 ' style='stroke-width: 1.07; stroke: #333333; stroke-linecap: butt;' clip-path='url(#cpMHwzMDIuNHwyODh8MA==)' />
<polyline points='193.17,256.49 193.17,253.75 ' style='stroke-width: 1.07; stroke: #333333; stroke-linecap: butt;' clip-path='url(#cpMHwzMDIuNHwyODh8MA==)' />
<polyline points='251.79,256.49 251.79,253.75 ' style='stroke-width: 1.07; stroke: #333333; stroke-linecap: butt;' clip-path='url(#cpMHwzMDIuNHwyODh8MA==)' />
<g clip-path='url(#cpMHwzMDIuNHwyODh8MA==)'><text x='70.94' y='265.12' style='font-size: 8.80px; fill: #4D4D4D; font-family: Arial;' textLength='10.01px' lengthAdjust='spacingAndGlyphs'>10</text></g>
<g clip-path='url(#cpMHwzMDIuNHwyODh8MA==)'><text x='129.55' y='265.12' style='font-size: 8.80px; fill: #4D4D4D; font-family: Arial;' textLength='10.01px' lengthAdjust='spacingAndGlyphs'>20</text></g>
<g clip-path='url(#cpMHwzMDIuNHwyODh8MA==)'><text x='188.17' y='265.12' style='font-size: 8.80px; fill: #4D4D4D; font-family: Arial;' textLength='10.01px' lengthAdjust='spacingAndGlyphs'>30</text></g>
<g clip-path='url(#cpMHwzMDIuNHwyODh8MA==)'><text x='246.78' y='265.12' style='font-size: 8.80px; fill: #4D4D4D; font-family: Arial;' textLength='10.01px' lengthAdjust='spacingAndGlyphs'>40</text></g>
<g clip-path='url(#cpMHwzMDIuNHwyODh8MA==)'><text x='138.69' y='277.88' style='font-size: 10.00px; font-family: Arial;' textLength='63.35px' lengthAdjust='spacingAndGlyphs'>Temperature (</text></g>
<g clip-path='url(#cpMHwzMDIuNHwyODh8MA==)'><text x='202.04' y='277.88' style='font-size: 10.00px; font-family: Symbol;' textLength='4.00px' lengthAdjust='spacingAndGlyphs'>°</text></g>
<g clip-path='url(#cpMHwzMDIuNHwyODh8MA==)'><text x='206.04' y='277.88' style='font-size: 10.00px; font-family: Arial;' textLength='7.22px' lengthAdjust='spacingAndGlyphs'>C</text></g>
<g clip-path='url(#cpMHwzMDIuNHwyODh8MA==)'><text x='213.26' y='277.88' style='font-size: 10.00px; font-family: Arial;' textLength='3.33px' lengthAdjust='spacingAndGlyphs'>)</text></g>
<g clip-path='url(#cpMHwzMDIuNHwyODh8MA==)'><text transform='translate(12.64,180.09) rotate(-90)' style='font-size: 10.00px; font-family: Arial;' textLength='83.39px' lengthAdjust='spacingAndGlyphs'>net photosynthesis</text></g>
<g clip-path='url(#cpMHwzMDIuNHwyODh8MA==)'><text x='58.36' y='14.07' style='font-size: 12.00px; font-family: Arial;' textLength='100.07px' lengthAdjust='spacingAndGlyphs'>Spirodela punctata</text></g>
</svg>
