<?xml version='1.0' encoding='UTF-8' ?>
<svg xmlns='http://www.w3.org/2000/svg' xmlns:xlink='http://www.w3.org/1999/xlink' viewBox='0 0 302.40 288.00'>
<defs>
  <style type='text/css'><![CDATA[
    line, polyline, path, rect, circle {
      fill: none;
      stroke: #000000;
      stroke-linecap: round;
      stroke-linejoin: round;
      stroke-miterlimit: 10.00;
    }
  ]]></style>
</defs>
<rect width='100%' height='100%' style='stroke: none; fill: #FFFFFF;'/>
<rect x='0.00' y='0.00' width='302.40' height='288.00' style='stroke-width: 1.07; stroke: #FFFFFF; fill: #FFFFFF;' />
<defs>
  <clipPath id='cpNDguNTk2NXwyOTYuOTIxfDI1My43NXwyMy4xNzk4'>
    <rect x='48.60' y='23.18' width='248.32' height='230.57' />
  </clipPath>
</defs>
<rect x='48.60' y='23.18' width='248.32' height='230.57' style='stroke-width: 1.07; stroke: none; fill: #FFFFFF;' clip-path='url(#cpNDguNTk2NXwyOTYuOTIxfDI1My43NXwyMy4xNzk4)' />
<polyline points='48.60,214.11 296.92,214.11 ' style='stroke-width: 0.53; stroke: #EBEBEB; stroke-linecap: butt;' clip-path='url(#cpNDguNTk2NXwyOTYuOTIxfDI1My43NXwyMy4xNzk4)' />
<polyline points='48.60,173.40 296.92,173.40 ' style='stroke-width: 0.53; stroke: #EBEBEB; stroke-linecap: butt;' clip-path='url(#cpNDguNTk2NXwyOTYuOTIxfDI1My43NXwyMy4xNzk4)' />
<polyline points='48.60,132.69 296.92,132.69 ' style='stroke-width: 0.53; stroke: #EBEBEB; stroke-linecap: butt;' clip-path='url(#cpNDguNTk2NXwyOTYuOTIxfDI1My43NXwyMy4xNzk4)' />
<polyline points='48.60,91.97 296.92,91.97 ' style='stroke-width: 0.53; stroke: #EBEBEB; stroke-linecap: butt;' clip-path='url(#cpNDguNTk2NXwyOTYuOTIxfDI1My43NXwyMy4xNzk4)' />
<polyline points='48.60,51.26 296.92,51.26 ' style='stroke-width: 0.53; stroke: #EBEBEB; stroke-linecap: butt;' clip-path='url(#cpNDguNTk2NXwyOTYuOTIxfDI1My43NXwyMy4xNzk4)' />
<polyline points='81.79,253.75 81.79,23.18 ' style='stroke-width: 0.53; stroke: #EBEBEB; stroke-linecap: butt;' clip-path='url(#cpNDguNTk2NXwyOTYuOTIxfDI1My43NXwyMy4xNzk4)' />
<polyline points='148.19,253.75 148.19,23.18 ' style='stroke-width: 0.53; stroke: #EBEBEB; stroke-linecap: butt;' clip-path='url(#cpNDguNTk2NXwyOTYuOTIxfDI1My43NXwyMy4xNzk4)' />
<polyline points='214.59,253.75 214.59,23.18 ' style='stroke-width: 0.53; stroke: #EBEBEB; stroke-linecap: butt;' clip-path='url(#cpNDguNTk2NXwyOTYuOTIxfDI1My43NXwyMy4xNzk4)' />
<polyline points='280.99,253.75 280.99,23.18 ' style='stroke-width: 0.53; stroke: #EBEBEB; stroke-linecap: butt;' clip-path='url(#cpNDguNTk2NXwyOTYuOTIxfDI1My43NXwyMy4xNzk4)' />
<polyline points='48.60,234.47 296.92,234.47 ' style='stroke-width: 1.07; stroke: #EBEBEB; stroke-linecap: butt;' clip-path='url(#cpNDguNTk2NXwyOTYuOTIxfDI1My43NXwyMy4xNzk4)' />
<polyline points='48.60,193.76 296.92,193.76 ' style='stroke-width: 1.07; stroke: #EBEBEB; stroke-linecap: butt;' clip-path='url(#cpNDguNTk2NXwyOTYuOTIxfDI1My43NXwyMy4xNzk4)' />
<polyline points='48.60,153.04 296.92,153.04 ' style='stroke-width: 1.07; stroke: #EBEBEB; stroke-linecap: butt;' clip-path='url(#cpNDguNTk2NXwyOTYuOTIxfDI1My43NXwyMy4xNzk4)' />
<polyline points='48.60,112.33 296.92,112.33 ' style='stroke-width: 1.07; stroke: #EBEBEB; stroke-linecap: butt;' clip-path='url(#cpNDguNTk2NXwyOTYuOTIxfDI1My43NXwyMy4xNzk4)' />
<polyline points='48.60,71.62 296.92,71.62 ' style='stroke-width: 1.07; stroke: #EBEBEB; stroke-linecap: butt;' clip-path='url(#cpNDguNTk2NXwyOTYuOTIxfDI1My43NXwyMy4xNzk4)' />
<polyline points='48.60,30.90 296.92,30.90 ' style='stroke-width: 1.07; stroke: #EBEBEB; stroke-linecap: butt;' clip-path='url(#cpNDguNTk2NXwyOTYuOTIxfDI1My43NXwyMy4xNzk4)' />
<polyline points='114.99,253.75 114.99,23.18 ' style='stroke-width: 1.07; stroke: #EBEBEB; stroke-linecap: butt;' clip-path='url(#cpNDguNTk2NXwyOTYuOTIxfDI1My43NXwyMy4xNzk4)' />
<polyline points='181.39,253.75 181.39,23.18 ' style='stroke-width: 1.07; stroke: #EBEBEB; stroke-linecap: butt;' clip-path='url(#cpNDguNTk2NXwyOTYuOTIxfDI1My43NXwyMy4xNzk4)' />
<polyline points='247.79,253.75 247.79,23.18 ' style='stroke-width: 1.07; stroke: #EBEBEB; stroke-linecap: butt;' clip-path='url(#cpNDguNTk2NXwyOTYuOTIxfDI1My43NXwyMy4xNzk4)' />
<circle cx='62.40' cy='135.60' r='3.56pt' style='stroke-width: 0.71; stroke: #000000; stroke-opacity: 0.70; fill: #D1EEEE; fill-opacity: 0.70;' clip-path='url(#cpNDguNTk2NXwyOTYuOTIxfDI1My43NXwyMy4xNzk4)' />
<circle cx='114.80' cy='123.69' r='3.56pt' style='stroke-width: 0.71; stroke: #000000; stroke-opacity: 0.70; fill: #D1EEEE; fill-opacity: 0.70;' clip-path='url(#cpNDguNTk2NXwyOTYuOTIxfDI1My43NXwyMy4xNzk4)' />
<circle cx='169.47' cy='33.66' r='3.56pt' style='stroke-width: 0.71; stroke: #000000; stroke-opacity: 0.70; fill: #D1EEEE; fill-opacity: 0.70;' clip-path='url(#cpNDguNTk2NXwyOTYuOTIxfDI1My43NXwyMy4xNzk4)' />
<circle cx='222.15' cy='199.59' r='3.56pt' style='stroke-width: 0.71; stroke: #000000; stroke-opacity: 0.70; fill: #D1EEEE; fill-opacity: 0.70;' clip-path='url(#cpNDguNTk2NXwyOTYuOTIxfDI1My43NXwyMy4xNzk4)' />
<circle cx='275.40' cy='226.98' r='3.56pt' style='stroke-width: 0.71; stroke: #000000; stroke-opacity: 0.70; fill: #D1EEEE; fill-opacity: 0.70;' clip-path='url(#cpNDguNTk2NXwyOTYuOTIxfDI1My43NXwyMy4xNzk4)' />
<polyline points='59.88,147.80 61.02,146.34 62.15,144.88 63.29,143.42 64.42,141.96 65.56,140.50 66.69,139.05 67.82,137.60 68.96,136.15 70.09,134.71 71.23,133.27 72.36,131.84 73.50,130.42 74.63,129.00 75.77,127.59 76.90,126.18 78.03,124.79 79.17,123.40 80.30,122.02 81.44,120.66 82.57,119.30 83.71,117.96 84.84,116.63 85.98,115.32 87.11,114.02 88.24,112.73 89.38,111.46 90.51,110.20 91.65,108.97 92.78,107.75 93.92,106.55 95.05,105.37 96.19,104.21 97.32,103.07 98.45,101.95 99.59,100.86 100.72,99.79 101.86,98.74 102.99,97.72 104.13,96.73 105.26,95.76 106.40,94.82 107.53,93.90 108.66,93.02 109.80,92.17 110.93,91.34 112.07,90.55 113.20,89.79 114.34,89.06 115.47,88.36 116.60,87.70 117.74,87.07 118.87,86.48 120.01,85.92 121.14,85.40 122.28,84.92 123.41,84.47 124.55,84.06 125.68,83.69 126.81,83.36 127.95,83.06 129.08,82.81 130.22,82.59 131.35,82.42 132.49,82.28 133.62,82.18 134.76,82.13 135.89,82.12 137.02,82.14 138.16,82.21 139.29,82.32 140.43,82.47 141.56,82.66 142.70,82.89 143.83,83.17 144.97,83.48 146.10,83.84 147.23,84.23 148.37,84.67 149.50,85.14 150.64,85.66 151.77,86.21 152.91,86.80 154.04,87.44 155.18,88.11 156.31,88.81 157.44,89.56 158.58,90.34 159.71,91.16 160.85,92.01 161.98,92.90 163.12,93.82 164.25,94.78 165.38,95.77 166.52,96.79 167.65,97.84 168.79,98.92 169.92,100.04 171.06,101.18 172.19,102.35 173.33,103.55 174.46,104.78 175.59,106.03 176.73,107.30 177.86,108.61 179.00,109.93 180.13,111.28 181.27,112.65 182.40,114.03 183.54,115.44 184.67,116.87 185.80,118.32 186.94,119.78 188.07,121.26 189.21,122.76 190.34,124.27 191.48,125.79 192.61,127.33 193.75,128.88 194.88,130.44 196.01,132.01 197.15,133.59 198.28,135.18 199.42,136.77 200.55,138.38 201.69,139.99 202.82,141.60 203.95,143.22 205.09,144.85 206.22,146.48 207.36,148.11 208.49,149.74 209.63,151.37 210.76,153.01 211.90,154.64 213.03,156.28 214.16,157.91 215.30,159.54 216.43,161.17 217.57,162.80 218.70,164.42 219.84,166.04 220.97,167.66 222.11,169.27 223.24,170.87 224.37,172.47 225.51,174.06 226.64,175.65 227.78,177.22 228.91,178.80 230.05,180.36 231.18,181.91 232.32,183.46 233.45,185.00 234.58,186.53 235.72,188.04 236.85,189.55 237.99,191.05 239.12,192.54 240.26,194.02 241.39,195.49 242.53,196.94 243.66,198.39 244.79,199.83 245.93,201.25 247.06,202.66 248.20,204.06 249.33,205.45 250.47,206.82 251.60,208.19 252.73,209.54 253.87,210.88 255.00,212.21 256.14,213.52 257.27,214.82 258.41,216.11 259.54,217.39 260.68,218.65 261.81,219.90 262.94,221.14 264.08,222.37 265.21,223.58 266.35,224.78 267.48,225.97 268.62,227.15 269.75,228.31 270.89,229.46 272.02,230.60 273.15,231.72 274.29,232.83 275.42,233.93 276.56,235.02 277.69,236.09 278.83,237.15 279.96,238.20 281.10,239.24 282.23,240.27 283.36,241.28 284.50,242.28 285.63,243.27 ' style='stroke-width: 2.77; stroke: #1B9E77; stroke-linecap: butt;' clip-path='url(#cpNDguNTk2NXwyOTYuOTIxfDI1My43NXwyMy4xNzk4)' />
<g clip-path='url(#cpNDguNTk2NXwyOTYuOTIxfDI1My43NXwyMy4xNzk4)'><text x='62.40' y='134.83' style='font-size: 8.54px; font-style: italic; font-family: Arial;' textLength='60.01px' lengthAdjust='spacingAndGlyphs'>R^2 sch= 0.71 </text></g>
<g clip-path='url(#cpNDguNTk2NXwyOTYuOTIxfDI1My43NXwyMy4xNzk4)'><text x='62.40' y='147.12' style='font-size: 8.54px; font-style: italic; font-family: Arial;' textLength='50.28px' lengthAdjust='spacingAndGlyphs'>E sch= 0.97 </text></g>
<g clip-path='url(#cpNDguNTk2NXwyOTYuOTIxfDI1My43NXwyMy4xNzk4)'><text x='62.40' y='159.41' style='font-size: 8.54px; font-style: italic; font-family: Arial;' textLength='56.78px' lengthAdjust='spacingAndGlyphs'>AIC sch= 7.02</text></g>
<rect x='48.60' y='23.18' width='248.32' height='230.57' style='stroke-width: 1.07; stroke: #333333;' clip-path='url(#cpNDguNTk2NXwyOTYuOTIxfDI1My43NXwyMy4xNzk4)' />
<defs>
  <clipPath id='cpMHwzMDIuNHwyODh8MA=='>
    <rect x='0.00' y='0.00' width='302.40' height='288.00' />
  </clipPath>
</defs>
<g clip-path='url(#cpMHwzMDIuNHwyODh8MA==)'><text x='20.65' y='237.69' style='font-size: 8.80px; fill: #4D4D4D; font-family: Arial;' textLength='23.02px' lengthAdjust='spacingAndGlyphs'>2e-06</text></g>
<g clip-path='url(#cpMHwzMDIuNHwyODh8MA==)'><text x='20.65' y='196.98' style='font-size: 8.80px; fill: #4D4D4D; font-family: Arial;' textLength='23.02px' lengthAdjust='spacingAndGlyphs'>3e-06</text></g>
<g clip-path='url(#cpMHwzMDIuNHwyODh8MA==)'><text x='20.65' y='156.26' style='font-size: 8.80px; fill: #4D4D4D; font-family: Arial;' textLength='23.02px' lengthAdjust='spacingAndGlyphs'>4e-06</text></g>
<g clip-path='url(#cpMHwzMDIuNHwyODh8MA==)'><text x='20.65' y='115.55' style='font-size: 8.80px; fill: #4D4D4D; font-family: Arial;' textLength='23.02px' lengthAdjust='spacingAndGlyphs'>5e-06</text></g>
<g clip-path='url(#cpMHwzMDIuNHwyODh8MA==)'><text x='20.65' y='74.83' style='font-size: 8.80px; fill: #4D4D4D; font-family: Arial;' textLength='23.02px' lengthAdjust='spacingAndGlyphs'>6e-06</text></g>
<g clip-path='url(#cpMHwzMDIuNHwyODh8MA==)'><text x='20.65' y='34.12' style='font-size: 8.80px; fill: #4D4D4D; font-family: Arial;' textLength='23.02px' lengthAdjust='spacingAndGlyphs'>7e-06</text></g>
<polyline points='45.86,234.47 48.60,234.47 ' style='stroke-width: 1.07; stroke: #333333; stroke-linecap: butt;' clip-path='url(#cpMHwzMDIuNHwyODh8MA==)' />
<polyline points='45.86,193.76 48.60,193.76 ' style='stroke-width: 1.07; stroke: #333333; stroke-linecap: butt;' clip-path='url(#cpMHwzMDIuNHwyODh8MA==)' />
<polyline points='45.86,153.04 48.60,153.04 ' style='stroke-width: 1.07; stroke: #333333; stroke-linecap: butt;' clip-path='url(#cpMHwzMDIuNHwyODh8MA==)' />
<polyline points='45.86,112.33 48.60,112.33 ' style='stroke-width: 1.07; stroke: #333333; stroke-linecap: butt;' clip-path='url(#cpMHwzMDIuNHwyODh8MA==)' />
<polyline points='45.86,71.62 48.60,71.62 ' style='stroke-width: 1.07; stroke: #333333; stroke-linecap: butt;' clip-path='url(#cpMHwzMDIuNHwyODh8MA==)' />
<polyline points='45.86,30.90 48.60,30.90 ' style='stroke-width: 1.07; stroke: #333333; stroke-linecap: butt;' clip-path='url(#cpMHwzMDIuNHwyODh8MA==)' />
<polyline points='114.99,256.49 114.99,253.75 ' style='stroke-width: 1.07; stroke: #333333; stroke-linecap: butt;' clip-path='url(#cpMHwzMDIuNHwyODh8MA==)' />
<polyline points='181.39,256.49 181.39,253.75 ' style='stroke-width: 1.07; stroke: #333333; stroke-linecap: butt;' clip-path='url(#cpMHwzMDIuNHwyODh8MA==)' />
<polyline points='247.79,256.49 247.79,253.75 ' style='stroke-width: 1.07; stroke: #333333; stroke-linecap: butt;' clip-path='url(#cpMHwzMDIuNHwyODh8MA==)' />
<g clip-path='url(#cpMHwzMDIuNHwyODh8MA==)'><text x='109.99' y='265.12' style='font-size: 8.80px; fill: #4D4D4D; font-family: Arial;' textLength='10.01px' lengthAdjust='spacingAndGlyphs'>20</text></g>
<g clip-path='url(#cpMHwzMDIuNHwyODh8MA==)'><text x='176.38' y='265.12' style='font-size: 8.80px; fill: #4D4D4D; font-family: Arial;' textLength='10.01px' lengthAdjust='spacingAndGlyphs'>25</text></g>
<g clip-path='url(#cpMHwzMDIuNHwyODh8MA==)'><text x='242.78' y='265.12' style='font-size: 8.80px; fill: #4D4D4D; font-family: Arial;' textLength='10.01px' lengthAdjust='spacingAndGlyphs'>30</text></g>
<g clip-path='url(#cpMHwzMDIuNHwyODh8MA==)'><text x='133.81' y='277.88' style='font-size: 10.00px; font-family: Arial;' textLength='63.35px' lengthAdjust='spacingAndGlyphs'>Temperature (</text></g>
<g clip-path='url(#cpMHwzMDIuNHwyODh8MA==)'><text x='197.16' y='277.88' style='font-size: 10.00px; font-family: Symbol;' textLength='4.00px' lengthAdjust='spacingAndGlyphs'>°</text></g>
<g clip-path='url(#cpMHwzMDIuNHwyODh8MA==)'><text x='201.16' y='277.88' style='font-size: 10.00px; font-family: Arial;' textLength='7.22px' lengthAdjust='spacingAndGlyphs'>C</text></g>
<g clip-path='url(#cpMHwzMDIuNHwyODh8MA==)'><text x='208.38' y='277.88' style='font-size: 10.00px; font-family: Arial;' textLength='3.33px' lengthAdjust='spacingAndGlyphs'>)</text></g>
<g clip-path='url(#cpMHwzMDIuNHwyODh8MA==)'><text transform='translate(12.64,180.16) rotate(-90)' style='font-size: 10.00px; font-family: Arial;' textLength='83.39px' lengthAdjust='spacingAndGlyphs'>net photosynthesis</text></g>
<g clip-path='url(#cpMHwzMDIuNHwyODh8MA==)'><text x='48.60' y='14.07' style='font-size: 12.00px; font-family: Arial;' textLength='70.72px' lengthAdjust='spacingAndGlyphs'>Egeria densa</text></g>
</svg>
