<?xml version='1.0' encoding='UTF-8' ?>
<svg xmlns='http://www.w3.org/2000/svg' xmlns:xlink='http://www.w3.org/1999/xlink' viewBox='0 0 302.40 288.00'>
<defs>
  <style type='text/css'><![CDATA[
    line, polyline, path, rect, circle {
      fill: none;
      stroke: #000000;
      stroke-linecap: round;
      stroke-linejoin: round;
      stroke-miterlimit: 10.00;
    }
  ]]></style>
</defs>
<rect width='100%' height='100%' style='stroke: none; fill: #FFFFFF;'/>
<rect x='0.00' y='0.00' width='302.40' height='288.00' style='stroke-width: 1.07; stroke: #FFFFFF; fill: #FFFFFF;' />
<defs>
  <clipPath id='cpNDguMDk5OXwyOTYuOTIxfDI1My43NXwyMy4xNzk4'>
    <rect x='48.10' y='23.18' width='248.82' height='230.57' />
  </clipPath>
</defs>
<rect x='48.10' y='23.18' width='248.82' height='230.57' style='stroke-width: 1.07; stroke: none; fill: #FFFFFF;' clip-path='url(#cpNDguMDk5OXwyOTYuOTIxfDI1My43NXwyMy4xNzk4)' />
<polyline points='48.10,223.32 296.92,223.32 ' style='stroke-width: 0.53; stroke: #EBEBEB; stroke-linecap: butt;' clip-path='url(#cpNDguMDk5OXwyOTYuOTIxfDI1My43NXwyMy4xNzk4)' />
<polyline points='48.10,167.41 296.92,167.41 ' style='stroke-width: 0.53; stroke: #EBEBEB; stroke-linecap: butt;' clip-path='url(#cpNDguMDk5OXwyOTYuOTIxfDI1My43NXwyMy4xNzk4)' />
<polyline points='48.10,111.49 296.92,111.49 ' style='stroke-width: 0.53; stroke: #EBEBEB; stroke-linecap: butt;' clip-path='url(#cpNDguMDk5OXwyOTYuOTIxfDI1My43NXwyMy4xNzk4)' />
<polyline points='48.10,55.58 296.92,55.58 ' style='stroke-width: 0.53; stroke: #EBEBEB; stroke-linecap: butt;' clip-path='url(#cpNDguMDk5OXwyOTYuOTIxfDI1My43NXwyMy4xNzk4)' />
<polyline points='82.88,253.75 82.88,23.18 ' style='stroke-width: 0.53; stroke: #EBEBEB; stroke-linecap: butt;' clip-path='url(#cpNDguMDk5OXwyOTYuOTIxfDI1My43NXwyMy4xNzk4)' />
<polyline points='139.43,253.75 139.43,23.18 ' style='stroke-width: 0.53; stroke: #EBEBEB; stroke-linecap: butt;' clip-path='url(#cpNDguMDk5OXwyOTYuOTIxfDI1My43NXwyMy4xNzk4)' />
<polyline points='195.98,253.75 195.98,23.18 ' style='stroke-width: 0.53; stroke: #EBEBEB; stroke-linecap: butt;' clip-path='url(#cpNDguMDk5OXwyOTYuOTIxfDI1My43NXwyMy4xNzk4)' />
<polyline points='252.53,253.75 252.53,23.18 ' style='stroke-width: 0.53; stroke: #EBEBEB; stroke-linecap: butt;' clip-path='url(#cpNDguMDk5OXwyOTYuOTIxfDI1My43NXwyMy4xNzk4)' />
<polyline points='48.10,251.28 296.92,251.28 ' style='stroke-width: 1.07; stroke: #EBEBEB; stroke-linecap: butt;' clip-path='url(#cpNDguMDk5OXwyOTYuOTIxfDI1My43NXwyMy4xNzk4)' />
<polyline points='48.10,195.36 296.92,195.36 ' style='stroke-width: 1.07; stroke: #EBEBEB; stroke-linecap: butt;' clip-path='url(#cpNDguMDk5OXwyOTYuOTIxfDI1My43NXwyMy4xNzk4)' />
<polyline points='48.10,139.45 296.92,139.45 ' style='stroke-width: 1.07; stroke: #EBEBEB; stroke-linecap: butt;' clip-path='url(#cpNDguMDk5OXwyOTYuOTIxfDI1My43NXwyMy4xNzk4)' />
<polyline points='48.10,83.54 296.92,83.54 ' style='stroke-width: 1.07; stroke: #EBEBEB; stroke-linecap: butt;' clip-path='url(#cpNDguMDk5OXwyOTYuOTIxfDI1My43NXwyMy4xNzk4)' />
<polyline points='48.10,27.62 296.92,27.62 ' style='stroke-width: 1.07; stroke: #EBEBEB; stroke-linecap: butt;' clip-path='url(#cpNDguMDk5OXwyOTYuOTIxfDI1My43NXwyMy4xNzk4)' />
<polyline points='54.60,253.75 54.60,23.18 ' style='stroke-width: 1.07; stroke: #EBEBEB; stroke-linecap: butt;' clip-path='url(#cpNDguMDk5OXwyOTYuOTIxfDI1My43NXwyMy4xNzk4)' />
<polyline points='111.15,253.75 111.15,23.18 ' style='stroke-width: 1.07; stroke: #EBEBEB; stroke-linecap: butt;' clip-path='url(#cpNDguMDk5OXwyOTYuOTIxfDI1My43NXwyMy4xNzk4)' />
<polyline points='167.70,253.75 167.70,23.18 ' style='stroke-width: 1.07; stroke: #EBEBEB; stroke-linecap: butt;' clip-path='url(#cpNDguMDk5OXwyOTYuOTIxfDI1My43NXwyMy4xNzk4)' />
<polyline points='224.25,253.75 224.25,23.18 ' style='stroke-width: 1.07; stroke: #EBEBEB; stroke-linecap: butt;' clip-path='url(#cpNDguMDk5OXwyOTYuOTIxfDI1My43NXwyMy4xNzk4)' />
<polyline points='280.80,253.75 280.80,23.18 ' style='stroke-width: 1.07; stroke: #EBEBEB; stroke-linecap: butt;' clip-path='url(#cpNDguMDk5OXwyOTYuOTIxfDI1My43NXwyMy4xNzk4)' />
<circle cx='59.73' cy='214.85' r='3.56pt' style='stroke-width: 0.71; stroke: #000000; stroke-opacity: 0.70; fill: #D1EEEE; fill-opacity: 0.70;' clip-path='url(#cpNDguMDk5OXwyOTYuOTIxfDI1My43NXwyMy4xNzk4)' />
<circle cx='157.54' cy='119.15' r='3.56pt' style='stroke-width: 0.71; stroke: #000000; stroke-opacity: 0.70; fill: #D1EEEE; fill-opacity: 0.70;' clip-path='url(#cpNDguMDk5OXwyOTYuOTIxfDI1My43NXwyMy4xNzk4)' />
<circle cx='173.60' cy='109.72' r='3.56pt' style='stroke-width: 0.71; stroke: #000000; stroke-opacity: 0.70; fill: #D1EEEE; fill-opacity: 0.70;' clip-path='url(#cpNDguMDk5OXwyOTYuOTIxfDI1My43NXwyMy4xNzk4)' />
<circle cx='193.06' cy='93.19' r='3.56pt' style='stroke-width: 0.71; stroke: #000000; stroke-opacity: 0.70; fill: #D1EEEE; fill-opacity: 0.70;' clip-path='url(#cpNDguMDk5OXwyOTYuOTIxfDI1My43NXwyMy4xNzk4)' />
<circle cx='218.38' cy='47.06' r='3.56pt' style='stroke-width: 0.71; stroke: #000000; stroke-opacity: 0.70; fill: #D1EEEE; fill-opacity: 0.70;' clip-path='url(#cpNDguMDk5OXwyOTYuOTIxfDI1My43NXwyMy4xNzk4)' />
<circle cx='249.48' cy='120.56' r='3.56pt' style='stroke-width: 0.71; stroke: #000000; stroke-opacity: 0.70; fill: #D1EEEE; fill-opacity: 0.70;' clip-path='url(#cpNDguMDk5OXwyOTYuOTIxfDI1My43NXwyMy4xNzk4)' />
<circle cx='266.48' cy='189.28' r='3.56pt' style='stroke-width: 0.71; stroke: #000000; stroke-opacity: 0.70; fill: #D1EEEE; fill-opacity: 0.70;' clip-path='url(#cpNDguMDk5OXwyOTYuOTIxfDI1My43NXwyMy4xNzk4)' />
<circle cx='283.97' cy='242.62' r='3.56pt' style='stroke-width: 0.71; stroke: #000000; stroke-opacity: 0.70; fill: #D1EEEE; fill-opacity: 0.70;' clip-path='url(#cpNDguMDk5OXwyOTYuOTIxfDI1My43NXwyMy4xNzk4)' />
<polyline points='59.41,212.25 60.55,211.73 61.68,211.20 62.82,210.68 63.96,210.14 65.09,209.60 66.23,209.05 67.37,208.49 68.50,207.93 69.64,207.36 70.78,206.79 71.91,206.21 73.05,205.62 74.19,205.02 75.32,204.42 76.46,203.81 77.60,203.20 78.73,202.57 79.87,201.94 81.01,201.30 82.14,200.66 83.28,200.01 84.42,199.35 85.55,198.68 86.69,198.00 87.83,197.32 88.96,196.63 90.10,195.93 91.24,195.22 92.37,194.51 93.51,193.78 94.65,193.05 95.78,192.31 96.92,191.56 98.06,190.81 99.19,190.04 100.33,189.27 101.47,188.49 102.60,187.70 103.74,186.90 104.88,186.09 106.01,185.27 107.15,184.44 108.29,183.60 109.42,182.76 110.56,181.90 111.70,181.04 112.83,180.16 113.97,179.28 115.11,178.38 116.24,177.48 117.38,176.57 118.52,175.64 119.65,174.71 120.79,173.76 121.93,172.81 123.06,171.84 124.20,170.87 125.34,169.88 126.47,168.88 127.61,167.87 128.75,166.85 129.88,165.82 131.02,164.78 132.16,163.73 133.29,162.66 134.43,161.59 135.57,160.50 136.70,159.40 137.84,158.29 138.98,157.17 140.11,156.03 141.25,154.88 142.39,153.72 143.52,152.55 144.66,151.37 145.80,150.17 146.93,148.96 148.07,147.74 149.21,146.50 150.34,145.25 151.48,143.99 152.62,142.71 153.75,141.42 154.89,140.12 156.03,138.81 157.16,137.48 158.30,136.13 159.44,134.77 160.58,133.40 161.71,132.01 162.85,130.61 163.99,129.20 165.12,127.77 166.26,126.32 167.40,124.86 168.53,123.38 169.67,121.89 170.81,120.39 171.94,118.87 173.08,117.33 174.22,115.78 175.35,114.21 176.49,112.62 177.63,111.02 178.76,109.41 179.90,107.78 181.04,106.13 182.17,104.46 183.31,102.78 184.45,101.09 185.58,99.37 186.72,97.64 187.86,95.90 188.99,94.14 190.13,92.36 191.27,90.56 192.40,88.75 193.54,86.93 194.68,85.09 195.81,83.23 196.95,81.37 198.09,79.48 199.22,77.59 200.36,75.68 201.50,73.76 202.63,71.84 203.77,69.90 204.91,67.96 206.04,66.01 207.18,64.06 208.32,62.11 209.45,60.16 210.59,58.22 211.73,56.29 212.86,54.37 214.00,52.48 215.14,50.61 216.27,48.77 217.41,46.98 218.55,45.24 219.68,43.56 220.82,41.96 221.96,40.44 223.09,39.02 224.23,37.72 225.37,36.57 226.50,35.57 227.64,34.75 228.78,34.14 229.91,33.77 231.05,33.66 232.19,33.85 233.32,34.37 234.46,35.25 235.60,36.53 236.73,38.24 237.87,40.42 239.01,43.08 240.14,46.27 241.28,49.99 242.42,54.26 243.55,59.08 244.69,64.45 245.83,70.34 246.96,76.73 248.10,83.57 249.24,90.81 250.37,98.39 251.51,106.23 252.65,114.26 253.78,122.39 254.92,130.55 256.06,138.66 257.19,146.63 258.33,154.41 259.47,161.94 260.60,169.16 261.74,176.05 262.88,182.56 264.01,188.68 265.15,194.39 266.29,199.71 267.42,204.63 268.56,209.16 269.70,213.32 270.83,217.11 271.97,220.57 273.11,223.72 274.24,226.57 275.38,229.14 276.52,231.46 277.65,233.56 278.79,235.44 279.93,237.13 281.06,238.64 282.20,240.00 283.34,241.21 284.47,242.30 285.61,243.27 ' style='stroke-width: 2.77; stroke: #1B9E77; stroke-linecap: butt;' clip-path='url(#cpNDguMDk5OXwyOTYuOTIxfDI1My43NXwyMy4xNzk4)' />
<g clip-path='url(#cpNDguMDk5OXwyOTYuOTIxfDI1My43NXwyMy4xNzk4)'><text x='59.73' y='132.98' style='font-size: 8.54px; font-style: italic; font-family: Arial;' textLength='60.01px' lengthAdjust='spacingAndGlyphs'>R^2 sch= 0.96 </text></g>
<g clip-path='url(#cpNDguMDk5OXwyOTYuOTIxfDI1My43NXwyMy4xNzk4)'><text x='59.73' y='145.27' style='font-size: 8.54px; font-style: italic; font-family: Arial;' textLength='55.29px' lengthAdjust='spacingAndGlyphs'>E sch= 0.488 </text></g>
<g clip-path='url(#cpNDguMDk5OXwyOTYuOTIxfDI1My43NXwyMy4xNzk4)'><text x='59.73' y='157.56' style='font-size: 8.54px; font-style: italic; font-family: Arial;' textLength='59.78px' lengthAdjust='spacingAndGlyphs'>AIC sch= -1.16</text></g>
<rect x='48.10' y='23.18' width='248.82' height='230.57' style='stroke-width: 1.07; stroke: #333333;' clip-path='url(#cpNDguMDk5OXwyOTYuOTIxfDI1My43NXwyMy4xNzk4)' />
<defs>
  <clipPath id='cpMHwzMDIuNHwyODh8MA=='>
    <rect x='0.00' y='0.00' width='302.40' height='288.00' />
  </clipPath>
</defs>
<g clip-path='url(#cpMHwzMDIuNHwyODh8MA==)'><text x='20.65' y='254.50' style='font-size: 8.80px; fill: #4D4D4D; font-family: Arial;' textLength='22.52px' lengthAdjust='spacingAndGlyphs'>0.000</text></g>
<g clip-path='url(#cpMHwzMDIuNHwyODh8MA==)'><text x='20.65' y='198.58' style='font-size: 8.80px; fill: #4D4D4D; font-family: Arial;' textLength='22.52px' lengthAdjust='spacingAndGlyphs'>0.004</text></g>
<g clip-path='url(#cpMHwzMDIuNHwyODh8MA==)'><text x='20.65' y='142.67' style='font-size: 8.80px; fill: #4D4D4D; font-family: Arial;' textLength='22.52px' lengthAdjust='spacingAndGlyphs'>0.008</text></g>
<g clip-path='url(#cpMHwzMDIuNHwyODh8MA==)'><text x='20.65' y='86.75' style='font-size: 8.80px; fill: #4D4D4D; font-family: Arial;' textLength='22.52px' lengthAdjust='spacingAndGlyphs'>0.012</text></g>
<g clip-path='url(#cpMHwzMDIuNHwyODh8MA==)'><text x='20.65' y='30.84' style='font-size: 8.80px; fill: #4D4D4D; font-family: Arial;' textLength='22.52px' lengthAdjust='spacingAndGlyphs'>0.016</text></g>
<polyline points='45.36,251.28 48.10,251.28 ' style='stroke-width: 1.07; stroke: #333333; stroke-linecap: butt;' clip-path='url(#cpMHwzMDIuNHwyODh8MA==)' />
<polyline points='45.36,195.36 48.10,195.36 ' style='stroke-width: 1.07; stroke: #333333; stroke-linecap: butt;' clip-path='url(#cpMHwzMDIuNHwyODh8MA==)' />
<polyline points='45.36,139.45 48.10,139.45 ' style='stroke-width: 1.07; stroke: #333333; stroke-linecap: butt;' clip-path='url(#cpMHwzMDIuNHwyODh8MA==)' />
<polyline points='45.36,83.54 48.10,83.54 ' style='stroke-width: 1.07; stroke: #333333; stroke-linecap: butt;' clip-path='url(#cpMHwzMDIuNHwyODh8MA==)' />
<polyline points='45.36,27.62 48.10,27.62 ' style='stroke-width: 1.07; stroke: #333333; stroke-linecap: butt;' clip-path='url(#cpMHwzMDIuNHwyODh8MA==)' />
<polyline points='54.60,256.49 54.60,253.75 ' style='stroke-width: 1.07; stroke: #333333; stroke-linecap: butt;' clip-path='url(#cpMHwzMDIuNHwyODh8MA==)' />
<polyline points='111.15,256.49 111.15,253.75 ' style='stroke-width: 1.07; stroke: #333333; stroke-linecap: butt;' clip-path='url(#cpMHwzMDIuNHwyODh8MA==)' />
<polyline points='167.70,256.49 167.70,253.75 ' style='stroke-width: 1.07; stroke: #333333; stroke-linecap: butt;' clip-path='url(#cpMHwzMDIuNHwyODh8MA==)' />
<polyline points='224.25,256.49 224.25,253.75 ' style='stroke-width: 1.07; stroke: #333333; stroke-linecap: butt;' clip-path='url(#cpMHwzMDIuNHwyODh8MA==)' />
<polyline points='280.80,256.49 280.80,253.75 ' style='stroke-width: 1.07; stroke: #333333; stroke-linecap: butt;' clip-path='url(#cpMHwzMDIuNHwyODh8MA==)' />
<g clip-path='url(#cpMHwzMDIuNHwyODh8MA==)'><text x='49.60' y='265.12' style='font-size: 8.80px; fill: #4D4D4D; font-family: Arial;' textLength='10.01px' lengthAdjust='spacingAndGlyphs'>20</text></g>
<g clip-path='url(#cpMHwzMDIuNHwyODh8MA==)'><text x='106.15' y='265.12' style='font-size: 8.80px; fill: #4D4D4D; font-family: Arial;' textLength='10.01px' lengthAdjust='spacingAndGlyphs'>30</text></g>
<g clip-path='url(#cpMHwzMDIuNHwyODh8MA==)'><text x='162.70' y='265.12' style='font-size: 8.80px; fill: #4D4D4D; font-family: Arial;' textLength='10.01px' lengthAdjust='spacingAndGlyphs'>40</text></g>
<g clip-path='url(#cpMHwzMDIuNHwyODh8MA==)'><text x='219.25' y='265.12' style='font-size: 8.80px; fill: #4D4D4D; font-family: Arial;' textLength='10.01px' lengthAdjust='spacingAndGlyphs'>50</text></g>
<g clip-path='url(#cpMHwzMDIuNHwyODh8MA==)'><text x='275.80' y='265.12' style='font-size: 8.80px; fill: #4D4D4D; font-family: Arial;' textLength='10.01px' lengthAdjust='spacingAndGlyphs'>60</text></g>
<g clip-path='url(#cpMHwzMDIuNHwyODh8MA==)'><text x='133.56' y='277.88' style='font-size: 10.00px; font-family: Arial;' textLength='63.35px' lengthAdjust='spacingAndGlyphs'>Temperature (</text></g>
<g clip-path='url(#cpMHwzMDIuNHwyODh8MA==)'><text x='196.91' y='277.88' style='font-size: 10.00px; font-family: Symbol;' textLength='4.00px' lengthAdjust='spacingAndGlyphs'>°</text></g>
<g clip-path='url(#cpMHwzMDIuNHwyODh8MA==)'><text x='200.91' y='277.88' style='font-size: 10.00px; font-family: Arial;' textLength='7.22px' lengthAdjust='spacingAndGlyphs'>C</text></g>
<g clip-path='url(#cpMHwzMDIuNHwyODh8MA==)'><text x='208.13' y='277.88' style='font-size: 10.00px; font-family: Arial;' textLength='3.33px' lengthAdjust='spacingAndGlyphs'>)</text></g>
<g clip-path='url(#cpMHwzMDIuNHwyODh8MA==)'><text transform='translate(12.64,180.16) rotate(-90)' style='font-size: 10.00px; font-family: Arial;' textLength='83.39px' lengthAdjust='spacingAndGlyphs'>net photosynthesis</text></g>
<g clip-path='url(#cpMHwzMDIuNHwyODh8MA==)'><text x='48.10' y='14.07' style='font-size: 12.00px; font-family: Arial;' textLength='112.04px' lengthAdjust='spacingAndGlyphs'>Cyanidium caldarium</text></g>
</svg>
