<?xml version='1.0' encoding='UTF-8' ?>
<svg xmlns='http://www.w3.org/2000/svg' xmlns:xlink='http://www.w3.org/1999/xlink' viewBox='0 0 302.40 288.00'>
<defs>
  <style type='text/css'><![CDATA[
    line, polyline, path, rect, circle {
      fill: none;
      stroke: #000000;
      stroke-linecap: round;
      stroke-linejoin: round;
      stroke-miterlimit: 10.00;
    }
  ]]></style>
</defs>
<rect width='100%' height='100%' style='stroke: none; fill: #FFFFFF;'/>
<rect x='0.00' y='0.00' width='302.40' height='288.00' style='stroke-width: 1.07; stroke: #FFFFFF; fill: #FFFFFF;' />
<defs>
  <clipPath id='cpNDguNTk2NXwyOTYuOTIxfDI1My43NXwyMy4xNzk4'>
    <rect x='48.60' y='23.18' width='248.32' height='230.57' />
  </clipPath>
</defs>
<rect x='48.60' y='23.18' width='248.32' height='230.57' style='stroke-width: 1.07; stroke: none; fill: #FFFFFF;' clip-path='url(#cpNDguNTk2NXwyOTYuOTIxfDI1My43NXwyMy4xNzk4)' />
<polyline points='48.60,214.46 296.92,214.46 ' style='stroke-width: 0.53; stroke: #EBEBEB; stroke-linecap: butt;' clip-path='url(#cpNDguNTk2NXwyOTYuOTIxfDI1My43NXwyMy4xNzk4)' />
<polyline points='48.60,133.70 296.92,133.70 ' style='stroke-width: 0.53; stroke: #EBEBEB; stroke-linecap: butt;' clip-path='url(#cpNDguNTk2NXwyOTYuOTIxfDI1My43NXwyMy4xNzk4)' />
<polyline points='48.60,52.94 296.92,52.94 ' style='stroke-width: 0.53; stroke: #EBEBEB; stroke-linecap: butt;' clip-path='url(#cpNDguNTk2NXwyOTYuOTIxfDI1My43NXwyMy4xNzk4)' />
<polyline points='54.40,253.75 54.40,23.18 ' style='stroke-width: 0.53; stroke: #EBEBEB; stroke-linecap: butt;' clip-path='url(#cpNDguNTk2NXwyOTYuOTIxfDI1My43NXwyMy4xNzk4)' />
<polyline points='118.90,253.75 118.90,23.18 ' style='stroke-width: 0.53; stroke: #EBEBEB; stroke-linecap: butt;' clip-path='url(#cpNDguNTk2NXwyOTYuOTIxfDI1My43NXwyMy4xNzk4)' />
<polyline points='183.40,253.75 183.40,23.18 ' style='stroke-width: 0.53; stroke: #EBEBEB; stroke-linecap: butt;' clip-path='url(#cpNDguNTk2NXwyOTYuOTIxfDI1My43NXwyMy4xNzk4)' />
<polyline points='247.90,253.75 247.90,23.18 ' style='stroke-width: 0.53; stroke: #EBEBEB; stroke-linecap: butt;' clip-path='url(#cpNDguNTk2NXwyOTYuOTIxfDI1My43NXwyMy4xNzk4)' />
<polyline points='48.60,174.08 296.92,174.08 ' style='stroke-width: 1.07; stroke: #EBEBEB; stroke-linecap: butt;' clip-path='url(#cpNDguNTk2NXwyOTYuOTIxfDI1My43NXwyMy4xNzk4)' />
<polyline points='48.60,93.32 296.92,93.32 ' style='stroke-width: 1.07; stroke: #EBEBEB; stroke-linecap: butt;' clip-path='url(#cpNDguNTk2NXwyOTYuOTIxfDI1My43NXwyMy4xNzk4)' />
<polyline points='86.65,253.75 86.65,23.18 ' style='stroke-width: 1.07; stroke: #EBEBEB; stroke-linecap: butt;' clip-path='url(#cpNDguNTk2NXwyOTYuOTIxfDI1My43NXwyMy4xNzk4)' />
<polyline points='151.15,253.75 151.15,23.18 ' style='stroke-width: 1.07; stroke: #EBEBEB; stroke-linecap: butt;' clip-path='url(#cpNDguNTk2NXwyOTYuOTIxfDI1My43NXwyMy4xNzk4)' />
<polyline points='215.65,253.75 215.65,23.18 ' style='stroke-width: 1.07; stroke: #EBEBEB; stroke-linecap: butt;' clip-path='url(#cpNDguNTk2NXwyOTYuOTIxfDI1My43NXwyMy4xNzk4)' />
<polyline points='280.15,253.75 280.15,23.18 ' style='stroke-width: 1.07; stroke: #EBEBEB; stroke-linecap: butt;' clip-path='url(#cpNDguNTk2NXwyOTYuOTIxfDI1My43NXwyMy4xNzk4)' />
<circle cx='60.87' cy='92.74' r='3.56pt' style='stroke-width: 0.71; stroke: #000000; stroke-opacity: 0.70; fill: #D1EEEE; fill-opacity: 0.70;' clip-path='url(#cpNDguNTk2NXwyOTYuOTIxfDI1My43NXwyMy4xNzk4)' />
<circle cx='98.45' cy='54.93' r='3.56pt' style='stroke-width: 0.71; stroke: #000000; stroke-opacity: 0.70; fill: #D1EEEE; fill-opacity: 0.70;' clip-path='url(#cpNDguNTk2NXwyOTYuOTIxfDI1My43NXwyMy4xNzk4)' />
<circle cx='143.56' cy='88.01' r='3.56pt' style='stroke-width: 0.71; stroke: #000000; stroke-opacity: 0.70; fill: #D1EEEE; fill-opacity: 0.70;' clip-path='url(#cpNDguNTk2NXwyOTYuOTIxfDI1My43NXwyMy4xNzk4)' />
<circle cx='189.79' cy='64.38' r='3.56pt' style='stroke-width: 0.71; stroke: #000000; stroke-opacity: 0.70; fill: #D1EEEE; fill-opacity: 0.70;' clip-path='url(#cpNDguNTk2NXwyOTYuOTIxfDI1My43NXwyMy4xNzk4)' />
<circle cx='234.14' cy='33.66' r='3.56pt' style='stroke-width: 0.71; stroke: #000000; stroke-opacity: 0.70; fill: #D1EEEE; fill-opacity: 0.70;' clip-path='url(#cpNDguNTk2NXwyOTYuOTIxfDI1My43NXwyMy4xNzk4)' />
<circle cx='280.38' cy='199.08' r='3.56pt' style='stroke-width: 0.71; stroke: #000000; stroke-opacity: 0.70; fill: #D1EEEE; fill-opacity: 0.70;' clip-path='url(#cpNDguNTk2NXwyOTYuOTIxfDI1My43NXwyMy4xNzk4)' />
<polyline points='59.88,87.85 61.02,87.59 62.15,87.32 63.29,87.05 64.42,86.79 65.56,86.52 66.69,86.25 67.82,85.98 68.96,85.72 70.09,85.45 71.23,85.18 72.36,84.91 73.50,84.64 74.63,84.38 75.77,84.11 76.90,83.84 78.03,83.57 79.17,83.30 80.30,83.03 81.44,82.77 82.57,82.50 83.71,82.23 84.84,81.96 85.98,81.69 87.11,81.42 88.24,81.15 89.38,80.88 90.51,80.61 91.65,80.34 92.78,80.07 93.92,79.81 95.05,79.54 96.19,79.27 97.32,79.00 98.45,78.73 99.59,78.46 100.72,78.19 101.86,77.92 102.99,77.65 104.13,77.38 105.26,77.11 106.40,76.84 107.53,76.57 108.66,76.29 109.80,76.02 110.93,75.75 112.07,75.48 113.20,75.21 114.34,74.94 115.47,74.67 116.60,74.40 117.74,74.13 118.87,73.86 120.01,73.58 121.14,73.31 122.28,73.04 123.41,72.77 124.55,72.50 125.68,72.23 126.81,71.96 127.95,71.68 129.08,71.41 130.22,71.14 131.35,70.87 132.49,70.60 133.62,70.32 134.76,70.05 135.89,69.78 137.02,69.51 138.16,69.23 139.29,68.96 140.43,68.69 141.56,68.42 142.70,68.14 143.83,67.87 144.97,67.60 146.10,67.32 147.23,67.05 148.37,66.78 149.50,66.51 150.64,66.23 151.77,65.96 152.91,65.69 154.04,65.41 155.18,65.14 156.31,64.86 157.44,64.59 158.58,64.32 159.71,64.04 160.85,63.77 161.98,63.50 163.12,63.22 164.25,62.95 165.38,62.67 166.52,62.40 167.65,62.13 168.79,61.85 169.92,61.58 171.06,61.30 172.19,61.03 173.33,60.75 174.46,60.48 175.59,60.20 176.73,59.93 177.86,59.65 179.00,59.38 180.13,59.10 181.27,58.83 182.40,58.55 183.54,58.28 184.67,58.00 185.80,57.73 186.94,57.45 188.07,57.18 189.21,56.90 190.34,56.63 191.48,56.35 192.61,56.08 193.75,55.80 194.88,55.53 196.01,55.25 197.15,54.97 198.28,54.70 199.42,54.42 200.55,54.15 201.69,53.87 202.82,53.59 203.95,53.32 205.09,53.04 206.22,52.77 207.36,52.49 208.49,52.21 209.63,51.94 210.76,51.66 211.90,51.38 213.03,51.11 214.16,50.83 215.30,50.55 216.43,50.28 217.57,50.00 218.70,49.72 219.84,49.45 220.97,49.17 222.11,48.89 223.24,48.61 224.37,48.34 225.51,48.06 226.64,47.78 227.78,47.51 228.91,47.23 230.05,46.95 231.18,46.67 232.32,46.40 233.45,46.12 234.58,45.84 235.72,45.56 236.85,45.29 237.99,45.01 239.12,44.73 240.26,44.45 241.39,44.18 242.53,43.90 243.66,43.62 244.79,43.34 245.93,43.07 247.06,42.79 248.20,42.51 249.33,42.24 250.47,41.97 251.60,41.70 252.73,41.43 253.87,41.17 255.00,40.92 256.14,40.69 257.27,40.47 258.41,40.29 259.54,40.15 260.68,40.09 261.81,40.12 262.94,40.32 264.08,40.74 265.21,41.49 266.35,42.73 267.48,44.68 268.62,47.64 269.75,51.99 270.89,58.24 272.02,66.93 273.15,78.58 274.29,93.48 275.42,111.50 276.56,131.88 277.69,153.29 278.83,174.11 279.96,192.90 281.10,208.76 282.23,221.42 283.36,231.06 284.50,238.17 285.63,243.27 ' style='stroke-width: 2.77; stroke: #1B9E77; stroke-linecap: butt;' clip-path='url(#cpNDguNTk2NXwyOTYuOTIxfDI1My43NXwyMy4xNzk4)' />
<g clip-path='url(#cpNDguNTk2NXwyOTYuOTIxfDI1My43NXwyMy4xNzk4)'><text x='60.87' y='79.73' style='font-size: 8.54px; font-style: italic; font-family: Arial;' textLength='60.01px' lengthAdjust='spacingAndGlyphs'>R^2 sch= 0.93 </text></g>
<g clip-path='url(#cpNDguNTk2NXwyOTYuOTIxfDI1My43NXwyMy4xNzk4)'><text x='60.87' y='92.02' style='font-size: 8.54px; font-style: italic; font-family: Arial;' textLength='55.29px' lengthAdjust='spacingAndGlyphs'>E sch= 0.061 </text></g>
<g clip-path='url(#cpNDguNTk2NXwyOTYuOTIxfDI1My43NXwyMy4xNzk4)'><text x='60.87' y='104.31' style='font-size: 8.54px; font-style: italic; font-family: Arial;' textLength='59.78px' lengthAdjust='spacingAndGlyphs'>AIC sch= -3.88</text></g>
<rect x='48.60' y='23.18' width='248.32' height='230.57' style='stroke-width: 1.07; stroke: #333333;' clip-path='url(#cpNDguNTk2NXwyOTYuOTIxfDI1My43NXwyMy4xNzk4)' />
<defs>
  <clipPath id='cpMHwzMDIuNHwyODh8MA=='>
    <rect x='0.00' y='0.00' width='302.40' height='288.00' />
  </clipPath>
</defs>
<g clip-path='url(#cpMHwzMDIuNHwyODh8MA==)'><text x='20.65' y='177.30' style='font-size: 8.80px; fill: #4D4D4D; font-family: Arial;' textLength='23.02px' lengthAdjust='spacingAndGlyphs'>1e-05</text></g>
<g clip-path='url(#cpMHwzMDIuNHwyODh8MA==)'><text x='20.65' y='96.54' style='font-size: 8.80px; fill: #4D4D4D; font-family: Arial;' textLength='23.02px' lengthAdjust='spacingAndGlyphs'>2e-05</text></g>
<polyline points='45.86,174.08 48.60,174.08 ' style='stroke-width: 1.07; stroke: #333333; stroke-linecap: butt;' clip-path='url(#cpMHwzMDIuNHwyODh8MA==)' />
<polyline points='45.86,93.32 48.60,93.32 ' style='stroke-width: 1.07; stroke: #333333; stroke-linecap: butt;' clip-path='url(#cpMHwzMDIuNHwyODh8MA==)' />
<polyline points='86.65,256.49 86.65,253.75 ' style='stroke-width: 1.07; stroke: #333333; stroke-linecap: butt;' clip-path='url(#cpMHwzMDIuNHwyODh8MA==)' />
<polyline points='151.15,256.49 151.15,253.75 ' style='stroke-width: 1.07; stroke: #333333; stroke-linecap: butt;' clip-path='url(#cpMHwzMDIuNHwyODh8MA==)' />
<polyline points='215.65,256.49 215.65,253.75 ' style='stroke-width: 1.07; stroke: #333333; stroke-linecap: butt;' clip-path='url(#cpMHwzMDIuNHwyODh8MA==)' />
<polyline points='280.15,256.49 280.15,253.75 ' style='stroke-width: 1.07; stroke: #333333; stroke-linecap: butt;' clip-path='url(#cpMHwzMDIuNHwyODh8MA==)' />
<g clip-path='url(#cpMHwzMDIuNHwyODh8MA==)'><text x='81.65' y='265.12' style='font-size: 8.80px; fill: #4D4D4D; font-family: Arial;' textLength='10.01px' lengthAdjust='spacingAndGlyphs'>10</text></g>
<g clip-path='url(#cpMHwzMDIuNHwyODh8MA==)'><text x='146.15' y='265.12' style='font-size: 8.80px; fill: #4D4D4D; font-family: Arial;' textLength='10.01px' lengthAdjust='spacingAndGlyphs'>20</text></g>
<g clip-path='url(#cpMHwzMDIuNHwyODh8MA==)'><text x='210.65' y='265.12' style='font-size: 8.80px; fill: #4D4D4D; font-family: Arial;' textLength='10.01px' lengthAdjust='spacingAndGlyphs'>30</text></g>
<g clip-path='url(#cpMHwzMDIuNHwyODh8MA==)'><text x='275.15' y='265.12' style='font-size: 8.80px; fill: #4D4D4D; font-family: Arial;' textLength='10.01px' lengthAdjust='spacingAndGlyphs'>40</text></g>
<g clip-path='url(#cpMHwzMDIuNHwyODh8MA==)'><text x='133.81' y='277.88' style='font-size: 10.00px; font-family: Arial;' textLength='63.35px' lengthAdjust='spacingAndGlyphs'>Temperature (</text></g>
<g clip-path='url(#cpMHwzMDIuNHwyODh8MA==)'><text x='197.16' y='277.88' style='font-size: 10.00px; font-family: Symbol;' textLength='4.00px' lengthAdjust='spacingAndGlyphs'>°</text></g>
<g clip-path='url(#cpMHwzMDIuNHwyODh8MA==)'><text x='201.16' y='277.88' style='font-size: 10.00px; font-family: Arial;' textLength='7.22px' lengthAdjust='spacingAndGlyphs'>C</text></g>
<g clip-path='url(#cpMHwzMDIuNHwyODh8MA==)'><text x='208.38' y='277.88' style='font-size: 10.00px; font-family: Arial;' textLength='3.33px' lengthAdjust='spacingAndGlyphs'>)</text></g>
<g clip-path='url(#cpMHwzMDIuNHwyODh8MA==)'><text transform='translate(12.64,180.16) rotate(-90)' style='font-size: 10.00px; font-family: Arial;' textLength='83.39px' lengthAdjust='spacingAndGlyphs'>net photosynthesis</text></g>
<g clip-path='url(#cpMHwzMDIuNHwyODh8MA==)'><text x='48.60' y='14.07' style='font-size: 12.00px; font-family: Arial;' textLength='121.41px' lengthAdjust='spacingAndGlyphs'>Callitriche obtusangula</text></g>
</svg>
