<?xml version='1.0' encoding='UTF-8' ?>
<svg xmlns='http://www.w3.org/2000/svg' xmlns:xlink='http://www.w3.org/1999/xlink' viewBox='0 0 302.40 288.00'>
<defs>
  <style type='text/css'><![CDATA[
    line, polyline, path, rect, circle {
      fill: none;
      stroke: #000000;
      stroke-linecap: round;
      stroke-linejoin: round;
      stroke-miterlimit: 10.00;
    }
  ]]></style>
</defs>
<rect width='100%' height='100%' style='stroke: none; fill: #FFFFFF;'/>
<rect x='0.00' y='0.00' width='302.40' height='288.00' style='stroke-width: 1.07; stroke: #FFFFFF; fill: #FFFFFF;' />
<defs>
  <clipPath id='cpMzAuNDQyN3wyOTYuOTIxfDI1My43NXwyMy4xNzk4'>
    <rect x='30.44' y='23.18' width='266.48' height='230.57' />
  </clipPath>
</defs>
<rect x='30.44' y='23.18' width='266.48' height='230.57' style='stroke-width: 1.07; stroke: none; fill: #FFFFFF;' clip-path='url(#cpMzAuNDQyN3wyOTYuOTIxfDI1My43NXwyMy4xNzk4)' />
<polyline points='30.44,236.24 296.92,236.24 ' style='stroke-width: 0.53; stroke: #EBEBEB; stroke-linecap: butt;' clip-path='url(#cpMzAuNDQyN3wyOTYuOTIxfDI1My43NXwyMy4xNzk4)' />
<polyline points='30.44,178.85 296.92,178.85 ' style='stroke-width: 0.53; stroke: #EBEBEB; stroke-linecap: butt;' clip-path='url(#cpMzAuNDQyN3wyOTYuOTIxfDI1My43NXwyMy4xNzk4)' />
<polyline points='30.44,121.45 296.92,121.45 ' style='stroke-width: 0.53; stroke: #EBEBEB; stroke-linecap: butt;' clip-path='url(#cpMzAuNDQyN3wyOTYuOTIxfDI1My43NXwyMy4xNzk4)' />
<polyline points='30.44,64.06 296.92,64.06 ' style='stroke-width: 0.53; stroke: #EBEBEB; stroke-linecap: butt;' clip-path='url(#cpMzAuNDQyN3wyOTYuOTIxfDI1My43NXwyMy4xNzk4)' />
<polyline points='71.28,253.75 71.28,23.18 ' style='stroke-width: 0.53; stroke: #EBEBEB; stroke-linecap: butt;' clip-path='url(#cpMzAuNDQyN3wyOTYuOTIxfDI1My43NXwyMy4xNzk4)' />
<polyline points='140.49,253.75 140.49,23.18 ' style='stroke-width: 0.53; stroke: #EBEBEB; stroke-linecap: butt;' clip-path='url(#cpMzAuNDQyN3wyOTYuOTIxfDI1My43NXwyMy4xNzk4)' />
<polyline points='209.71,253.75 209.71,23.18 ' style='stroke-width: 0.53; stroke: #EBEBEB; stroke-linecap: butt;' clip-path='url(#cpMzAuNDQyN3wyOTYuOTIxfDI1My43NXwyMy4xNzk4)' />
<polyline points='278.92,253.75 278.92,23.18 ' style='stroke-width: 0.53; stroke: #EBEBEB; stroke-linecap: butt;' clip-path='url(#cpMzAuNDQyN3wyOTYuOTIxfDI1My43NXwyMy4xNzk4)' />
<polyline points='30.44,207.55 296.92,207.55 ' style='stroke-width: 1.07; stroke: #EBEBEB; stroke-linecap: butt;' clip-path='url(#cpMzAuNDQyN3wyOTYuOTIxfDI1My43NXwyMy4xNzk4)' />
<polyline points='30.44,150.15 296.92,150.15 ' style='stroke-width: 1.07; stroke: #EBEBEB; stroke-linecap: butt;' clip-path='url(#cpMzAuNDQyN3wyOTYuOTIxfDI1My43NXwyMy4xNzk4)' />
<polyline points='30.44,92.75 296.92,92.75 ' style='stroke-width: 1.07; stroke: #EBEBEB; stroke-linecap: butt;' clip-path='url(#cpMzAuNDQyN3wyOTYuOTIxfDI1My43NXwyMy4xNzk4)' />
<polyline points='30.44,35.36 296.92,35.36 ' style='stroke-width: 1.07; stroke: #EBEBEB; stroke-linecap: butt;' clip-path='url(#cpMzAuNDQyN3wyOTYuOTIxfDI1My43NXwyMy4xNzk4)' />
<polyline points='36.67,253.75 36.67,23.18 ' style='stroke-width: 1.07; stroke: #EBEBEB; stroke-linecap: butt;' clip-path='url(#cpMzAuNDQyN3wyOTYuOTIxfDI1My43NXwyMy4xNzk4)' />
<polyline points='105.89,253.75 105.89,23.18 ' style='stroke-width: 1.07; stroke: #EBEBEB; stroke-linecap: butt;' clip-path='url(#cpMzAuNDQyN3wyOTYuOTIxfDI1My43NXwyMy4xNzk4)' />
<polyline points='175.10,253.75 175.10,23.18 ' style='stroke-width: 1.07; stroke: #EBEBEB; stroke-linecap: butt;' clip-path='url(#cpMzAuNDQyN3wyOTYuOTIxfDI1My43NXwyMy4xNzk4)' />
<polyline points='244.32,253.75 244.32,23.18 ' style='stroke-width: 1.07; stroke: #EBEBEB; stroke-linecap: butt;' clip-path='url(#cpMzAuNDQyN3wyOTYuOTIxfDI1My43NXwyMy4xNzk4)' />
<circle cx='43.59' cy='243.27' r='3.56pt' style='stroke-width: 0.71; stroke: #000000; stroke-opacity: 0.70; fill: #D1EEEE; fill-opacity: 0.70;' clip-path='url(#cpMzAuNDQyN3wyOTYuOTIxfDI1My43NXwyMy4xNzk4)' />
<circle cx='71.28' cy='215.33' r='3.56pt' style='stroke-width: 0.71; stroke: #000000; stroke-opacity: 0.70; fill: #D1EEEE; fill-opacity: 0.70;' clip-path='url(#cpMzAuNDQyN3wyOTYuOTIxfDI1My43NXwyMy4xNzk4)' />
<circle cx='105.89' cy='218.65' r='3.56pt' style='stroke-width: 0.71; stroke: #000000; stroke-opacity: 0.70; fill: #D1EEEE; fill-opacity: 0.70;' clip-path='url(#cpMzAuNDQyN3wyOTYuOTIxfDI1My43NXwyMy4xNzk4)' />
<circle cx='140.49' cy='200.71' r='3.56pt' style='stroke-width: 0.71; stroke: #000000; stroke-opacity: 0.70; fill: #D1EEEE; fill-opacity: 0.70;' clip-path='url(#cpMzAuNDQyN3wyOTYuOTIxfDI1My43NXwyMy4xNzk4)' />
<circle cx='175.10' cy='172.81' r='3.56pt' style='stroke-width: 0.71; stroke: #000000; stroke-opacity: 0.70; fill: #D1EEEE; fill-opacity: 0.70;' clip-path='url(#cpMzAuNDQyN3wyOTYuOTIxfDI1My43NXwyMy4xNzk4)' />
<circle cx='209.71' cy='141.15' r='3.56pt' style='stroke-width: 0.71; stroke: #000000; stroke-opacity: 0.70; fill: #D1EEEE; fill-opacity: 0.70;' clip-path='url(#cpMzAuNDQyN3wyOTYuOTIxfDI1My43NXwyMy4xNzk4)' />
<circle cx='244.32' cy='104.51' r='3.56pt' style='stroke-width: 0.71; stroke: #000000; stroke-opacity: 0.70; fill: #D1EEEE; fill-opacity: 0.70;' clip-path='url(#cpMzAuNDQyN3wyOTYuOTIxfDI1My43NXwyMy4xNzk4)' />
<circle cx='278.92' cy='35.40' r='3.56pt' style='stroke-width: 0.71; stroke: #000000; stroke-opacity: 0.70; fill: #D1EEEE; fill-opacity: 0.70;' clip-path='url(#cpMzAuNDQyN3wyOTYuOTIxfDI1My43NXwyMy4xNzk4)' />
<polyline points='42.56,238.40 43.77,238.08 44.99,237.75 46.21,237.41 47.42,237.07 48.64,236.73 49.86,236.39 51.08,236.04 52.29,235.68 53.51,235.33 54.73,234.96 55.95,234.60 57.16,234.23 58.38,233.86 59.60,233.48 60.82,233.10 62.03,232.71 63.25,232.32 64.47,231.93 65.68,231.53 66.90,231.13 68.12,230.72 69.34,230.31 70.55,229.90 71.77,229.48 72.99,229.05 74.21,228.62 75.42,228.19 76.64,227.75 77.86,227.31 79.08,226.86 80.29,226.41 81.51,225.95 82.73,225.49 83.95,225.03 85.16,224.55 86.38,224.08 87.60,223.60 88.81,223.11 90.03,222.62 91.25,222.12 92.47,221.62 93.68,221.11 94.90,220.60 96.12,220.08 97.34,219.56 98.55,219.03 99.77,218.49 100.99,217.95 102.21,217.41 103.42,216.86 104.64,216.30 105.86,215.74 107.07,215.17 108.29,214.60 109.51,214.02 110.73,213.43 111.94,212.84 113.16,212.24 114.38,211.64 115.60,211.03 116.81,210.41 118.03,209.79 119.25,209.16 120.47,208.52 121.68,207.88 122.90,207.23 124.12,206.58 125.34,205.92 126.55,205.25 127.77,204.57 128.99,203.89 130.20,203.20 131.42,202.51 132.64,201.80 133.86,201.09 135.07,200.38 136.29,199.65 137.51,198.92 138.73,198.18 139.94,197.44 141.16,196.69 142.38,195.93 143.60,195.16 144.81,194.38 146.03,193.60 147.25,192.81 148.46,192.01 149.68,191.20 150.90,190.39 152.12,189.57 153.33,188.73 154.55,187.90 155.77,187.05 156.99,186.19 158.20,185.33 159.42,184.46 160.64,183.58 161.86,182.69 163.07,181.79 164.29,180.88 165.51,179.97 166.72,179.05 167.94,178.11 169.16,177.17 170.38,176.22 171.59,175.26 172.81,174.29 174.03,173.31 175.25,172.32 176.46,171.33 177.68,170.32 178.90,169.30 180.12,168.28 181.33,167.24 182.55,166.20 183.77,165.14 184.99,164.07 186.20,163.00 187.42,161.91 188.64,160.82 189.85,159.71 191.07,158.59 192.29,157.47 193.51,156.33 194.72,155.18 195.94,154.02 197.16,152.85 198.38,151.67 199.59,150.48 200.81,149.27 202.03,148.06 203.25,146.83 204.46,145.59 205.68,144.35 206.90,143.08 208.11,141.81 209.33,140.53 210.55,139.23 211.77,137.93 212.98,136.61 214.20,135.27 215.42,133.93 216.64,132.57 217.85,131.21 219.07,129.82 220.29,128.43 221.51,127.02 222.72,125.60 223.94,124.17 225.16,122.73 226.38,121.27 227.59,119.80 228.81,118.31 230.03,116.81 231.24,115.30 232.46,113.78 233.68,112.24 234.90,110.68 236.11,109.12 237.33,107.53 238.55,105.94 239.77,104.33 240.98,102.70 242.20,101.07 243.42,99.41 244.64,97.75 245.85,96.06 247.07,94.36 248.29,92.65 249.50,90.92 250.72,89.18 251.94,87.42 253.16,85.65 254.37,83.86 255.59,82.05 256.81,80.23 258.03,78.39 259.24,76.54 260.46,74.67 261.68,72.78 262.90,70.88 264.11,68.96 265.33,67.02 266.55,65.07 267.77,63.10 268.98,61.11 270.20,59.11 271.42,57.09 272.63,55.05 273.85,52.99 275.07,50.91 276.29,48.82 277.50,46.71 278.72,44.58 279.94,42.44 281.16,40.27 282.37,38.09 283.59,35.88 284.81,33.66 ' style='stroke-width: 2.77; stroke: #1B9E77; stroke-linecap: butt;' clip-path='url(#cpMzAuNDQyN3wyOTYuOTIxfDI1My43NXwyMy4xNzk4)' />
<g clip-path='url(#cpMzAuNDQyN3wyOTYuOTIxfDI1My43NXwyMy4xNzk4)'><text x='43.59' y='157.41' style='font-size: 8.54px; font-style: italic; font-family: Arial;' textLength='60.01px' lengthAdjust='spacingAndGlyphs'>R^2 sch= 0.99 </text></g>
<g clip-path='url(#cpMzAuNDQyN3wyOTYuOTIxfDI1My43NXwyMy4xNzk4)'><text x='43.59' y='169.70' style='font-size: 8.54px; font-style: italic; font-family: Arial;' textLength='55.29px' lengthAdjust='spacingAndGlyphs'>E sch= 0.451 </text></g>
<g clip-path='url(#cpMzAuNDQyN3wyOTYuOTIxfDI1My43NXwyMy4xNzk4)'><text x='43.59' y='181.99' style='font-size: 8.54px; font-style: italic; font-family: Arial;' textLength='56.78px' lengthAdjust='spacingAndGlyphs'>AIC sch= 1.95</text></g>
<rect x='30.44' y='23.18' width='266.48' height='230.57' style='stroke-width: 1.07; stroke: #333333;' clip-path='url(#cpMzAuNDQyN3wyOTYuOTIxfDI1My43NXwyMy4xNzk4)' />
<defs>
  <clipPath id='cpMHwzMDIuNHwyODh8MA=='>
    <rect x='0.00' y='0.00' width='302.40' height='288.00' />
  </clipPath>
</defs>
<g clip-path='url(#cpMHwzMDIuNHwyODh8MA==)'><text x='20.51' y='210.76' style='font-size: 8.80px; fill: #4D4D4D; font-family: Arial;' textLength='5.01px' lengthAdjust='spacingAndGlyphs'>1</text></g>
<g clip-path='url(#cpMHwzMDIuNHwyODh8MA==)'><text x='20.51' y='153.37' style='font-size: 8.80px; fill: #4D4D4D; font-family: Arial;' textLength='5.01px' lengthAdjust='spacingAndGlyphs'>2</text></g>
<g clip-path='url(#cpMHwzMDIuNHwyODh8MA==)'><text x='20.51' y='95.97' style='font-size: 8.80px; fill: #4D4D4D; font-family: Arial;' textLength='5.01px' lengthAdjust='spacingAndGlyphs'>3</text></g>
<g clip-path='url(#cpMHwzMDIuNHwyODh8MA==)'><text x='20.51' y='38.58' style='font-size: 8.80px; fill: #4D4D4D; font-family: Arial;' textLength='5.01px' lengthAdjust='spacingAndGlyphs'>4</text></g>
<polyline points='27.70,207.55 30.44,207.55 ' style='stroke-width: 1.07; stroke: #333333; stroke-linecap: butt;' clip-path='url(#cpMHwzMDIuNHwyODh8MA==)' />
<polyline points='27.70,150.15 30.44,150.15 ' style='stroke-width: 1.07; stroke: #333333; stroke-linecap: butt;' clip-path='url(#cpMHwzMDIuNHwyODh8MA==)' />
<polyline points='27.70,92.75 30.44,92.75 ' style='stroke-width: 1.07; stroke: #333333; stroke-linecap: butt;' clip-path='url(#cpMHwzMDIuNHwyODh8MA==)' />
<polyline points='27.70,35.36 30.44,35.36 ' style='stroke-width: 1.07; stroke: #333333; stroke-linecap: butt;' clip-path='url(#cpMHwzMDIuNHwyODh8MA==)' />
<polyline points='36.67,256.49 36.67,253.75 ' style='stroke-width: 1.07; stroke: #333333; stroke-linecap: butt;' clip-path='url(#cpMHwzMDIuNHwyODh8MA==)' />
<polyline points='105.89,256.49 105.89,253.75 ' style='stroke-width: 1.07; stroke: #333333; stroke-linecap: butt;' clip-path='url(#cpMHwzMDIuNHwyODh8MA==)' />
<polyline points='175.10,256.49 175.10,253.75 ' style='stroke-width: 1.07; stroke: #333333; stroke-linecap: butt;' clip-path='url(#cpMHwzMDIuNHwyODh8MA==)' />
<polyline points='244.32,256.49 244.32,253.75 ' style='stroke-width: 1.07; stroke: #333333; stroke-linecap: butt;' clip-path='url(#cpMHwzMDIuNHwyODh8MA==)' />
<g clip-path='url(#cpMHwzMDIuNHwyODh8MA==)'><text x='34.17' y='265.12' style='font-size: 8.80px; fill: #4D4D4D; font-family: Arial;' textLength='5.01px' lengthAdjust='spacingAndGlyphs'>0</text></g>
<g clip-path='url(#cpMHwzMDIuNHwyODh8MA==)'><text x='100.88' y='265.12' style='font-size: 8.80px; fill: #4D4D4D; font-family: Arial;' textLength='10.01px' lengthAdjust='spacingAndGlyphs'>10</text></g>
<g clip-path='url(#cpMHwzMDIuNHwyODh8MA==)'><text x='170.10' y='265.12' style='font-size: 8.80px; fill: #4D4D4D; font-family: Arial;' textLength='10.01px' lengthAdjust='spacingAndGlyphs'>20</text></g>
<g clip-path='url(#cpMHwzMDIuNHwyODh8MA==)'><text x='239.31' y='265.12' style='font-size: 8.80px; fill: #4D4D4D; font-family: Arial;' textLength='10.01px' lengthAdjust='spacingAndGlyphs'>30</text></g>
<g clip-path='url(#cpMHwzMDIuNHwyODh8MA==)'><text x='124.73' y='277.88' style='font-size: 10.00px; font-family: Arial;' textLength='63.35px' lengthAdjust='spacingAndGlyphs'>Temperature (</text></g>
<g clip-path='url(#cpMHwzMDIuNHwyODh8MA==)'><text x='188.08' y='277.88' style='font-size: 10.00px; font-family: Symbol;' textLength='4.00px' lengthAdjust='spacingAndGlyphs'>°</text></g>
<g clip-path='url(#cpMHwzMDIuNHwyODh8MA==)'><text x='192.08' y='277.88' style='font-size: 10.00px; font-family: Arial;' textLength='7.22px' lengthAdjust='spacingAndGlyphs'>C</text></g>
<g clip-path='url(#cpMHwzMDIuNHwyODh8MA==)'><text x='199.30' y='277.88' style='font-size: 10.00px; font-family: Arial;' textLength='3.33px' lengthAdjust='spacingAndGlyphs'>)</text></g>
<g clip-path='url(#cpMHwzMDIuNHwyODh8MA==)'><text transform='translate(12.64,171.81) rotate(-90)' style='font-size: 10.00px; font-family: Arial;' textLength='66.70px' lengthAdjust='spacingAndGlyphs'>respiration rate</text></g>
<g clip-path='url(#cpMHwzMDIuNHwyODh8MA==)'><text x='30.44' y='14.07' style='font-size: 12.00px; font-family: Arial;' textLength='118.74px' lengthAdjust='spacingAndGlyphs'>Cladophora glomerata</text></g>
</svg>
