<?xml version='1.0' encoding='UTF-8' ?>
<svg xmlns='http://www.w3.org/2000/svg' xmlns:xlink='http://www.w3.org/1999/xlink' viewBox='0 0 302.40 288.00'>
<defs>
  <style type='text/css'><![CDATA[
    line, polyline, path, rect, circle {
      fill: none;
      stroke: #000000;
      stroke-linecap: round;
      stroke-linejoin: round;
      stroke-miterlimit: 10.00;
    }
  ]]></style>
</defs>
<rect width='100%' height='100%' style='stroke: none; fill: #FFFFFF;'/>
<rect x='0.00' y='0.00' width='302.40' height='288.00' style='stroke-width: 1.07; stroke: #FFFFFF; fill: #FFFFFF;' />
<defs>
  <clipPath id='cpNTUuOTYxN3wyOTYuOTIxfDI1My43NXwyMC43ODky'>
    <rect x='55.96' y='20.79' width='240.96' height='232.96' />
  </clipPath>
</defs>
<rect x='55.96' y='20.79' width='240.96' height='232.96' style='stroke-width: 1.07; stroke: none; fill: #FFFFFF;' clip-path='url(#cpNTUuOTYxN3wyOTYuOTIxfDI1My43NXwyMC43ODky)' />
<polyline points='55.96,236.70 296.92,236.70 ' style='stroke-width: 0.53; stroke: #EBEBEB; stroke-linecap: butt;' clip-path='url(#cpNTUuOTYxN3wyOTYuOTIxfDI1My43NXwyMC43ODky)' />
<polyline points='55.96,179.26 296.92,179.26 ' style='stroke-width: 0.53; stroke: #EBEBEB; stroke-linecap: butt;' clip-path='url(#cpNTUuOTYxN3wyOTYuOTIxfDI1My43NXwyMC43ODky)' />
<polyline points='55.96,121.81 296.92,121.81 ' style='stroke-width: 0.53; stroke: #EBEBEB; stroke-linecap: butt;' clip-path='url(#cpNTUuOTYxN3wyOTYuOTIxfDI1My43NXwyMC43ODky)' />
<polyline points='55.96,64.37 296.92,64.37 ' style='stroke-width: 0.53; stroke: #EBEBEB; stroke-linecap: butt;' clip-path='url(#cpNTUuOTYxN3wyOTYuOTIxfDI1My43NXwyMC43ODky)' />
<polyline points='68.18,253.75 68.18,20.79 ' style='stroke-width: 0.53; stroke: #EBEBEB; stroke-linecap: butt;' clip-path='url(#cpNTUuOTYxN3wyOTYuOTIxfDI1My43NXwyMC43ODky)' />
<polyline points='152.43,253.75 152.43,20.79 ' style='stroke-width: 0.53; stroke: #EBEBEB; stroke-linecap: butt;' clip-path='url(#cpNTUuOTYxN3wyOTYuOTIxfDI1My43NXwyMC43ODky)' />
<polyline points='236.68,253.75 236.68,20.79 ' style='stroke-width: 0.53; stroke: #EBEBEB; stroke-linecap: butt;' clip-path='url(#cpNTUuOTYxN3wyOTYuOTIxfDI1My43NXwyMC43ODky)' />
<polyline points='55.96,207.98 296.92,207.98 ' style='stroke-width: 1.07; stroke: #EBEBEB; stroke-linecap: butt;' clip-path='url(#cpNTUuOTYxN3wyOTYuOTIxfDI1My43NXwyMC43ODky)' />
<polyline points='55.96,150.53 296.92,150.53 ' style='stroke-width: 1.07; stroke: #EBEBEB; stroke-linecap: butt;' clip-path='url(#cpNTUuOTYxN3wyOTYuOTIxfDI1My43NXwyMC43ODky)' />
<polyline points='55.96,93.09 296.92,93.09 ' style='stroke-width: 1.07; stroke: #EBEBEB; stroke-linecap: butt;' clip-path='url(#cpNTUuOTYxN3wyOTYuOTIxfDI1My43NXwyMC43ODky)' />
<polyline points='55.96,35.65 296.92,35.65 ' style='stroke-width: 1.07; stroke: #EBEBEB; stroke-linecap: butt;' clip-path='url(#cpNTUuOTYxN3wyOTYuOTIxfDI1My43NXwyMC43ODky)' />
<polyline points='110.30,253.75 110.30,20.79 ' style='stroke-width: 1.07; stroke: #EBEBEB; stroke-linecap: butt;' clip-path='url(#cpNTUuOTYxN3wyOTYuOTIxfDI1My43NXwyMC43ODky)' />
<polyline points='194.56,253.75 194.56,20.79 ' style='stroke-width: 1.07; stroke: #EBEBEB; stroke-linecap: butt;' clip-path='url(#cpNTUuOTYxN3wyOTYuOTIxfDI1My43NXwyMC43ODky)' />
<polyline points='278.81,253.75 278.81,20.79 ' style='stroke-width: 1.07; stroke: #EBEBEB; stroke-linecap: butt;' clip-path='url(#cpNTUuOTYxN3wyOTYuOTIxfDI1My43NXwyMC43ODky)' />
<circle cx='68.18' cy='192.00' r='3.56pt' style='stroke-width: 0.71; stroke: #000000; stroke-opacity: 0.70; fill: #D1EEEE; fill-opacity: 0.70;' clip-path='url(#cpNTUuOTYxN3wyOTYuOTIxfDI1My43NXwyMC43ODky)' />
<circle cx='110.30' cy='185.20' r='3.56pt' style='stroke-width: 0.71; stroke: #000000; stroke-opacity: 0.70; fill: #D1EEEE; fill-opacity: 0.70;' clip-path='url(#cpNTUuOTYxN3wyOTYuOTIxfDI1My43NXwyMC43ODky)' />
<circle cx='152.43' cy='243.16' r='3.56pt' style='stroke-width: 0.71; stroke: #000000; stroke-opacity: 0.70; fill: #D1EEEE; fill-opacity: 0.70;' clip-path='url(#cpNTUuOTYxN3wyOTYuOTIxfDI1My43NXwyMC43ODky)' />
<circle cx='194.56' cy='182.52' r='3.56pt' style='stroke-width: 0.71; stroke: #000000; stroke-opacity: 0.70; fill: #D1EEEE; fill-opacity: 0.70;' clip-path='url(#cpNTUuOTYxN3wyOTYuOTIxfDI1My43NXwyMC43ODky)' />
<circle cx='236.68' cy='31.38' r='3.56pt' style='stroke-width: 0.71; stroke: #000000; stroke-opacity: 0.70; fill: #D1EEEE; fill-opacity: 0.70;' clip-path='url(#cpNTUuOTYxN3wyOTYuOTIxfDI1My43NXwyMC43ODky)' />
<circle cx='278.81' cy='32.38' r='3.56pt' style='stroke-width: 0.71; stroke: #000000; stroke-opacity: 0.70; fill: #D1EEEE; fill-opacity: 0.70;' clip-path='url(#cpNTUuOTYxN3wyOTYuOTIxfDI1My43NXwyMC43ODky)' />
<polyline points='66.91,225.06 68.02,224.52 69.12,223.99 70.22,223.45 71.32,222.91 72.42,222.36 73.52,221.82 74.62,221.27 75.72,220.72 76.82,220.16 77.92,219.61 79.02,219.05 80.12,218.49 81.22,217.92 82.33,217.36 83.43,216.79 84.53,216.22 85.63,215.65 86.73,215.07 87.83,214.49 88.93,213.91 90.03,213.32 91.13,212.74 92.23,212.15 93.33,211.56 94.43,210.96 95.53,210.37 96.64,209.77 97.74,209.16 98.84,208.56 99.94,207.95 101.04,207.34 102.14,206.73 103.24,206.11 104.34,205.50 105.44,204.87 106.54,204.25 107.64,203.62 108.74,203.00 109.84,202.36 110.95,201.73 112.05,201.09 113.15,200.45 114.25,199.81 115.35,199.16 116.45,198.52 117.55,197.86 118.65,197.21 119.75,196.55 120.85,195.89 121.95,195.23 123.05,194.57 124.15,193.90 125.26,193.23 126.36,192.55 127.46,191.88 128.56,191.20 129.66,190.51 130.76,189.83 131.86,189.14 132.96,188.45 134.06,187.75 135.16,187.06 136.26,186.36 137.36,185.65 138.46,184.95 139.57,184.24 140.67,183.53 141.77,182.81 142.87,182.09 143.97,181.37 145.07,180.65 146.17,179.92 147.27,179.19 148.37,178.46 149.47,177.72 150.57,176.98 151.67,176.24 152.77,175.49 153.88,174.75 154.98,173.99 156.08,173.24 157.18,172.48 158.28,171.72 159.38,170.95 160.48,170.19 161.58,169.42 162.68,168.64 163.78,167.86 164.88,167.08 165.98,166.30 167.08,165.51 168.19,164.72 169.29,163.93 170.39,163.13 171.49,162.33 172.59,161.53 173.69,160.72 174.79,159.91 175.89,159.10 176.99,158.29 178.09,157.47 179.19,156.64 180.29,155.82 181.39,154.99 182.50,154.15 183.60,153.32 184.70,152.48 185.80,151.63 186.90,150.79 188.00,149.94 189.10,149.08 190.20,148.23 191.30,147.37 192.40,146.50 193.50,145.63 194.60,144.76 195.70,143.89 196.81,143.01 197.91,142.13 199.01,141.24 200.11,140.36 201.21,139.46 202.31,138.57 203.41,137.67 204.51,136.77 205.61,135.86 206.71,134.95 207.81,134.04 208.91,133.12 210.01,132.20 211.12,131.27 212.22,130.35 213.32,129.41 214.42,128.48 215.52,127.54 216.62,126.60 217.72,125.65 218.82,124.70 219.92,123.74 221.02,122.79 222.12,121.83 223.22,120.86 224.32,119.89 225.43,118.92 226.53,117.94 227.63,116.96 228.73,115.98 229.83,114.99 230.93,114.00 232.03,113.00 233.13,112.00 234.23,111.00 235.33,109.99 236.43,108.98 237.53,107.96 238.63,106.94 239.74,105.92 240.84,104.89 241.94,103.86 243.04,102.83 244.14,101.79 245.24,100.74 246.34,99.70 247.44,98.65 248.54,97.59 249.64,96.53 250.74,95.47 251.84,94.40 252.94,93.33 254.05,92.25 255.15,91.17 256.25,90.09 257.35,89.00 258.45,87.91 259.55,86.82 260.65,85.72 261.75,84.61 262.85,83.50 263.95,82.39 265.05,81.27 266.15,80.15 267.25,79.03 268.36,77.90 269.46,76.76 270.56,75.62 271.66,74.48 272.76,73.34 273.86,72.18 274.96,71.03 276.06,69.87 277.16,68.71 278.26,67.54 279.36,66.36 280.46,65.19 281.56,64.01 282.67,62.82 283.77,61.63 284.87,60.44 285.97,59.24 ' style='stroke-width: 2.77; stroke: #1B9E77; stroke-linecap: butt;' clip-path='url(#cpNTUuOTYxN3wyOTYuOTIxfDI1My43NXwyMC43ODky)' />
<g clip-path='url(#cpNTUuOTYxN3wyOTYuOTIxfDI1My43NXwyMC43ODky)'><text x='68.18' y='135.37' style='font-size: 8.54px; font-style: italic; font-family: Arial;' textLength='60.01px' lengthAdjust='spacingAndGlyphs'>R^2 sch= 0.64 </text></g>
<g clip-path='url(#cpNTUuOTYxN3wyOTYuOTIxfDI1My43NXwyMC43ODky)'><text x='68.18' y='147.66' style='font-size: 8.54px; font-style: italic; font-family: Arial;' textLength='55.29px' lengthAdjust='spacingAndGlyphs'>E sch= 0.278 </text></g>
<g clip-path='url(#cpNTUuOTYxN3wyOTYuOTIxfDI1My43NXwyMC43ODky)'><text x='68.18' y='159.95' style='font-size: 8.54px; font-style: italic; font-family: Arial;' textLength='56.78px' lengthAdjust='spacingAndGlyphs'>AIC sch= 13.6</text></g>
<rect x='55.96' y='20.79' width='240.96' height='232.96' style='stroke-width: 1.07; stroke: #333333;' clip-path='url(#cpNTUuOTYxN3wyOTYuOTIxfDI1My43NXwyMC43ODky)' />
<defs>
  <clipPath id='cpMHwzMDIuNHwyODh8MA=='>
    <rect x='0.00' y='0.00' width='302.40' height='288.00' />
  </clipPath>
</defs>
<g clip-path='url(#cpMHwzMDIuNHwyODh8MA==)'><text x='20.51' y='211.20' style='font-size: 8.80px; fill: #4D4D4D; font-family: Arial;' textLength='30.52px' lengthAdjust='spacingAndGlyphs'>6.0e-07</text></g>
<g clip-path='url(#cpMHwzMDIuNHwyODh8MA==)'><text x='20.51' y='153.75' style='font-size: 8.80px; fill: #4D4D4D; font-family: Arial;' textLength='30.52px' lengthAdjust='spacingAndGlyphs'>9.0e-07</text></g>
<g clip-path='url(#cpMHwzMDIuNHwyODh8MA==)'><text x='20.51' y='96.31' style='font-size: 8.80px; fill: #4D4D4D; font-family: Arial;' textLength='30.52px' lengthAdjust='spacingAndGlyphs'>1.2e-06</text></g>
<g clip-path='url(#cpMHwzMDIuNHwyODh8MA==)'><text x='20.51' y='38.87' style='font-size: 8.80px; fill: #4D4D4D; font-family: Arial;' textLength='30.52px' lengthAdjust='spacingAndGlyphs'>1.5e-06</text></g>
<polyline points='53.22,207.98 55.96,207.98 ' style='stroke-width: 1.07; stroke: #333333; stroke-linecap: butt;' clip-path='url(#cpMHwzMDIuNHwyODh8MA==)' />
<polyline points='53.22,150.53 55.96,150.53 ' style='stroke-width: 1.07; stroke: #333333; stroke-linecap: butt;' clip-path='url(#cpMHwzMDIuNHwyODh8MA==)' />
<polyline points='53.22,93.09 55.96,93.09 ' style='stroke-width: 1.07; stroke: #333333; stroke-linecap: butt;' clip-path='url(#cpMHwzMDIuNHwyODh8MA==)' />
<polyline points='53.22,35.65 55.96,35.65 ' style='stroke-width: 1.07; stroke: #333333; stroke-linecap: butt;' clip-path='url(#cpMHwzMDIuNHwyODh8MA==)' />
<polyline points='110.30,256.49 110.30,253.75 ' style='stroke-width: 1.07; stroke: #333333; stroke-linecap: butt;' clip-path='url(#cpMHwzMDIuNHwyODh8MA==)' />
<polyline points='194.56,256.49 194.56,253.75 ' style='stroke-width: 1.07; stroke: #333333; stroke-linecap: butt;' clip-path='url(#cpMHwzMDIuNHwyODh8MA==)' />
<polyline points='278.81,256.49 278.81,253.75 ' style='stroke-width: 1.07; stroke: #333333; stroke-linecap: butt;' clip-path='url(#cpMHwzMDIuNHwyODh8MA==)' />
<g clip-path='url(#cpMHwzMDIuNHwyODh8MA==)'><text x='105.30' y='265.12' style='font-size: 8.80px; fill: #4D4D4D; font-family: Arial;' textLength='10.01px' lengthAdjust='spacingAndGlyphs'>10</text></g>
<g clip-path='url(#cpMHwzMDIuNHwyODh8MA==)'><text x='189.55' y='265.12' style='font-size: 8.80px; fill: #4D4D4D; font-family: Arial;' textLength='10.01px' lengthAdjust='spacingAndGlyphs'>20</text></g>
<g clip-path='url(#cpMHwzMDIuNHwyODh8MA==)'><text x='273.80' y='265.12' style='font-size: 8.80px; fill: #4D4D4D; font-family: Arial;' textLength='10.01px' lengthAdjust='spacingAndGlyphs'>30</text></g>
<g clip-path='url(#cpMHwzMDIuNHwyODh8MA==)'><text x='137.49' y='277.88' style='font-size: 10.00px; font-family: Arial;' textLength='63.35px' lengthAdjust='spacingAndGlyphs'>Temperature (</text></g>
<g clip-path='url(#cpMHwzMDIuNHwyODh8MA==)'><text x='200.84' y='277.88' style='font-size: 10.00px; font-family: Symbol;' textLength='4.00px' lengthAdjust='spacingAndGlyphs'>°</text></g>
<g clip-path='url(#cpMHwzMDIuNHwyODh8MA==)'><text x='204.84' y='277.88' style='font-size: 10.00px; font-family: Arial;' textLength='7.22px' lengthAdjust='spacingAndGlyphs'>C</text></g>
<g clip-path='url(#cpMHwzMDIuNHwyODh8MA==)'><text x='212.06' y='277.88' style='font-size: 10.00px; font-family: Arial;' textLength='3.33px' lengthAdjust='spacingAndGlyphs'>)</text></g>
<g clip-path='url(#cpMHwzMDIuNHwyODh8MA==)'><text transform='translate(12.64,170.62) rotate(-90)' style='font-size: 10.00px; font-family: Arial;' textLength='66.70px' lengthAdjust='spacingAndGlyphs'>respiration rate</text></g>
<g clip-path='url(#cpMHwzMDIuNHwyODh8MA==)'><text x='55.96' y='14.07' style='font-size: 12.00px; font-family: Arial;' textLength='80.70px' lengthAdjust='spacingAndGlyphs'>Zostera marina</text></g>
</svg>
