<?xml version='1.0' encoding='UTF-8' ?>
<svg xmlns='http://www.w3.org/2000/svg' xmlns:xlink='http://www.w3.org/1999/xlink' viewBox='0 0 302.40 288.00'>
<defs>
  <style type='text/css'><![CDATA[
    line, polyline, path, rect, circle {
      fill: none;
      stroke: #000000;
      stroke-linecap: round;
      stroke-linejoin: round;
      stroke-miterlimit: 10.00;
    }
  ]]></style>
</defs>
<rect width='100%' height='100%' style='stroke: none; fill: #FFFFFF;'/>
<rect x='0.00' y='0.00' width='302.40' height='288.00' style='stroke-width: 1.07; stroke: #FFFFFF; fill: #FFFFFF;' />
<defs>
  <clipPath id='cpODQuMTI2M3wyOTYuOTIxfDI1My43NXwyMy4xNzk4'>
    <rect x='84.13' y='23.18' width='212.79' height='230.57' />
  </clipPath>
</defs>
<rect x='84.13' y='23.18' width='212.79' height='230.57' style='stroke-width: 1.07; stroke: none; fill: #FFFFFF;' clip-path='url(#cpODQuMTI2M3wyOTYuOTIxfDI1My43NXwyMy4xNzk4)' />
<polyline points='84.13,224.93 296.92,224.93 ' style='stroke-width: 0.53; stroke: #EBEBEB; stroke-linecap: butt;' clip-path='url(#cpODQuMTI2M3wyOTYuOTIxfDI1My43NXwyMy4xNzk4)' />
<polyline points='84.13,167.29 296.92,167.29 ' style='stroke-width: 0.53; stroke: #EBEBEB; stroke-linecap: butt;' clip-path='url(#cpODQuMTI2M3wyOTYuOTIxfDI1My43NXwyMy4xNzk4)' />
<polyline points='84.13,109.64 296.92,109.64 ' style='stroke-width: 0.53; stroke: #EBEBEB; stroke-linecap: butt;' clip-path='url(#cpODQuMTI2M3wyOTYuOTIxfDI1My43NXwyMy4xNzk4)' />
<polyline points='84.13,52.00 296.92,52.00 ' style='stroke-width: 0.53; stroke: #EBEBEB; stroke-linecap: butt;' clip-path='url(#cpODQuMTI2M3wyOTYuOTIxfDI1My43NXwyMy4xNzk4)' />
<polyline points='94.73,253.75 94.73,23.18 ' style='stroke-width: 0.53; stroke: #EBEBEB; stroke-linecap: butt;' clip-path='url(#cpODQuMTI2M3wyOTYuOTIxfDI1My43NXwyMy4xNzk4)' />
<polyline points='157.14,253.75 157.14,23.18 ' style='stroke-width: 0.53; stroke: #EBEBEB; stroke-linecap: butt;' clip-path='url(#cpODQuMTI2M3wyOTYuOTIxfDI1My43NXwyMy4xNzk4)' />
<polyline points='219.54,253.75 219.54,23.18 ' style='stroke-width: 0.53; stroke: #EBEBEB; stroke-linecap: butt;' clip-path='url(#cpODQuMTI2M3wyOTYuOTIxfDI1My43NXwyMy4xNzk4)' />
<polyline points='281.94,253.75 281.94,23.18 ' style='stroke-width: 0.53; stroke: #EBEBEB; stroke-linecap: butt;' clip-path='url(#cpODQuMTI2M3wyOTYuOTIxfDI1My43NXwyMy4xNzk4)' />
<polyline points='84.13,253.75 296.92,253.75 ' style='stroke-width: 1.07; stroke: #EBEBEB; stroke-linecap: butt;' clip-path='url(#cpODQuMTI2M3wyOTYuOTIxfDI1My43NXwyMy4xNzk4)' />
<polyline points='84.13,196.11 296.92,196.11 ' style='stroke-width: 1.07; stroke: #EBEBEB; stroke-linecap: butt;' clip-path='url(#cpODQuMTI2M3wyOTYuOTIxfDI1My43NXwyMy4xNzk4)' />
<polyline points='84.13,138.47 296.92,138.47 ' style='stroke-width: 1.07; stroke: #EBEBEB; stroke-linecap: butt;' clip-path='url(#cpODQuMTI2M3wyOTYuOTIxfDI1My43NXwyMy4xNzk4)' />
<polyline points='84.13,80.82 296.92,80.82 ' style='stroke-width: 1.07; stroke: #EBEBEB; stroke-linecap: butt;' clip-path='url(#cpODQuMTI2M3wyOTYuOTIxfDI1My43NXwyMy4xNzk4)' />
<polyline points='84.13,23.18 296.92,23.18 ' style='stroke-width: 1.07; stroke: #EBEBEB; stroke-linecap: butt;' clip-path='url(#cpODQuMTI2M3wyOTYuOTIxfDI1My43NXwyMy4xNzk4)' />
<polyline points='125.94,253.75 125.94,23.18 ' style='stroke-width: 1.07; stroke: #EBEBEB; stroke-linecap: butt;' clip-path='url(#cpODQuMTI2M3wyOTYuOTIxfDI1My43NXwyMy4xNzk4)' />
<polyline points='188.34,253.75 188.34,23.18 ' style='stroke-width: 1.07; stroke: #EBEBEB; stroke-linecap: butt;' clip-path='url(#cpODQuMTI2M3wyOTYuOTIxfDI1My43NXwyMy4xNzk4)' />
<polyline points='250.74,253.75 250.74,23.18 ' style='stroke-width: 1.07; stroke: #EBEBEB; stroke-linecap: butt;' clip-path='url(#cpODQuMTI2M3wyOTYuOTIxfDI1My43NXwyMy4xNzk4)' />
<circle cx='94.23' cy='196.84' r='3.56pt' style='stroke-width: 0.71; stroke: #000000; stroke-opacity: 0.70; fill: #D1EEEE; fill-opacity: 0.70;' clip-path='url(#cpODQuMTI2M3wyOTYuOTIxfDI1My43NXwyMy4xNzk4)' />
<circle cx='125.26' cy='175.22' r='3.56pt' style='stroke-width: 0.71; stroke: #000000; stroke-opacity: 0.70; fill: #D1EEEE; fill-opacity: 0.70;' clip-path='url(#cpODQuMTI2M3wyOTYuOTIxfDI1My43NXwyMy4xNzk4)' />
<circle cx='158.05' cy='125.77' r='3.56pt' style='stroke-width: 0.71; stroke: #000000; stroke-opacity: 0.70; fill: #D1EEEE; fill-opacity: 0.70;' clip-path='url(#cpODQuMTI2M3wyOTYuOTIxfDI1My43NXwyMy4xNzk4)' />
<circle cx='188.79' cy='93.71' r='3.56pt' style='stroke-width: 0.71; stroke: #000000; stroke-opacity: 0.70; fill: #D1EEEE; fill-opacity: 0.70;' clip-path='url(#cpODQuMTI2M3wyOTYuOTIxfDI1My43NXwyMy4xNzk4)' />
<circle cx='220.27' cy='43.32' r='3.56pt' style='stroke-width: 0.71; stroke: #000000; stroke-opacity: 0.70; fill: #D1EEEE; fill-opacity: 0.70;' clip-path='url(#cpODQuMTI2M3wyOTYuOTIxfDI1My43NXwyMy4xNzk4)' />
<circle cx='250.54' cy='131.74' r='3.56pt' style='stroke-width: 0.71; stroke: #000000; stroke-opacity: 0.70; fill: #D1EEEE; fill-opacity: 0.70;' clip-path='url(#cpODQuMTI2M3wyOTYuOTIxfDI1My43NXwyMy4xNzk4)' />
<circle cx='281.91' cy='240.08' r='3.56pt' style='stroke-width: 0.71; stroke: #000000; stroke-opacity: 0.70; fill: #D1EEEE; fill-opacity: 0.70;' clip-path='url(#cpODQuMTI2M3wyOTYuOTIxfDI1My43NXwyMy4xNzk4)' />
<polyline points='93.80,196.45 94.77,195.83 95.74,195.20 96.72,194.56 97.69,193.91 98.66,193.26 99.63,192.60 100.60,191.94 101.58,191.26 102.55,190.58 103.52,189.89 104.49,189.20 105.46,188.49 106.44,187.78 107.41,187.06 108.38,186.34 109.35,185.60 110.32,184.86 111.30,184.11 112.27,183.35 113.24,182.58 114.21,181.81 115.19,181.03 116.16,180.24 117.13,179.44 118.10,178.63 119.07,177.81 120.05,176.98 121.02,176.15 121.99,175.31 122.96,174.45 123.93,173.59 124.91,172.72 125.88,171.84 126.85,170.95 127.82,170.06 128.79,169.15 129.77,168.23 130.74,167.30 131.71,166.37 132.68,165.42 133.66,164.46 134.63,163.50 135.60,162.52 136.57,161.53 137.54,160.54 138.52,159.53 139.49,158.51 140.46,157.48 141.43,156.44 142.40,155.39 143.38,154.33 144.35,153.26 145.32,152.18 146.29,151.09 147.26,149.98 148.24,148.86 149.21,147.74 150.18,146.60 151.15,145.44 152.13,144.28 153.10,143.11 154.07,141.92 155.04,140.72 156.01,139.51 156.99,138.29 157.96,137.05 158.93,135.80 159.90,134.54 160.87,133.27 161.85,131.98 162.82,130.68 163.79,129.37 164.76,128.04 165.73,126.70 166.71,125.35 167.68,123.99 168.65,122.61 169.62,121.21 170.60,119.81 171.57,118.39 172.54,116.95 173.51,115.50 174.48,114.04 175.46,112.56 176.43,111.07 177.40,109.57 178.37,108.05 179.34,106.52 180.32,104.97 181.29,103.41 182.26,101.83 183.23,100.24 184.20,98.63 185.18,97.02 186.15,95.38 187.12,93.74 188.09,92.08 189.07,90.40 190.04,88.71 191.01,87.01 191.98,85.30 192.95,83.57 193.93,81.84 194.90,80.09 195.87,78.33 196.84,76.56 197.81,74.78 198.79,73.00 199.76,71.21 200.73,69.41 201.70,67.61 202.67,65.81 203.65,64.01 204.62,62.21 205.59,60.41 206.56,58.62 207.54,56.85 208.51,55.08 209.48,53.34 210.45,51.62 211.42,49.92 212.40,48.26 213.37,46.64 214.34,45.07 215.31,43.56 216.28,42.10 217.26,40.72 218.23,39.43 219.20,38.22 220.17,37.13 221.14,36.16 222.12,35.32 223.09,34.63 224.06,34.12 225.03,33.79 226.01,33.66 226.98,33.76 227.95,34.10 228.92,34.71 229.89,35.60 230.87,36.80 231.84,38.32 232.81,40.18 233.78,42.40 234.75,44.99 235.73,47.96 236.70,51.32 237.67,55.07 238.64,59.20 239.61,63.72 240.59,68.59 241.56,73.82 242.53,79.36 243.50,85.19 244.48,91.28 245.45,97.58 246.42,104.05 247.39,110.65 248.36,117.33 249.34,124.03 250.31,130.73 251.28,137.37 252.25,143.91 253.22,150.31 254.20,156.55 255.17,162.58 256.14,168.40 257.11,173.97 258.08,179.29 259.06,184.35 260.03,189.13 261.00,193.64 261.97,197.88 262.95,201.86 263.92,205.57 264.89,209.02 265.86,212.23 266.83,215.21 267.81,217.97 268.78,220.52 269.75,222.86 270.72,225.03 271.69,227.01 272.67,228.84 273.64,230.51 274.61,232.05 275.58,233.45 276.55,234.74 277.53,235.91 278.50,236.99 279.47,237.97 280.44,238.87 281.42,239.68 282.39,240.43 283.36,241.11 284.33,241.72 285.30,242.29 286.28,242.80 287.25,243.27 ' style='stroke-width: 2.77; stroke: #1B9E77; stroke-linecap: butt;' clip-path='url(#cpODQuMTI2M3wyOTYuOTIxfDI1My43NXwyMy4xNzk4)' />
<g clip-path='url(#cpODQuMTI2M3wyOTYuOTIxfDI1My43NXwyMy4xNzk4)'><text x='94.23' y='134.74' style='font-size: 8.54px; font-style: italic; font-family: Arial;' textLength='60.01px' lengthAdjust='spacingAndGlyphs'>R^2 sch= 0.99 </text></g>
<g clip-path='url(#cpODQuMTI2M3wyOTYuOTIxfDI1My43NXwyMy4xNzk4)'><text x='94.23' y='147.03' style='font-size: 8.54px; font-style: italic; font-family: Arial;' textLength='55.29px' lengthAdjust='spacingAndGlyphs'>E sch= 0.515 </text></g>
<g clip-path='url(#cpODQuMTI2M3wyOTYuOTIxfDI1My43NXwyMy4xNzk4)'><text x='94.23' y='159.32' style='font-size: 8.54px; font-style: italic; font-family: Arial;' textLength='59.78px' lengthAdjust='spacingAndGlyphs'>AIC sch= -14.7</text></g>
<rect x='84.13' y='23.18' width='212.79' height='230.57' style='stroke-width: 1.07; stroke: #333333;' clip-path='url(#cpODQuMTI2M3wyOTYuOTIxfDI1My43NXwyMy4xNzk4)' />
<defs>
  <clipPath id='cpMHwzMDIuNHwyODh8MA=='>
    <rect x='0.00' y='0.00' width='302.40' height='288.00' />
  </clipPath>
</defs>
<g clip-path='url(#cpMHwzMDIuNHwyODh8MA==)'><text x='20.65' y='256.97' style='font-size: 8.80px; fill: #4D4D4D; font-family: Arial;' textLength='58.55px' lengthAdjust='spacingAndGlyphs'>-2.381743e-19</text></g>
<g clip-path='url(#cpMHwzMDIuNHwyODh8MA==)'><text x='23.64' y='199.33' style='font-size: 8.80px; fill: #4D4D4D; font-family: Arial;' textLength='55.55px' lengthAdjust='spacingAndGlyphs'>2.159393e-18</text></g>
<g clip-path='url(#cpMHwzMDIuNHwyODh8MA==)'><text x='23.64' y='141.68' style='font-size: 8.80px; fill: #4D4D4D; font-family: Arial;' textLength='55.55px' lengthAdjust='spacingAndGlyphs'>4.556961e-18</text></g>
<g clip-path='url(#cpMHwzMDIuNHwyODh8MA==)'><text x='23.64' y='84.04' style='font-size: 8.80px; fill: #4D4D4D; font-family: Arial;' textLength='55.55px' lengthAdjust='spacingAndGlyphs'>6.954529e-18</text></g>
<g clip-path='url(#cpMHwzMDIuNHwyODh8MA==)'><text x='23.64' y='26.40' style='font-size: 8.80px; fill: #4D4D4D; font-family: Arial;' textLength='55.55px' lengthAdjust='spacingAndGlyphs'>9.352097e-18</text></g>
<polyline points='81.39,253.75 84.13,253.75 ' style='stroke-width: 1.07; stroke: #333333; stroke-linecap: butt;' clip-path='url(#cpMHwzMDIuNHwyODh8MA==)' />
<polyline points='81.39,196.11 84.13,196.11 ' style='stroke-width: 1.07; stroke: #333333; stroke-linecap: butt;' clip-path='url(#cpMHwzMDIuNHwyODh8MA==)' />
<polyline points='81.39,138.47 84.13,138.47 ' style='stroke-width: 1.07; stroke: #333333; stroke-linecap: butt;' clip-path='url(#cpMHwzMDIuNHwyODh8MA==)' />
<polyline points='81.39,80.82 84.13,80.82 ' style='stroke-width: 1.07; stroke: #333333; stroke-linecap: butt;' clip-path='url(#cpMHwzMDIuNHwyODh8MA==)' />
<polyline points='81.39,23.18 84.13,23.18 ' style='stroke-width: 1.07; stroke: #333333; stroke-linecap: butt;' clip-path='url(#cpMHwzMDIuNHwyODh8MA==)' />
<polyline points='125.94,256.49 125.94,253.75 ' style='stroke-width: 1.07; stroke: #333333; stroke-linecap: butt;' clip-path='url(#cpMHwzMDIuNHwyODh8MA==)' />
<polyline points='188.34,256.49 188.34,253.75 ' style='stroke-width: 1.07; stroke: #333333; stroke-linecap: butt;' clip-path='url(#cpMHwzMDIuNHwyODh8MA==)' />
<polyline points='250.74,256.49 250.74,253.75 ' style='stroke-width: 1.07; stroke: #333333; stroke-linecap: butt;' clip-path='url(#cpMHwzMDIuNHwyODh8MA==)' />
<g clip-path='url(#cpMHwzMDIuNHwyODh8MA==)'><text x='120.93' y='265.12' style='font-size: 8.80px; fill: #4D4D4D; font-family: Arial;' textLength='10.01px' lengthAdjust='spacingAndGlyphs'>10</text></g>
<g clip-path='url(#cpMHwzMDIuNHwyODh8MA==)'><text x='183.33' y='265.12' style='font-size: 8.80px; fill: #4D4D4D; font-family: Arial;' textLength='10.01px' lengthAdjust='spacingAndGlyphs'>20</text></g>
<g clip-path='url(#cpMHwzMDIuNHwyODh8MA==)'><text x='245.74' y='265.12' style='font-size: 8.80px; fill: #4D4D4D; font-family: Arial;' textLength='10.01px' lengthAdjust='spacingAndGlyphs'>30</text></g>
<g clip-path='url(#cpMHwzMDIuNHwyODh8MA==)'><text x='151.57' y='277.88' style='font-size: 10.00px; font-family: Arial;' textLength='63.35px' lengthAdjust='spacingAndGlyphs'>Temperature (</text></g>
<g clip-path='url(#cpMHwzMDIuNHwyODh8MA==)'><text x='214.92' y='277.88' style='font-size: 10.00px; font-family: Symbol;' textLength='4.00px' lengthAdjust='spacingAndGlyphs'>°</text></g>
<g clip-path='url(#cpMHwzMDIuNHwyODh8MA==)'><text x='218.92' y='277.88' style='font-size: 10.00px; font-family: Arial;' textLength='7.22px' lengthAdjust='spacingAndGlyphs'>C</text></g>
<g clip-path='url(#cpMHwzMDIuNHwyODh8MA==)'><text x='226.15' y='277.88' style='font-size: 10.00px; font-family: Arial;' textLength='3.33px' lengthAdjust='spacingAndGlyphs'>)</text></g>
<g clip-path='url(#cpMHwzMDIuNHwyODh8MA==)'><text transform='translate(12.64,180.16) rotate(-90)' style='font-size: 10.00px; font-family: Arial;' textLength='83.39px' lengthAdjust='spacingAndGlyphs'>net photosynthesis</text></g>
<g clip-path='url(#cpMHwzMDIuNHwyODh8MA==)'><text x='84.13' y='14.07' style='font-size: 12.00px; font-family: Arial;' textLength='146.07px' lengthAdjust='spacingAndGlyphs'>Phaeodactylum tricornutum</text></g>
</svg>
