<?xml version='1.0' encoding='UTF-8' ?>
<svg xmlns='http://www.w3.org/2000/svg' xmlns:xlink='http://www.w3.org/1999/xlink' viewBox='0 0 302.40 288.00'>
<defs>
  <style type='text/css'><![CDATA[
    line, polyline, path, rect, circle {
      fill: none;
      stroke: #000000;
      stroke-linecap: round;
      stroke-linejoin: round;
      stroke-miterlimit: 10.00;
    }
  ]]></style>
</defs>
<rect width='100%' height='100%' style='stroke: none; fill: #FFFFFF;'/>
<rect x='0.00' y='0.00' width='302.40' height='288.00' style='stroke-width: 1.07; stroke: #FFFFFF; fill: #FFFFFF;' />
<defs>
  <clipPath id='cpMzAuNTgzM3wyOTYuOTIxfDI1My43NXwyMy4xNzk4'>
    <rect x='30.58' y='23.18' width='266.34' height='230.57' />
  </clipPath>
</defs>
<rect x='30.58' y='23.18' width='266.34' height='230.57' style='stroke-width: 1.07; stroke: none; fill: #FFFFFF;' clip-path='url(#cpMzAuNTgzM3wyOTYuOTIxfDI1My43NXwyMy4xNzk4)' />
<polyline points='30.58,219.70 296.92,219.70 ' style='stroke-width: 0.53; stroke: #EBEBEB; stroke-linecap: butt;' clip-path='url(#cpMzAuNTgzM3wyOTYuOTIxfDI1My43NXwyMy4xNzk4)' />
<polyline points='30.58,147.35 296.92,147.35 ' style='stroke-width: 0.53; stroke: #EBEBEB; stroke-linecap: butt;' clip-path='url(#cpMzAuNTgzM3wyOTYuOTIxfDI1My43NXwyMy4xNzk4)' />
<polyline points='30.58,75.00 296.92,75.00 ' style='stroke-width: 0.53; stroke: #EBEBEB; stroke-linecap: butt;' clip-path='url(#cpMzAuNTgzM3wyOTYuOTIxfDI1My43NXwyMy4xNzk4)' />
<polyline points='71.40,253.75 71.40,23.18 ' style='stroke-width: 0.53; stroke: #EBEBEB; stroke-linecap: butt;' clip-path='url(#cpMzAuNTgzM3wyOTYuOTIxfDI1My43NXwyMy4xNzk4)' />
<polyline points='140.58,253.75 140.58,23.18 ' style='stroke-width: 0.53; stroke: #EBEBEB; stroke-linecap: butt;' clip-path='url(#cpMzAuNTgzM3wyOTYuOTIxfDI1My43NXwyMy4xNzk4)' />
<polyline points='209.76,253.75 209.76,23.18 ' style='stroke-width: 0.53; stroke: #EBEBEB; stroke-linecap: butt;' clip-path='url(#cpMzAuNTgzM3wyOTYuOTIxfDI1My43NXwyMy4xNzk4)' />
<polyline points='278.93,253.75 278.93,23.18 ' style='stroke-width: 0.53; stroke: #EBEBEB; stroke-linecap: butt;' clip-path='url(#cpMzAuNTgzM3wyOTYuOTIxfDI1My43NXwyMy4xNzk4)' />
<polyline points='30.58,183.52 296.92,183.52 ' style='stroke-width: 1.07; stroke: #EBEBEB; stroke-linecap: butt;' clip-path='url(#cpMzAuNTgzM3wyOTYuOTIxfDI1My43NXwyMy4xNzk4)' />
<polyline points='30.58,111.17 296.92,111.17 ' style='stroke-width: 1.07; stroke: #EBEBEB; stroke-linecap: butt;' clip-path='url(#cpMzAuNTgzM3wyOTYuOTIxfDI1My43NXwyMy4xNzk4)' />
<polyline points='30.58,38.83 296.92,38.83 ' style='stroke-width: 1.07; stroke: #EBEBEB; stroke-linecap: butt;' clip-path='url(#cpMzAuNTgzM3wyOTYuOTIxfDI1My43NXwyMy4xNzk4)' />
<polyline points='36.81,253.75 36.81,23.18 ' style='stroke-width: 1.07; stroke: #EBEBEB; stroke-linecap: butt;' clip-path='url(#cpMzAuNTgzM3wyOTYuOTIxfDI1My43NXwyMy4xNzk4)' />
<polyline points='105.99,253.75 105.99,23.18 ' style='stroke-width: 1.07; stroke: #EBEBEB; stroke-linecap: butt;' clip-path='url(#cpMzAuNTgzM3wyOTYuOTIxfDI1My43NXwyMy4xNzk4)' />
<polyline points='175.17,253.75 175.17,23.18 ' style='stroke-width: 1.07; stroke: #EBEBEB; stroke-linecap: butt;' clip-path='url(#cpMzAuNTgzM3wyOTYuOTIxfDI1My43NXwyMy4xNzk4)' />
<polyline points='244.34,253.75 244.34,23.18 ' style='stroke-width: 1.07; stroke: #EBEBEB; stroke-linecap: butt;' clip-path='url(#cpMzAuNTgzM3wyOTYuOTIxfDI1My43NXwyMy4xNzk4)' />
<circle cx='43.73' cy='243.00' r='3.56pt' style='stroke-width: 0.71; stroke: #000000; stroke-opacity: 0.70; fill: #D1EEEE; fill-opacity: 0.70;' clip-path='url(#cpMzAuNTgzM3wyOTYuOTIxfDI1My43NXwyMy4xNzk4)' />
<circle cx='71.40' cy='162.44' r='3.56pt' style='stroke-width: 0.71; stroke: #000000; stroke-opacity: 0.70; fill: #D1EEEE; fill-opacity: 0.70;' clip-path='url(#cpMzAuNTgzM3wyOTYuOTIxfDI1My43NXwyMy4xNzk4)' />
<circle cx='105.99' cy='88.36' r='3.56pt' style='stroke-width: 0.71; stroke: #000000; stroke-opacity: 0.70; fill: #D1EEEE; fill-opacity: 0.70;' clip-path='url(#cpMzAuNTgzM3wyOTYuOTIxfDI1My43NXwyMy4xNzk4)' />
<circle cx='140.58' cy='33.66' r='3.56pt' style='stroke-width: 0.71; stroke: #000000; stroke-opacity: 0.70; fill: #D1EEEE; fill-opacity: 0.70;' clip-path='url(#cpMzAuNTgzM3wyOTYuOTIxfDI1My43NXwyMy4xNzk4)' />
<circle cx='175.17' cy='100.22' r='3.56pt' style='stroke-width: 0.71; stroke: #000000; stroke-opacity: 0.70; fill: #D1EEEE; fill-opacity: 0.70;' clip-path='url(#cpMzAuNTgzM3wyOTYuOTIxfDI1My43NXwyMy4xNzk4)' />
<circle cx='209.76' cy='208.02' r='3.56pt' style='stroke-width: 0.71; stroke: #000000; stroke-opacity: 0.70; fill: #D1EEEE; fill-opacity: 0.70;' clip-path='url(#cpMzAuNTgzM3wyOTYuOTIxfDI1My43NXwyMy4xNzk4)' />
<circle cx='244.34' cy='184.04' r='3.56pt' style='stroke-width: 0.71; stroke: #000000; stroke-opacity: 0.70; fill: #D1EEEE; fill-opacity: 0.70;' clip-path='url(#cpMzAuNTgzM3wyOTYuOTIxfDI1My43NXwyMy4xNzk4)' />
<circle cx='278.93' cy='219.08' r='3.56pt' style='stroke-width: 0.71; stroke: #000000; stroke-opacity: 0.70; fill: #D1EEEE; fill-opacity: 0.70;' clip-path='url(#cpMzAuNTgzM3wyOTYuOTIxfDI1My43NXwyMy4xNzk4)' />
<polyline points='42.69,243.27 43.91,242.12 45.12,240.88 46.34,239.52 47.56,238.06 48.77,236.47 49.99,234.74 51.21,232.88 52.42,230.87 53.64,228.69 54.86,226.35 56.07,223.83 57.29,221.11 58.51,218.20 59.72,215.08 60.94,211.74 62.16,208.18 63.37,204.38 64.59,200.34 65.81,196.07 67.02,191.54 68.24,186.78 69.46,181.77 70.67,176.53 71.89,171.06 73.11,165.37 74.32,159.49 75.54,153.42 76.76,147.20 77.97,140.85 79.19,134.40 80.41,127.89 81.62,121.35 82.84,114.82 84.06,108.34 85.27,101.95 86.49,95.70 87.71,89.62 88.92,83.75 90.14,78.14 91.36,72.80 92.57,67.78 93.79,63.09 95.01,58.76 96.22,54.79 97.44,51.21 98.66,48.02 99.87,45.22 101.09,42.80 102.31,40.76 103.52,39.09 104.74,37.77 105.96,36.80 107.18,36.15 108.39,35.81 109.61,35.75 110.83,35.97 112.04,36.43 113.26,37.11 114.48,38.01 115.69,39.09 116.91,40.35 118.13,41.76 119.34,43.30 120.56,44.98 121.78,46.75 122.99,48.63 124.21,50.58 125.43,52.61 126.64,54.70 127.86,56.84 129.08,59.02 130.29,61.24 131.51,63.48 132.73,65.75 133.94,68.03 135.16,70.32 136.38,72.61 137.59,74.91 138.81,77.21 140.03,79.50 141.24,81.78 142.46,84.05 143.68,86.30 144.89,88.55 146.11,90.77 147.33,92.98 148.54,95.16 149.76,97.33 150.98,99.47 152.19,101.59 153.41,103.69 154.63,105.76 155.84,107.81 157.06,109.83 158.28,111.83 159.49,113.81 160.71,115.76 161.93,117.68 163.14,119.58 164.36,121.45 165.58,123.30 166.79,125.12 168.01,126.92 169.23,128.69 170.44,130.44 171.66,132.16 172.88,133.86 174.09,135.54 175.31,137.19 176.53,138.81 177.74,140.42 178.96,142.00 180.18,143.56 181.39,145.09 182.61,146.61 183.83,148.10 185.04,149.57 186.26,151.02 187.48,152.44 188.69,153.85 189.91,155.24 191.13,156.60 192.34,157.95 193.56,159.28 194.78,160.58 195.99,161.87 197.21,163.14 198.43,164.39 199.64,165.63 200.86,166.84 202.08,168.04 203.29,169.22 204.51,170.38 205.73,171.53 206.95,172.66 208.16,173.77 209.38,174.86 210.60,175.95 211.81,177.01 213.03,178.06 214.25,179.10 215.46,180.12 216.68,181.12 217.90,182.11 219.11,183.09 220.33,184.05 221.55,185.00 222.76,185.93 223.98,186.86 225.20,187.76 226.41,188.66 227.63,189.54 228.85,190.41 230.06,191.27 231.28,192.11 232.50,192.95 233.71,193.77 234.93,194.58 236.15,195.38 237.36,196.17 238.58,196.94 239.80,197.71 241.01,198.46 242.23,199.20 243.45,199.94 244.66,200.66 245.88,201.37 247.10,202.08 248.31,202.77 249.53,203.45 250.75,204.12 251.96,204.79 253.18,205.44 254.40,206.09 255.61,206.73 256.83,207.35 258.05,207.97 259.26,208.58 260.48,209.19 261.70,209.78 262.91,210.36 264.13,210.94 265.35,211.51 266.56,212.07 267.78,212.63 269.00,213.17 270.21,213.71 271.43,214.24 272.65,214.77 273.86,215.28 275.08,215.79 276.30,216.30 277.51,216.79 278.73,217.28 279.95,217.76 281.16,218.24 282.38,218.71 283.60,219.17 284.81,219.63 ' style='stroke-width: 2.77; stroke: #1B9E77; stroke-linecap: butt;' clip-path='url(#cpMzAuNTgzM3wyOTYuOTIxfDI1My43NXwyMy4xNzk4)' />
<g clip-path='url(#cpMzAuNTgzM3wyOTYuOTIxfDI1My43NXwyMy4xNzk4)'><text x='43.73' y='145.78' style='font-size: 8.54px; font-style: italic; font-family: Arial;' textLength='60.01px' lengthAdjust='spacingAndGlyphs'>R^2 sch= 0.80 </text></g>
<g clip-path='url(#cpMzAuNTgzM3wyOTYuOTIxfDI1My43NXwyMy4xNzk4)'><text x='43.73' y='158.07' style='font-size: 8.54px; font-style: italic; font-family: Arial;' textLength='50.28px' lengthAdjust='spacingAndGlyphs'>E sch= 3.29 </text></g>
<g clip-path='url(#cpMzAuNTgzM3wyOTYuOTIxfDI1My43NXwyMy4xNzk4)'><text x='43.73' y='170.36' style='font-size: 8.54px; font-style: italic; font-family: Arial;' textLength='56.78px' lengthAdjust='spacingAndGlyphs'>AIC sch= 11.4</text></g>
<rect x='30.58' y='23.18' width='266.34' height='230.57' style='stroke-width: 1.07; stroke: #333333;' clip-path='url(#cpMzAuNTgzM3wyOTYuOTIxfDI1My43NXwyMy4xNzk4)' />
<defs>
  <clipPath id='cpMHwzMDIuNHwyODh8MA=='>
    <rect x='0.00' y='0.00' width='302.40' height='288.00' />
  </clipPath>
</defs>
<g clip-path='url(#cpMHwzMDIuNHwyODh8MA==)'><text x='20.65' y='186.74' style='font-size: 8.80px; fill: #4D4D4D; font-family: Arial;' textLength='5.01px' lengthAdjust='spacingAndGlyphs'>2</text></g>
<g clip-path='url(#cpMHwzMDIuNHwyODh8MA==)'><text x='20.65' y='114.39' style='font-size: 8.80px; fill: #4D4D4D; font-family: Arial;' textLength='5.01px' lengthAdjust='spacingAndGlyphs'>4</text></g>
<g clip-path='url(#cpMHwzMDIuNHwyODh8MA==)'><text x='20.65' y='42.05' style='font-size: 8.80px; fill: #4D4D4D; font-family: Arial;' textLength='5.01px' lengthAdjust='spacingAndGlyphs'>6</text></g>
<polyline points='27.84,183.52 30.58,183.52 ' style='stroke-width: 1.07; stroke: #333333; stroke-linecap: butt;' clip-path='url(#cpMHwzMDIuNHwyODh8MA==)' />
<polyline points='27.84,111.17 30.58,111.17 ' style='stroke-width: 1.07; stroke: #333333; stroke-linecap: butt;' clip-path='url(#cpMHwzMDIuNHwyODh8MA==)' />
<polyline points='27.84,38.83 30.58,38.83 ' style='stroke-width: 1.07; stroke: #333333; stroke-linecap: butt;' clip-path='url(#cpMHwzMDIuNHwyODh8MA==)' />
<polyline points='36.81,256.49 36.81,253.75 ' style='stroke-width: 1.07; stroke: #333333; stroke-linecap: butt;' clip-path='url(#cpMHwzMDIuNHwyODh8MA==)' />
<polyline points='105.99,256.49 105.99,253.75 ' style='stroke-width: 1.07; stroke: #333333; stroke-linecap: butt;' clip-path='url(#cpMHwzMDIuNHwyODh8MA==)' />
<polyline points='175.17,256.49 175.17,253.75 ' style='stroke-width: 1.07; stroke: #333333; stroke-linecap: butt;' clip-path='url(#cpMHwzMDIuNHwyODh8MA==)' />
<polyline points='244.34,256.49 244.34,253.75 ' style='stroke-width: 1.07; stroke: #333333; stroke-linecap: butt;' clip-path='url(#cpMHwzMDIuNHwyODh8MA==)' />
<g clip-path='url(#cpMHwzMDIuNHwyODh8MA==)'><text x='34.31' y='265.12' style='font-size: 8.80px; fill: #4D4D4D; font-family: Arial;' textLength='5.01px' lengthAdjust='spacingAndGlyphs'>0</text></g>
<g clip-path='url(#cpMHwzMDIuNHwyODh8MA==)'><text x='100.98' y='265.12' style='font-size: 8.80px; fill: #4D4D4D; font-family: Arial;' textLength='10.01px' lengthAdjust='spacingAndGlyphs'>10</text></g>
<g clip-path='url(#cpMHwzMDIuNHwyODh8MA==)'><text x='170.16' y='265.12' style='font-size: 8.80px; fill: #4D4D4D; font-family: Arial;' textLength='10.01px' lengthAdjust='spacingAndGlyphs'>20</text></g>
<g clip-path='url(#cpMHwzMDIuNHwyODh8MA==)'><text x='239.34' y='265.12' style='font-size: 8.80px; fill: #4D4D4D; font-family: Arial;' textLength='10.01px' lengthAdjust='spacingAndGlyphs'>30</text></g>
<g clip-path='url(#cpMHwzMDIuNHwyODh8MA==)'><text x='124.80' y='277.88' style='font-size: 10.00px; font-family: Arial;' textLength='63.35px' lengthAdjust='spacingAndGlyphs'>Temperature (</text></g>
<g clip-path='url(#cpMHwzMDIuNHwyODh8MA==)'><text x='188.15' y='277.88' style='font-size: 10.00px; font-family: Symbol;' textLength='4.00px' lengthAdjust='spacingAndGlyphs'>°</text></g>
<g clip-path='url(#cpMHwzMDIuNHwyODh8MA==)'><text x='192.15' y='277.88' style='font-size: 10.00px; font-family: Arial;' textLength='7.22px' lengthAdjust='spacingAndGlyphs'>C</text></g>
<g clip-path='url(#cpMHwzMDIuNHwyODh8MA==)'><text x='199.37' y='277.88' style='font-size: 10.00px; font-family: Arial;' textLength='3.33px' lengthAdjust='spacingAndGlyphs'>)</text></g>
<g clip-path='url(#cpMHwzMDIuNHwyODh8MA==)'><text transform='translate(12.64,185.44) rotate(-90)' style='font-size: 10.00px; font-family: Arial;' textLength='93.94px' lengthAdjust='spacingAndGlyphs'>gross photosynthesis</text></g>
<g clip-path='url(#cpMHwzMDIuNHwyODh8MA==)'><text x='30.58' y='14.07' style='font-size: 12.00px; font-family: Arial;' textLength='118.74px' lengthAdjust='spacingAndGlyphs'>Cladophora glomerata</text></g>
</svg>
