<?xml version='1.0' encoding='UTF-8' ?>
<svg xmlns='http://www.w3.org/2000/svg' xmlns:xlink='http://www.w3.org/1999/xlink' viewBox='0 0 302.40 288.00'>
<defs>
  <style type='text/css'><![CDATA[
    line, polyline, path, rect, circle {
      fill: none;
      stroke: #000000;
      stroke-linecap: round;
      stroke-linejoin: round;
      stroke-miterlimit: 10.00;
    }
  ]]></style>
</defs>
<rect width='100%' height='100%' style='stroke: none; fill: #FFFFFF;'/>
<rect x='0.00' y='0.00' width='302.40' height='288.00' style='stroke-width: 1.07; stroke: #FFFFFF; fill: #FFFFFF;' />
<defs>
  <clipPath id='cpNDcuOTU5M3wyOTYuOTIxfDI1My43NXwyMC43ODky'>
    <rect x='47.96' y='20.79' width='248.96' height='232.96' />
  </clipPath>
</defs>
<rect x='47.96' y='20.79' width='248.96' height='232.96' style='stroke-width: 1.07; stroke: none; fill: #FFFFFF;' clip-path='url(#cpNDcuOTU5M3wyOTYuOTIxfDI1My43NXwyMC43ODky)' />
<polyline points='47.96,202.56 296.92,202.56 ' style='stroke-width: 0.53; stroke: #EBEBEB; stroke-linecap: butt;' clip-path='url(#cpNDcuOTU5M3wyOTYuOTIxfDI1My43NXwyMC43ODky)' />
<polyline points='47.96,144.57 296.92,144.57 ' style='stroke-width: 0.53; stroke: #EBEBEB; stroke-linecap: butt;' clip-path='url(#cpNDcuOTU5M3wyOTYuOTIxfDI1My43NXwyMC43ODky)' />
<polyline points='47.96,86.59 296.92,86.59 ' style='stroke-width: 0.53; stroke: #EBEBEB; stroke-linecap: butt;' clip-path='url(#cpNDcuOTU5M3wyOTYuOTIxfDI1My43NXwyMC43ODky)' />
<polyline points='47.96,28.60 296.92,28.60 ' style='stroke-width: 0.53; stroke: #EBEBEB; stroke-linecap: butt;' clip-path='url(#cpNDcuOTU5M3wyOTYuOTIxfDI1My43NXwyMC43ODky)' />
<polyline points='60.37,253.75 60.37,20.79 ' style='stroke-width: 0.53; stroke: #EBEBEB; stroke-linecap: butt;' clip-path='url(#cpNDcuOTU5M3wyOTYuOTIxfDI1My43NXwyMC43ODky)' />
<polyline points='133.38,253.75 133.38,20.79 ' style='stroke-width: 0.53; stroke: #EBEBEB; stroke-linecap: butt;' clip-path='url(#cpNDcuOTU5M3wyOTYuOTIxfDI1My43NXwyMC43ODky)' />
<polyline points='206.39,253.75 206.39,20.79 ' style='stroke-width: 0.53; stroke: #EBEBEB; stroke-linecap: butt;' clip-path='url(#cpNDcuOTU5M3wyOTYuOTIxfDI1My43NXwyMC43ODky)' />
<polyline points='279.40,253.75 279.40,20.79 ' style='stroke-width: 0.53; stroke: #EBEBEB; stroke-linecap: butt;' clip-path='url(#cpNDcuOTU5M3wyOTYuOTIxfDI1My43NXwyMC43ODky)' />
<polyline points='47.96,231.56 296.92,231.56 ' style='stroke-width: 1.07; stroke: #EBEBEB; stroke-linecap: butt;' clip-path='url(#cpNDcuOTU5M3wyOTYuOTIxfDI1My43NXwyMC43ODky)' />
<polyline points='47.96,173.57 296.92,173.57 ' style='stroke-width: 1.07; stroke: #EBEBEB; stroke-linecap: butt;' clip-path='url(#cpNDcuOTU5M3wyOTYuOTIxfDI1My43NXwyMC43ODky)' />
<polyline points='47.96,115.58 296.92,115.58 ' style='stroke-width: 1.07; stroke: #EBEBEB; stroke-linecap: butt;' clip-path='url(#cpNDcuOTU5M3wyOTYuOTIxfDI1My43NXwyMC43ODky)' />
<polyline points='47.96,57.59 296.92,57.59 ' style='stroke-width: 1.07; stroke: #EBEBEB; stroke-linecap: butt;' clip-path='url(#cpNDcuOTU5M3wyOTYuOTIxfDI1My43NXwyMC43ODky)' />
<polyline points='96.88,253.75 96.88,20.79 ' style='stroke-width: 1.07; stroke: #EBEBEB; stroke-linecap: butt;' clip-path='url(#cpNDcuOTU5M3wyOTYuOTIxfDI1My43NXwyMC43ODky)' />
<polyline points='169.88,253.75 169.88,20.79 ' style='stroke-width: 1.07; stroke: #EBEBEB; stroke-linecap: butt;' clip-path='url(#cpNDcuOTU5M3wyOTYuOTIxfDI1My43NXwyMC43ODky)' />
<polyline points='242.89,253.75 242.89,20.79 ' style='stroke-width: 1.07; stroke: #EBEBEB; stroke-linecap: butt;' clip-path='url(#cpNDcuOTU5M3wyOTYuOTIxfDI1My43NXwyMC43ODky)' />
<circle cx='60.37' cy='236.39' r='3.56pt' style='stroke-width: 0.71; stroke: #000000; stroke-opacity: 0.70; fill: #D1EEEE; fill-opacity: 0.70;' clip-path='url(#cpNDcuOTU5M3wyOTYuOTIxfDI1My43NXwyMC43ODky)' />
<circle cx='96.88' cy='215.45' r='3.56pt' style='stroke-width: 0.71; stroke: #000000; stroke-opacity: 0.70; fill: #D1EEEE; fill-opacity: 0.70;' clip-path='url(#cpNDcuOTU5M3wyOTYuOTIxfDI1My43NXwyMC43ODky)' />
<circle cx='133.38' cy='207.39' r='3.56pt' style='stroke-width: 0.71; stroke: #000000; stroke-opacity: 0.70; fill: #D1EEEE; fill-opacity: 0.70;' clip-path='url(#cpNDcuOTU5M3wyOTYuOTIxfDI1My43NXwyMC43ODky)' />
<circle cx='169.88' cy='133.30' r='3.56pt' style='stroke-width: 0.71; stroke: #000000; stroke-opacity: 0.70; fill: #D1EEEE; fill-opacity: 0.70;' clip-path='url(#cpNDcuOTU5M3wyOTYuOTIxfDI1My43NXwyMC43ODky)' />
<circle cx='206.39' cy='93.03' r='3.56pt' style='stroke-width: 0.71; stroke: #000000; stroke-opacity: 0.70; fill: #D1EEEE; fill-opacity: 0.70;' clip-path='url(#cpNDcuOTU5M3wyOTYuOTIxfDI1My43NXwyMC43ODky)' />
<circle cx='242.89' cy='49.54' r='3.56pt' style='stroke-width: 0.71; stroke: #000000; stroke-opacity: 0.70; fill: #D1EEEE; fill-opacity: 0.70;' clip-path='url(#cpNDcuOTU5M3wyOTYuOTIxfDI1My43NXwyMC43ODky)' />
<circle cx='279.40' cy='80.14' r='3.56pt' style='stroke-width: 0.71; stroke: #000000; stroke-opacity: 0.70; fill: #D1EEEE; fill-opacity: 0.70;' clip-path='url(#cpNDcuOTU5M3wyOTYuOTIxfDI1My43NXwyMC43ODky)' />
<polyline points='59.28,243.16 60.41,242.42 61.55,241.66 62.69,240.91 63.82,240.15 64.96,239.39 66.10,238.62 67.24,237.84 68.37,237.07 69.51,236.28 70.65,235.50 71.79,234.71 72.92,233.91 74.06,233.11 75.20,232.30 76.34,231.49 77.47,230.67 78.61,229.85 79.75,229.03 80.88,228.20 82.02,227.36 83.16,226.52 84.30,225.68 85.43,224.83 86.57,223.97 87.71,223.12 88.85,222.25 89.98,221.38 91.12,220.51 92.26,219.63 93.40,218.74 94.53,217.85 95.67,216.96 96.81,216.05 97.94,215.15 99.08,214.24 100.22,213.32 101.36,212.40 102.49,211.47 103.63,210.54 104.77,209.60 105.91,208.66 107.04,207.71 108.18,206.76 109.32,205.80 110.46,204.83 111.59,203.86 112.73,202.89 113.87,201.91 115.00,200.92 116.14,199.93 117.28,198.93 118.42,197.93 119.55,196.92 120.69,195.90 121.83,194.88 122.97,193.85 124.10,192.82 125.24,191.78 126.38,190.74 127.52,189.69 128.65,188.63 129.79,187.57 130.93,186.50 132.06,185.43 133.20,184.35 134.34,183.27 135.48,182.17 136.61,181.08 137.75,179.97 138.89,178.86 140.03,177.75 141.16,176.63 142.30,175.50 143.44,174.36 144.58,173.22 145.71,172.07 146.85,170.92 147.99,169.76 149.12,168.60 150.26,167.42 151.40,166.24 152.54,165.06 153.67,163.87 154.81,162.67 155.95,161.46 157.09,160.25 158.22,159.03 159.36,157.81 160.50,156.58 161.64,155.34 162.77,154.10 163.91,152.85 165.05,151.59 166.18,150.32 167.32,149.05 168.46,147.77 169.60,146.49 170.73,145.19 171.87,143.90 173.01,142.59 174.15,141.28 175.28,139.96 176.42,138.63 177.56,137.30 178.70,135.95 179.83,134.61 180.97,133.25 182.11,131.89 183.24,130.52 184.38,129.14 185.52,127.76 186.66,126.37 187.79,124.97 188.93,123.56 190.07,122.15 191.21,120.73 192.34,119.30 193.48,117.86 194.62,116.42 195.76,114.97 196.89,113.51 198.03,112.04 199.17,110.57 200.30,109.09 201.44,107.60 202.58,106.11 203.72,104.60 204.85,103.09 205.99,101.57 207.13,100.05 208.27,98.51 209.40,96.97 210.54,95.42 211.68,93.87 212.82,92.30 213.95,90.73 215.09,89.16 216.23,87.57 217.36,85.98 218.50,84.38 219.64,82.77 220.78,81.16 221.91,79.54 223.05,77.92 224.19,76.29 225.33,74.65 226.46,73.01 227.60,71.37 228.74,69.72 229.88,68.07 231.01,66.41 232.15,64.75 233.29,63.10 234.42,61.44 235.56,59.79 236.70,58.13 237.84,56.49 238.97,54.85 240.11,53.22 241.25,51.60 242.39,50.00 243.52,48.42 244.66,46.86 245.80,45.32 246.93,43.82 248.07,42.36 249.21,40.94 250.35,39.57 251.48,38.27 252.62,37.03 253.76,35.88 254.90,34.83 256.03,33.88 257.17,33.05 258.31,32.37 259.45,31.85 260.58,31.51 261.72,31.38 262.86,31.48 263.99,31.84 265.13,32.50 266.27,33.48 267.41,34.83 268.54,36.57 269.68,38.75 270.82,41.40 271.96,44.57 273.09,48.28 274.23,52.58 275.37,57.50 276.51,63.05 277.64,69.26 278.78,76.13 279.92,83.67 281.05,91.84 282.19,100.63 283.33,110.00 284.47,119.88 285.60,130.21 ' style='stroke-width: 2.77; stroke: #1B9E77; stroke-linecap: butt;' clip-path='url(#cpNDcuOTU5M3wyOTYuOTIxfDI1My43NXwyMC43ODky)' />
<g clip-path='url(#cpNDcuOTU5M3wyOTYuOTIxfDI1My43NXwyMC43ODky)'><text x='60.37' y='135.96' style='font-size: 8.54px; font-style: italic; font-family: Arial;' textLength='60.01px' lengthAdjust='spacingAndGlyphs'>R^2 sch= 0.98 </text></g>
<g clip-path='url(#cpNDcuOTU5M3wyOTYuOTIxfDI1My43NXwyMC43ODky)'><text x='60.37' y='148.25' style='font-size: 8.54px; font-style: italic; font-family: Arial;' textLength='55.29px' lengthAdjust='spacingAndGlyphs'>E sch= 0.305 </text></g>
<g clip-path='url(#cpNDcuOTU5M3wyOTYuOTIxfDI1My43NXwyMC43ODky)'><text x='60.37' y='160.55' style='font-size: 8.54px; font-style: italic; font-family: Arial;' textLength='59.78px' lengthAdjust='spacingAndGlyphs'>AIC sch= -7.96</text></g>
<rect x='47.96' y='20.79' width='248.96' height='232.96' style='stroke-width: 1.07; stroke: #333333;' clip-path='url(#cpNDcuOTU5M3wyOTYuOTIxfDI1My43NXwyMC43ODky)' />
<defs>
  <clipPath id='cpMHwzMDIuNHwyODh8MA=='>
    <rect x='0.00' y='0.00' width='302.40' height='288.00' />
  </clipPath>
</defs>
<g clip-path='url(#cpMHwzMDIuNHwyODh8MA==)'><text x='20.51' y='234.77' style='font-size: 8.80px; fill: #4D4D4D; font-family: Arial;' textLength='22.52px' lengthAdjust='spacingAndGlyphs'>0.002</text></g>
<g clip-path='url(#cpMHwzMDIuNHwyODh8MA==)'><text x='20.51' y='176.79' style='font-size: 8.80px; fill: #4D4D4D; font-family: Arial;' textLength='22.52px' lengthAdjust='spacingAndGlyphs'>0.003</text></g>
<g clip-path='url(#cpMHwzMDIuNHwyODh8MA==)'><text x='20.51' y='118.80' style='font-size: 8.80px; fill: #4D4D4D; font-family: Arial;' textLength='22.52px' lengthAdjust='spacingAndGlyphs'>0.004</text></g>
<g clip-path='url(#cpMHwzMDIuNHwyODh8MA==)'><text x='20.51' y='60.81' style='font-size: 8.80px; fill: #4D4D4D; font-family: Arial;' textLength='22.52px' lengthAdjust='spacingAndGlyphs'>0.005</text></g>
<polyline points='45.22,231.56 47.96,231.56 ' style='stroke-width: 1.07; stroke: #333333; stroke-linecap: butt;' clip-path='url(#cpMHwzMDIuNHwyODh8MA==)' />
<polyline points='45.22,173.57 47.96,173.57 ' style='stroke-width: 1.07; stroke: #333333; stroke-linecap: butt;' clip-path='url(#cpMHwzMDIuNHwyODh8MA==)' />
<polyline points='45.22,115.58 47.96,115.58 ' style='stroke-width: 1.07; stroke: #333333; stroke-linecap: butt;' clip-path='url(#cpMHwzMDIuNHwyODh8MA==)' />
<polyline points='45.22,57.59 47.96,57.59 ' style='stroke-width: 1.07; stroke: #333333; stroke-linecap: butt;' clip-path='url(#cpMHwzMDIuNHwyODh8MA==)' />
<polyline points='96.88,256.49 96.88,253.75 ' style='stroke-width: 1.07; stroke: #333333; stroke-linecap: butt;' clip-path='url(#cpMHwzMDIuNHwyODh8MA==)' />
<polyline points='169.88,256.49 169.88,253.75 ' style='stroke-width: 1.07; stroke: #333333; stroke-linecap: butt;' clip-path='url(#cpMHwzMDIuNHwyODh8MA==)' />
<polyline points='242.89,256.49 242.89,253.75 ' style='stroke-width: 1.07; stroke: #333333; stroke-linecap: butt;' clip-path='url(#cpMHwzMDIuNHwyODh8MA==)' />
<g clip-path='url(#cpMHwzMDIuNHwyODh8MA==)'><text x='91.87' y='265.12' style='font-size: 8.80px; fill: #4D4D4D; font-family: Arial;' textLength='10.01px' lengthAdjust='spacingAndGlyphs'>10</text></g>
<g clip-path='url(#cpMHwzMDIuNHwyODh8MA==)'><text x='164.88' y='265.12' style='font-size: 8.80px; fill: #4D4D4D; font-family: Arial;' textLength='10.01px' lengthAdjust='spacingAndGlyphs'>20</text></g>
<g clip-path='url(#cpMHwzMDIuNHwyODh8MA==)'><text x='237.89' y='265.12' style='font-size: 8.80px; fill: #4D4D4D; font-family: Arial;' textLength='10.01px' lengthAdjust='spacingAndGlyphs'>30</text></g>
<g clip-path='url(#cpMHwzMDIuNHwyODh8MA==)'><text x='133.49' y='277.88' style='font-size: 10.00px; font-family: Arial;' textLength='63.35px' lengthAdjust='spacingAndGlyphs'>Temperature (</text></g>
<g clip-path='url(#cpMHwzMDIuNHwyODh8MA==)'><text x='196.84' y='277.88' style='font-size: 10.00px; font-family: Symbol;' textLength='4.00px' lengthAdjust='spacingAndGlyphs'>°</text></g>
<g clip-path='url(#cpMHwzMDIuNHwyODh8MA==)'><text x='200.84' y='277.88' style='font-size: 10.00px; font-family: Arial;' textLength='7.22px' lengthAdjust='spacingAndGlyphs'>C</text></g>
<g clip-path='url(#cpMHwzMDIuNHwyODh8MA==)'><text x='208.06' y='277.88' style='font-size: 10.00px; font-family: Arial;' textLength='3.33px' lengthAdjust='spacingAndGlyphs'>)</text></g>
<g clip-path='url(#cpMHwzMDIuNHwyODh8MA==)'><text transform='translate(12.64,170.62) rotate(-90)' style='font-size: 10.00px; font-family: Arial;' textLength='66.70px' lengthAdjust='spacingAndGlyphs'>respiration rate</text></g>
<g clip-path='url(#cpMHwzMDIuNHwyODh8MA==)'><text x='47.96' y='14.07' style='font-size: 12.00px; font-family: Arial;' textLength='94.05px' lengthAdjust='spacingAndGlyphs'>Koliella antarctica</text></g>
</svg>
