<?xml version='1.0' encoding='UTF-8' ?>
<svg xmlns='http://www.w3.org/2000/svg' xmlns:xlink='http://www.w3.org/1999/xlink' viewBox='0 0 302.40 288.00'>
<defs>
  <style type='text/css'><![CDATA[
    line, polyline, path, rect, circle {
      fill: none;
      stroke: #000000;
      stroke-linecap: round;
      stroke-linejoin: round;
      stroke-miterlimit: 10.00;
    }
  ]]></style>
</defs>
<rect width='100%' height='100%' style='stroke: none; fill: #FFFFFF;'/>
<rect x='0.00' y='0.00' width='302.40' height='288.00' style='stroke-width: 1.07; stroke: #FFFFFF; fill: #FFFFFF;' />
<defs>
  <clipPath id='cpMzguMDg5MXwyOTYuOTIxfDI1My43NXwyMC43ODky'>
    <rect x='38.09' y='20.79' width='258.83' height='232.96' />
  </clipPath>
</defs>
<rect x='38.09' y='20.79' width='258.83' height='232.96' style='stroke-width: 1.07; stroke: none; fill: #FFFFFF;' clip-path='url(#cpMzguMDg5MXwyOTYuOTIxfDI1My43NXwyMC43ODky)' />
<polyline points='38.09,241.93 296.92,241.93 ' style='stroke-width: 0.53; stroke: #EBEBEB; stroke-linecap: butt;' clip-path='url(#cpMzguMDg5MXwyOTYuOTIxfDI1My43NXwyMC43ODky)' />
<polyline points='38.09,193.10 296.92,193.10 ' style='stroke-width: 0.53; stroke: #EBEBEB; stroke-linecap: butt;' clip-path='url(#cpMzguMDg5MXwyOTYuOTIxfDI1My43NXwyMC43ODky)' />
<polyline points='38.09,144.27 296.92,144.27 ' style='stroke-width: 0.53; stroke: #EBEBEB; stroke-linecap: butt;' clip-path='url(#cpMzguMDg5MXwyOTYuOTIxfDI1My43NXwyMC43ODky)' />
<polyline points='38.09,95.44 296.92,95.44 ' style='stroke-width: 0.53; stroke: #EBEBEB; stroke-linecap: butt;' clip-path='url(#cpMzguMDg5MXwyOTYuOTIxfDI1My43NXwyMC43ODky)' />
<polyline points='38.09,46.61 296.92,46.61 ' style='stroke-width: 0.53; stroke: #EBEBEB; stroke-linecap: butt;' clip-path='url(#cpMzguMDg5MXwyOTYuOTIxfDI1My43NXwyMC43ODky)' />
<polyline points='73.76,253.75 73.76,20.79 ' style='stroke-width: 0.53; stroke: #EBEBEB; stroke-linecap: butt;' clip-path='url(#cpMzguMDg5MXwyOTYuOTIxfDI1My43NXwyMC43ODky)' />
<polyline points='149.67,253.75 149.67,20.79 ' style='stroke-width: 0.53; stroke: #EBEBEB; stroke-linecap: butt;' clip-path='url(#cpMzguMDg5MXwyOTYuOTIxfDI1My43NXwyMC43ODky)' />
<polyline points='225.57,253.75 225.57,20.79 ' style='stroke-width: 0.53; stroke: #EBEBEB; stroke-linecap: butt;' clip-path='url(#cpMzguMDg5MXwyOTYuOTIxfDI1My43NXwyMC43ODky)' />
<polyline points='38.09,217.52 296.92,217.52 ' style='stroke-width: 1.07; stroke: #EBEBEB; stroke-linecap: butt;' clip-path='url(#cpMzguMDg5MXwyOTYuOTIxfDI1My43NXwyMC43ODky)' />
<polyline points='38.09,168.69 296.92,168.69 ' style='stroke-width: 1.07; stroke: #EBEBEB; stroke-linecap: butt;' clip-path='url(#cpMzguMDg5MXwyOTYuOTIxfDI1My43NXwyMC43ODky)' />
<polyline points='38.09,119.85 296.92,119.85 ' style='stroke-width: 1.07; stroke: #EBEBEB; stroke-linecap: butt;' clip-path='url(#cpMzguMDg5MXwyOTYuOTIxfDI1My43NXwyMC43ODky)' />
<polyline points='38.09,71.02 296.92,71.02 ' style='stroke-width: 1.07; stroke: #EBEBEB; stroke-linecap: butt;' clip-path='url(#cpMzguMDg5MXwyOTYuOTIxfDI1My43NXwyMC43ODky)' />
<polyline points='38.09,22.19 296.92,22.19 ' style='stroke-width: 1.07; stroke: #EBEBEB; stroke-linecap: butt;' clip-path='url(#cpMzguMDg5MXwyOTYuOTIxfDI1My43NXwyMC43ODky)' />
<polyline points='111.72,253.75 111.72,20.79 ' style='stroke-width: 1.07; stroke: #EBEBEB; stroke-linecap: butt;' clip-path='url(#cpMzguMDg5MXwyOTYuOTIxfDI1My43NXwyMC43ODky)' />
<polyline points='187.62,253.75 187.62,20.79 ' style='stroke-width: 1.07; stroke: #EBEBEB; stroke-linecap: butt;' clip-path='url(#cpMzguMDg5MXwyOTYuOTIxfDI1My43NXwyMC43ODky)' />
<polyline points='263.52,253.75 263.52,20.79 ' style='stroke-width: 1.07; stroke: #EBEBEB; stroke-linecap: butt;' clip-path='url(#cpMzguMDg5MXwyOTYuOTIxfDI1My43NXwyMC43ODky)' />
<circle cx='52.95' cy='243.15' r='3.56pt' style='stroke-width: 0.71; stroke: #000000; stroke-opacity: 0.70; fill: #D1EEEE; fill-opacity: 0.70;' clip-path='url(#cpMzguMDg5MXwyOTYuOTIxfDI1My43NXwyMC43ODky)' />
<circle cx='97.50' cy='188.69' r='3.56pt' style='stroke-width: 0.71; stroke: #000000; stroke-opacity: 0.70; fill: #D1EEEE; fill-opacity: 0.70;' clip-path='url(#cpMzguMDg5MXwyOTYuOTIxfDI1My43NXwyMC43ODky)' />
<circle cx='139.49' cy='122.84' r='3.56pt' style='stroke-width: 0.71; stroke: #000000; stroke-opacity: 0.70; fill: #D1EEEE; fill-opacity: 0.70;' clip-path='url(#cpMzguMDg5MXwyOTYuOTIxfDI1My43NXwyMC43ODky)' />
<circle cx='187.68' cy='72.85' r='3.56pt' style='stroke-width: 0.71; stroke: #000000; stroke-opacity: 0.70; fill: #D1EEEE; fill-opacity: 0.70;' clip-path='url(#cpMzguMDg5MXwyOTYuOTIxfDI1My43NXwyMC43ODky)' />
<circle cx='232.53' cy='122.07' r='3.56pt' style='stroke-width: 0.71; stroke: #000000; stroke-opacity: 0.70; fill: #D1EEEE; fill-opacity: 0.70;' clip-path='url(#cpMzguMDg5MXwyOTYuOTIxfDI1My43NXwyMC43ODky)' />
<circle cx='278.14' cy='238.32' r='3.56pt' style='stroke-width: 0.71; stroke: #000000; stroke-opacity: 0.70; fill: #D1EEEE; fill-opacity: 0.70;' clip-path='url(#cpMzguMDg5MXwyOTYuOTIxfDI1My43NXwyMC43ODky)' />
<polyline points='49.85,241.05 51.04,240.45 52.22,239.84 53.40,239.22 54.58,238.58 55.77,237.93 56.95,237.26 58.13,236.58 59.31,235.88 60.50,235.17 61.68,234.44 62.86,233.70 64.04,232.94 65.23,232.16 66.41,231.37 67.59,230.56 68.77,229.73 69.96,228.88 71.14,228.01 72.32,227.13 73.50,226.22 74.68,225.30 75.87,224.35 77.05,223.39 78.23,222.40 79.41,221.39 80.60,220.36 81.78,219.31 82.96,218.24 84.14,217.14 85.33,216.02 86.51,214.87 87.69,213.70 88.87,212.51 90.06,211.29 91.24,210.04 92.42,208.77 93.60,207.47 94.79,206.14 95.97,204.79 97.15,203.41 98.33,202.00 99.52,200.56 100.70,199.08 101.88,197.58 103.06,196.05 104.25,194.49 105.43,192.89 106.61,191.26 107.79,189.60 108.98,187.91 110.16,186.18 111.34,184.42 112.52,182.62 113.70,180.79 114.89,178.92 116.07,177.02 117.25,175.08 118.43,173.10 119.62,171.08 120.80,169.03 121.98,166.94 123.16,164.81 124.35,162.65 125.53,160.44 126.71,158.20 127.89,155.91 129.08,153.59 130.26,151.23 131.44,148.83 132.62,146.39 133.81,143.91 134.99,141.40 136.17,138.85 137.35,136.26 138.54,133.63 139.72,130.97 140.90,128.27 142.08,125.54 143.27,122.78 144.45,119.99 145.63,117.17 146.81,114.32 147.99,111.44 149.18,108.55 150.36,105.63 151.54,102.69 152.72,99.74 153.91,96.77 155.09,93.80 156.27,90.82 157.45,87.85 158.64,84.87 159.82,81.91 161.00,78.96 162.18,76.03 163.37,73.12 164.55,70.25 165.73,67.41 166.91,64.62 168.10,61.89 169.28,59.21 170.46,56.60 171.64,54.07 172.83,51.63 174.01,49.27 175.19,47.03 176.37,44.89 177.56,42.88 178.74,41.00 179.92,39.25 181.10,37.66 182.29,36.23 183.47,34.97 184.65,33.88 185.83,32.98 187.01,32.27 188.20,31.77 189.38,31.47 190.56,31.38 191.74,31.51 192.93,31.86 194.11,32.44 195.29,33.24 196.47,34.27 197.66,35.53 198.84,37.02 200.02,38.73 201.20,40.66 202.39,42.81 203.57,45.16 204.75,47.72 205.93,50.47 207.12,53.41 208.30,56.52 209.48,59.80 210.66,63.23 211.85,66.80 213.03,70.50 214.21,74.31 215.39,78.23 216.58,82.24 217.76,86.33 218.94,90.48 220.12,94.68 221.30,98.92 222.49,103.19 223.67,107.47 224.85,111.76 226.03,116.05 227.22,120.32 228.40,124.56 229.58,128.77 230.76,132.94 231.95,137.06 233.13,141.12 234.31,145.12 235.49,149.06 236.68,152.92 237.86,156.71 239.04,160.42 240.22,164.05 241.41,167.60 242.59,171.06 243.77,174.43 244.95,177.71 246.14,180.90 247.32,184.00 248.50,187.01 249.68,189.94 250.87,192.77 252.05,195.52 253.23,198.17 254.41,200.75 255.60,203.23 256.78,205.64 257.96,207.96 259.14,210.20 260.32,212.37 261.51,214.46 262.69,216.47 263.87,218.41 265.05,220.28 266.24,222.08 267.42,223.82 268.60,225.49 269.78,227.10 270.97,228.65 272.15,230.13 273.33,231.57 274.51,232.94 275.70,234.27 276.88,235.54 278.06,236.76 279.24,237.94 280.43,239.07 281.61,240.15 282.79,241.20 283.97,242.20 285.16,243.16 ' style='stroke-width: 2.77; stroke: #1B9E77; stroke-linecap: butt;' clip-path='url(#cpMzguMDg5MXwyOTYuOTIxfDI1My43NXwyMC43ODky)' />
<g clip-path='url(#cpMzguMDg5MXwyOTYuOTIxfDI1My43NXwyMC43ODky)'><text x='52.95' y='155.58' style='font-size: 8.54px; font-style: italic; font-family: Arial;' textLength='60.01px' lengthAdjust='spacingAndGlyphs'>R^2 sch= 0.91 </text></g>
<g clip-path='url(#cpMzguMDg5MXwyOTYuOTIxfDI1My43NXwyMC43ODky)'><text x='52.95' y='167.87' style='font-size: 8.54px; font-style: italic; font-family: Arial;' textLength='50.28px' lengthAdjust='spacingAndGlyphs'>E sch= 1.05 </text></g>
<g clip-path='url(#cpMzguMDg5MXwyOTYuOTIxfDI1My43NXwyMC43ODky)'><text x='52.95' y='180.16' style='font-size: 8.54px; font-style: italic; font-family: Arial;' textLength='56.78px' lengthAdjust='spacingAndGlyphs'>AIC sch= 3.67</text></g>
<rect x='38.09' y='20.79' width='258.83' height='232.96' style='stroke-width: 1.07; stroke: #333333;' clip-path='url(#cpMzguMDg5MXwyOTYuOTIxfDI1My43NXwyMC43ODky)' />
<defs>
  <clipPath id='cpMHwzMDIuNHwyODh8MA=='>
    <rect x='0.00' y='0.00' width='302.40' height='288.00' />
  </clipPath>
</defs>
<g clip-path='url(#cpMHwzMDIuNHwyODh8MA==)'><text x='20.65' y='220.73' style='font-size: 8.80px; fill: #4D4D4D; font-family: Arial;' textLength='12.51px' lengthAdjust='spacingAndGlyphs'>0.5</text></g>
<g clip-path='url(#cpMHwzMDIuNHwyODh8MA==)'><text x='20.65' y='171.90' style='font-size: 8.80px; fill: #4D4D4D; font-family: Arial;' textLength='12.51px' lengthAdjust='spacingAndGlyphs'>1.0</text></g>
<g clip-path='url(#cpMHwzMDIuNHwyODh8MA==)'><text x='20.65' y='123.07' style='font-size: 8.80px; fill: #4D4D4D; font-family: Arial;' textLength='12.51px' lengthAdjust='spacingAndGlyphs'>1.5</text></g>
<g clip-path='url(#cpMHwzMDIuNHwyODh8MA==)'><text x='20.65' y='74.24' style='font-size: 8.80px; fill: #4D4D4D; font-family: Arial;' textLength='12.51px' lengthAdjust='spacingAndGlyphs'>2.0</text></g>
<g clip-path='url(#cpMHwzMDIuNHwyODh8MA==)'><text x='20.65' y='25.41' style='font-size: 8.80px; fill: #4D4D4D; font-family: Arial;' textLength='12.51px' lengthAdjust='spacingAndGlyphs'>2.5</text></g>
<polyline points='35.35,217.52 38.09,217.52 ' style='stroke-width: 1.07; stroke: #333333; stroke-linecap: butt;' clip-path='url(#cpMHwzMDIuNHwyODh8MA==)' />
<polyline points='35.35,168.69 38.09,168.69 ' style='stroke-width: 1.07; stroke: #333333; stroke-linecap: butt;' clip-path='url(#cpMHwzMDIuNHwyODh8MA==)' />
<polyline points='35.35,119.85 38.09,119.85 ' style='stroke-width: 1.07; stroke: #333333; stroke-linecap: butt;' clip-path='url(#cpMHwzMDIuNHwyODh8MA==)' />
<polyline points='35.35,71.02 38.09,71.02 ' style='stroke-width: 1.07; stroke: #333333; stroke-linecap: butt;' clip-path='url(#cpMHwzMDIuNHwyODh8MA==)' />
<polyline points='35.35,22.19 38.09,22.19 ' style='stroke-width: 1.07; stroke: #333333; stroke-linecap: butt;' clip-path='url(#cpMHwzMDIuNHwyODh8MA==)' />
<polyline points='111.72,256.49 111.72,253.75 ' style='stroke-width: 1.07; stroke: #333333; stroke-linecap: butt;' clip-path='url(#cpMHwzMDIuNHwyODh8MA==)' />
<polyline points='187.62,256.49 187.62,253.75 ' style='stroke-width: 1.07; stroke: #333333; stroke-linecap: butt;' clip-path='url(#cpMHwzMDIuNHwyODh8MA==)' />
<polyline points='263.52,256.49 263.52,253.75 ' style='stroke-width: 1.07; stroke: #333333; stroke-linecap: butt;' clip-path='url(#cpMHwzMDIuNHwyODh8MA==)' />
<g clip-path='url(#cpMHwzMDIuNHwyODh8MA==)'><text x='106.71' y='265.12' style='font-size: 8.80px; fill: #4D4D4D; font-family: Arial;' textLength='10.01px' lengthAdjust='spacingAndGlyphs'>20</text></g>
<g clip-path='url(#cpMHwzMDIuNHwyODh8MA==)'><text x='182.61' y='265.12' style='font-size: 8.80px; fill: #4D4D4D; font-family: Arial;' textLength='10.01px' lengthAdjust='spacingAndGlyphs'>30</text></g>
<g clip-path='url(#cpMHwzMDIuNHwyODh8MA==)'><text x='258.52' y='265.12' style='font-size: 8.80px; fill: #4D4D4D; font-family: Arial;' textLength='10.01px' lengthAdjust='spacingAndGlyphs'>40</text></g>
<g clip-path='url(#cpMHwzMDIuNHwyODh8MA==)'><text x='128.55' y='277.88' style='font-size: 10.00px; font-family: Arial;' textLength='63.35px' lengthAdjust='spacingAndGlyphs'>Temperature (</text></g>
<g clip-path='url(#cpMHwzMDIuNHwyODh8MA==)'><text x='191.91' y='277.88' style='font-size: 10.00px; font-family: Symbol;' textLength='4.00px' lengthAdjust='spacingAndGlyphs'>°</text></g>
<g clip-path='url(#cpMHwzMDIuNHwyODh8MA==)'><text x='195.91' y='277.88' style='font-size: 10.00px; font-family: Arial;' textLength='7.22px' lengthAdjust='spacingAndGlyphs'>C</text></g>
<g clip-path='url(#cpMHwzMDIuNHwyODh8MA==)'><text x='203.13' y='277.88' style='font-size: 10.00px; font-family: Arial;' textLength='3.33px' lengthAdjust='spacingAndGlyphs'>)</text></g>
<g clip-path='url(#cpMHwzMDIuNHwyODh8MA==)'><text transform='translate(12.64,178.96) rotate(-90)' style='font-size: 10.00px; font-family: Arial;' textLength='83.39px' lengthAdjust='spacingAndGlyphs'>net photosynthesis</text></g>
<g clip-path='url(#cpMHwzMDIuNHwyODh8MA==)'><text x='38.09' y='14.07' style='font-size: 12.00px; font-family: Arial;' textLength='107.37px' lengthAdjust='spacingAndGlyphs'>Gracilaria verrucosa</text></g>
</svg>
