<?xml version='1.0' encoding='UTF-8' ?>
<svg xmlns='http://www.w3.org/2000/svg' xmlns:xlink='http://www.w3.org/1999/xlink' viewBox='0 0 302.40 288.00'>
<defs>
  <style type='text/css'><![CDATA[
    line, polyline, path, rect, circle {
      fill: none;
      stroke: #000000;
      stroke-linecap: round;
      stroke-linejoin: round;
      stroke-miterlimit: 10.00;
    }
  ]]></style>
</defs>
<rect width='100%' height='100%' style='stroke: none; fill: #FFFFFF;'/>
<rect x='0.00' y='0.00' width='302.40' height='288.00' style='stroke-width: 1.07; stroke: #FFFFFF; fill: #FFFFFF;' />
<defs>
  <clipPath id='cpNDguNDU1OHwyOTYuOTIxfDI1My43NXwyMy4xNzk4'>
    <rect x='48.46' y='23.18' width='248.46' height='230.57' />
  </clipPath>
</defs>
<rect x='48.46' y='23.18' width='248.46' height='230.57' style='stroke-width: 1.07; stroke: none; fill: #FFFFFF;' clip-path='url(#cpNDguNDU1OHwyOTYuOTIxfDI1My43NXwyMy4xNzk4)' />
<polyline points='48.46,235.21 296.92,235.21 ' style='stroke-width: 0.53; stroke: #EBEBEB; stroke-linecap: butt;' clip-path='url(#cpNDguNDU1OHwyOTYuOTIxfDI1My43NXwyMy4xNzk4)' />
<polyline points='48.46,185.51 296.92,185.51 ' style='stroke-width: 0.53; stroke: #EBEBEB; stroke-linecap: butt;' clip-path='url(#cpNDguNDU1OHwyOTYuOTIxfDI1My43NXwyMy4xNzk4)' />
<polyline points='48.46,135.81 296.92,135.81 ' style='stroke-width: 0.53; stroke: #EBEBEB; stroke-linecap: butt;' clip-path='url(#cpNDguNDU1OHwyOTYuOTIxfDI1My43NXwyMy4xNzk4)' />
<polyline points='48.46,86.12 296.92,86.12 ' style='stroke-width: 0.53; stroke: #EBEBEB; stroke-linecap: butt;' clip-path='url(#cpNDguNDU1OHwyOTYuOTIxfDI1My43NXwyMy4xNzk4)' />
<polyline points='48.46,36.42 296.92,36.42 ' style='stroke-width: 0.53; stroke: #EBEBEB; stroke-linecap: butt;' clip-path='url(#cpNDguNDU1OHwyOTYuOTIxfDI1My43NXwyMy4xNzk4)' />
<polyline points='60.84,253.75 60.84,23.18 ' style='stroke-width: 0.53; stroke: #EBEBEB; stroke-linecap: butt;' clip-path='url(#cpNDguNDU1OHwyOTYuOTIxfDI1My43NXwyMy4xNzk4)' />
<polyline points='133.71,253.75 133.71,23.18 ' style='stroke-width: 0.53; stroke: #EBEBEB; stroke-linecap: butt;' clip-path='url(#cpNDguNDU1OHwyOTYuOTIxfDI1My43NXwyMy4xNzk4)' />
<polyline points='206.57,253.75 206.57,23.18 ' style='stroke-width: 0.53; stroke: #EBEBEB; stroke-linecap: butt;' clip-path='url(#cpNDguNDU1OHwyOTYuOTIxfDI1My43NXwyMy4xNzk4)' />
<polyline points='279.43,253.75 279.43,23.18 ' style='stroke-width: 0.53; stroke: #EBEBEB; stroke-linecap: butt;' clip-path='url(#cpNDguNDU1OHwyOTYuOTIxfDI1My43NXwyMy4xNzk4)' />
<polyline points='48.46,210.36 296.92,210.36 ' style='stroke-width: 1.07; stroke: #EBEBEB; stroke-linecap: butt;' clip-path='url(#cpNDguNDU1OHwyOTYuOTIxfDI1My43NXwyMy4xNzk4)' />
<polyline points='48.46,160.66 296.92,160.66 ' style='stroke-width: 1.07; stroke: #EBEBEB; stroke-linecap: butt;' clip-path='url(#cpNDguNDU1OHwyOTYuOTIxfDI1My43NXwyMy4xNzk4)' />
<polyline points='48.46,110.97 296.92,110.97 ' style='stroke-width: 1.07; stroke: #EBEBEB; stroke-linecap: butt;' clip-path='url(#cpNDguNDU1OHwyOTYuOTIxfDI1My43NXwyMy4xNzk4)' />
<polyline points='48.46,61.27 296.92,61.27 ' style='stroke-width: 1.07; stroke: #EBEBEB; stroke-linecap: butt;' clip-path='url(#cpNDguNDU1OHwyOTYuOTIxfDI1My43NXwyMy4xNzk4)' />
<polyline points='97.27,253.75 97.27,23.18 ' style='stroke-width: 1.07; stroke: #EBEBEB; stroke-linecap: butt;' clip-path='url(#cpNDguNDU1OHwyOTYuOTIxfDI1My43NXwyMy4xNzk4)' />
<polyline points='170.14,253.75 170.14,23.18 ' style='stroke-width: 1.07; stroke: #EBEBEB; stroke-linecap: butt;' clip-path='url(#cpNDguNDU1OHwyOTYuOTIxfDI1My43NXwyMy4xNzk4)' />
<polyline points='243.00,253.75 243.00,23.18 ' style='stroke-width: 1.07; stroke: #EBEBEB; stroke-linecap: butt;' clip-path='url(#cpNDguNDU1OHwyOTYuOTIxfDI1My43NXwyMy4xNzk4)' />
<circle cx='60.84' cy='212.69' r='3.56pt' style='stroke-width: 0.71; stroke: #000000; stroke-opacity: 0.70; fill: #D1EEEE; fill-opacity: 0.70;' clip-path='url(#cpNDguNDU1OHwyOTYuOTIxfDI1My43NXwyMy4xNzk4)' />
<circle cx='97.27' cy='238.57' r='3.56pt' style='stroke-width: 0.71; stroke: #000000; stroke-opacity: 0.70; fill: #D1EEEE; fill-opacity: 0.70;' clip-path='url(#cpNDguNDU1OHwyOTYuOTIxfDI1My43NXwyMy4xNzk4)' />
<circle cx='133.71' cy='223.47' r='3.56pt' style='stroke-width: 0.71; stroke: #000000; stroke-opacity: 0.70; fill: #D1EEEE; fill-opacity: 0.70;' clip-path='url(#cpNDguNDU1OHwyOTYuOTIxfDI1My43NXwyMy4xNzk4)' />
<circle cx='170.14' cy='204.06' r='3.56pt' style='stroke-width: 0.71; stroke: #000000; stroke-opacity: 0.70; fill: #D1EEEE; fill-opacity: 0.70;' clip-path='url(#cpNDguNDU1OHwyOTYuOTIxfDI1My43NXwyMy4xNzk4)' />
<circle cx='206.57' cy='204.06' r='3.56pt' style='stroke-width: 0.71; stroke: #000000; stroke-opacity: 0.70; fill: #D1EEEE; fill-opacity: 0.70;' clip-path='url(#cpNDguNDU1OHwyOTYuOTIxfDI1My43NXwyMy4xNzk4)' />
<circle cx='243.00' cy='104.84' r='3.56pt' style='stroke-width: 0.71; stroke: #000000; stroke-opacity: 0.70; fill: #D1EEEE; fill-opacity: 0.70;' clip-path='url(#cpNDguNDU1OHwyOTYuOTIxfDI1My43NXwyMy4xNzk4)' />
<circle cx='279.43' cy='33.66' r='3.56pt' style='stroke-width: 0.71; stroke: #000000; stroke-opacity: 0.70; fill: #D1EEEE; fill-opacity: 0.70;' clip-path='url(#cpNDguNDU1OHwyOTYuOTIxfDI1My43NXwyMy4xNzk4)' />
<polyline points='59.75,243.27 60.88,242.83 62.02,242.38 63.15,241.94 64.29,241.49 65.42,241.04 66.56,240.58 67.70,240.13 68.83,239.67 69.97,239.21 71.10,238.74 72.24,238.28 73.37,237.81 74.51,237.34 75.64,236.86 76.78,236.39 77.91,235.91 79.05,235.43 80.18,234.94 81.32,234.46 82.45,233.97 83.59,233.47 84.72,232.98 85.86,232.48 86.99,231.98 88.13,231.48 89.26,230.97 90.40,230.46 91.53,229.95 92.67,229.44 93.80,228.92 94.94,228.40 96.07,227.88 97.21,227.36 98.34,226.83 99.48,226.30 100.61,225.77 101.75,225.23 102.88,224.69 104.02,224.15 105.15,223.61 106.29,223.06 107.42,222.51 108.56,221.96 109.69,221.40 110.83,220.84 111.96,220.28 113.10,219.72 114.23,219.15 115.37,218.58 116.50,218.00 117.64,217.43 118.77,216.85 119.91,216.27 121.04,215.68 122.18,215.09 123.31,214.50 124.45,213.91 125.58,213.31 126.72,212.71 127.85,212.10 128.99,211.50 130.12,210.89 131.26,210.27 132.39,209.66 133.53,209.04 134.66,208.42 135.80,207.79 136.93,207.16 138.07,206.53 139.20,205.89 140.34,205.26 141.47,204.61 142.61,203.97 143.74,203.32 144.88,202.67 146.01,202.01 147.15,201.36 148.28,200.70 149.42,200.03 150.55,199.36 151.69,198.69 152.82,198.02 153.96,197.34 155.09,196.66 156.23,195.97 157.36,195.28 158.50,194.59 159.64,193.90 160.77,193.20 161.91,192.50 163.04,191.79 164.18,191.08 165.31,190.37 166.45,189.65 167.58,188.93 168.72,188.21 169.85,187.48 170.99,186.75 172.12,186.02 173.26,185.28 174.39,184.54 175.53,183.80 176.66,183.05 177.80,182.30 178.93,181.54 180.07,180.78 181.20,180.02 182.34,179.25 183.47,178.48 184.61,177.71 185.74,176.93 186.88,176.15 188.01,175.36 189.15,174.57 190.28,173.78 191.42,172.99 192.55,172.18 193.69,171.38 194.82,170.57 195.96,169.76 197.09,168.94 198.23,168.12 199.36,167.30 200.50,166.47 201.63,165.64 202.77,164.81 203.90,163.97 205.04,163.12 206.17,162.28 207.31,161.42 208.44,160.57 209.58,159.71 210.71,158.85 211.85,157.98 212.98,157.11 214.12,156.23 215.25,155.35 216.39,154.47 217.52,153.58 218.66,152.69 219.79,151.79 220.93,150.89 222.06,149.98 223.20,149.08 224.33,148.16 225.47,147.24 226.60,146.32 227.74,145.40 228.87,144.47 230.01,143.53 231.14,142.59 232.28,141.65 233.41,140.70 234.55,139.75 235.68,138.79 236.82,137.83 237.95,136.87 239.09,135.90 240.22,134.92 241.36,133.95 242.49,132.96 243.63,131.98 244.76,130.98 245.90,129.99 247.03,128.99 248.17,127.98 249.30,126.97 250.44,125.96 251.57,124.94 252.71,123.91 253.85,122.89 254.98,121.85 256.12,120.82 257.25,119.77 258.39,118.73 259.52,117.68 260.66,116.62 261.79,115.56 262.93,114.49 264.06,113.42 265.20,112.35 266.33,111.27 267.47,110.18 268.60,109.09 269.74,108.00 270.87,106.90 272.01,105.79 273.14,104.68 274.28,103.57 275.41,102.45 276.55,101.33 277.68,100.20 278.82,99.06 279.95,97.93 281.09,96.78 282.22,95.63 283.36,94.48 284.49,93.32 285.63,92.16 ' style='stroke-width: 2.77; stroke: #1B9E77; stroke-linecap: butt;' clip-path='url(#cpNDguNDU1OHwyOTYuOTIxfDI1My43NXwyMy4xNzk4)' />
<g clip-path='url(#cpNDguNDU1OHwyOTYuOTIxfDI1My43NXwyMy4xNzk4)'><text x='60.84' y='165.41' style='font-size: 8.54px; font-style: italic; font-family: Arial;' textLength='60.01px' lengthAdjust='spacingAndGlyphs'>R^2 sch= 0.76 </text></g>
<g clip-path='url(#cpNDguNDU1OHwyOTYuOTIxfDI1My43NXwyMy4xNzk4)'><text x='60.84' y='177.70' style='font-size: 8.54px; font-style: italic; font-family: Arial;' textLength='55.29px' lengthAdjust='spacingAndGlyphs'>E sch= 0.283 </text></g>
<g clip-path='url(#cpNDguNDU1OHwyOTYuOTIxfDI1My43NXwyMy4xNzk4)'><text x='60.84' y='189.99' style='font-size: 8.54px; font-style: italic; font-family: Arial;' textLength='49.28px' lengthAdjust='spacingAndGlyphs'>AIC sch= 10</text></g>
<rect x='48.46' y='23.18' width='248.46' height='230.57' style='stroke-width: 1.07; stroke: #333333;' clip-path='url(#cpNDguNDU1OHwyOTYuOTIxfDI1My43NXwyMy4xNzk4)' />
<defs>
  <clipPath id='cpMHwzMDIuNHwyODh8MA=='>
    <rect x='0.00' y='0.00' width='302.40' height='288.00' />
  </clipPath>
</defs>
<g clip-path='url(#cpMHwzMDIuNHwyODh8MA==)'><text x='20.51' y='213.58' style='font-size: 8.80px; fill: #4D4D4D; font-family: Arial;' textLength='23.02px' lengthAdjust='spacingAndGlyphs'>4e-05</text></g>
<g clip-path='url(#cpMHwzMDIuNHwyODh8MA==)'><text x='20.51' y='163.88' style='font-size: 8.80px; fill: #4D4D4D; font-family: Arial;' textLength='23.02px' lengthAdjust='spacingAndGlyphs'>6e-05</text></g>
<g clip-path='url(#cpMHwzMDIuNHwyODh8MA==)'><text x='20.51' y='114.18' style='font-size: 8.80px; fill: #4D4D4D; font-family: Arial;' textLength='23.02px' lengthAdjust='spacingAndGlyphs'>8e-05</text></g>
<g clip-path='url(#cpMHwzMDIuNHwyODh8MA==)'><text x='20.51' y='64.49' style='font-size: 8.80px; fill: #4D4D4D; font-family: Arial;' textLength='23.02px' lengthAdjust='spacingAndGlyphs'>1e-04</text></g>
<polyline points='45.72,210.36 48.46,210.36 ' style='stroke-width: 1.07; stroke: #333333; stroke-linecap: butt;' clip-path='url(#cpMHwzMDIuNHwyODh8MA==)' />
<polyline points='45.72,160.66 48.46,160.66 ' style='stroke-width: 1.07; stroke: #333333; stroke-linecap: butt;' clip-path='url(#cpMHwzMDIuNHwyODh8MA==)' />
<polyline points='45.72,110.97 48.46,110.97 ' style='stroke-width: 1.07; stroke: #333333; stroke-linecap: butt;' clip-path='url(#cpMHwzMDIuNHwyODh8MA==)' />
<polyline points='45.72,61.27 48.46,61.27 ' style='stroke-width: 1.07; stroke: #333333; stroke-linecap: butt;' clip-path='url(#cpMHwzMDIuNHwyODh8MA==)' />
<polyline points='97.27,256.49 97.27,253.75 ' style='stroke-width: 1.07; stroke: #333333; stroke-linecap: butt;' clip-path='url(#cpMHwzMDIuNHwyODh8MA==)' />
<polyline points='170.14,256.49 170.14,253.75 ' style='stroke-width: 1.07; stroke: #333333; stroke-linecap: butt;' clip-path='url(#cpMHwzMDIuNHwyODh8MA==)' />
<polyline points='243.00,256.49 243.00,253.75 ' style='stroke-width: 1.07; stroke: #333333; stroke-linecap: butt;' clip-path='url(#cpMHwzMDIuNHwyODh8MA==)' />
<g clip-path='url(#cpMHwzMDIuNHwyODh8MA==)'><text x='92.27' y='265.12' style='font-size: 8.80px; fill: #4D4D4D; font-family: Arial;' textLength='10.01px' lengthAdjust='spacingAndGlyphs'>10</text></g>
<g clip-path='url(#cpMHwzMDIuNHwyODh8MA==)'><text x='165.13' y='265.12' style='font-size: 8.80px; fill: #4D4D4D; font-family: Arial;' textLength='10.01px' lengthAdjust='spacingAndGlyphs'>20</text></g>
<g clip-path='url(#cpMHwzMDIuNHwyODh8MA==)'><text x='238.00' y='265.12' style='font-size: 8.80px; fill: #4D4D4D; font-family: Arial;' textLength='10.01px' lengthAdjust='spacingAndGlyphs'>30</text></g>
<g clip-path='url(#cpMHwzMDIuNHwyODh8MA==)'><text x='133.74' y='277.88' style='font-size: 10.00px; font-family: Arial;' textLength='63.35px' lengthAdjust='spacingAndGlyphs'>Temperature (</text></g>
<g clip-path='url(#cpMHwzMDIuNHwyODh8MA==)'><text x='197.09' y='277.88' style='font-size: 10.00px; font-family: Symbol;' textLength='4.00px' lengthAdjust='spacingAndGlyphs'>°</text></g>
<g clip-path='url(#cpMHwzMDIuNHwyODh8MA==)'><text x='201.09' y='277.88' style='font-size: 10.00px; font-family: Arial;' textLength='7.22px' lengthAdjust='spacingAndGlyphs'>C</text></g>
<g clip-path='url(#cpMHwzMDIuNHwyODh8MA==)'><text x='208.31' y='277.88' style='font-size: 10.00px; font-family: Arial;' textLength='3.33px' lengthAdjust='spacingAndGlyphs'>)</text></g>
<g clip-path='url(#cpMHwzMDIuNHwyODh8MA==)'><text transform='translate(12.64,171.81) rotate(-90)' style='font-size: 10.00px; font-family: Arial;' textLength='66.70px' lengthAdjust='spacingAndGlyphs'>respiration rate</text></g>
<g clip-path='url(#cpMHwzMDIuNHwyODh8MA==)'><text x='48.46' y='14.07' style='font-size: 12.00px; font-family: Arial;' textLength='56.04px' lengthAdjust='spacingAndGlyphs'>Mougeotia</text></g>
</svg>
