<?xml version='1.0' encoding='UTF-8' ?>
<svg xmlns='http://www.w3.org/2000/svg' xmlns:xlink='http://www.w3.org/1999/xlink' viewBox='0 0 302.40 288.00'>
<defs>
  <style type='text/css'><![CDATA[
    line, polyline, path, rect, circle {
      fill: none;
      stroke: #000000;
      stroke-linecap: round;
      stroke-linejoin: round;
      stroke-miterlimit: 10.00;
    }
  ]]></style>
</defs>
<rect width='100%' height='100%' style='stroke: none; fill: #FFFFFF;'/>
<rect x='0.00' y='0.00' width='302.40' height='288.00' style='stroke-width: 1.07; stroke: #FFFFFF; fill: #FFFFFF;' />
<defs>
  <clipPath id='cpMzguMDg5MXwyOTYuOTIxfDI1My43NXwyMy4xNzk4'>
    <rect x='38.09' y='23.18' width='258.83' height='230.57' />
  </clipPath>
</defs>
<rect x='38.09' y='23.18' width='258.83' height='230.57' style='stroke-width: 1.07; stroke: none; fill: #FFFFFF;' clip-path='url(#cpMzguMDg5MXwyOTYuOTIxfDI1My43NXwyMy4xNzk4)' />
<polyline points='38.09,221.08 296.92,221.08 ' style='stroke-width: 0.53; stroke: #EBEBEB; stroke-linecap: butt;' clip-path='url(#cpMzguMDg5MXwyOTYuOTIxfDI1My43NXwyMy4xNzk4)' />
<polyline points='38.09,176.33 296.92,176.33 ' style='stroke-width: 0.53; stroke: #EBEBEB; stroke-linecap: butt;' clip-path='url(#cpMzguMDg5MXwyOTYuOTIxfDI1My43NXwyMy4xNzk4)' />
<polyline points='38.09,131.58 296.92,131.58 ' style='stroke-width: 0.53; stroke: #EBEBEB; stroke-linecap: butt;' clip-path='url(#cpMzguMDg5MXwyOTYuOTIxfDI1My43NXwyMy4xNzk4)' />
<polyline points='38.09,86.83 296.92,86.83 ' style='stroke-width: 0.53; stroke: #EBEBEB; stroke-linecap: butt;' clip-path='url(#cpMzguMDg5MXwyOTYuOTIxfDI1My43NXwyMy4xNzk4)' />
<polyline points='38.09,42.07 296.92,42.07 ' style='stroke-width: 0.53; stroke: #EBEBEB; stroke-linecap: butt;' clip-path='url(#cpMzguMDg5MXwyOTYuOTIxfDI1My43NXwyMy4xNzk4)' />
<polyline points='50.83,253.75 50.83,23.18 ' style='stroke-width: 0.53; stroke: #EBEBEB; stroke-linecap: butt;' clip-path='url(#cpMzguMDg5MXwyOTYuOTIxfDI1My43NXwyMy4xNzk4)' />
<polyline points='116.20,253.75 116.20,23.18 ' style='stroke-width: 0.53; stroke: #EBEBEB; stroke-linecap: butt;' clip-path='url(#cpMzguMDg5MXwyOTYuOTIxfDI1My43NXwyMy4xNzk4)' />
<polyline points='181.56,253.75 181.56,23.18 ' style='stroke-width: 0.53; stroke: #EBEBEB; stroke-linecap: butt;' clip-path='url(#cpMzguMDg5MXwyOTYuOTIxfDI1My43NXwyMy4xNzk4)' />
<polyline points='246.92,253.75 246.92,23.18 ' style='stroke-width: 0.53; stroke: #EBEBEB; stroke-linecap: butt;' clip-path='url(#cpMzguMDg5MXwyOTYuOTIxfDI1My43NXwyMy4xNzk4)' />
<polyline points='38.09,243.45 296.92,243.45 ' style='stroke-width: 1.07; stroke: #EBEBEB; stroke-linecap: butt;' clip-path='url(#cpMzguMDg5MXwyOTYuOTIxfDI1My43NXwyMy4xNzk4)' />
<polyline points='38.09,198.70 296.92,198.70 ' style='stroke-width: 1.07; stroke: #EBEBEB; stroke-linecap: butt;' clip-path='url(#cpMzguMDg5MXwyOTYuOTIxfDI1My43NXwyMy4xNzk4)' />
<polyline points='38.09,153.95 296.92,153.95 ' style='stroke-width: 1.07; stroke: #EBEBEB; stroke-linecap: butt;' clip-path='url(#cpMzguMDg5MXwyOTYuOTIxfDI1My43NXwyMy4xNzk4)' />
<polyline points='38.09,109.20 296.92,109.20 ' style='stroke-width: 1.07; stroke: #EBEBEB; stroke-linecap: butt;' clip-path='url(#cpMzguMDg5MXwyOTYuOTIxfDI1My43NXwyMy4xNzk4)' />
<polyline points='38.09,64.45 296.92,64.45 ' style='stroke-width: 1.07; stroke: #EBEBEB; stroke-linecap: butt;' clip-path='url(#cpMzguMDg5MXwyOTYuOTIxfDI1My43NXwyMy4xNzk4)' />
<polyline points='83.52,253.75 83.52,23.18 ' style='stroke-width: 1.07; stroke: #EBEBEB; stroke-linecap: butt;' clip-path='url(#cpMzguMDg5MXwyOTYuOTIxfDI1My43NXwyMy4xNzk4)' />
<polyline points='148.88,253.75 148.88,23.18 ' style='stroke-width: 1.07; stroke: #EBEBEB; stroke-linecap: butt;' clip-path='url(#cpMzguMDg5MXwyOTYuOTIxfDI1My43NXwyMy4xNzk4)' />
<polyline points='214.24,253.75 214.24,23.18 ' style='stroke-width: 1.07; stroke: #EBEBEB; stroke-linecap: butt;' clip-path='url(#cpMzguMDg5MXwyOTYuOTIxfDI1My43NXwyMy4xNzk4)' />
<polyline points='279.60,253.75 279.60,23.18 ' style='stroke-width: 1.07; stroke: #EBEBEB; stroke-linecap: butt;' clip-path='url(#cpMzguMDg5MXwyOTYuOTIxfDI1My43NXwyMy4xNzk4)' />
<circle cx='50.17' cy='233.65' r='3.56pt' style='stroke-width: 0.71; stroke: #000000; stroke-opacity: 0.70; fill: #D1EEEE; fill-opacity: 0.70;' clip-path='url(#cpMzguMDg5MXwyOTYuOTIxfDI1My43NXwyMy4xNzk4)' />
<circle cx='83.33' cy='211.51' r='3.56pt' style='stroke-width: 0.71; stroke: #000000; stroke-opacity: 0.70; fill: #D1EEEE; fill-opacity: 0.70;' clip-path='url(#cpMzguMDg5MXwyOTYuOTIxfDI1My43NXwyMy4xNzk4)' />
<circle cx='116.01' cy='206.06' r='3.56pt' style='stroke-width: 0.71; stroke: #000000; stroke-opacity: 0.70; fill: #D1EEEE; fill-opacity: 0.70;' clip-path='url(#cpMzguMDg5MXwyOTYuOTIxfDI1My43NXwyMy4xNzk4)' />
<circle cx='148.09' cy='101.88' r='3.56pt' style='stroke-width: 0.71; stroke: #000000; stroke-opacity: 0.70; fill: #D1EEEE; fill-opacity: 0.70;' clip-path='url(#cpMzguMDg5MXwyOTYuOTIxfDI1My43NXwyMy4xNzk4)' />
<circle cx='180.52' cy='118.36' r='3.56pt' style='stroke-width: 0.71; stroke: #000000; stroke-opacity: 0.70; fill: #D1EEEE; fill-opacity: 0.70;' clip-path='url(#cpMzguMDg5MXwyOTYuOTIxfDI1My43NXwyMy4xNzk4)' />
<circle cx='213.42' cy='140.78' r='3.56pt' style='stroke-width: 0.71; stroke: #000000; stroke-opacity: 0.70; fill: #D1EEEE; fill-opacity: 0.70;' clip-path='url(#cpMzguMDg5MXwyOTYuOTIxfDI1My43NXwyMy4xNzk4)' />
<circle cx='245.88' cy='129.61' r='3.56pt' style='stroke-width: 0.71; stroke: #000000; stroke-opacity: 0.70; fill: #D1EEEE; fill-opacity: 0.70;' clip-path='url(#cpMzguMDg5MXwyOTYuOTIxfDI1My43NXwyMy4xNzk4)' />
<circle cx='279.62' cy='242.97' r='3.56pt' style='stroke-width: 0.71; stroke: #000000; stroke-opacity: 0.70; fill: #D1EEEE; fill-opacity: 0.70;' clip-path='url(#cpMzguMDg5MXwyOTYuOTIxfDI1My43NXwyMy4xNzk4)' />
<polyline points='49.85,228.81 51.04,228.52 52.22,228.22 53.40,227.92 54.58,227.62 55.77,227.30 56.95,226.98 58.13,226.66 59.31,226.33 60.50,225.99 61.68,225.65 62.86,225.30 64.04,224.95 65.23,224.59 66.41,224.22 67.59,223.84 68.77,223.46 69.96,223.07 71.14,222.68 72.32,222.28 73.50,221.87 74.68,221.45 75.87,221.02 77.05,220.59 78.23,220.15 79.41,219.70 80.60,219.25 81.78,218.78 82.96,218.31 84.14,217.83 85.33,217.34 86.51,216.84 87.69,216.34 88.87,215.82 90.06,215.30 91.24,214.76 92.42,214.22 93.60,213.66 94.79,213.10 95.97,212.53 97.15,211.94 98.33,211.35 99.52,210.75 100.70,210.13 101.88,209.51 103.06,208.87 104.25,208.22 105.43,207.56 106.61,206.89 107.79,206.21 108.98,205.52 110.16,204.81 111.34,204.10 112.52,203.37 113.70,202.62 114.89,201.87 116.07,201.10 117.25,200.32 118.43,199.52 119.62,198.71 120.80,197.89 121.98,197.06 123.16,196.20 124.35,195.34 125.53,194.46 126.71,193.56 127.89,192.65 129.08,191.73 130.26,190.79 131.44,189.83 132.62,188.86 133.81,187.87 134.99,186.86 136.17,185.84 137.35,184.80 138.54,183.74 139.72,182.66 140.90,181.57 142.08,180.45 143.27,179.32 144.45,178.17 145.63,177.00 146.81,175.82 147.99,174.61 149.18,173.38 150.36,172.13 151.54,170.86 152.72,169.57 153.91,168.26 155.09,166.93 156.27,165.57 157.45,164.20 158.64,162.80 159.82,161.37 161.00,159.93 162.18,158.46 163.37,156.96 164.55,155.44 165.73,153.90 166.91,152.33 168.10,150.74 169.28,149.12 170.46,147.47 171.64,145.80 172.83,144.10 174.01,142.38 175.19,140.62 176.37,138.84 177.56,137.03 178.74,135.19 179.92,133.32 181.10,131.42 182.29,129.48 183.47,127.52 184.65,125.53 185.83,123.51 187.01,121.45 188.20,119.36 189.38,117.24 190.56,115.08 191.74,112.89 192.93,110.67 194.11,108.41 195.29,106.11 196.47,103.78 197.66,101.42 198.84,99.01 200.02,96.58 201.20,94.10 202.39,91.59 203.57,89.04 204.75,86.45 205.93,83.83 207.12,81.17 208.30,78.48 209.48,75.75 210.66,73.00 211.85,70.21 213.03,67.40 214.21,64.57 215.39,61.73 216.58,58.88 217.76,56.04 218.94,53.22 220.12,50.44 221.30,47.71 222.49,45.08 223.67,42.58 224.85,40.24 226.03,38.14 227.22,36.34 228.40,34.92 229.58,33.99 230.76,33.66 231.95,34.08 233.13,35.39 234.31,37.77 235.49,41.36 236.68,46.31 237.86,52.74 239.04,60.70 240.22,70.18 241.41,81.06 242.59,93.12 243.77,106.06 244.95,119.52 246.14,133.08 247.32,146.38 248.50,159.06 249.68,170.86 250.87,181.60 252.05,191.20 253.23,199.62 254.41,206.91 255.60,213.15 256.78,218.43 257.96,222.86 259.14,226.55 260.32,229.61 261.51,232.14 262.69,234.22 263.87,235.92 265.05,237.32 266.24,238.46 267.42,239.39 268.60,240.15 269.78,240.76 270.97,241.27 272.15,241.68 273.33,242.01 274.51,242.28 275.70,242.50 276.88,242.68 278.06,242.82 279.24,242.94 280.43,243.03 281.61,243.11 282.79,243.18 283.97,243.23 285.16,243.27 ' style='stroke-width: 2.77; stroke: #1B9E77; stroke-linecap: butt;' clip-path='url(#cpMzguMDg5MXwyOTYuOTIxfDI1My43NXwyMy4xNzk4)' />
<g clip-path='url(#cpMzguMDg5MXwyOTYuOTIxfDI1My43NXwyMy4xNzk4)'><text x='50.17' y='164.03' style='font-size: 8.54px; font-style: italic; font-family: Arial;' textLength='60.01px' lengthAdjust='spacingAndGlyphs'>R^2 sch= 0.50 </text></g>
<g clip-path='url(#cpMzguMDg5MXwyOTYuOTIxfDI1My43NXwyMy4xNzk4)'><text x='50.17' y='176.32' style='font-size: 8.54px; font-style: italic; font-family: Arial;' textLength='55.29px' lengthAdjust='spacingAndGlyphs'>E sch= 0.724 </text></g>
<g clip-path='url(#cpMzguMDg5MXwyOTYuOTIxfDI1My43NXwyMy4xNzk4)'><text x='50.17' y='188.61' style='font-size: 8.54px; font-style: italic; font-family: Arial;' textLength='56.78px' lengthAdjust='spacingAndGlyphs'>AIC sch= 16.6</text></g>
<rect x='38.09' y='23.18' width='258.83' height='230.57' style='stroke-width: 1.07; stroke: #333333;' clip-path='url(#cpMzguMDg5MXwyOTYuOTIxfDI1My43NXwyMy4xNzk4)' />
<defs>
  <clipPath id='cpMHwzMDIuNHwyODh8MA=='>
    <rect x='0.00' y='0.00' width='302.40' height='288.00' />
  </clipPath>
</defs>
<g clip-path='url(#cpMHwzMDIuNHwyODh8MA==)'><text x='20.65' y='246.67' style='font-size: 8.80px; fill: #4D4D4D; font-family: Arial;' textLength='12.51px' lengthAdjust='spacingAndGlyphs'>0.0</text></g>
<g clip-path='url(#cpMHwzMDIuNHwyODh8MA==)'><text x='20.65' y='201.92' style='font-size: 8.80px; fill: #4D4D4D; font-family: Arial;' textLength='12.51px' lengthAdjust='spacingAndGlyphs'>0.1</text></g>
<g clip-path='url(#cpMHwzMDIuNHwyODh8MA==)'><text x='20.65' y='157.17' style='font-size: 8.80px; fill: #4D4D4D; font-family: Arial;' textLength='12.51px' lengthAdjust='spacingAndGlyphs'>0.2</text></g>
<g clip-path='url(#cpMHwzMDIuNHwyODh8MA==)'><text x='20.65' y='112.42' style='font-size: 8.80px; fill: #4D4D4D; font-family: Arial;' textLength='12.51px' lengthAdjust='spacingAndGlyphs'>0.3</text></g>
<g clip-path='url(#cpMHwzMDIuNHwyODh8MA==)'><text x='20.65' y='67.67' style='font-size: 8.80px; fill: #4D4D4D; font-family: Arial;' textLength='12.51px' lengthAdjust='spacingAndGlyphs'>0.4</text></g>
<polyline points='35.35,243.45 38.09,243.45 ' style='stroke-width: 1.07; stroke: #333333; stroke-linecap: butt;' clip-path='url(#cpMHwzMDIuNHwyODh8MA==)' />
<polyline points='35.35,198.70 38.09,198.70 ' style='stroke-width: 1.07; stroke: #333333; stroke-linecap: butt;' clip-path='url(#cpMHwzMDIuNHwyODh8MA==)' />
<polyline points='35.35,153.95 38.09,153.95 ' style='stroke-width: 1.07; stroke: #333333; stroke-linecap: butt;' clip-path='url(#cpMHwzMDIuNHwyODh8MA==)' />
<polyline points='35.35,109.20 38.09,109.20 ' style='stroke-width: 1.07; stroke: #333333; stroke-linecap: butt;' clip-path='url(#cpMHwzMDIuNHwyODh8MA==)' />
<polyline points='35.35,64.45 38.09,64.45 ' style='stroke-width: 1.07; stroke: #333333; stroke-linecap: butt;' clip-path='url(#cpMHwzMDIuNHwyODh8MA==)' />
<polyline points='83.52,256.49 83.52,253.75 ' style='stroke-width: 1.07; stroke: #333333; stroke-linecap: butt;' clip-path='url(#cpMHwzMDIuNHwyODh8MA==)' />
<polyline points='148.88,256.49 148.88,253.75 ' style='stroke-width: 1.07; stroke: #333333; stroke-linecap: butt;' clip-path='url(#cpMHwzMDIuNHwyODh8MA==)' />
<polyline points='214.24,256.49 214.24,253.75 ' style='stroke-width: 1.07; stroke: #333333; stroke-linecap: butt;' clip-path='url(#cpMHwzMDIuNHwyODh8MA==)' />
<polyline points='279.60,256.49 279.60,253.75 ' style='stroke-width: 1.07; stroke: #333333; stroke-linecap: butt;' clip-path='url(#cpMHwzMDIuNHwyODh8MA==)' />
<g clip-path='url(#cpMHwzMDIuNHwyODh8MA==)'><text x='78.51' y='265.12' style='font-size: 8.80px; fill: #4D4D4D; font-family: Arial;' textLength='10.01px' lengthAdjust='spacingAndGlyphs'>10</text></g>
<g clip-path='url(#cpMHwzMDIuNHwyODh8MA==)'><text x='143.87' y='265.12' style='font-size: 8.80px; fill: #4D4D4D; font-family: Arial;' textLength='10.01px' lengthAdjust='spacingAndGlyphs'>20</text></g>
<g clip-path='url(#cpMHwzMDIuNHwyODh8MA==)'><text x='209.23' y='265.12' style='font-size: 8.80px; fill: #4D4D4D; font-family: Arial;' textLength='10.01px' lengthAdjust='spacingAndGlyphs'>30</text></g>
<g clip-path='url(#cpMHwzMDIuNHwyODh8MA==)'><text x='274.59' y='265.12' style='font-size: 8.80px; fill: #4D4D4D; font-family: Arial;' textLength='10.01px' lengthAdjust='spacingAndGlyphs'>40</text></g>
<g clip-path='url(#cpMHwzMDIuNHwyODh8MA==)'><text x='128.55' y='277.88' style='font-size: 10.00px; font-family: Arial;' textLength='63.35px' lengthAdjust='spacingAndGlyphs'>Temperature (</text></g>
<g clip-path='url(#cpMHwzMDIuNHwyODh8MA==)'><text x='191.91' y='277.88' style='font-size: 10.00px; font-family: Symbol;' textLength='4.00px' lengthAdjust='spacingAndGlyphs'>°</text></g>
<g clip-path='url(#cpMHwzMDIuNHwyODh8MA==)'><text x='195.91' y='277.88' style='font-size: 10.00px; font-family: Arial;' textLength='7.22px' lengthAdjust='spacingAndGlyphs'>C</text></g>
<g clip-path='url(#cpMHwzMDIuNHwyODh8MA==)'><text x='203.13' y='277.88' style='font-size: 10.00px; font-family: Arial;' textLength='3.33px' lengthAdjust='spacingAndGlyphs'>)</text></g>
<g clip-path='url(#cpMHwzMDIuNHwyODh8MA==)'><text transform='translate(12.64,180.16) rotate(-90)' style='font-size: 10.00px; font-family: Arial;' textLength='83.39px' lengthAdjust='spacingAndGlyphs'>net photosynthesis</text></g>
<g clip-path='url(#cpMHwzMDIuNHwyODh8MA==)'><text x='38.09' y='14.07' style='font-size: 12.00px; font-family: Arial;' textLength='131.38px' lengthAdjust='spacingAndGlyphs'>Cylindrotheca closterium</text></g>
</svg>
