<?xml version='1.0' encoding='UTF-8' ?>
<svg xmlns='http://www.w3.org/2000/svg' xmlns:xlink='http://www.w3.org/1999/xlink' viewBox='0 0 302.40 288.00'>
<defs>
  <style type='text/css'><![CDATA[
    line, polyline, path, rect, circle {
      fill: none;
      stroke: #000000;
      stroke-linecap: round;
      stroke-linejoin: round;
      stroke-miterlimit: 10.00;
    }
  ]]></style>
</defs>
<rect width='100%' height='100%' style='stroke: none; fill: #FFFFFF;'/>
<rect x='0.00' y='0.00' width='302.40' height='288.00' style='stroke-width: 1.07; stroke: #FFFFFF; fill: #FFFFFF;' />
<defs>
  <clipPath id='cpNDguNTk2NXwyOTYuOTIxfDI1My43NXwyMy4wMzky'>
    <rect x='48.60' y='23.04' width='248.32' height='230.71' />
  </clipPath>
</defs>
<rect x='48.60' y='23.04' width='248.32' height='230.71' style='stroke-width: 1.07; stroke: none; fill: #FFFFFF;' clip-path='url(#cpNDguNTk2NXwyOTYuOTIxfDI1My43NXwyMy4wMzky)' />
<polyline points='48.60,224.58 296.92,224.58 ' style='stroke-width: 0.53; stroke: #EBEBEB; stroke-linecap: butt;' clip-path='url(#cpNDguNTk2NXwyOTYuOTIxfDI1My43NXwyMy4wMzky)' />
<polyline points='48.60,164.78 296.92,164.78 ' style='stroke-width: 0.53; stroke: #EBEBEB; stroke-linecap: butt;' clip-path='url(#cpNDguNTk2NXwyOTYuOTIxfDI1My43NXwyMy4wMzky)' />
<polyline points='48.60,104.98 296.92,104.98 ' style='stroke-width: 0.53; stroke: #EBEBEB; stroke-linecap: butt;' clip-path='url(#cpNDguNTk2NXwyOTYuOTIxfDI1My43NXwyMy4wMzky)' />
<polyline points='48.60,45.18 296.92,45.18 ' style='stroke-width: 0.53; stroke: #EBEBEB; stroke-linecap: butt;' clip-path='url(#cpNDguNTk2NXwyOTYuOTIxfDI1My43NXwyMy4wMzky)' />
<polyline points='67.52,253.75 67.52,23.04 ' style='stroke-width: 0.53; stroke: #EBEBEB; stroke-linecap: butt;' clip-path='url(#cpNDguNTk2NXwyOTYuOTIxfDI1My43NXwyMy4wMzky)' />
<polyline points='133.92,253.75 133.92,23.04 ' style='stroke-width: 0.53; stroke: #EBEBEB; stroke-linecap: butt;' clip-path='url(#cpNDguNTk2NXwyOTYuOTIxfDI1My43NXwyMy4wMzky)' />
<polyline points='200.31,253.75 200.31,23.04 ' style='stroke-width: 0.53; stroke: #EBEBEB; stroke-linecap: butt;' clip-path='url(#cpNDguNTk2NXwyOTYuOTIxfDI1My43NXwyMy4wMzky)' />
<polyline points='266.71,253.75 266.71,23.04 ' style='stroke-width: 0.53; stroke: #EBEBEB; stroke-linecap: butt;' clip-path='url(#cpNDguNTk2NXwyOTYuOTIxfDI1My43NXwyMy4wMzky)' />
<polyline points='48.60,194.68 296.92,194.68 ' style='stroke-width: 1.07; stroke: #EBEBEB; stroke-linecap: butt;' clip-path='url(#cpNDguNTk2NXwyOTYuOTIxfDI1My43NXwyMy4wMzky)' />
<polyline points='48.60,134.88 296.92,134.88 ' style='stroke-width: 1.07; stroke: #EBEBEB; stroke-linecap: butt;' clip-path='url(#cpNDguNTk2NXwyOTYuOTIxfDI1My43NXwyMy4wMzky)' />
<polyline points='48.60,75.08 296.92,75.08 ' style='stroke-width: 1.07; stroke: #EBEBEB; stroke-linecap: butt;' clip-path='url(#cpNDguNTk2NXwyOTYuOTIxfDI1My43NXwyMy4wMzky)' />
<polyline points='100.72,253.75 100.72,23.04 ' style='stroke-width: 1.07; stroke: #EBEBEB; stroke-linecap: butt;' clip-path='url(#cpNDguNTk2NXwyOTYuOTIxfDI1My43NXwyMy4wMzky)' />
<polyline points='167.11,253.75 167.11,23.04 ' style='stroke-width: 1.07; stroke: #EBEBEB; stroke-linecap: butt;' clip-path='url(#cpNDguNTk2NXwyOTYuOTIxfDI1My43NXwyMy4wMzky)' />
<polyline points='233.51,253.75 233.51,23.04 ' style='stroke-width: 1.07; stroke: #EBEBEB; stroke-linecap: butt;' clip-path='url(#cpNDguNTk2NXwyOTYuOTIxfDI1My43NXwyMy4wMzky)' />
<circle cx='60.88' cy='150.31' r='3.56pt' style='stroke-width: 0.71; stroke: #000000; stroke-opacity: 0.70; fill: #D1EEEE; fill-opacity: 0.70;' clip-path='url(#cpNDguNTk2NXwyOTYuOTIxfDI1My43NXwyMy4wMzky)' />
<circle cx='100.72' cy='129.27' r='3.56pt' style='stroke-width: 0.71; stroke: #000000; stroke-opacity: 0.70; fill: #D1EEEE; fill-opacity: 0.70;' clip-path='url(#cpNDguNTk2NXwyOTYuOTIxfDI1My43NXwyMy4wMzky)' />
<circle cx='133.92' cy='78.87' r='3.56pt' style='stroke-width: 0.71; stroke: #000000; stroke-opacity: 0.70; fill: #D1EEEE; fill-opacity: 0.70;' clip-path='url(#cpNDguNTk2NXwyOTYuOTIxfDI1My43NXwyMy4wMzky)' />
<circle cx='167.11' cy='33.53' r='3.56pt' style='stroke-width: 0.71; stroke: #000000; stroke-opacity: 0.70; fill: #D1EEEE; fill-opacity: 0.70;' clip-path='url(#cpNDguNTk2NXwyOTYuOTIxfDI1My43NXwyMy4wMzky)' />
<circle cx='200.31' cy='147.84' r='3.56pt' style='stroke-width: 0.71; stroke: #000000; stroke-opacity: 0.70; fill: #D1EEEE; fill-opacity: 0.70;' clip-path='url(#cpNDguNTk2NXwyOTYuOTIxfDI1My43NXwyMy4wMzky)' />
<circle cx='233.51' cy='91.40' r='3.56pt' style='stroke-width: 0.71; stroke: #000000; stroke-opacity: 0.70; fill: #D1EEEE; fill-opacity: 0.70;' clip-path='url(#cpNDguNTk2NXwyOTYuOTIxfDI1My43NXwyMy4wMzky)' />
<circle cx='279.99' cy='236.14' r='3.56pt' style='stroke-width: 0.71; stroke: #000000; stroke-opacity: 0.70; fill: #D1EEEE; fill-opacity: 0.70;' clip-path='url(#cpNDguNTk2NXwyOTYuOTIxfDI1My43NXwyMy4wMzky)' />
<polyline points='59.88,134.63 61.02,134.31 62.15,133.99 63.29,133.67 64.42,133.35 65.56,133.03 66.69,132.71 67.82,132.39 68.96,132.06 70.09,131.74 71.23,131.42 72.36,131.09 73.50,130.77 74.63,130.44 75.77,130.12 76.90,129.79 78.03,129.46 79.17,129.14 80.30,128.81 81.44,128.48 82.57,128.15 83.71,127.83 84.84,127.50 85.98,127.17 87.11,126.84 88.24,126.51 89.38,126.18 90.51,125.84 91.65,125.51 92.78,125.18 93.92,124.85 95.05,124.51 96.19,124.18 97.32,123.85 98.45,123.51 99.59,123.18 100.72,122.84 101.86,122.50 102.99,122.17 104.13,121.83 105.26,121.49 106.40,121.16 107.53,120.82 108.66,120.48 109.80,120.14 110.93,119.80 112.07,119.46 113.20,119.12 114.34,118.78 115.47,118.44 116.60,118.10 117.74,117.75 118.87,117.41 120.01,117.07 121.14,116.72 122.28,116.38 123.41,116.04 124.55,115.69 125.68,115.34 126.81,115.00 127.95,114.65 129.08,114.31 130.22,113.96 131.35,113.61 132.49,113.26 133.62,112.91 134.76,112.57 135.89,112.22 137.02,111.87 138.16,111.52 139.29,111.17 140.43,110.81 141.56,110.46 142.70,110.11 143.83,109.76 144.97,109.41 146.10,109.05 147.23,108.70 148.37,108.34 149.50,107.99 150.64,107.63 151.77,107.28 152.91,106.92 154.04,106.57 155.18,106.21 156.31,105.85 157.44,105.50 158.58,105.14 159.71,104.78 160.85,104.42 161.98,104.06 163.12,103.70 164.25,103.35 165.38,102.99 166.52,102.63 167.65,102.27 168.79,101.91 169.92,101.55 171.06,101.18 172.19,100.82 173.33,100.46 174.46,100.10 175.59,99.74 176.73,99.38 177.86,99.02 179.00,98.66 180.13,98.30 181.27,97.94 182.40,97.58 183.54,97.22 184.67,96.86 185.80,96.51 186.94,96.15 188.07,95.80 189.21,95.45 190.34,95.10 191.48,94.75 192.61,94.40 193.75,94.06 194.88,93.72 196.01,93.38 197.15,93.05 198.28,92.72 199.42,92.40 200.55,92.08 201.69,91.77 202.82,91.47 203.95,91.18 205.09,90.90 206.22,90.63 207.36,90.37 208.49,90.12 209.63,89.90 210.76,89.69 211.90,89.50 213.03,89.33 214.16,89.19 215.30,89.08 216.43,89.00 217.57,88.96 218.70,88.95 219.84,89.00 220.97,89.09 222.11,89.23 223.24,89.44 224.37,89.72 225.51,90.07 226.64,90.51 227.78,91.04 228.91,91.67 230.05,92.41 231.18,93.27 232.32,94.26 233.45,95.39 234.58,96.68 235.72,98.13 236.85,99.76 237.99,101.57 239.12,103.59 240.26,105.81 241.39,108.25 242.53,110.91 243.66,113.80 244.79,116.93 245.93,120.28 247.06,123.86 248.20,127.66 249.33,131.68 250.47,135.89 251.60,140.28 252.73,144.82 253.87,149.50 255.00,154.28 256.14,159.14 257.27,164.04 258.41,168.96 259.54,173.85 260.68,178.70 261.81,183.46 262.94,188.12 264.08,192.64 265.21,197.01 266.35,201.21 267.48,205.22 268.62,209.04 269.75,212.65 270.89,216.05 272.02,219.25 273.15,222.23 274.29,225.01 275.42,227.59 276.56,229.98 277.69,232.19 278.83,234.22 279.96,236.08 281.10,237.79 282.23,239.35 283.36,240.78 284.50,242.08 285.63,243.26 ' style='stroke-width: 2.77; stroke: #1B9E77; stroke-linecap: butt;' clip-path='url(#cpNDguNTk2NXwyOTYuOTIxfDI1My43NXwyMy4wMzky)' />
<g clip-path='url(#cpNDguNTk2NXwyOTYuOTIxfDI1My43NXwyMy4wMzky)'><text x='60.88' y='114.84' style='font-size: 8.54px; font-style: italic; font-family: Arial;' textLength='60.01px' lengthAdjust='spacingAndGlyphs'>R^2 sch= 0.63 </text></g>
<g clip-path='url(#cpNDguNTk2NXwyOTYuOTIxfDI1My43NXwyMy4wMzky)'><text x='60.88' y='127.13' style='font-size: 8.54px; font-style: italic; font-family: Arial;' textLength='55.29px' lengthAdjust='spacingAndGlyphs'>E sch= 0.103 </text></g>
<g clip-path='url(#cpNDguNTk2NXwyOTYuOTIxfDI1My43NXwyMy4wMzky)'><text x='60.88' y='139.42' style='font-size: 8.54px; font-style: italic; font-family: Arial;' textLength='56.78px' lengthAdjust='spacingAndGlyphs'>AIC sch= 9.58</text></g>
<rect x='48.60' y='23.04' width='248.32' height='230.71' style='stroke-width: 1.07; stroke: #333333;' clip-path='url(#cpNDguNTk2NXwyOTYuOTIxfDI1My43NXwyMy4wMzky)' />
<defs>
  <clipPath id='cpMHwzMDIuNHwyODh8MA=='>
    <rect x='0.00' y='0.00' width='302.40' height='288.00' />
  </clipPath>
</defs>
<g clip-path='url(#cpMHwzMDIuNHwyODh8MA==)'><text x='20.65' y='197.90' style='font-size: 8.80px; fill: #4D4D4D; font-family: Arial;' textLength='23.02px' lengthAdjust='spacingAndGlyphs'>1e-06</text></g>
<g clip-path='url(#cpMHwzMDIuNHwyODh8MA==)'><text x='20.65' y='138.10' style='font-size: 8.80px; fill: #4D4D4D; font-family: Arial;' textLength='23.02px' lengthAdjust='spacingAndGlyphs'>2e-06</text></g>
<g clip-path='url(#cpMHwzMDIuNHwyODh8MA==)'><text x='20.65' y='78.30' style='font-size: 8.80px; fill: #4D4D4D; font-family: Arial;' textLength='23.02px' lengthAdjust='spacingAndGlyphs'>3e-06</text></g>
<polyline points='45.86,194.68 48.60,194.68 ' style='stroke-width: 1.07; stroke: #333333; stroke-linecap: butt;' clip-path='url(#cpMHwzMDIuNHwyODh8MA==)' />
<polyline points='45.86,134.88 48.60,134.88 ' style='stroke-width: 1.07; stroke: #333333; stroke-linecap: butt;' clip-path='url(#cpMHwzMDIuNHwyODh8MA==)' />
<polyline points='45.86,75.08 48.60,75.08 ' style='stroke-width: 1.07; stroke: #333333; stroke-linecap: butt;' clip-path='url(#cpMHwzMDIuNHwyODh8MA==)' />
<polyline points='100.72,256.49 100.72,253.75 ' style='stroke-width: 1.07; stroke: #333333; stroke-linecap: butt;' clip-path='url(#cpMHwzMDIuNHwyODh8MA==)' />
<polyline points='167.11,256.49 167.11,253.75 ' style='stroke-width: 1.07; stroke: #333333; stroke-linecap: butt;' clip-path='url(#cpMHwzMDIuNHwyODh8MA==)' />
<polyline points='233.51,256.49 233.51,253.75 ' style='stroke-width: 1.07; stroke: #333333; stroke-linecap: butt;' clip-path='url(#cpMHwzMDIuNHwyODh8MA==)' />
<g clip-path='url(#cpMHwzMDIuNHwyODh8MA==)'><text x='95.71' y='265.12' style='font-size: 8.80px; fill: #4D4D4D; font-family: Arial;' textLength='10.01px' lengthAdjust='spacingAndGlyphs'>10</text></g>
<g clip-path='url(#cpMHwzMDIuNHwyODh8MA==)'><text x='162.11' y='265.12' style='font-size: 8.80px; fill: #4D4D4D; font-family: Arial;' textLength='10.01px' lengthAdjust='spacingAndGlyphs'>20</text></g>
<g clip-path='url(#cpMHwzMDIuNHwyODh8MA==)'><text x='228.51' y='265.12' style='font-size: 8.80px; fill: #4D4D4D; font-family: Arial;' textLength='10.01px' lengthAdjust='spacingAndGlyphs'>30</text></g>
<g clip-path='url(#cpMHwzMDIuNHwyODh8MA==)'><text x='133.81' y='277.88' style='font-size: 10.00px; font-family: Arial;' textLength='63.35px' lengthAdjust='spacingAndGlyphs'>Temperature (</text></g>
<g clip-path='url(#cpMHwzMDIuNHwyODh8MA==)'><text x='197.16' y='277.88' style='font-size: 10.00px; font-family: Symbol;' textLength='4.00px' lengthAdjust='spacingAndGlyphs'>°</text></g>
<g clip-path='url(#cpMHwzMDIuNHwyODh8MA==)'><text x='201.16' y='277.88' style='font-size: 10.00px; font-family: Arial;' textLength='7.22px' lengthAdjust='spacingAndGlyphs'>C</text></g>
<g clip-path='url(#cpMHwzMDIuNHwyODh8MA==)'><text x='208.38' y='277.88' style='font-size: 10.00px; font-family: Arial;' textLength='3.33px' lengthAdjust='spacingAndGlyphs'>)</text></g>
<g clip-path='url(#cpMHwzMDIuNHwyODh8MA==)'><text transform='translate(12.64,180.09) rotate(-90)' style='font-size: 10.00px; font-family: Arial;' textLength='83.39px' lengthAdjust='spacingAndGlyphs'>net photosynthesis</text></g>
<g clip-path='url(#cpMHwzMDIuNHwyODh8MA==)'><text x='48.60' y='14.07' style='font-size: 12.00px; font-family: Arial;' textLength='86.73px' lengthAdjust='spacingAndGlyphs'>Aphanizomenon</text></g>
</svg>
