<?xml version='1.0' encoding='UTF-8' ?>
<svg xmlns='http://www.w3.org/2000/svg' xmlns:xlink='http://www.w3.org/1999/xlink' viewBox='0 0 302.40 288.00'>
<defs>
  <style type='text/css'><![CDATA[
    line, polyline, path, rect, circle {
      fill: none;
      stroke: #000000;
      stroke-linecap: round;
      stroke-linejoin: round;
      stroke-miterlimit: 10.00;
    }
  ]]></style>
</defs>
<rect width='100%' height='100%' style='stroke: none; fill: #FFFFFF;'/>
<rect x='0.00' y='0.00' width='302.40' height='288.00' style='stroke-width: 1.07; stroke: #FFFFFF; fill: #FFFFFF;' />
<defs>
  <clipPath id='cpNDguNTk2NXwyOTYuOTIxfDI1My43NXwyMy4wMzky'>
    <rect x='48.60' y='23.04' width='248.32' height='230.71' />
  </clipPath>
</defs>
<rect x='48.60' y='23.04' width='248.32' height='230.71' style='stroke-width: 1.07; stroke: none; fill: #FFFFFF;' clip-path='url(#cpNDguNTk2NXwyOTYuOTIxfDI1My43NXwyMy4wMzky)' />
<polyline points='48.60,238.80 296.92,238.80 ' style='stroke-width: 0.53; stroke: #EBEBEB; stroke-linecap: butt;' clip-path='url(#cpNDguNTk2NXwyOTYuOTIxfDI1My43NXwyMy4wMzky)' />
<polyline points='48.60,178.91 296.92,178.91 ' style='stroke-width: 0.53; stroke: #EBEBEB; stroke-linecap: butt;' clip-path='url(#cpNDguNTk2NXwyOTYuOTIxfDI1My43NXwyMy4wMzky)' />
<polyline points='48.60,119.01 296.92,119.01 ' style='stroke-width: 0.53; stroke: #EBEBEB; stroke-linecap: butt;' clip-path='url(#cpNDguNTk2NXwyOTYuOTIxfDI1My43NXwyMy4wMzky)' />
<polyline points='48.60,59.12 296.92,59.12 ' style='stroke-width: 0.53; stroke: #EBEBEB; stroke-linecap: butt;' clip-path='url(#cpNDguNTk2NXwyOTYuOTIxfDI1My43NXwyMy4wMzky)' />
<polyline points='67.52,253.75 67.52,23.04 ' style='stroke-width: 0.53; stroke: #EBEBEB; stroke-linecap: butt;' clip-path='url(#cpNDguNTk2NXwyOTYuOTIxfDI1My43NXwyMy4wMzky)' />
<polyline points='133.92,253.75 133.92,23.04 ' style='stroke-width: 0.53; stroke: #EBEBEB; stroke-linecap: butt;' clip-path='url(#cpNDguNTk2NXwyOTYuOTIxfDI1My43NXwyMy4wMzky)' />
<polyline points='200.31,253.75 200.31,23.04 ' style='stroke-width: 0.53; stroke: #EBEBEB; stroke-linecap: butt;' clip-path='url(#cpNDguNTk2NXwyOTYuOTIxfDI1My43NXwyMy4wMzky)' />
<polyline points='266.71,253.75 266.71,23.04 ' style='stroke-width: 0.53; stroke: #EBEBEB; stroke-linecap: butt;' clip-path='url(#cpNDguNTk2NXwyOTYuOTIxfDI1My43NXwyMy4wMzky)' />
<polyline points='48.60,208.86 296.92,208.86 ' style='stroke-width: 1.07; stroke: #EBEBEB; stroke-linecap: butt;' clip-path='url(#cpNDguNTk2NXwyOTYuOTIxfDI1My43NXwyMy4wMzky)' />
<polyline points='48.60,148.96 296.92,148.96 ' style='stroke-width: 1.07; stroke: #EBEBEB; stroke-linecap: butt;' clip-path='url(#cpNDguNTk2NXwyOTYuOTIxfDI1My43NXwyMy4wMzky)' />
<polyline points='48.60,89.07 296.92,89.07 ' style='stroke-width: 1.07; stroke: #EBEBEB; stroke-linecap: butt;' clip-path='url(#cpNDguNTk2NXwyOTYuOTIxfDI1My43NXwyMy4wMzky)' />
<polyline points='48.60,29.17 296.92,29.17 ' style='stroke-width: 1.07; stroke: #EBEBEB; stroke-linecap: butt;' clip-path='url(#cpNDguNTk2NXwyOTYuOTIxfDI1My43NXwyMy4wMzky)' />
<polyline points='100.72,253.75 100.72,23.04 ' style='stroke-width: 1.07; stroke: #EBEBEB; stroke-linecap: butt;' clip-path='url(#cpNDguNTk2NXwyOTYuOTIxfDI1My43NXwyMy4wMzky)' />
<polyline points='167.11,253.75 167.11,23.04 ' style='stroke-width: 1.07; stroke: #EBEBEB; stroke-linecap: butt;' clip-path='url(#cpNDguNTk2NXwyOTYuOTIxfDI1My43NXwyMy4wMzky)' />
<polyline points='233.51,253.75 233.51,23.04 ' style='stroke-width: 1.07; stroke: #EBEBEB; stroke-linecap: butt;' clip-path='url(#cpNDguNTk2NXwyOTYuOTIxfDI1My43NXwyMy4wMzky)' />
<circle cx='60.88' cy='177.59' r='3.56pt' style='stroke-width: 0.71; stroke: #000000; stroke-opacity: 0.70; fill: #D1EEEE; fill-opacity: 0.70;' clip-path='url(#cpNDguNTk2NXwyOTYuOTIxfDI1My43NXwyMy4wMzky)' />
<circle cx='100.72' cy='196.69' r='3.56pt' style='stroke-width: 0.71; stroke: #000000; stroke-opacity: 0.70; fill: #D1EEEE; fill-opacity: 0.70;' clip-path='url(#cpNDguNTk2NXwyOTYuOTIxfDI1My43NXwyMy4wMzky)' />
<circle cx='133.92' cy='153.21' r='3.56pt' style='stroke-width: 0.71; stroke: #000000; stroke-opacity: 0.70; fill: #D1EEEE; fill-opacity: 0.70;' clip-path='url(#cpNDguNTk2NXwyOTYuOTIxfDI1My43NXwyMy4wMzky)' />
<circle cx='167.11' cy='104.46' r='3.56pt' style='stroke-width: 0.71; stroke: #000000; stroke-opacity: 0.70; fill: #D1EEEE; fill-opacity: 0.70;' clip-path='url(#cpNDguNTk2NXwyOTYuOTIxfDI1My43NXwyMy4wMzky)' />
<circle cx='200.31' cy='33.53' r='3.56pt' style='stroke-width: 0.71; stroke: #000000; stroke-opacity: 0.70; fill: #D1EEEE; fill-opacity: 0.70;' clip-path='url(#cpNDguNTk2NXwyOTYuOTIxfDI1My43NXwyMy4wMzky)' />
<circle cx='233.51' cy='162.33' r='3.56pt' style='stroke-width: 0.71; stroke: #000000; stroke-opacity: 0.70; fill: #D1EEEE; fill-opacity: 0.70;' clip-path='url(#cpNDguNTk2NXwyOTYuOTIxfDI1My43NXwyMy4wMzky)' />
<circle cx='279.99' cy='236.11' r='3.56pt' style='stroke-width: 0.71; stroke: #000000; stroke-opacity: 0.70; fill: #D1EEEE; fill-opacity: 0.70;' clip-path='url(#cpNDguNTk2NXwyOTYuOTIxfDI1My43NXwyMy4wMzky)' />
<polyline points='59.88,198.72 61.02,198.03 62.15,197.33 63.29,196.62 64.42,195.91 65.56,195.19 66.69,194.47 67.82,193.74 68.96,193.01 70.09,192.26 71.23,191.52 72.36,190.76 73.50,190.00 74.63,189.23 75.77,188.46 76.90,187.68 78.03,186.89 79.17,186.10 80.30,185.30 81.44,184.49 82.57,183.68 83.71,182.86 84.84,182.04 85.98,181.20 87.11,180.36 88.24,179.52 89.38,178.66 90.51,177.80 91.65,176.93 92.78,176.06 93.92,175.18 95.05,174.29 96.19,173.39 97.32,172.49 98.45,171.58 99.59,170.67 100.72,169.74 101.86,168.81 102.99,167.87 104.13,166.93 105.26,165.98 106.40,165.02 107.53,164.05 108.66,163.08 109.80,162.10 110.93,161.11 112.07,160.11 113.20,159.11 114.34,158.10 115.47,157.09 116.60,156.06 117.74,155.03 118.87,154.00 120.01,152.95 121.14,151.90 122.28,150.85 123.41,149.78 124.55,148.71 125.68,147.64 126.81,146.55 127.95,145.46 129.08,144.37 130.22,143.27 131.35,142.16 132.49,141.05 133.62,139.93 134.76,138.81 135.89,137.69 137.02,136.55 138.16,135.42 139.29,134.28 140.43,133.14 141.56,131.99 142.70,130.84 143.83,129.69 144.97,128.53 146.10,127.38 147.23,126.22 148.37,125.06 149.50,123.91 150.64,122.75 151.77,121.59 152.91,120.44 154.04,119.29 155.18,118.14 156.31,117.00 157.44,115.86 158.58,114.72 159.71,113.60 160.85,112.48 161.98,111.37 163.12,110.28 164.25,109.19 165.38,108.12 166.52,107.06 167.65,106.01 168.79,104.99 169.92,103.98 171.06,103.00 172.19,102.03 173.33,101.09 174.46,100.18 175.59,99.30 176.73,98.44 177.86,97.62 179.00,96.83 180.13,96.08 181.27,95.37 182.40,94.71 183.54,94.08 184.67,93.51 185.80,92.98 186.94,92.51 188.07,92.09 189.21,91.73 190.34,91.44 191.48,91.20 192.61,91.04 193.75,90.94 194.88,90.92 196.01,90.97 197.15,91.11 198.28,91.32 199.42,91.62 200.55,92.00 201.69,92.47 202.82,93.04 203.95,93.69 205.09,94.44 206.22,95.29 207.36,96.23 208.49,97.28 209.63,98.42 210.76,99.66 211.90,101.01 213.03,102.45 214.16,103.99 215.30,105.63 216.43,107.37 217.57,109.20 218.70,111.12 219.84,113.14 220.97,115.24 222.11,117.43 223.24,119.70 224.37,122.05 225.51,124.47 226.64,126.95 227.78,129.51 228.91,132.12 230.05,134.78 231.18,137.49 232.32,140.24 233.45,143.03 234.58,145.86 235.72,148.70 236.85,151.57 237.99,154.45 239.12,157.34 240.26,160.23 241.39,163.12 242.53,166.00 243.66,168.87 244.79,171.72 245.93,174.55 247.06,177.35 248.20,180.13 249.33,182.87 250.47,185.57 251.60,188.23 252.73,190.84 253.87,193.42 255.00,195.94 256.14,198.41 257.27,200.83 258.41,203.20 259.54,205.51 260.68,207.76 261.81,209.96 262.94,212.10 264.08,214.18 265.21,216.20 266.35,218.16 267.48,220.07 268.62,221.92 269.75,223.71 270.89,225.45 272.02,227.13 273.15,228.75 274.29,230.32 275.42,231.84 276.56,233.30 277.69,234.71 278.83,236.07 279.96,237.39 281.10,238.65 282.23,239.87 283.36,241.05 284.50,242.18 285.63,243.26 ' style='stroke-width: 2.77; stroke: #1B9E77; stroke-linecap: butt;' clip-path='url(#cpNDguNTk2NXwyOTYuOTIxfDI1My43NXwyMy4wMzky)' />
<g clip-path='url(#cpNDguNTk2NXwyOTYuOTIxfDI1My43NXwyMy4wMzky)'><text x='60.88' y='142.91' style='font-size: 8.54px; font-style: italic; font-family: Arial;' textLength='60.01px' lengthAdjust='spacingAndGlyphs'>R^2 sch= 0.80 </text></g>
<g clip-path='url(#cpNDguNTk2NXwyOTYuOTIxfDI1My43NXwyMy4wMzky)'><text x='60.88' y='155.20' style='font-size: 8.54px; font-style: italic; font-family: Arial;' textLength='55.29px' lengthAdjust='spacingAndGlyphs'>E sch= 0.382 </text></g>
<g clip-path='url(#cpNDguNTk2NXwyOTYuOTIxfDI1My43NXwyMy4wMzky)'><text x='60.88' y='167.50' style='font-size: 8.54px; font-style: italic; font-family: Arial;' textLength='56.78px' lengthAdjust='spacingAndGlyphs'>AIC sch= 7.55</text></g>
<rect x='48.60' y='23.04' width='248.32' height='230.71' style='stroke-width: 1.07; stroke: #333333;' clip-path='url(#cpNDguNTk2NXwyOTYuOTIxfDI1My43NXwyMy4wMzky)' />
<defs>
  <clipPath id='cpMHwzMDIuNHwyODh8MA=='>
    <rect x='0.00' y='0.00' width='302.40' height='288.00' />
  </clipPath>
</defs>
<g clip-path='url(#cpMHwzMDIuNHwyODh8MA==)'><text x='20.65' y='212.07' style='font-size: 8.80px; fill: #4D4D4D; font-family: Arial;' textLength='23.02px' lengthAdjust='spacingAndGlyphs'>2e-06</text></g>
<g clip-path='url(#cpMHwzMDIuNHwyODh8MA==)'><text x='20.65' y='152.18' style='font-size: 8.80px; fill: #4D4D4D; font-family: Arial;' textLength='23.02px' lengthAdjust='spacingAndGlyphs'>4e-06</text></g>
<g clip-path='url(#cpMHwzMDIuNHwyODh8MA==)'><text x='20.65' y='92.28' style='font-size: 8.80px; fill: #4D4D4D; font-family: Arial;' textLength='23.02px' lengthAdjust='spacingAndGlyphs'>6e-06</text></g>
<g clip-path='url(#cpMHwzMDIuNHwyODh8MA==)'><text x='20.65' y='32.39' style='font-size: 8.80px; fill: #4D4D4D; font-family: Arial;' textLength='23.02px' lengthAdjust='spacingAndGlyphs'>8e-06</text></g>
<polyline points='45.86,208.86 48.60,208.86 ' style='stroke-width: 1.07; stroke: #333333; stroke-linecap: butt;' clip-path='url(#cpMHwzMDIuNHwyODh8MA==)' />
<polyline points='45.86,148.96 48.60,148.96 ' style='stroke-width: 1.07; stroke: #333333; stroke-linecap: butt;' clip-path='url(#cpMHwzMDIuNHwyODh8MA==)' />
<polyline points='45.86,89.07 48.60,89.07 ' style='stroke-width: 1.07; stroke: #333333; stroke-linecap: butt;' clip-path='url(#cpMHwzMDIuNHwyODh8MA==)' />
<polyline points='45.86,29.17 48.60,29.17 ' style='stroke-width: 1.07; stroke: #333333; stroke-linecap: butt;' clip-path='url(#cpMHwzMDIuNHwyODh8MA==)' />
<polyline points='100.72,256.49 100.72,253.75 ' style='stroke-width: 1.07; stroke: #333333; stroke-linecap: butt;' clip-path='url(#cpMHwzMDIuNHwyODh8MA==)' />
<polyline points='167.11,256.49 167.11,253.75 ' style='stroke-width: 1.07; stroke: #333333; stroke-linecap: butt;' clip-path='url(#cpMHwzMDIuNHwyODh8MA==)' />
<polyline points='233.51,256.49 233.51,253.75 ' style='stroke-width: 1.07; stroke: #333333; stroke-linecap: butt;' clip-path='url(#cpMHwzMDIuNHwyODh8MA==)' />
<g clip-path='url(#cpMHwzMDIuNHwyODh8MA==)'><text x='95.71' y='265.12' style='font-size: 8.80px; fill: #4D4D4D; font-family: Arial;' textLength='10.01px' lengthAdjust='spacingAndGlyphs'>10</text></g>
<g clip-path='url(#cpMHwzMDIuNHwyODh8MA==)'><text x='162.11' y='265.12' style='font-size: 8.80px; fill: #4D4D4D; font-family: Arial;' textLength='10.01px' lengthAdjust='spacingAndGlyphs'>20</text></g>
<g clip-path='url(#cpMHwzMDIuNHwyODh8MA==)'><text x='228.51' y='265.12' style='font-size: 8.80px; fill: #4D4D4D; font-family: Arial;' textLength='10.01px' lengthAdjust='spacingAndGlyphs'>30</text></g>
<g clip-path='url(#cpMHwzMDIuNHwyODh8MA==)'><text x='133.81' y='277.88' style='font-size: 10.00px; font-family: Arial;' textLength='63.35px' lengthAdjust='spacingAndGlyphs'>Temperature (</text></g>
<g clip-path='url(#cpMHwzMDIuNHwyODh8MA==)'><text x='197.16' y='277.88' style='font-size: 10.00px; font-family: Symbol;' textLength='4.00px' lengthAdjust='spacingAndGlyphs'>°</text></g>
<g clip-path='url(#cpMHwzMDIuNHwyODh8MA==)'><text x='201.16' y='277.88' style='font-size: 10.00px; font-family: Arial;' textLength='7.22px' lengthAdjust='spacingAndGlyphs'>C</text></g>
<g clip-path='url(#cpMHwzMDIuNHwyODh8MA==)'><text x='208.38' y='277.88' style='font-size: 10.00px; font-family: Arial;' textLength='3.33px' lengthAdjust='spacingAndGlyphs'>)</text></g>
<g clip-path='url(#cpMHwzMDIuNHwyODh8MA==)'><text transform='translate(12.64,180.09) rotate(-90)' style='font-size: 10.00px; font-family: Arial;' textLength='83.39px' lengthAdjust='spacingAndGlyphs'>net photosynthesis</text></g>
<g clip-path='url(#cpMHwzMDIuNHwyODh8MA==)'><text x='48.60' y='14.07' style='font-size: 12.00px; font-family: Arial;' textLength='86.73px' lengthAdjust='spacingAndGlyphs'>Aphanizomenon</text></g>
</svg>
