<?xml version='1.0' encoding='UTF-8' ?>
<svg xmlns='http://www.w3.org/2000/svg' xmlns:xlink='http://www.w3.org/1999/xlink' viewBox='0 0 302.40 288.00'>
<defs>
  <style type='text/css'><![CDATA[
    line, polyline, path, rect, circle {
      fill: none;
      stroke: #000000;
      stroke-linecap: round;
      stroke-linejoin: round;
      stroke-miterlimit: 10.00;
    }
  ]]></style>
</defs>
<rect width='100%' height='100%' style='stroke: none; fill: #FFFFFF;'/>
<rect x='0.00' y='0.00' width='302.40' height='288.00' style='stroke-width: 1.07; stroke: #FFFFFF; fill: #FFFFFF;' />
<defs>
  <clipPath id='cpNTUuOTYxN3wyOTYuOTIxfDI1My43NXwyMy4xNzk4'>
    <rect x='55.96' y='23.18' width='240.96' height='230.57' />
  </clipPath>
</defs>
<rect x='55.96' y='23.18' width='240.96' height='230.57' style='stroke-width: 1.07; stroke: none; fill: #FFFFFF;' clip-path='url(#cpNTUuOTYxN3wyOTYuOTIxfDI1My43NXwyMy4xNzk4)' />
<polyline points='55.96,250.30 296.92,250.30 ' style='stroke-width: 0.53; stroke: #EBEBEB; stroke-linecap: butt;' clip-path='url(#cpNTUuOTYxN3wyOTYuOTIxfDI1My43NXwyMy4xNzk4)' />
<polyline points='55.96,179.96 296.92,179.96 ' style='stroke-width: 0.53; stroke: #EBEBEB; stroke-linecap: butt;' clip-path='url(#cpNTUuOTYxN3wyOTYuOTIxfDI1My43NXwyMy4xNzk4)' />
<polyline points='55.96,109.62 296.92,109.62 ' style='stroke-width: 0.53; stroke: #EBEBEB; stroke-linecap: butt;' clip-path='url(#cpNTUuOTYxN3wyOTYuOTIxfDI1My43NXwyMy4xNzk4)' />
<polyline points='55.96,39.28 296.92,39.28 ' style='stroke-width: 0.53; stroke: #EBEBEB; stroke-linecap: butt;' clip-path='url(#cpNTUuOTYxN3wyOTYuOTIxfDI1My43NXwyMy4xNzk4)' />
<polyline points='110.30,253.75 110.30,23.18 ' style='stroke-width: 0.53; stroke: #EBEBEB; stroke-linecap: butt;' clip-path='url(#cpNTUuOTYxN3wyOTYuOTIxfDI1My43NXwyMy4xNzk4)' />
<polyline points='194.56,253.75 194.56,23.18 ' style='stroke-width: 0.53; stroke: #EBEBEB; stroke-linecap: butt;' clip-path='url(#cpNTUuOTYxN3wyOTYuOTIxfDI1My43NXwyMy4xNzk4)' />
<polyline points='278.81,253.75 278.81,23.18 ' style='stroke-width: 0.53; stroke: #EBEBEB; stroke-linecap: butt;' clip-path='url(#cpNTUuOTYxN3wyOTYuOTIxfDI1My43NXwyMy4xNzk4)' />
<polyline points='55.96,215.13 296.92,215.13 ' style='stroke-width: 1.07; stroke: #EBEBEB; stroke-linecap: butt;' clip-path='url(#cpNTUuOTYxN3wyOTYuOTIxfDI1My43NXwyMy4xNzk4)' />
<polyline points='55.96,144.79 296.92,144.79 ' style='stroke-width: 1.07; stroke: #EBEBEB; stroke-linecap: butt;' clip-path='url(#cpNTUuOTYxN3wyOTYuOTIxfDI1My43NXwyMy4xNzk4)' />
<polyline points='55.96,74.45 296.92,74.45 ' style='stroke-width: 1.07; stroke: #EBEBEB; stroke-linecap: butt;' clip-path='url(#cpNTUuOTYxN3wyOTYuOTIxfDI1My43NXwyMy4xNzk4)' />
<polyline points='68.18,253.75 68.18,23.18 ' style='stroke-width: 1.07; stroke: #EBEBEB; stroke-linecap: butt;' clip-path='url(#cpNTUuOTYxN3wyOTYuOTIxfDI1My43NXwyMy4xNzk4)' />
<polyline points='152.43,253.75 152.43,23.18 ' style='stroke-width: 1.07; stroke: #EBEBEB; stroke-linecap: butt;' clip-path='url(#cpNTUuOTYxN3wyOTYuOTIxfDI1My43NXwyMy4xNzk4)' />
<polyline points='236.68,253.75 236.68,23.18 ' style='stroke-width: 1.07; stroke: #EBEBEB; stroke-linecap: butt;' clip-path='url(#cpNTUuOTYxN3wyOTYuOTIxfDI1My43NXwyMy4xNzk4)' />
<circle cx='69.71' cy='241.75' r='3.56pt' style='stroke-width: 0.71; stroke: #000000; stroke-opacity: 0.70; fill: #D1EEEE; fill-opacity: 0.70;' clip-path='url(#cpNTUuOTYxN3wyOTYuOTIxfDI1My43NXwyMy4xNzk4)' />
<circle cx='149.78' cy='129.03' r='3.56pt' style='stroke-width: 0.71; stroke: #000000; stroke-opacity: 0.70; fill: #D1EEEE; fill-opacity: 0.70;' clip-path='url(#cpNTUuOTYxN3wyOTYuOTIxfDI1My43NXwyMy4xNzk4)' />
<circle cx='192.53' cy='128.42' r='3.56pt' style='stroke-width: 0.71; stroke: #000000; stroke-opacity: 0.70; fill: #D1EEEE; fill-opacity: 0.70;' clip-path='url(#cpNTUuOTYxN3wyOTYuOTIxfDI1My43NXwyMy4xNzk4)' />
<circle cx='235.12' cy='106.08' r='3.56pt' style='stroke-width: 0.71; stroke: #000000; stroke-opacity: 0.70; fill: #D1EEEE; fill-opacity: 0.70;' clip-path='url(#cpNTUuOTYxN3wyOTYuOTIxfDI1My43NXwyMy4xNzk4)' />
<circle cx='278.87' cy='33.66' r='3.56pt' style='stroke-width: 0.71; stroke: #000000; stroke-opacity: 0.70; fill: #D1EEEE; fill-opacity: 0.70;' clip-path='url(#cpNTUuOTYxN3wyOTYuOTIxfDI1My43NXwyMy4xNzk4)' />
<polyline points='66.91,243.27 68.02,242.35 69.12,241.41 70.22,240.46 71.32,239.49 72.42,238.51 73.52,237.52 74.62,236.51 75.72,235.49 76.82,234.45 77.92,233.40 79.02,232.33 80.12,231.25 81.22,230.16 82.33,229.05 83.43,227.94 84.53,226.80 85.63,225.66 86.73,224.50 87.83,223.32 88.93,222.14 90.03,220.94 91.13,219.73 92.23,218.51 93.33,217.28 94.43,216.03 95.53,214.78 96.64,213.51 97.74,212.24 98.84,210.95 99.94,209.65 101.04,208.34 102.14,207.03 103.24,205.70 104.34,204.37 105.44,203.03 106.54,201.68 107.64,200.32 108.74,198.96 109.84,197.59 110.95,196.21 112.05,194.83 113.15,193.44 114.25,192.04 115.35,190.65 116.45,189.25 117.55,187.84 118.65,186.43 119.75,185.02 120.85,183.61 121.95,182.19 123.05,180.77 124.15,179.36 125.26,177.94 126.36,176.52 127.46,175.10 128.56,173.69 129.66,172.27 130.76,170.86 131.86,169.45 132.96,168.04 134.06,166.64 135.16,165.24 136.26,163.84 137.36,162.45 138.46,161.06 139.57,159.68 140.67,158.30 141.77,156.93 142.87,155.57 143.97,154.21 145.07,152.86 146.17,151.52 147.27,150.19 148.37,148.86 149.47,147.54 150.57,146.24 151.67,144.94 152.77,143.65 153.88,142.37 154.98,141.10 156.08,139.85 157.18,138.60 158.28,137.36 159.38,136.14 160.48,134.92 161.58,133.72 162.68,132.53 163.78,131.35 164.88,130.19 165.98,129.03 167.08,127.89 168.19,126.76 169.29,125.65 170.39,124.55 171.49,123.46 172.59,122.38 173.69,121.32 174.79,120.27 175.89,119.23 176.99,118.21 178.09,117.19 179.19,116.20 180.29,115.21 181.39,114.25 182.50,113.29 183.60,112.35 184.70,111.42 185.80,110.50 186.90,109.60 188.00,108.71 189.10,107.83 190.20,106.97 191.30,106.12 192.40,105.29 193.50,104.46 194.60,103.65 195.70,102.86 196.81,102.07 197.91,101.30 199.01,100.54 200.11,99.80 201.21,99.07 202.31,98.34 203.41,97.64 204.51,96.94 205.61,96.26 206.71,95.58 207.81,94.92 208.91,94.27 210.01,93.64 211.12,93.01 212.22,92.40 213.32,91.79 214.42,91.20 215.52,90.62 216.62,90.05 217.72,89.49 218.82,88.94 219.92,88.40 221.02,87.87 222.12,87.36 223.22,86.85 224.32,86.35 225.43,85.86 226.53,85.38 227.63,84.91 228.73,84.45 229.83,83.99 230.93,83.55 232.03,83.11 233.13,82.69 234.23,82.27 235.33,81.86 236.43,81.46 237.53,81.07 238.63,80.68 239.74,80.31 240.84,79.94 241.94,79.57 243.04,79.22 244.14,78.87 245.24,78.53 246.34,78.20 247.44,77.87 248.54,77.55 249.64,77.24 250.74,76.93 251.84,76.63 252.94,76.34 254.05,76.05 255.15,75.77 256.25,75.49 257.35,75.22 258.45,74.96 259.55,74.70 260.65,74.45 261.75,74.20 262.85,73.96 263.95,73.72 265.05,73.49 266.15,73.26 267.25,73.04 268.36,72.82 269.46,72.61 270.56,72.40 271.66,72.19 272.76,71.99 273.86,71.80 274.96,71.61 276.06,71.42 277.16,71.24 278.26,71.06 279.36,70.88 280.46,70.71 281.56,70.54 282.67,70.38 283.77,70.22 284.87,70.06 285.97,69.91 ' style='stroke-width: 2.77; stroke: #1B9E77; stroke-linecap: butt;' clip-path='url(#cpNTUuOTYxN3wyOTYuOTIxfDI1My43NXwyMy4xNzk4)' />
<g clip-path='url(#cpNTUuOTYxN3wyOTYuOTIxfDI1My43NXwyMy4xNzk4)'><text x='69.71' y='118.72' style='font-size: 8.54px; font-style: italic; font-family: Arial;' textLength='60.01px' lengthAdjust='spacingAndGlyphs'>R^2 sch= 0.87 </text></g>
<g clip-path='url(#cpNTUuOTYxN3wyOTYuOTIxfDI1My43NXwyMy4xNzk4)'><text x='69.71' y='131.01' style='font-size: 8.54px; font-style: italic; font-family: Arial;' textLength='50.28px' lengthAdjust='spacingAndGlyphs'>E sch= 1.41 </text></g>
<g clip-path='url(#cpNTUuOTYxN3wyOTYuOTIxfDI1My43NXwyMy4xNzk4)'><text x='69.71' y='143.30' style='font-size: 8.54px; font-style: italic; font-family: Arial;' textLength='56.78px' lengthAdjust='spacingAndGlyphs'>AIC sch= 3.27</text></g>
<rect x='55.96' y='23.18' width='240.96' height='230.57' style='stroke-width: 1.07; stroke: #333333;' clip-path='url(#cpNTUuOTYxN3wyOTYuOTIxfDI1My43NXwyMy4xNzk4)' />
<defs>
  <clipPath id='cpMHwzMDIuNHwyODh8MA=='>
    <rect x='0.00' y='0.00' width='302.40' height='288.00' />
  </clipPath>
</defs>
<g clip-path='url(#cpMHwzMDIuNHwyODh8MA==)'><text x='20.51' y='218.35' style='font-size: 8.80px; fill: #4D4D4D; font-family: Arial;' textLength='30.52px' lengthAdjust='spacingAndGlyphs'>5.0e-06</text></g>
<g clip-path='url(#cpMHwzMDIuNHwyODh8MA==)'><text x='20.51' y='148.01' style='font-size: 8.80px; fill: #4D4D4D; font-family: Arial;' textLength='30.52px' lengthAdjust='spacingAndGlyphs'>1.0e-05</text></g>
<g clip-path='url(#cpMHwzMDIuNHwyODh8MA==)'><text x='20.51' y='77.67' style='font-size: 8.80px; fill: #4D4D4D; font-family: Arial;' textLength='30.52px' lengthAdjust='spacingAndGlyphs'>1.5e-05</text></g>
<polyline points='53.22,215.13 55.96,215.13 ' style='stroke-width: 1.07; stroke: #333333; stroke-linecap: butt;' clip-path='url(#cpMHwzMDIuNHwyODh8MA==)' />
<polyline points='53.22,144.79 55.96,144.79 ' style='stroke-width: 1.07; stroke: #333333; stroke-linecap: butt;' clip-path='url(#cpMHwzMDIuNHwyODh8MA==)' />
<polyline points='53.22,74.45 55.96,74.45 ' style='stroke-width: 1.07; stroke: #333333; stroke-linecap: butt;' clip-path='url(#cpMHwzMDIuNHwyODh8MA==)' />
<polyline points='68.18,256.49 68.18,253.75 ' style='stroke-width: 1.07; stroke: #333333; stroke-linecap: butt;' clip-path='url(#cpMHwzMDIuNHwyODh8MA==)' />
<polyline points='152.43,256.49 152.43,253.75 ' style='stroke-width: 1.07; stroke: #333333; stroke-linecap: butt;' clip-path='url(#cpMHwzMDIuNHwyODh8MA==)' />
<polyline points='236.68,256.49 236.68,253.75 ' style='stroke-width: 1.07; stroke: #333333; stroke-linecap: butt;' clip-path='url(#cpMHwzMDIuNHwyODh8MA==)' />
<g clip-path='url(#cpMHwzMDIuNHwyODh8MA==)'><text x='63.17' y='265.12' style='font-size: 8.80px; fill: #4D4D4D; font-family: Arial;' textLength='10.01px' lengthAdjust='spacingAndGlyphs'>10</text></g>
<g clip-path='url(#cpMHwzMDIuNHwyODh8MA==)'><text x='147.42' y='265.12' style='font-size: 8.80px; fill: #4D4D4D; font-family: Arial;' textLength='10.01px' lengthAdjust='spacingAndGlyphs'>20</text></g>
<g clip-path='url(#cpMHwzMDIuNHwyODh8MA==)'><text x='231.68' y='265.12' style='font-size: 8.80px; fill: #4D4D4D; font-family: Arial;' textLength='10.01px' lengthAdjust='spacingAndGlyphs'>30</text></g>
<g clip-path='url(#cpMHwzMDIuNHwyODh8MA==)'><text x='137.49' y='277.88' style='font-size: 10.00px; font-family: Arial;' textLength='63.35px' lengthAdjust='spacingAndGlyphs'>Temperature (</text></g>
<g clip-path='url(#cpMHwzMDIuNHwyODh8MA==)'><text x='200.84' y='277.88' style='font-size: 10.00px; font-family: Symbol;' textLength='4.00px' lengthAdjust='spacingAndGlyphs'>°</text></g>
<g clip-path='url(#cpMHwzMDIuNHwyODh8MA==)'><text x='204.84' y='277.88' style='font-size: 10.00px; font-family: Arial;' textLength='7.22px' lengthAdjust='spacingAndGlyphs'>C</text></g>
<g clip-path='url(#cpMHwzMDIuNHwyODh8MA==)'><text x='212.06' y='277.88' style='font-size: 10.00px; font-family: Arial;' textLength='3.33px' lengthAdjust='spacingAndGlyphs'>)</text></g>
<g clip-path='url(#cpMHwzMDIuNHwyODh8MA==)'><text transform='translate(12.64,171.81) rotate(-90)' style='font-size: 10.00px; font-family: Arial;' textLength='66.70px' lengthAdjust='spacingAndGlyphs'>respiration rate</text></g>
<g clip-path='url(#cpMHwzMDIuNHwyODh8MA==)'><text x='55.96' y='14.07' style='font-size: 12.00px; font-family: Arial;' textLength='110.07px' lengthAdjust='spacingAndGlyphs'>Cymodocea nodosa </text></g>
</svg>
