<?xml version='1.0' encoding='UTF-8' ?>
<svg xmlns='http://www.w3.org/2000/svg' xmlns:xlink='http://www.w3.org/1999/xlink' viewBox='0 0 302.40 288.00'>
<defs>
  <style type='text/css'><![CDATA[
    line, polyline, path, rect, circle {
      fill: none;
      stroke: #000000;
      stroke-linecap: round;
      stroke-linejoin: round;
      stroke-miterlimit: 10.00;
    }
  ]]></style>
</defs>
<rect width='100%' height='100%' style='stroke: none; fill: #FFFFFF;'/>
<rect x='0.00' y='0.00' width='302.40' height='288.00' style='stroke-width: 1.07; stroke: #FFFFFF; fill: #FFFFFF;' />
<defs>
  <clipPath id='cpNTUuOTYxN3wyOTYuOTIxfDI1My43NXwyMC43ODky'>
    <rect x='55.96' y='20.79' width='240.96' height='232.96' />
  </clipPath>
</defs>
<rect x='55.96' y='20.79' width='240.96' height='232.96' style='stroke-width: 1.07; stroke: none; fill: #FFFFFF;' clip-path='url(#cpNTUuOTYxN3wyOTYuOTIxfDI1My43NXwyMC43ODky)' />
<polyline points='55.96,198.16 296.92,198.16 ' style='stroke-width: 0.53; stroke: #EBEBEB; stroke-linecap: butt;' clip-path='url(#cpNTUuOTYxN3wyOTYuOTIxfDI1My43NXwyMC43ODky)' />
<polyline points='55.96,141.99 296.92,141.99 ' style='stroke-width: 0.53; stroke: #EBEBEB; stroke-linecap: butt;' clip-path='url(#cpNTUuOTYxN3wyOTYuOTIxfDI1My43NXwyMC43ODky)' />
<polyline points='55.96,85.81 296.92,85.81 ' style='stroke-width: 0.53; stroke: #EBEBEB; stroke-linecap: butt;' clip-path='url(#cpNTUuOTYxN3wyOTYuOTIxfDI1My43NXwyMC43ODky)' />
<polyline points='55.96,29.63 296.92,29.63 ' style='stroke-width: 0.53; stroke: #EBEBEB; stroke-linecap: butt;' clip-path='url(#cpNTUuOTYxN3wyOTYuOTIxfDI1My43NXwyMC43ODky)' />
<polyline points='84.91,253.75 84.91,20.79 ' style='stroke-width: 0.53; stroke: #EBEBEB; stroke-linecap: butt;' clip-path='url(#cpNTUuOTYxN3wyOTYuOTIxfDI1My43NXwyMC43ODky)' />
<polyline points='147.49,253.75 147.49,20.79 ' style='stroke-width: 0.53; stroke: #EBEBEB; stroke-linecap: butt;' clip-path='url(#cpNTUuOTYxN3wyOTYuOTIxfDI1My43NXwyMC43ODky)' />
<polyline points='210.08,253.75 210.08,20.79 ' style='stroke-width: 0.53; stroke: #EBEBEB; stroke-linecap: butt;' clip-path='url(#cpNTUuOTYxN3wyOTYuOTIxfDI1My43NXwyMC43ODky)' />
<polyline points='272.67,253.75 272.67,20.79 ' style='stroke-width: 0.53; stroke: #EBEBEB; stroke-linecap: butt;' clip-path='url(#cpNTUuOTYxN3wyOTYuOTIxfDI1My43NXwyMC43ODky)' />
<polyline points='55.96,226.25 296.92,226.25 ' style='stroke-width: 1.07; stroke: #EBEBEB; stroke-linecap: butt;' clip-path='url(#cpNTUuOTYxN3wyOTYuOTIxfDI1My43NXwyMC43ODky)' />
<polyline points='55.96,170.07 296.92,170.07 ' style='stroke-width: 1.07; stroke: #EBEBEB; stroke-linecap: butt;' clip-path='url(#cpNTUuOTYxN3wyOTYuOTIxfDI1My43NXwyMC43ODky)' />
<polyline points='55.96,113.90 296.92,113.90 ' style='stroke-width: 1.07; stroke: #EBEBEB; stroke-linecap: butt;' clip-path='url(#cpNTUuOTYxN3wyOTYuOTIxfDI1My43NXwyMC43ODky)' />
<polyline points='55.96,57.72 296.92,57.72 ' style='stroke-width: 1.07; stroke: #EBEBEB; stroke-linecap: butt;' clip-path='url(#cpNTUuOTYxN3wyOTYuOTIxfDI1My43NXwyMC43ODky)' />
<polyline points='116.20,253.75 116.20,20.79 ' style='stroke-width: 1.07; stroke: #EBEBEB; stroke-linecap: butt;' clip-path='url(#cpNTUuOTYxN3wyOTYuOTIxfDI1My43NXwyMC43ODky)' />
<polyline points='178.79,253.75 178.79,20.79 ' style='stroke-width: 1.07; stroke: #EBEBEB; stroke-linecap: butt;' clip-path='url(#cpNTUuOTYxN3wyOTYuOTIxfDI1My43NXwyMC43ODky)' />
<polyline points='241.37,253.75 241.37,20.79 ' style='stroke-width: 1.07; stroke: #EBEBEB; stroke-linecap: butt;' clip-path='url(#cpNTUuOTYxN3wyOTYuOTIxfDI1My43NXwyMC43ODky)' />
<circle cx='81.58' cy='181.36' r='3.56pt' style='stroke-width: 0.71; stroke: #000000; stroke-opacity: 0.70; fill: #D1EEEE; fill-opacity: 0.70;' clip-path='url(#cpNTUuOTYxN3wyOTYuOTIxfDI1My43NXwyMC43ODky)' />
<circle cx='121.15' cy='172.46' r='3.56pt' style='stroke-width: 0.71; stroke: #000000; stroke-opacity: 0.70; fill: #D1EEEE; fill-opacity: 0.70;' clip-path='url(#cpNTUuOTYxN3wyOTYuOTIxfDI1My43NXwyMC43ODky)' />
<circle cx='152.17' cy='159.11' r='3.56pt' style='stroke-width: 0.71; stroke: #000000; stroke-opacity: 0.70; fill: #D1EEEE; fill-opacity: 0.70;' clip-path='url(#cpNTUuOTYxN3wyOTYuOTIxfDI1My43NXwyMC43ODky)' />
<circle cx='175.55' cy='119.07' r='3.56pt' style='stroke-width: 0.71; stroke: #000000; stroke-opacity: 0.70; fill: #D1EEEE; fill-opacity: 0.70;' clip-path='url(#cpNTUuOTYxN3wyOTYuOTIxfDI1My43NXwyMC43ODky)' />
<circle cx='202.08' cy='79.04' r='3.56pt' style='stroke-width: 0.71; stroke: #000000; stroke-opacity: 0.70; fill: #D1EEEE; fill-opacity: 0.70;' clip-path='url(#cpNTUuOTYxN3wyOTYuOTIxfDI1My43NXwyMC43ODky)' />
<circle cx='236.70' cy='39.00' r='3.56pt' style='stroke-width: 0.71; stroke: #000000; stroke-opacity: 0.70; fill: #D1EEEE; fill-opacity: 0.70;' clip-path='url(#cpNTUuOTYxN3wyOTYuOTIxfDI1My43NXwyMC43ODky)' />
<circle cx='246.14' cy='47.90' r='3.56pt' style='stroke-width: 0.71; stroke: #000000; stroke-opacity: 0.70; fill: #D1EEEE; fill-opacity: 0.70;' clip-path='url(#cpNTUuOTYxN3wyOTYuOTIxfDI1My43NXwyMC43ODky)' />
<circle cx='272.67' cy='43.45' r='3.56pt' style='stroke-width: 0.71; stroke: #000000; stroke-opacity: 0.70; fill: #D1EEEE; fill-opacity: 0.70;' clip-path='url(#cpNTUuOTYxN3wyOTYuOTIxfDI1My43NXwyMC43ODky)' />
<polyline points='66.91,212.01 68.02,211.06 69.12,210.11 70.22,209.16 71.32,208.21 72.42,207.25 73.52,206.30 74.62,205.34 75.72,204.39 76.82,203.43 77.92,202.47 79.02,201.51 80.12,200.55 81.22,199.59 82.33,198.63 83.43,197.66 84.53,196.70 85.63,195.73 86.73,194.77 87.83,193.80 88.93,192.83 90.03,191.86 91.13,190.89 92.23,189.92 93.33,188.95 94.43,187.98 95.53,187.00 96.64,186.03 97.74,185.05 98.84,184.07 99.94,183.10 101.04,182.12 102.14,181.14 103.24,180.16 104.34,179.18 105.44,178.19 106.54,177.21 107.64,176.22 108.74,175.24 109.84,174.25 110.95,173.26 112.05,172.28 113.15,171.29 114.25,170.30 115.35,169.30 116.45,168.31 117.55,167.32 118.65,166.32 119.75,165.33 120.85,164.33 121.95,163.33 123.05,162.33 124.15,161.34 125.26,160.33 126.36,159.33 127.46,158.33 128.56,157.33 129.66,156.32 130.76,155.32 131.86,154.31 132.96,153.30 134.06,152.30 135.16,151.29 136.26,150.28 137.36,149.26 138.46,148.25 139.57,147.24 140.67,146.22 141.77,145.21 142.87,144.19 143.97,143.18 145.07,142.16 146.17,141.14 147.27,140.12 148.37,139.10 149.47,138.07 150.57,137.05 151.67,136.03 152.77,135.00 153.88,133.98 154.98,132.95 156.08,131.92 157.18,130.89 158.28,129.86 159.38,128.83 160.48,127.80 161.58,126.76 162.68,125.73 163.78,124.70 164.88,123.66 165.98,122.62 167.08,121.58 168.19,120.54 169.29,119.50 170.39,118.46 171.49,117.42 172.59,116.38 173.69,115.33 174.79,114.29 175.89,113.24 176.99,112.20 178.09,111.15 179.19,110.10 180.29,109.05 181.39,108.00 182.50,106.94 183.60,105.89 184.70,104.84 185.80,103.78 186.90,102.73 188.00,101.67 189.10,100.61 190.20,99.55 191.30,98.49 192.40,97.43 193.50,96.37 194.60,95.30 195.70,94.24 196.81,93.17 197.91,92.11 199.01,91.04 200.11,89.97 201.21,88.90 202.31,87.83 203.41,86.76 204.51,85.69 205.61,84.62 206.71,83.54 207.81,82.47 208.91,81.39 210.01,80.31 211.12,79.23 212.22,78.15 213.32,77.07 214.42,75.99 215.52,74.91 216.62,73.83 217.72,72.74 218.82,71.66 219.92,70.57 221.02,69.48 222.12,68.39 223.22,67.31 224.32,66.21 225.43,65.12 226.53,64.03 227.63,62.94 228.73,61.85 229.83,60.75 230.93,59.66 232.03,58.56 233.13,57.46 234.23,56.37 235.33,55.27 236.43,54.17 237.53,53.08 238.63,51.98 239.74,50.89 240.84,49.79 241.94,48.70 243.04,47.61 244.14,46.52 245.24,45.44 246.34,44.36 247.44,43.29 248.54,42.23 249.64,41.18 250.74,40.14 251.84,39.12 252.94,38.12 254.05,37.15 255.15,36.21 256.25,35.32 257.35,34.47 258.45,33.69 259.55,32.99 260.65,32.38 261.75,31.89 262.85,31.54 263.95,31.38 265.05,31.43 266.15,31.76 267.25,32.41 268.36,33.47 269.46,35.02 270.56,37.17 271.66,40.05 272.76,43.80 273.86,48.60 274.96,54.66 276.06,62.21 277.16,71.52 278.26,82.86 279.36,96.57 280.46,112.93 281.56,132.26 282.67,154.81 283.77,180.78 284.87,210.25 285.97,243.16 ' style='stroke-width: 2.77; stroke: #1B9E77; stroke-linecap: butt;' clip-path='url(#cpNTUuOTYxN3wyOTYuOTIxfDI1My43NXwyMC43ODky)' />
<g clip-path='url(#cpNTUuOTYxN3wyOTYuOTIxfDI1My43NXwyMC43ODky)'><text x='81.58' y='96.10' style='font-size: 8.54px; font-style: italic; font-family: Arial;' textLength='60.01px' lengthAdjust='spacingAndGlyphs'>R^2 sch= 0.95 </text></g>
<g clip-path='url(#cpNTUuOTYxN3wyOTYuOTIxfDI1My43NXwyMC43ODky)'><text x='81.58' y='108.39' style='font-size: 8.54px; font-style: italic; font-family: Arial;' textLength='55.29px' lengthAdjust='spacingAndGlyphs'>E sch= 0.155 </text></g>
<g clip-path='url(#cpNTUuOTYxN3wyOTYuOTIxfDI1My43NXwyMC43ODky)'><text x='81.58' y='120.68' style='font-size: 8.54px; font-style: italic; font-family: Arial;' textLength='59.78px' lengthAdjust='spacingAndGlyphs'>AIC sch= -31.5</text></g>
<rect x='55.96' y='20.79' width='240.96' height='232.96' style='stroke-width: 1.07; stroke: #333333;' clip-path='url(#cpNTUuOTYxN3wyOTYuOTIxfDI1My43NXwyMC43ODky)' />
<defs>
  <clipPath id='cpMHwzMDIuNHwyODh8MA=='>
    <rect x='0.00' y='0.00' width='302.40' height='288.00' />
  </clipPath>
</defs>
<g clip-path='url(#cpMHwzMDIuNHwyODh8MA==)'><text x='20.51' y='229.47' style='font-size: 8.80px; fill: #4D4D4D; font-family: Arial;' textLength='30.52px' lengthAdjust='spacingAndGlyphs'>1.1e-06</text></g>
<g clip-path='url(#cpMHwzMDIuNHwyODh8MA==)'><text x='20.51' y='173.29' style='font-size: 8.80px; fill: #4D4D4D; font-family: Arial;' textLength='30.52px' lengthAdjust='spacingAndGlyphs'>1.2e-06</text></g>
<g clip-path='url(#cpMHwzMDIuNHwyODh8MA==)'><text x='20.51' y='117.11' style='font-size: 8.80px; fill: #4D4D4D; font-family: Arial;' textLength='30.52px' lengthAdjust='spacingAndGlyphs'>1.3e-06</text></g>
<g clip-path='url(#cpMHwzMDIuNHwyODh8MA==)'><text x='20.51' y='60.94' style='font-size: 8.80px; fill: #4D4D4D; font-family: Arial;' textLength='30.52px' lengthAdjust='spacingAndGlyphs'>1.4e-06</text></g>
<polyline points='53.22,226.25 55.96,226.25 ' style='stroke-width: 1.07; stroke: #333333; stroke-linecap: butt;' clip-path='url(#cpMHwzMDIuNHwyODh8MA==)' />
<polyline points='53.22,170.07 55.96,170.07 ' style='stroke-width: 1.07; stroke: #333333; stroke-linecap: butt;' clip-path='url(#cpMHwzMDIuNHwyODh8MA==)' />
<polyline points='53.22,113.90 55.96,113.90 ' style='stroke-width: 1.07; stroke: #333333; stroke-linecap: butt;' clip-path='url(#cpMHwzMDIuNHwyODh8MA==)' />
<polyline points='53.22,57.72 55.96,57.72 ' style='stroke-width: 1.07; stroke: #333333; stroke-linecap: butt;' clip-path='url(#cpMHwzMDIuNHwyODh8MA==)' />
<polyline points='116.20,256.49 116.20,253.75 ' style='stroke-width: 1.07; stroke: #333333; stroke-linecap: butt;' clip-path='url(#cpMHwzMDIuNHwyODh8MA==)' />
<polyline points='178.79,256.49 178.79,253.75 ' style='stroke-width: 1.07; stroke: #333333; stroke-linecap: butt;' clip-path='url(#cpMHwzMDIuNHwyODh8MA==)' />
<polyline points='241.37,256.49 241.37,253.75 ' style='stroke-width: 1.07; stroke: #333333; stroke-linecap: butt;' clip-path='url(#cpMHwzMDIuNHwyODh8MA==)' />
<g clip-path='url(#cpMHwzMDIuNHwyODh8MA==)'><text x='111.20' y='265.12' style='font-size: 8.80px; fill: #4D4D4D; font-family: Arial;' textLength='10.01px' lengthAdjust='spacingAndGlyphs'>20</text></g>
<g clip-path='url(#cpMHwzMDIuNHwyODh8MA==)'><text x='173.78' y='265.12' style='font-size: 8.80px; fill: #4D4D4D; font-family: Arial;' textLength='10.01px' lengthAdjust='spacingAndGlyphs'>24</text></g>
<g clip-path='url(#cpMHwzMDIuNHwyODh8MA==)'><text x='236.37' y='265.12' style='font-size: 8.80px; fill: #4D4D4D; font-family: Arial;' textLength='10.01px' lengthAdjust='spacingAndGlyphs'>28</text></g>
<g clip-path='url(#cpMHwzMDIuNHwyODh8MA==)'><text x='137.49' y='277.88' style='font-size: 10.00px; font-family: Arial;' textLength='63.35px' lengthAdjust='spacingAndGlyphs'>Temperature (</text></g>
<g clip-path='url(#cpMHwzMDIuNHwyODh8MA==)'><text x='200.84' y='277.88' style='font-size: 10.00px; font-family: Symbol;' textLength='4.00px' lengthAdjust='spacingAndGlyphs'>°</text></g>
<g clip-path='url(#cpMHwzMDIuNHwyODh8MA==)'><text x='204.84' y='277.88' style='font-size: 10.00px; font-family: Arial;' textLength='7.22px' lengthAdjust='spacingAndGlyphs'>C</text></g>
<g clip-path='url(#cpMHwzMDIuNHwyODh8MA==)'><text x='212.06' y='277.88' style='font-size: 10.00px; font-family: Arial;' textLength='3.33px' lengthAdjust='spacingAndGlyphs'>)</text></g>
<g clip-path='url(#cpMHwzMDIuNHwyODh8MA==)'><text transform='translate(12.64,170.62) rotate(-90)' style='font-size: 10.00px; font-family: Arial;' textLength='66.70px' lengthAdjust='spacingAndGlyphs'>respiration rate</text></g>
<g clip-path='url(#cpMHwzMDIuNHwyODh8MA==)'><text x='55.96' y='14.07' style='font-size: 12.00px; font-family: Arial;' textLength='99.40px' lengthAdjust='spacingAndGlyphs'>Helianthus annuus</text></g>
</svg>
