<?xml version='1.0' encoding='UTF-8' ?>
<svg xmlns='http://www.w3.org/2000/svg' xmlns:xlink='http://www.w3.org/1999/xlink' viewBox='0 0 302.40 288.00'>
<defs>
  <style type='text/css'><![CDATA[
    line, polyline, path, rect, circle {
      fill: none;
      stroke: #000000;
      stroke-linecap: round;
      stroke-linejoin: round;
      stroke-miterlimit: 10.00;
    }
  ]]></style>
</defs>
<rect width='100%' height='100%' style='stroke: none; fill: #FFFFFF;'/>
<rect x='-0.00' y='0.00' width='302.40' height='288.00' style='stroke-width: 1.07; stroke: #FFFFFF; fill: #FFFFFF;' />
<defs>
  <clipPath id='cpNTguMzYxMXwyOTYuOTIxfDI1My43NXwyMC43ODky'>
    <rect x='58.36' y='20.79' width='238.56' height='232.96' />
  </clipPath>
</defs>
<rect x='58.36' y='20.79' width='238.56' height='232.96' style='stroke-width: 1.07; stroke: none; fill: #FFFFFF;' clip-path='url(#cpNTguMzYxMXwyOTYuOTIxfDI1My43NXwyMC43ODky)' />
<polyline points='58.36,214.68 296.92,214.68 ' style='stroke-width: 0.53; stroke: #EBEBEB; stroke-linecap: butt;' clip-path='url(#cpNTguMzYxMXwyOTYuOTIxfDI1My43NXwyMC43ODky)' />
<polyline points='58.36,153.33 296.92,153.33 ' style='stroke-width: 0.53; stroke: #EBEBEB; stroke-linecap: butt;' clip-path='url(#cpNTguMzYxMXwyOTYuOTIxfDI1My43NXwyMC43ODky)' />
<polyline points='58.36,91.97 296.92,91.97 ' style='stroke-width: 0.53; stroke: #EBEBEB; stroke-linecap: butt;' clip-path='url(#cpNTguMzYxMXwyOTYuOTIxfDI1My43NXwyMC43ODky)' />
<polyline points='58.36,30.62 296.92,30.62 ' style='stroke-width: 0.53; stroke: #EBEBEB; stroke-linecap: butt;' clip-path='url(#cpNTguMzYxMXwyOTYuOTIxfDI1My43NXwyMC43ODky)' />
<polyline points='71.71,253.75 71.71,20.79 ' style='stroke-width: 0.53; stroke: #EBEBEB; stroke-linecap: butt;' clip-path='url(#cpNTguMzYxMXwyOTYuOTIxfDI1My43NXwyMC43ODky)' />
<polyline points='138.44,253.75 138.44,20.79 ' style='stroke-width: 0.53; stroke: #EBEBEB; stroke-linecap: butt;' clip-path='url(#cpNTguMzYxMXwyOTYuOTIxfDI1My43NXwyMC43ODky)' />
<polyline points='205.17,253.75 205.17,20.79 ' style='stroke-width: 0.53; stroke: #EBEBEB; stroke-linecap: butt;' clip-path='url(#cpNTguMzYxMXwyOTYuOTIxfDI1My43NXwyMC43ODky)' />
<polyline points='271.90,253.75 271.90,20.79 ' style='stroke-width: 0.53; stroke: #EBEBEB; stroke-linecap: butt;' clip-path='url(#cpNTguMzYxMXwyOTYuOTIxfDI1My43NXwyMC43ODky)' />
<polyline points='58.36,245.35 296.92,245.35 ' style='stroke-width: 1.07; stroke: #EBEBEB; stroke-linecap: butt;' clip-path='url(#cpNTguMzYxMXwyOTYuOTIxfDI1My43NXwyMC43ODky)' />
<polyline points='58.36,184.00 296.92,184.00 ' style='stroke-width: 1.07; stroke: #EBEBEB; stroke-linecap: butt;' clip-path='url(#cpNTguMzYxMXwyOTYuOTIxfDI1My43NXwyMC43ODky)' />
<polyline points='58.36,122.65 296.92,122.65 ' style='stroke-width: 1.07; stroke: #EBEBEB; stroke-linecap: butt;' clip-path='url(#cpNTguMzYxMXwyOTYuOTIxfDI1My43NXwyMC43ODky)' />
<polyline points='58.36,61.30 296.92,61.30 ' style='stroke-width: 1.07; stroke: #EBEBEB; stroke-linecap: butt;' clip-path='url(#cpNTguMzYxMXwyOTYuOTIxfDI1My43NXwyMC43ODky)' />
<polyline points='105.07,253.75 105.07,20.79 ' style='stroke-width: 1.07; stroke: #EBEBEB; stroke-linecap: butt;' clip-path='url(#cpNTguMzYxMXwyOTYuOTIxfDI1My43NXwyMC43ODky)' />
<polyline points='171.80,253.75 171.80,20.79 ' style='stroke-width: 1.07; stroke: #EBEBEB; stroke-linecap: butt;' clip-path='url(#cpNTguMzYxMXwyOTYuOTIxfDI1My43NXwyMC43ODky)' />
<polyline points='238.53,253.75 238.53,20.79 ' style='stroke-width: 1.07; stroke: #EBEBEB; stroke-linecap: butt;' clip-path='url(#cpNTguMzYxMXwyOTYuOTIxfDI1My43NXwyMC43ODky)' />
<circle cx='71.71' cy='42.68' r='3.56pt' style='stroke-width: 0.71; stroke: #000000; stroke-opacity: 0.70; fill: #D1EEEE; fill-opacity: 0.70;' clip-path='url(#cpNTguMzYxMXwyOTYuOTIxfDI1My43NXwyMC43ODky)' />
<circle cx='121.75' cy='68.46' r='3.56pt' style='stroke-width: 0.71; stroke: #000000; stroke-opacity: 0.70; fill: #D1EEEE; fill-opacity: 0.70;' clip-path='url(#cpNTguMzYxMXwyOTYuOTIxfDI1My43NXwyMC43ODky)' />
<circle cx='171.80' cy='41.78' r='3.56pt' style='stroke-width: 0.71; stroke: #000000; stroke-opacity: 0.70; fill: #D1EEEE; fill-opacity: 0.70;' clip-path='url(#cpNTguMzYxMXwyOTYuOTIxfDI1My43NXwyMC43ODky)' />
<circle cx='221.85' cy='31.38' r='3.56pt' style='stroke-width: 0.71; stroke: #000000; stroke-opacity: 0.70; fill: #D1EEEE; fill-opacity: 0.70;' clip-path='url(#cpNTguMzYxMXwyOTYuOTIxfDI1My43NXwyMC43ODky)' />
<circle cx='271.90' cy='146.39' r='3.56pt' style='stroke-width: 0.71; stroke: #000000; stroke-opacity: 0.70; fill: #D1EEEE; fill-opacity: 0.70;' clip-path='url(#cpNTguMzYxMXwyOTYuOTIxfDI1My43NXwyMC43ODky)' />
<polyline points='69.20,55.65 70.29,55.52 71.38,55.39 72.47,55.26 73.56,55.13 74.65,55.01 75.74,54.88 76.83,54.75 77.92,54.62 79.01,54.50 80.10,54.37 81.19,54.24 82.28,54.11 83.37,53.98 84.46,53.86 85.55,53.73 86.64,53.60 87.73,53.47 88.82,53.34 89.91,53.21 91.00,53.09 92.09,52.96 93.18,52.83 94.27,52.70 95.36,52.57 96.45,52.44 97.54,52.32 98.63,52.19 99.72,52.06 100.81,51.93 101.90,51.80 102.99,51.67 104.08,51.55 105.17,51.42 106.26,51.29 107.35,51.16 108.44,51.03 109.53,50.90 110.62,50.77 111.71,50.64 112.80,50.52 113.89,50.39 114.98,50.26 116.07,50.13 117.16,50.00 118.25,49.87 119.34,49.74 120.43,49.61 121.52,49.48 122.61,49.36 123.70,49.23 124.79,49.10 125.87,48.97 126.96,48.84 128.05,48.71 129.14,48.58 130.23,48.45 131.32,48.32 132.41,48.19 133.50,48.06 134.59,47.93 135.68,47.80 136.77,47.67 137.86,47.55 138.95,47.42 140.04,47.29 141.13,47.16 142.22,47.03 143.31,46.90 144.40,46.77 145.49,46.64 146.58,46.51 147.67,46.38 148.76,46.25 149.85,46.12 150.94,45.99 152.03,45.86 153.12,45.73 154.21,45.60 155.30,45.47 156.39,45.34 157.48,45.21 158.57,45.08 159.66,44.95 160.75,44.82 161.84,44.69 162.93,44.56 164.02,44.43 165.11,44.30 166.20,44.17 167.29,44.04 168.38,43.91 169.47,43.78 170.56,43.65 171.65,43.52 172.74,43.39 173.83,43.26 174.92,43.13 176.01,43.00 177.10,42.87 178.19,42.74 179.28,42.61 180.37,42.48 181.46,42.35 182.54,42.22 183.63,42.08 184.72,41.95 185.81,41.82 186.90,41.69 187.99,41.56 189.08,41.43 190.17,41.30 191.26,41.17 192.35,41.04 193.44,40.91 194.53,40.78 195.62,40.65 196.71,40.52 197.80,40.39 198.89,40.25 199.98,40.12 201.07,39.99 202.16,39.86 203.25,39.73 204.34,39.60 205.43,39.47 206.52,39.34 207.61,39.21 208.70,39.07 209.79,38.94 210.88,38.81 211.97,38.68 213.06,38.55 214.15,38.42 215.24,38.29 216.33,38.16 217.42,38.02 218.51,37.89 219.60,37.76 220.69,37.63 221.78,37.50 222.87,37.37 223.96,37.24 225.05,37.10 226.14,36.97 227.23,36.84 228.32,36.71 229.41,36.58 230.50,36.45 231.59,36.31 232.68,36.18 233.77,36.05 234.86,35.92 235.95,35.79 237.04,35.66 238.13,35.53 239.22,35.40 240.30,35.27 241.39,35.14 242.48,35.02 243.57,34.90 244.66,34.78 245.75,34.66 246.84,34.56 247.93,34.47 249.02,34.39 250.11,34.33 251.20,34.30 252.29,34.32 253.38,34.40 254.47,34.57 255.56,34.85 256.65,35.31 257.74,36.00 258.83,37.02 259.92,38.48 261.01,40.56 262.10,43.47 263.19,47.46 264.28,52.87 265.37,60.03 266.46,69.29 267.55,80.88 268.64,94.84 269.73,110.91 270.82,128.46 271.91,146.60 273.00,164.29 274.09,180.59 275.18,194.86 276.27,206.80 277.36,216.41 278.45,223.91 279.54,229.64 280.63,233.92 281.72,237.08 282.81,239.40 283.90,241.08 284.99,242.29 286.08,243.16 ' style='stroke-width: 2.77; stroke: #1B9E77; stroke-linecap: butt;' clip-path='url(#cpNTguMzYxMXwyOTYuOTIxfDI1My43NXwyMC43ODky)' />
<g clip-path='url(#cpNTguMzYxMXwyOTYuOTIxfDI1My43NXwyMC43ODky)'><text x='71.71' y='57.07' style='font-size: 8.54px; font-style: italic; font-family: Arial;' textLength='60.01px' lengthAdjust='spacingAndGlyphs'>R^2 sch= 0.94 </text></g>
<g clip-path='url(#cpNTguMzYxMXwyOTYuOTIxfDI1My43NXwyMC43ODky)'><text x='71.71' y='69.36' style='font-size: 8.54px; font-style: italic; font-family: Arial;' textLength='60.29px' lengthAdjust='spacingAndGlyphs'>E sch= 0.0752 </text></g>
<g clip-path='url(#cpNTguMzYxMXwyOTYuOTIxfDI1My43NXwyMC43ODky)'><text x='71.71' y='81.65' style='font-size: 8.54px; font-style: italic; font-family: Arial;' textLength='54.77px' lengthAdjust='spacingAndGlyphs'>AIC sch= -4.7</text></g>
<rect x='58.36' y='20.79' width='238.56' height='232.96' style='stroke-width: 1.07; stroke: #333333;' clip-path='url(#cpNTguMzYxMXwyOTYuOTIxfDI1My43NXwyMC43ODky)' />
<defs>
  <clipPath id='cpMHwzMDIuNHwyODh8MA=='>
    <rect x='0.00' y='0.00' width='302.40' height='288.00' />
  </clipPath>
</defs>
<g clip-path='url(#cpMHwzMDIuNHwyODh8MA==)'><text x='20.65' y='248.57' style='font-size: 8.80px; fill: #4D4D4D; font-family: Arial;' textLength='32.78px' lengthAdjust='spacingAndGlyphs'>0.0e+00</text></g>
<g clip-path='url(#cpMHwzMDIuNHwyODh8MA==)'><text x='22.91' y='187.22' style='font-size: 8.80px; fill: #4D4D4D; font-family: Arial;' textLength='30.52px' lengthAdjust='spacingAndGlyphs'>2.5e-05</text></g>
<g clip-path='url(#cpMHwzMDIuNHwyODh8MA==)'><text x='22.91' y='125.87' style='font-size: 8.80px; fill: #4D4D4D; font-family: Arial;' textLength='30.52px' lengthAdjust='spacingAndGlyphs'>5.0e-05</text></g>
<g clip-path='url(#cpMHwzMDIuNHwyODh8MA==)'><text x='22.91' y='64.52' style='font-size: 8.80px; fill: #4D4D4D; font-family: Arial;' textLength='30.52px' lengthAdjust='spacingAndGlyphs'>7.5e-05</text></g>
<polyline points='55.62,245.35 58.36,245.35 ' style='stroke-width: 1.07; stroke: #333333; stroke-linecap: butt;' clip-path='url(#cpMHwzMDIuNHwyODh8MA==)' />
<polyline points='55.62,184.00 58.36,184.00 ' style='stroke-width: 1.07; stroke: #333333; stroke-linecap: butt;' clip-path='url(#cpMHwzMDIuNHwyODh8MA==)' />
<polyline points='55.62,122.65 58.36,122.65 ' style='stroke-width: 1.07; stroke: #333333; stroke-linecap: butt;' clip-path='url(#cpMHwzMDIuNHwyODh8MA==)' />
<polyline points='55.62,61.30 58.36,61.30 ' style='stroke-width: 1.07; stroke: #333333; stroke-linecap: butt;' clip-path='url(#cpMHwzMDIuNHwyODh8MA==)' />
<polyline points='105.07,256.49 105.07,253.75 ' style='stroke-width: 1.07; stroke: #333333; stroke-linecap: butt;' clip-path='url(#cpMHwzMDIuNHwyODh8MA==)' />
<polyline points='171.80,256.49 171.80,253.75 ' style='stroke-width: 1.07; stroke: #333333; stroke-linecap: butt;' clip-path='url(#cpMHwzMDIuNHwyODh8MA==)' />
<polyline points='238.53,256.49 238.53,253.75 ' style='stroke-width: 1.07; stroke: #333333; stroke-linecap: butt;' clip-path='url(#cpMHwzMDIuNHwyODh8MA==)' />
<g clip-path='url(#cpMHwzMDIuNHwyODh8MA==)'><text x='100.07' y='265.12' style='font-size: 8.80px; fill: #4D4D4D; font-family: Arial;' textLength='10.01px' lengthAdjust='spacingAndGlyphs'>20</text></g>
<g clip-path='url(#cpMHwzMDIuNHwyODh8MA==)'><text x='166.80' y='265.12' style='font-size: 8.80px; fill: #4D4D4D; font-family: Arial;' textLength='10.01px' lengthAdjust='spacingAndGlyphs'>24</text></g>
<g clip-path='url(#cpMHwzMDIuNHwyODh8MA==)'><text x='233.53' y='265.12' style='font-size: 8.80px; fill: #4D4D4D; font-family: Arial;' textLength='10.01px' lengthAdjust='spacingAndGlyphs'>28</text></g>
<g clip-path='url(#cpMHwzMDIuNHwyODh8MA==)'><text x='138.69' y='277.88' style='font-size: 10.00px; font-family: Arial;' textLength='63.35px' lengthAdjust='spacingAndGlyphs'>Temperature (</text></g>
<g clip-path='url(#cpMHwzMDIuNHwyODh8MA==)'><text x='202.04' y='277.88' style='font-size: 10.00px; font-family: Symbol;' textLength='4.00px' lengthAdjust='spacingAndGlyphs'>°</text></g>
<g clip-path='url(#cpMHwzMDIuNHwyODh8MA==)'><text x='206.04' y='277.88' style='font-size: 10.00px; font-family: Arial;' textLength='7.22px' lengthAdjust='spacingAndGlyphs'>C</text></g>
<g clip-path='url(#cpMHwzMDIuNHwyODh8MA==)'><text x='213.26' y='277.88' style='font-size: 10.00px; font-family: Arial;' textLength='3.33px' lengthAdjust='spacingAndGlyphs'>)</text></g>
<g clip-path='url(#cpMHwzMDIuNHwyODh8MA==)'><text transform='translate(12.64,178.96) rotate(-90)' style='font-size: 10.00px; font-family: Arial;' textLength='83.39px' lengthAdjust='spacingAndGlyphs'>net photosynthesis</text></g>
<g clip-path='url(#cpMHwzMDIuNHwyODh8MA==)'><text x='58.36' y='14.07' style='font-size: 12.00px; font-family: Arial;' textLength='76.71px' lengthAdjust='spacingAndGlyphs'>Picea mariana</text></g>
</svg>
