<?xml version='1.0' encoding='UTF-8' ?>
<svg xmlns='http://www.w3.org/2000/svg' xmlns:xlink='http://www.w3.org/1999/xlink' viewBox='0 0 302.40 288.00'>
<defs>
  <style type='text/css'><![CDATA[
    line, polyline, path, rect, circle {
      fill: none;
      stroke: #000000;
      stroke-linecap: round;
      stroke-linejoin: round;
      stroke-miterlimit: 10.00;
    }
  ]]></style>
</defs>
<rect width='100%' height='100%' style='stroke: none; fill: #FFFFFF;'/>
<rect x='0.00' y='0.00' width='302.40' height='288.00' style='stroke-width: 1.07; stroke: #FFFFFF; fill: #FFFFFF;' />
<defs>
  <clipPath id='cpNTYuMTAyM3wyOTYuOTIxfDI1My43NXwyMC43ODky'>
    <rect x='56.10' y='20.79' width='240.82' height='232.96' />
  </clipPath>
</defs>
<rect x='56.10' y='20.79' width='240.82' height='232.96' style='stroke-width: 1.07; stroke: none; fill: #FFFFFF;' clip-path='url(#cpNTYuMTAyM3wyOTYuOTIxfDI1My43NXwyMC43ODky)' />
<polyline points='56.10,214.83 296.92,214.83 ' style='stroke-width: 0.53; stroke: #EBEBEB; stroke-linecap: butt;' clip-path='url(#cpNTYuMTAyM3wyOTYuOTIxfDI1My43NXwyMC43ODky)' />
<polyline points='56.10,141.93 296.92,141.93 ' style='stroke-width: 0.53; stroke: #EBEBEB; stroke-linecap: butt;' clip-path='url(#cpNTYuMTAyM3wyOTYuOTIxfDI1My43NXwyMC43ODky)' />
<polyline points='56.10,69.03 296.92,69.03 ' style='stroke-width: 0.53; stroke: #EBEBEB; stroke-linecap: butt;' clip-path='url(#cpNTYuMTAyM3wyOTYuOTIxfDI1My43NXwyMC43ODky)' />
<polyline points='94.67,253.75 94.67,20.79 ' style='stroke-width: 0.53; stroke: #EBEBEB; stroke-linecap: butt;' clip-path='url(#cpNTYuMTAyM3wyOTYuOTIxfDI1My43NXwyMC43ODky)' />
<polyline points='146.80,253.75 146.80,20.79 ' style='stroke-width: 0.53; stroke: #EBEBEB; stroke-linecap: butt;' clip-path='url(#cpNTYuMTAyM3wyOTYuOTIxfDI1My43NXwyMC43ODky)' />
<polyline points='198.93,253.75 198.93,20.79 ' style='stroke-width: 0.53; stroke: #EBEBEB; stroke-linecap: butt;' clip-path='url(#cpNTYuMTAyM3wyOTYuOTIxfDI1My43NXwyMC43ODky)' />
<polyline points='251.05,253.75 251.05,20.79 ' style='stroke-width: 0.53; stroke: #EBEBEB; stroke-linecap: butt;' clip-path='url(#cpNTYuMTAyM3wyOTYuOTIxfDI1My43NXwyMC43ODky)' />
<polyline points='56.10,251.28 296.92,251.28 ' style='stroke-width: 1.07; stroke: #EBEBEB; stroke-linecap: butt;' clip-path='url(#cpNTYuMTAyM3wyOTYuOTIxfDI1My43NXwyMC43ODky)' />
<polyline points='56.10,178.38 296.92,178.38 ' style='stroke-width: 1.07; stroke: #EBEBEB; stroke-linecap: butt;' clip-path='url(#cpNTYuMTAyM3wyOTYuOTIxfDI1My43NXwyMC43ODky)' />
<polyline points='56.10,105.48 296.92,105.48 ' style='stroke-width: 1.07; stroke: #EBEBEB; stroke-linecap: butt;' clip-path='url(#cpNTYuMTAyM3wyOTYuOTIxfDI1My43NXwyMC43ODky)' />
<polyline points='56.10,32.58 296.92,32.58 ' style='stroke-width: 1.07; stroke: #EBEBEB; stroke-linecap: butt;' clip-path='url(#cpNTYuMTAyM3wyOTYuOTIxfDI1My43NXwyMC43ODky)' />
<polyline points='68.61,253.75 68.61,20.79 ' style='stroke-width: 1.07; stroke: #EBEBEB; stroke-linecap: butt;' clip-path='url(#cpNTYuMTAyM3wyOTYuOTIxfDI1My43NXwyMC43ODky)' />
<polyline points='120.74,253.75 120.74,20.79 ' style='stroke-width: 1.07; stroke: #EBEBEB; stroke-linecap: butt;' clip-path='url(#cpNTYuMTAyM3wyOTYuOTIxfDI1My43NXwyMC43ODky)' />
<polyline points='172.86,253.75 172.86,20.79 ' style='stroke-width: 1.07; stroke: #EBEBEB; stroke-linecap: butt;' clip-path='url(#cpNTYuMTAyM3wyOTYuOTIxfDI1My43NXwyMC43ODky)' />
<polyline points='224.99,253.75 224.99,20.79 ' style='stroke-width: 1.07; stroke: #EBEBEB; stroke-linecap: butt;' clip-path='url(#cpNTYuMTAyM3wyOTYuOTIxfDI1My43NXwyMC43ODky)' />
<polyline points='277.11,253.75 277.11,20.79 ' style='stroke-width: 1.07; stroke: #EBEBEB; stroke-linecap: butt;' clip-path='url(#cpNTYuMTAyM3wyOTYuOTIxfDI1My43NXwyMC43ODky)' />
<circle cx='68.61' cy='239.49' r='3.56pt' style='stroke-width: 0.71; stroke: #000000; stroke-opacity: 0.70; fill: #D1EEEE; fill-opacity: 0.70;' clip-path='url(#cpNTYuMTAyM3wyOTYuOTIxfDI1My43NXwyMC43ODky)' />
<circle cx='120.74' cy='93.14' r='3.56pt' style='stroke-width: 0.71; stroke: #000000; stroke-opacity: 0.70; fill: #D1EEEE; fill-opacity: 0.70;' clip-path='url(#cpNTYuMTAyM3wyOTYuOTIxfDI1My43NXwyMC43ODky)' />
<circle cx='172.86' cy='43.44' r='3.56pt' style='stroke-width: 0.71; stroke: #000000; stroke-opacity: 0.70; fill: #D1EEEE; fill-opacity: 0.70;' clip-path='url(#cpNTYuMTAyM3wyOTYuOTIxfDI1My43NXwyMC43ODky)' />
<circle cx='224.99' cy='48.04' r='3.56pt' style='stroke-width: 0.71; stroke: #000000; stroke-opacity: 0.70; fill: #D1EEEE; fill-opacity: 0.70;' clip-path='url(#cpNTYuMTAyM3wyOTYuOTIxfDI1My43NXwyMC43ODky)' />
<circle cx='277.11' cy='134.56' r='3.56pt' style='stroke-width: 0.71; stroke: #000000; stroke-opacity: 0.70; fill: #D1EEEE; fill-opacity: 0.70;' clip-path='url(#cpNTYuMTAyM3wyOTYuOTIxfDI1My43NXwyMC43ODky)' />
<polyline points='67.05,243.16 68.15,239.84 69.25,236.52 70.35,233.21 71.45,229.90 72.55,226.60 73.65,223.30 74.75,220.02 75.85,216.74 76.95,213.48 78.05,210.22 79.15,206.97 80.25,203.74 81.35,200.52 82.45,197.31 83.55,194.11 84.65,190.93 85.75,187.76 86.85,184.61 87.95,181.48 89.05,178.36 90.15,175.26 91.25,172.17 92.35,169.11 93.45,166.07 94.55,163.04 95.65,160.04 96.75,157.06 97.85,154.10 98.95,151.17 100.05,148.26 101.15,145.37 102.25,142.51 103.35,139.67 104.45,136.86 105.55,134.08 106.65,131.32 107.75,128.59 108.85,125.89 109.95,123.22 111.05,120.59 112.15,117.98 113.25,115.40 114.35,112.85 115.45,110.34 116.55,107.86 117.65,105.41 118.75,102.99 119.85,100.61 120.95,98.27 122.06,95.96 123.16,93.68 124.26,91.45 125.36,89.25 126.46,87.08 127.56,84.95 128.66,82.87 129.76,80.82 130.86,78.80 131.96,76.83 133.06,74.90 134.16,73.00 135.26,71.15 136.36,69.34 137.46,67.57 138.56,65.83 139.66,64.14 140.76,62.50 141.86,60.89 142.96,59.32 144.06,57.80 145.16,56.32 146.26,54.88 147.36,53.48 148.46,52.13 149.56,50.82 150.66,49.55 151.76,48.33 152.86,47.15 153.96,46.01 155.06,44.91 156.16,43.86 157.26,42.85 158.36,41.89 159.46,40.96 160.56,40.09 161.66,39.25 162.76,38.46 163.86,37.71 164.96,37.00 166.06,36.33 167.16,35.71 168.26,35.13 169.36,34.60 170.46,34.10 171.56,33.65 172.66,33.24 173.76,32.87 174.86,32.54 175.96,32.25 177.06,32.01 178.16,31.80 179.26,31.64 180.36,31.51 181.46,31.43 182.56,31.38 183.66,31.38 184.76,31.41 185.86,31.48 186.96,31.60 188.06,31.74 189.16,31.93 190.26,32.15 191.36,32.42 192.46,32.71 193.56,33.05 194.66,33.42 195.76,33.82 196.86,34.26 197.96,34.74 199.06,35.25 200.16,35.79 201.26,36.37 202.36,36.98 203.46,37.62 204.56,38.30 205.66,39.01 206.76,39.74 207.87,40.51 208.97,41.31 210.07,42.14 211.17,43.00 212.27,43.89 213.37,44.81 214.47,45.76 215.57,46.73 216.67,47.73 217.77,48.76 218.87,49.82 219.97,50.90 221.07,52.01 222.17,53.14 223.27,54.30 224.37,55.48 225.47,56.68 226.57,57.91 227.67,59.16 228.77,60.44 229.87,61.73 230.97,63.05 232.07,64.39 233.17,65.75 234.27,67.13 235.37,68.53 236.47,69.95 237.57,71.38 238.67,72.84 239.77,74.31 240.87,75.81 241.97,77.32 243.07,78.84 244.17,80.39 245.27,81.94 246.37,83.52 247.47,85.11 248.57,86.71 249.67,88.33 250.77,89.97 251.87,91.61 252.97,93.27 254.07,94.95 255.17,96.63 256.27,98.33 257.37,100.04 258.47,101.76 259.57,103.49 260.67,105.23 261.77,106.99 262.87,108.75 263.97,110.52 265.07,112.30 266.17,114.09 267.27,115.89 268.37,117.70 269.47,119.52 270.57,121.34 271.67,123.17 272.77,125.01 273.87,126.85 274.97,128.70 276.07,130.56 277.17,132.42 278.27,134.29 279.37,136.17 280.47,138.05 281.57,139.93 282.67,141.82 283.77,143.71 284.87,145.61 285.97,147.51 ' style='stroke-width: 2.77; stroke: #1B9E77; stroke-linecap: butt;' clip-path='url(#cpNTYuMTAyM3wyOTYuOTIxfDI1My43NXwyMC43ODky)' />
<g clip-path='url(#cpNTYuMTAyM3wyOTYuOTIxfDI1My43NXwyMC43ODky)'><text x='68.61' y='102.66' style='font-size: 8.54px; font-style: italic; font-family: Arial;' textLength='60.01px' lengthAdjust='spacingAndGlyphs'>R^2 sch= 0.99 </text></g>
<g clip-path='url(#cpNTYuMTAyM3wyOTYuOTIxfDI1My43NXwyMC43ODky)'><text x='68.61' y='114.95' style='font-size: 8.54px; font-style: italic; font-family: Arial;' textLength='55.29px' lengthAdjust='spacingAndGlyphs'>E sch= 0.782 </text></g>
<g clip-path='url(#cpNTYuMTAyM3wyOTYuOTIxfDI1My43NXwyMC43ODky)'><text x='68.61' y='127.25' style='font-size: 8.54px; font-style: italic; font-family: Arial;' textLength='59.78px' lengthAdjust='spacingAndGlyphs'>AIC sch= -21.6</text></g>
<rect x='56.10' y='20.79' width='240.82' height='232.96' style='stroke-width: 1.07; stroke: #333333;' clip-path='url(#cpNTYuMTAyM3wyOTYuOTIxfDI1My43NXwyMC43ODky)' />
<defs>
  <clipPath id='cpMHwzMDIuNHwyODh8MA=='>
    <rect x='0.00' y='0.00' width='302.40' height='288.00' />
  </clipPath>
</defs>
<g clip-path='url(#cpMHwzMDIuNHwyODh8MA==)'><text x='20.65' y='254.49' style='font-size: 8.80px; fill: #4D4D4D; font-family: Arial;' textLength='30.52px' lengthAdjust='spacingAndGlyphs'>3.0e-05</text></g>
<g clip-path='url(#cpMHwzMDIuNHwyODh8MA==)'><text x='20.65' y='181.59' style='font-size: 8.80px; fill: #4D4D4D; font-family: Arial;' textLength='30.52px' lengthAdjust='spacingAndGlyphs'>3.5e-05</text></g>
<g clip-path='url(#cpMHwzMDIuNHwyODh8MA==)'><text x='20.65' y='108.69' style='font-size: 8.80px; fill: #4D4D4D; font-family: Arial;' textLength='30.52px' lengthAdjust='spacingAndGlyphs'>4.0e-05</text></g>
<g clip-path='url(#cpMHwzMDIuNHwyODh8MA==)'><text x='20.65' y='35.79' style='font-size: 8.80px; fill: #4D4D4D; font-family: Arial;' textLength='30.52px' lengthAdjust='spacingAndGlyphs'>4.5e-05</text></g>
<polyline points='53.36,251.28 56.10,251.28 ' style='stroke-width: 1.07; stroke: #333333; stroke-linecap: butt;' clip-path='url(#cpMHwzMDIuNHwyODh8MA==)' />
<polyline points='53.36,178.38 56.10,178.38 ' style='stroke-width: 1.07; stroke: #333333; stroke-linecap: butt;' clip-path='url(#cpMHwzMDIuNHwyODh8MA==)' />
<polyline points='53.36,105.48 56.10,105.48 ' style='stroke-width: 1.07; stroke: #333333; stroke-linecap: butt;' clip-path='url(#cpMHwzMDIuNHwyODh8MA==)' />
<polyline points='53.36,32.58 56.10,32.58 ' style='stroke-width: 1.07; stroke: #333333; stroke-linecap: butt;' clip-path='url(#cpMHwzMDIuNHwyODh8MA==)' />
<polyline points='68.61,256.49 68.61,253.75 ' style='stroke-width: 1.07; stroke: #333333; stroke-linecap: butt;' clip-path='url(#cpMHwzMDIuNHwyODh8MA==)' />
<polyline points='120.74,256.49 120.74,253.75 ' style='stroke-width: 1.07; stroke: #333333; stroke-linecap: butt;' clip-path='url(#cpMHwzMDIuNHwyODh8MA==)' />
<polyline points='172.86,256.49 172.86,253.75 ' style='stroke-width: 1.07; stroke: #333333; stroke-linecap: butt;' clip-path='url(#cpMHwzMDIuNHwyODh8MA==)' />
<polyline points='224.99,256.49 224.99,253.75 ' style='stroke-width: 1.07; stroke: #333333; stroke-linecap: butt;' clip-path='url(#cpMHwzMDIuNHwyODh8MA==)' />
<polyline points='277.11,256.49 277.11,253.75 ' style='stroke-width: 1.07; stroke: #333333; stroke-linecap: butt;' clip-path='url(#cpMHwzMDIuNHwyODh8MA==)' />
<g clip-path='url(#cpMHwzMDIuNHwyODh8MA==)'><text x='63.61' y='265.12' style='font-size: 8.80px; fill: #4D4D4D; font-family: Arial;' textLength='10.01px' lengthAdjust='spacingAndGlyphs'>10</text></g>
<g clip-path='url(#cpMHwzMDIuNHwyODh8MA==)'><text x='115.73' y='265.12' style='font-size: 8.80px; fill: #4D4D4D; font-family: Arial;' textLength='10.01px' lengthAdjust='spacingAndGlyphs'>15</text></g>
<g clip-path='url(#cpMHwzMDIuNHwyODh8MA==)'><text x='167.86' y='265.12' style='font-size: 8.80px; fill: #4D4D4D; font-family: Arial;' textLength='10.01px' lengthAdjust='spacingAndGlyphs'>20</text></g>
<g clip-path='url(#cpMHwzMDIuNHwyODh8MA==)'><text x='219.98' y='265.12' style='font-size: 8.80px; fill: #4D4D4D; font-family: Arial;' textLength='10.01px' lengthAdjust='spacingAndGlyphs'>25</text></g>
<g clip-path='url(#cpMHwzMDIuNHwyODh8MA==)'><text x='272.11' y='265.12' style='font-size: 8.80px; fill: #4D4D4D; font-family: Arial;' textLength='10.01px' lengthAdjust='spacingAndGlyphs'>30</text></g>
<g clip-path='url(#cpMHwzMDIuNHwyODh8MA==)'><text x='137.56' y='277.88' style='font-size: 10.00px; font-family: Arial;' textLength='63.35px' lengthAdjust='spacingAndGlyphs'>Temperature (</text></g>
<g clip-path='url(#cpMHwzMDIuNHwyODh8MA==)'><text x='200.91' y='277.88' style='font-size: 10.00px; font-family: Symbol;' textLength='4.00px' lengthAdjust='spacingAndGlyphs'>°</text></g>
<g clip-path='url(#cpMHwzMDIuNHwyODh8MA==)'><text x='204.91' y='277.88' style='font-size: 10.00px; font-family: Arial;' textLength='7.22px' lengthAdjust='spacingAndGlyphs'>C</text></g>
<g clip-path='url(#cpMHwzMDIuNHwyODh8MA==)'><text x='212.13' y='277.88' style='font-size: 10.00px; font-family: Arial;' textLength='3.33px' lengthAdjust='spacingAndGlyphs'>)</text></g>
<g clip-path='url(#cpMHwzMDIuNHwyODh8MA==)'><text transform='translate(12.64,178.96) rotate(-90)' style='font-size: 10.00px; font-family: Arial;' textLength='83.39px' lengthAdjust='spacingAndGlyphs'>net photosynthesis</text></g>
<g clip-path='url(#cpMHwzMDIuNHwyODh8MA==)'><text x='56.10' y='14.07' style='font-size: 12.00px; font-family: Arial;' textLength='103.38px' lengthAdjust='spacingAndGlyphs'>Artemisia tridentata</text></g>
</svg>
