<?xml version='1.0' encoding='UTF-8' ?>
<svg xmlns='http://www.w3.org/2000/svg' xmlns:xlink='http://www.w3.org/1999/xlink' viewBox='0 0 302.40 288.00'>
<defs>
  <style type='text/css'><![CDATA[
    line, polyline, path, rect, circle {
      fill: none;
      stroke: #000000;
      stroke-linecap: round;
      stroke-linejoin: round;
      stroke-miterlimit: 10.00;
    }
  ]]></style>
</defs>
<rect width='100%' height='100%' style='stroke: none; fill: #FFFFFF;'/>
<rect x='0.00' y='0.00' width='302.40' height='288.00' style='stroke-width: 1.07; stroke: #FFFFFF; fill: #FFFFFF;' />
<defs>
  <clipPath id='cpNTUuOTYxN3wyOTYuOTIxfDI1My43NXwyMy4xNzk4'>
    <rect x='55.96' y='23.18' width='240.96' height='230.57' />
  </clipPath>
</defs>
<rect x='55.96' y='23.18' width='240.96' height='230.57' style='stroke-width: 1.07; stroke: none; fill: #FFFFFF;' clip-path='url(#cpNTUuOTYxN3wyOTYuOTIxfDI1My43NXwyMy4xNzk4)' />
<polyline points='55.96,235.42 296.92,235.42 ' style='stroke-width: 0.53; stroke: #EBEBEB; stroke-linecap: butt;' clip-path='url(#cpNTUuOTYxN3wyOTYuOTIxfDI1My43NXwyMy4xNzk4)' />
<polyline points='55.96,181.54 296.92,181.54 ' style='stroke-width: 0.53; stroke: #EBEBEB; stroke-linecap: butt;' clip-path='url(#cpNTUuOTYxN3wyOTYuOTIxfDI1My43NXwyMy4xNzk4)' />
<polyline points='55.96,127.66 296.92,127.66 ' style='stroke-width: 0.53; stroke: #EBEBEB; stroke-linecap: butt;' clip-path='url(#cpNTUuOTYxN3wyOTYuOTIxfDI1My43NXwyMy4xNzk4)' />
<polyline points='55.96,73.78 296.92,73.78 ' style='stroke-width: 0.53; stroke: #EBEBEB; stroke-linecap: butt;' clip-path='url(#cpNTUuOTYxN3wyOTYuOTIxfDI1My43NXwyMy4xNzk4)' />
<polyline points='94.56,253.75 94.56,23.18 ' style='stroke-width: 0.53; stroke: #EBEBEB; stroke-linecap: butt;' clip-path='url(#cpNTUuOTYxN3wyOTYuOTIxfDI1My43NXwyMy4xNzk4)' />
<polyline points='146.71,253.75 146.71,23.18 ' style='stroke-width: 0.53; stroke: #EBEBEB; stroke-linecap: butt;' clip-path='url(#cpNTUuOTYxN3wyOTYuOTIxfDI1My43NXwyMy4xNzk4)' />
<polyline points='198.87,253.75 198.87,23.18 ' style='stroke-width: 0.53; stroke: #EBEBEB; stroke-linecap: butt;' clip-path='url(#cpNTUuOTYxN3wyOTYuOTIxfDI1My43NXwyMy4xNzk4)' />
<polyline points='251.02,253.75 251.02,23.18 ' style='stroke-width: 0.53; stroke: #EBEBEB; stroke-linecap: butt;' clip-path='url(#cpNTUuOTYxN3wyOTYuOTIxfDI1My43NXwyMy4xNzk4)' />
<polyline points='55.96,208.48 296.92,208.48 ' style='stroke-width: 1.07; stroke: #EBEBEB; stroke-linecap: butt;' clip-path='url(#cpNTUuOTYxN3wyOTYuOTIxfDI1My43NXwyMy4xNzk4)' />
<polyline points='55.96,154.60 296.92,154.60 ' style='stroke-width: 1.07; stroke: #EBEBEB; stroke-linecap: butt;' clip-path='url(#cpNTUuOTYxN3wyOTYuOTIxfDI1My43NXwyMy4xNzk4)' />
<polyline points='55.96,100.72 296.92,100.72 ' style='stroke-width: 1.07; stroke: #EBEBEB; stroke-linecap: butt;' clip-path='url(#cpNTUuOTYxN3wyOTYuOTIxfDI1My43NXwyMy4xNzk4)' />
<polyline points='55.96,46.85 296.92,46.85 ' style='stroke-width: 1.07; stroke: #EBEBEB; stroke-linecap: butt;' clip-path='url(#cpNTUuOTYxN3wyOTYuOTIxfDI1My43NXwyMy4xNzk4)' />
<polyline points='68.48,253.75 68.48,23.18 ' style='stroke-width: 1.07; stroke: #EBEBEB; stroke-linecap: butt;' clip-path='url(#cpNTUuOTYxN3wyOTYuOTIxfDI1My43NXwyMy4xNzk4)' />
<polyline points='120.63,253.75 120.63,23.18 ' style='stroke-width: 1.07; stroke: #EBEBEB; stroke-linecap: butt;' clip-path='url(#cpNTUuOTYxN3wyOTYuOTIxfDI1My43NXwyMy4xNzk4)' />
<polyline points='172.79,253.75 172.79,23.18 ' style='stroke-width: 1.07; stroke: #EBEBEB; stroke-linecap: butt;' clip-path='url(#cpNTUuOTYxN3wyOTYuOTIxfDI1My43NXwyMy4xNzk4)' />
<polyline points='224.95,253.75 224.95,23.18 ' style='stroke-width: 1.07; stroke: #EBEBEB; stroke-linecap: butt;' clip-path='url(#cpNTUuOTYxN3wyOTYuOTIxfDI1My43NXwyMy4xNzk4)' />
<polyline points='277.10,253.75 277.10,23.18 ' style='stroke-width: 1.07; stroke: #EBEBEB; stroke-linecap: butt;' clip-path='url(#cpNTUuOTYxN3wyOTYuOTIxfDI1My43NXwyMy4xNzk4)' />
<circle cx='68.48' cy='241.51' r='3.56pt' style='stroke-width: 0.71; stroke: #000000; stroke-opacity: 0.70; fill: #D1EEEE; fill-opacity: 0.70;' clip-path='url(#cpNTUuOTYxN3wyOTYuOTIxfDI1My43NXwyMy4xNzk4)' />
<circle cx='120.63' cy='210.67' r='3.56pt' style='stroke-width: 0.71; stroke: #000000; stroke-opacity: 0.70; fill: #D1EEEE; fill-opacity: 0.70;' clip-path='url(#cpNTUuOTYxN3wyOTYuOTIxfDI1My43NXwyMy4xNzk4)' />
<circle cx='172.79' cy='169.47' r='3.56pt' style='stroke-width: 0.71; stroke: #000000; stroke-opacity: 0.70; fill: #D1EEEE; fill-opacity: 0.70;' clip-path='url(#cpNTUuOTYxN3wyOTYuOTIxfDI1My43NXwyMy4xNzk4)' />
<circle cx='224.95' cy='99.75' r='3.56pt' style='stroke-width: 0.71; stroke: #000000; stroke-opacity: 0.70; fill: #D1EEEE; fill-opacity: 0.70;' clip-path='url(#cpNTUuOTYxN3wyOTYuOTIxfDI1My43NXwyMy4xNzk4)' />
<circle cx='277.10' cy='39.37' r='3.56pt' style='stroke-width: 0.71; stroke: #000000; stroke-opacity: 0.70; fill: #D1EEEE; fill-opacity: 0.70;' clip-path='url(#cpNTUuOTYxN3wyOTYuOTIxfDI1My43NXwyMy4xNzk4)' />
<polyline points='66.91,243.27 68.02,242.70 69.12,242.12 70.22,241.54 71.32,240.95 72.42,240.37 73.52,239.77 74.62,239.17 75.72,238.57 76.82,237.97 77.92,237.36 79.02,236.74 80.12,236.12 81.22,235.50 82.33,234.87 83.43,234.24 84.53,233.60 85.63,232.96 86.73,232.32 87.83,231.67 88.93,231.01 90.03,230.35 91.13,229.69 92.23,229.02 93.33,228.35 94.43,227.67 95.53,226.99 96.64,226.30 97.74,225.61 98.84,224.91 99.94,224.21 101.04,223.50 102.14,222.79 103.24,222.07 104.34,221.35 105.44,220.63 106.54,219.89 107.64,219.16 108.74,218.42 109.84,217.67 110.95,216.92 112.05,216.16 113.15,215.40 114.25,214.63 115.35,213.86 116.45,213.08 117.55,212.30 118.65,211.51 119.75,210.71 120.85,209.91 121.95,209.11 123.05,208.30 124.15,207.48 125.26,206.66 126.36,205.83 127.46,205.00 128.56,204.16 129.66,203.31 130.76,202.46 131.86,201.61 132.96,200.75 134.06,199.88 135.16,199.01 136.26,198.13 137.36,197.24 138.46,196.35 139.57,195.45 140.67,194.55 141.77,193.64 142.87,192.72 143.97,191.80 145.07,190.87 146.17,189.94 147.27,189.00 148.37,188.05 149.47,187.10 150.57,186.14 151.67,185.17 152.77,184.20 153.88,183.22 154.98,182.23 156.08,181.24 157.18,180.24 158.28,179.23 159.38,178.22 160.48,177.20 161.58,176.18 162.68,175.14 163.78,174.10 164.88,173.06 165.98,172.00 167.08,170.94 168.19,169.87 169.29,168.80 170.39,167.72 171.49,166.63 172.59,165.53 173.69,164.43 174.79,163.32 175.89,162.20 176.99,161.07 178.09,159.94 179.19,158.80 180.29,157.65 181.39,156.50 182.50,155.33 183.60,154.16 184.70,152.98 185.80,151.80 186.90,150.60 188.00,149.40 189.10,148.19 190.20,146.98 191.30,145.75 192.40,144.52 193.50,143.28 194.60,142.03 195.70,140.77 196.81,139.50 197.91,138.23 199.01,136.95 200.11,135.65 201.21,134.36 202.31,133.05 203.41,131.73 204.51,130.41 205.61,129.07 206.71,127.73 207.81,126.38 208.91,125.02 210.01,123.66 211.12,122.28 212.22,120.89 213.32,119.50 214.42,118.09 215.52,116.68 216.62,115.26 217.72,113.83 218.82,112.39 219.92,110.94 221.02,109.48 222.12,108.01 223.22,106.54 224.32,105.05 225.43,103.56 226.53,102.05 227.63,100.53 228.73,99.01 229.83,97.47 230.93,95.93 232.03,94.38 233.13,92.81 234.23,91.24 235.33,89.65 236.43,88.06 237.53,86.46 238.63,84.84 239.74,83.22 240.84,81.58 241.94,79.94 243.04,78.28 244.14,76.62 245.24,74.94 246.34,73.25 247.44,71.56 248.54,69.85 249.64,68.13 250.74,66.40 251.84,64.66 252.94,62.91 254.05,61.15 255.15,59.38 256.25,57.60 257.35,55.81 258.45,54.02 259.55,52.22 260.65,50.41 261.75,48.60 262.85,46.79 263.95,45.00 265.05,43.22 266.15,41.48 267.25,39.79 268.36,38.18 269.46,36.70 270.56,35.40 271.66,34.37 272.76,33.74 273.86,33.66 274.96,34.38 276.06,36.22 277.16,39.60 278.26,45.04 279.36,53.15 280.46,64.56 281.56,79.81 282.67,99.09 283.77,122.11 284.87,147.90 285.97,174.92 ' style='stroke-width: 2.77; stroke: #1B9E77; stroke-linecap: butt;' clip-path='url(#cpNTUuOTYxN3wyOTYuOTIxfDI1My43NXwyMy4xNzk4)' />
<g clip-path='url(#cpNTUuOTYxN3wyOTYuOTIxfDI1My43NXwyMy4xNzk4)'><text x='68.48' y='143.08' style='font-size: 8.54px; font-style: italic; font-family: Arial;' textLength='60.01px' lengthAdjust='spacingAndGlyphs'>R^2 sch= 1.00 </text></g>
<g clip-path='url(#cpNTUuOTYxN3wyOTYuOTIxfDI1My43NXwyMy4xNzk4)'><text x='68.48' y='155.37' style='font-size: 8.54px; font-style: italic; font-family: Arial;' textLength='50.28px' lengthAdjust='spacingAndGlyphs'>E sch= 0.53 </text></g>
<g clip-path='url(#cpNTUuOTYxN3wyOTYuOTIxfDI1My43NXwyMy4xNzk4)'><text x='68.48' y='167.66' style='font-size: 8.54px; font-style: italic; font-family: Arial;' textLength='59.78px' lengthAdjust='spacingAndGlyphs'>AIC sch= -16.7</text></g>
<rect x='55.96' y='23.18' width='240.96' height='230.57' style='stroke-width: 1.07; stroke: #333333;' clip-path='url(#cpNTUuOTYxN3wyOTYuOTIxfDI1My43NXwyMy4xNzk4)' />
<defs>
  <clipPath id='cpMHwzMDIuNHwyODh8MA=='>
    <rect x='0.00' y='0.00' width='302.40' height='288.00' />
  </clipPath>
</defs>
<g clip-path='url(#cpMHwzMDIuNHwyODh8MA==)'><text x='20.51' y='211.70' style='font-size: 8.80px; fill: #4D4D4D; font-family: Arial;' textLength='30.52px' lengthAdjust='spacingAndGlyphs'>1.0e-05</text></g>
<g clip-path='url(#cpMHwzMDIuNHwyODh8MA==)'><text x='20.51' y='157.82' style='font-size: 8.80px; fill: #4D4D4D; font-family: Arial;' textLength='30.52px' lengthAdjust='spacingAndGlyphs'>1.5e-05</text></g>
<g clip-path='url(#cpMHwzMDIuNHwyODh8MA==)'><text x='20.51' y='103.94' style='font-size: 8.80px; fill: #4D4D4D; font-family: Arial;' textLength='30.52px' lengthAdjust='spacingAndGlyphs'>2.0e-05</text></g>
<g clip-path='url(#cpMHwzMDIuNHwyODh8MA==)'><text x='20.51' y='50.06' style='font-size: 8.80px; fill: #4D4D4D; font-family: Arial;' textLength='30.52px' lengthAdjust='spacingAndGlyphs'>2.5e-05</text></g>
<polyline points='53.22,208.48 55.96,208.48 ' style='stroke-width: 1.07; stroke: #333333; stroke-linecap: butt;' clip-path='url(#cpMHwzMDIuNHwyODh8MA==)' />
<polyline points='53.22,154.60 55.96,154.60 ' style='stroke-width: 1.07; stroke: #333333; stroke-linecap: butt;' clip-path='url(#cpMHwzMDIuNHwyODh8MA==)' />
<polyline points='53.22,100.72 55.96,100.72 ' style='stroke-width: 1.07; stroke: #333333; stroke-linecap: butt;' clip-path='url(#cpMHwzMDIuNHwyODh8MA==)' />
<polyline points='53.22,46.85 55.96,46.85 ' style='stroke-width: 1.07; stroke: #333333; stroke-linecap: butt;' clip-path='url(#cpMHwzMDIuNHwyODh8MA==)' />
<polyline points='68.48,256.49 68.48,253.75 ' style='stroke-width: 1.07; stroke: #333333; stroke-linecap: butt;' clip-path='url(#cpMHwzMDIuNHwyODh8MA==)' />
<polyline points='120.63,256.49 120.63,253.75 ' style='stroke-width: 1.07; stroke: #333333; stroke-linecap: butt;' clip-path='url(#cpMHwzMDIuNHwyODh8MA==)' />
<polyline points='172.79,256.49 172.79,253.75 ' style='stroke-width: 1.07; stroke: #333333; stroke-linecap: butt;' clip-path='url(#cpMHwzMDIuNHwyODh8MA==)' />
<polyline points='224.95,256.49 224.95,253.75 ' style='stroke-width: 1.07; stroke: #333333; stroke-linecap: butt;' clip-path='url(#cpMHwzMDIuNHwyODh8MA==)' />
<polyline points='277.10,256.49 277.10,253.75 ' style='stroke-width: 1.07; stroke: #333333; stroke-linecap: butt;' clip-path='url(#cpMHwzMDIuNHwyODh8MA==)' />
<g clip-path='url(#cpMHwzMDIuNHwyODh8MA==)'><text x='63.47' y='265.12' style='font-size: 8.80px; fill: #4D4D4D; font-family: Arial;' textLength='10.01px' lengthAdjust='spacingAndGlyphs'>15</text></g>
<g clip-path='url(#cpMHwzMDIuNHwyODh8MA==)'><text x='115.63' y='265.12' style='font-size: 8.80px; fill: #4D4D4D; font-family: Arial;' textLength='10.01px' lengthAdjust='spacingAndGlyphs'>20</text></g>
<g clip-path='url(#cpMHwzMDIuNHwyODh8MA==)'><text x='167.78' y='265.12' style='font-size: 8.80px; fill: #4D4D4D; font-family: Arial;' textLength='10.01px' lengthAdjust='spacingAndGlyphs'>25</text></g>
<g clip-path='url(#cpMHwzMDIuNHwyODh8MA==)'><text x='219.94' y='265.12' style='font-size: 8.80px; fill: #4D4D4D; font-family: Arial;' textLength='10.01px' lengthAdjust='spacingAndGlyphs'>30</text></g>
<g clip-path='url(#cpMHwzMDIuNHwyODh8MA==)'><text x='272.10' y='265.12' style='font-size: 8.80px; fill: #4D4D4D; font-family: Arial;' textLength='10.01px' lengthAdjust='spacingAndGlyphs'>35</text></g>
<g clip-path='url(#cpMHwzMDIuNHwyODh8MA==)'><text x='137.49' y='277.88' style='font-size: 10.00px; font-family: Arial;' textLength='63.35px' lengthAdjust='spacingAndGlyphs'>Temperature (</text></g>
<g clip-path='url(#cpMHwzMDIuNHwyODh8MA==)'><text x='200.84' y='277.88' style='font-size: 10.00px; font-family: Symbol;' textLength='4.00px' lengthAdjust='spacingAndGlyphs'>°</text></g>
<g clip-path='url(#cpMHwzMDIuNHwyODh8MA==)'><text x='204.84' y='277.88' style='font-size: 10.00px; font-family: Arial;' textLength='7.22px' lengthAdjust='spacingAndGlyphs'>C</text></g>
<g clip-path='url(#cpMHwzMDIuNHwyODh8MA==)'><text x='212.06' y='277.88' style='font-size: 10.00px; font-family: Arial;' textLength='3.33px' lengthAdjust='spacingAndGlyphs'>)</text></g>
<g clip-path='url(#cpMHwzMDIuNHwyODh8MA==)'><text transform='translate(12.64,171.81) rotate(-90)' style='font-size: 10.00px; font-family: Arial;' textLength='66.70px' lengthAdjust='spacingAndGlyphs'>respiration rate</text></g>
<g clip-path='url(#cpMHwzMDIuNHwyODh8MA==)'><text x='55.96' y='14.07' style='font-size: 12.00px; font-family: Arial;' textLength='118.74px' lengthAdjust='spacingAndGlyphs'>Ledum groenlandicum</text></g>
</svg>
