<?xml version='1.0' encoding='UTF-8' ?>
<svg xmlns='http://www.w3.org/2000/svg' xmlns:xlink='http://www.w3.org/1999/xlink' viewBox='0 0 302.40 288.00'>
<defs>
  <style type='text/css'><![CDATA[
    line, polyline, path, rect, circle {
      fill: none;
      stroke: #000000;
      stroke-linecap: round;
      stroke-linejoin: round;
      stroke-miterlimit: 10.00;
    }
  ]]></style>
</defs>
<rect width='100%' height='100%' style='stroke: none; fill: #FFFFFF;'/>
<rect x='0.00' y='0.00' width='302.40' height='288.00' style='stroke-width: 1.07; stroke: #FFFFFF; fill: #FFFFFF;' />
<defs>
  <clipPath id='cpNDguNDU1OHwyOTYuOTIxfDI1My43NXwyMy4wMzky'>
    <rect x='48.46' y='23.04' width='248.46' height='230.71' />
  </clipPath>
</defs>
<rect x='48.46' y='23.04' width='248.46' height='230.71' style='stroke-width: 1.07; stroke: none; fill: #FFFFFF;' clip-path='url(#cpNDguNDU1OHwyOTYuOTIxfDI1My43NXwyMy4wMzky)' />
<polyline points='48.46,239.40 296.92,239.40 ' style='stroke-width: 0.53; stroke: #EBEBEB; stroke-linecap: butt;' clip-path='url(#cpNDguNDU1OHwyOTYuOTIxfDI1My43NXwyMy4wMzky)' />
<polyline points='48.46,152.14 296.92,152.14 ' style='stroke-width: 0.53; stroke: #EBEBEB; stroke-linecap: butt;' clip-path='url(#cpNDguNDU1OHwyOTYuOTIxfDI1My43NXwyMy4wMzky)' />
<polyline points='48.46,64.89 296.92,64.89 ' style='stroke-width: 0.53; stroke: #EBEBEB; stroke-linecap: butt;' clip-path='url(#cpNDguNDU1OHwyOTYuOTIxfDI1My43NXwyMy4wMzky)' />
<polyline points='88.25,253.75 88.25,23.04 ' style='stroke-width: 0.53; stroke: #EBEBEB; stroke-linecap: butt;' clip-path='url(#cpNDguNDU1OHwyOTYuOTIxfDI1My43NXwyMy4wMzky)' />
<polyline points='142.03,253.75 142.03,23.04 ' style='stroke-width: 0.53; stroke: #EBEBEB; stroke-linecap: butt;' clip-path='url(#cpNDguNDU1OHwyOTYuOTIxfDI1My43NXwyMy4wMzky)' />
<polyline points='195.81,253.75 195.81,23.04 ' style='stroke-width: 0.53; stroke: #EBEBEB; stroke-linecap: butt;' clip-path='url(#cpNDguNDU1OHwyOTYuOTIxfDI1My43NXwyMy4wMzky)' />
<polyline points='249.59,253.75 249.59,23.04 ' style='stroke-width: 0.53; stroke: #EBEBEB; stroke-linecap: butt;' clip-path='url(#cpNDguNDU1OHwyOTYuOTIxfDI1My43NXwyMy4wMzky)' />
<polyline points='48.46,195.77 296.92,195.77 ' style='stroke-width: 1.07; stroke: #EBEBEB; stroke-linecap: butt;' clip-path='url(#cpNDguNDU1OHwyOTYuOTIxfDI1My43NXwyMy4wMzky)' />
<polyline points='48.46,108.52 296.92,108.52 ' style='stroke-width: 1.07; stroke: #EBEBEB; stroke-linecap: butt;' clip-path='url(#cpNDguNDU1OHwyOTYuOTIxfDI1My43NXwyMy4wMzky)' />
<polyline points='61.36,253.75 61.36,23.04 ' style='stroke-width: 1.07; stroke: #EBEBEB; stroke-linecap: butt;' clip-path='url(#cpNDguNDU1OHwyOTYuOTIxfDI1My43NXwyMy4wMzky)' />
<polyline points='115.14,253.75 115.14,23.04 ' style='stroke-width: 1.07; stroke: #EBEBEB; stroke-linecap: butt;' clip-path='url(#cpNDguNDU1OHwyOTYuOTIxfDI1My43NXwyMy4wMzky)' />
<polyline points='168.92,253.75 168.92,23.04 ' style='stroke-width: 1.07; stroke: #EBEBEB; stroke-linecap: butt;' clip-path='url(#cpNDguNDU1OHwyOTYuOTIxfDI1My43NXwyMy4wMzky)' />
<polyline points='222.70,253.75 222.70,23.04 ' style='stroke-width: 1.07; stroke: #EBEBEB; stroke-linecap: butt;' clip-path='url(#cpNDguNDU1OHwyOTYuOTIxfDI1My43NXwyMy4wMzky)' />
<polyline points='276.48,253.75 276.48,23.04 ' style='stroke-width: 1.07; stroke: #EBEBEB; stroke-linecap: butt;' clip-path='url(#cpNDguNDU1OHwyOTYuOTIxfDI1My43NXwyMy4wMzky)' />
<circle cx='61.36' cy='242.06' r='3.56pt' style='stroke-width: 0.71; stroke: #000000; stroke-opacity: 0.70; fill: #D1EEEE; fill-opacity: 0.70;' clip-path='url(#cpNDguNDU1OHwyOTYuOTIxfDI1My43NXwyMy4wMzky)' />
<circle cx='115.14' cy='224.72' r='3.56pt' style='stroke-width: 0.71; stroke: #000000; stroke-opacity: 0.70; fill: #D1EEEE; fill-opacity: 0.70;' clip-path='url(#cpNDguNDU1OHwyOTYuOTIxfDI1My43NXwyMy4wMzky)' />
<circle cx='168.92' cy='188.93' r='3.56pt' style='stroke-width: 0.71; stroke: #000000; stroke-opacity: 0.70; fill: #D1EEEE; fill-opacity: 0.70;' clip-path='url(#cpNDguNDU1OHwyOTYuOTIxfDI1My43NXwyMy4wMzky)' />
<circle cx='222.70' cy='136.40' r='3.56pt' style='stroke-width: 0.71; stroke: #000000; stroke-opacity: 0.70; fill: #D1EEEE; fill-opacity: 0.70;' clip-path='url(#cpNDguNDU1OHwyOTYuOTIxfDI1My43NXwyMy4wMzky)' />
<circle cx='276.48' cy='60.97' r='3.56pt' style='stroke-width: 0.71; stroke: #000000; stroke-opacity: 0.70; fill: #D1EEEE; fill-opacity: 0.70;' clip-path='url(#cpNDguNDU1OHwyOTYuOTIxfDI1My43NXwyMy4wMzky)' />
<polyline points='59.75,243.26 60.88,242.92 62.02,242.58 63.15,242.23 64.29,241.89 65.42,241.53 66.56,241.18 67.70,240.82 68.83,240.46 69.97,240.09 71.10,239.73 72.24,239.35 73.37,238.98 74.51,238.60 75.64,238.22 76.78,237.83 77.91,237.45 79.05,237.05 80.18,236.66 81.32,236.26 82.45,235.86 83.59,235.45 84.72,235.04 85.86,234.63 86.99,234.21 88.13,233.79 89.26,233.36 90.40,232.94 91.53,232.50 92.67,232.07 93.80,231.63 94.94,231.18 96.07,230.73 97.21,230.28 98.34,229.82 99.48,229.36 100.61,228.90 101.75,228.43 102.88,227.95 104.02,227.47 105.15,226.99 106.29,226.50 107.42,226.01 108.56,225.51 109.69,225.01 110.83,224.51 111.96,224.00 113.10,223.48 114.23,222.96 115.37,222.44 116.50,221.91 117.64,221.37 118.77,220.83 119.91,220.29 121.04,219.74 122.18,219.18 123.31,218.62 124.45,218.06 125.58,217.49 126.72,216.91 127.85,216.33 128.99,215.74 130.12,215.15 131.26,214.55 132.39,213.95 133.53,213.34 134.66,212.72 135.80,212.10 136.93,211.47 138.07,210.84 139.20,210.20 140.34,209.55 141.47,208.90 142.61,208.24 143.74,207.58 144.88,206.91 146.01,206.23 147.15,205.55 148.28,204.85 149.42,204.16 150.55,203.45 151.69,202.74 152.82,202.02 153.96,201.30 155.09,200.56 156.23,199.83 157.36,199.08 158.50,198.32 159.64,197.56 160.77,196.79 161.91,196.02 163.04,195.23 164.18,194.44 165.31,193.64 166.45,192.83 167.58,192.01 168.72,191.19 169.85,190.36 170.99,189.51 172.12,188.66 173.26,187.81 174.39,186.94 175.53,186.06 176.66,185.18 177.80,184.28 178.93,183.38 180.07,182.47 181.20,181.55 182.34,180.62 183.47,179.68 184.61,178.73 185.74,177.77 186.88,176.80 188.01,175.82 189.15,174.83 190.28,173.83 191.42,172.81 192.55,171.79 193.69,170.76 194.82,169.72 195.96,168.66 197.09,167.60 198.23,166.52 199.36,165.43 200.50,164.33 201.63,163.22 202.77,162.10 203.90,160.97 205.04,159.82 206.17,158.66 207.31,157.49 208.44,156.30 209.58,155.11 210.71,153.90 211.85,152.67 212.98,151.44 214.12,150.19 215.25,148.92 216.39,147.64 217.52,146.35 218.66,145.05 219.79,143.73 220.93,142.39 222.06,141.04 223.20,139.68 224.33,138.30 225.47,136.90 226.60,135.49 227.74,134.06 228.87,132.62 230.01,131.16 231.14,129.68 232.28,128.19 233.41,126.68 234.55,125.15 235.68,123.61 236.82,122.04 237.95,120.46 239.09,118.87 240.22,117.25 241.36,115.61 242.49,113.96 243.63,112.28 244.76,110.59 245.90,108.87 247.03,107.14 248.17,105.38 249.30,103.61 250.44,101.81 251.57,99.99 252.71,98.15 253.85,96.28 254.98,94.40 256.12,92.49 257.25,90.56 258.39,88.60 259.52,86.63 260.66,84.62 261.79,82.59 262.93,80.54 264.06,78.46 265.20,76.36 266.33,74.23 267.47,72.07 268.60,69.88 269.74,67.67 270.87,65.43 272.01,63.16 273.14,60.86 274.28,58.54 275.41,56.18 276.55,53.79 277.68,51.37 278.82,48.92 279.95,46.44 281.09,43.92 282.22,41.38 283.36,38.79 284.49,36.18 285.63,33.53 ' style='stroke-width: 2.77; stroke: #1B9E77; stroke-linecap: butt;' clip-path='url(#cpNDguNDU1OHwyOTYuOTIxfDI1My43NXwyMy4wMzky)' />
<g clip-path='url(#cpNDguNDU1OHwyOTYuOTIxfDI1My43NXwyMy4wMzky)'><text x='61.36' y='161.55' style='font-size: 8.54px; font-style: italic; font-family: Arial;' textLength='60.01px' lengthAdjust='spacingAndGlyphs'>R^2 sch= 1.00 </text></g>
<g clip-path='url(#cpNDguNDU1OHwyOTYuOTIxfDI1My43NXwyMy4wMzky)'><text x='61.36' y='173.84' style='font-size: 8.54px; font-style: italic; font-family: Arial;' textLength='55.29px' lengthAdjust='spacingAndGlyphs'>E sch= 0.365 </text></g>
<g clip-path='url(#cpNDguNDU1OHwyOTYuOTIxfDI1My43NXwyMy4wMzky)'><text x='61.36' y='186.13' style='font-size: 8.54px; font-style: italic; font-family: Arial;' textLength='59.78px' lengthAdjust='spacingAndGlyphs'>AIC sch= -11.6</text></g>
<rect x='48.46' y='23.04' width='248.46' height='230.71' style='stroke-width: 1.07; stroke: #333333;' clip-path='url(#cpNDguNDU1OHwyOTYuOTIxfDI1My43NXwyMy4wMzky)' />
<defs>
  <clipPath id='cpMHwzMDIuNHwyODh8MA=='>
    <rect x='0.00' y='0.00' width='302.40' height='288.00' />
  </clipPath>
</defs>
<g clip-path='url(#cpMHwzMDIuNHwyODh8MA==)'><text x='20.51' y='198.99' style='font-size: 8.80px; fill: #4D4D4D; font-family: Arial;' textLength='23.02px' lengthAdjust='spacingAndGlyphs'>5e-07</text></g>
<g clip-path='url(#cpMHwzMDIuNHwyODh8MA==)'><text x='20.51' y='111.74' style='font-size: 8.80px; fill: #4D4D4D; font-family: Arial;' textLength='23.02px' lengthAdjust='spacingAndGlyphs'>1e-06</text></g>
<polyline points='45.72,195.77 48.46,195.77 ' style='stroke-width: 1.07; stroke: #333333; stroke-linecap: butt;' clip-path='url(#cpMHwzMDIuNHwyODh8MA==)' />
<polyline points='45.72,108.52 48.46,108.52 ' style='stroke-width: 1.07; stroke: #333333; stroke-linecap: butt;' clip-path='url(#cpMHwzMDIuNHwyODh8MA==)' />
<polyline points='61.36,256.49 61.36,253.75 ' style='stroke-width: 1.07; stroke: #333333; stroke-linecap: butt;' clip-path='url(#cpMHwzMDIuNHwyODh8MA==)' />
<polyline points='115.14,256.49 115.14,253.75 ' style='stroke-width: 1.07; stroke: #333333; stroke-linecap: butt;' clip-path='url(#cpMHwzMDIuNHwyODh8MA==)' />
<polyline points='168.92,256.49 168.92,253.75 ' style='stroke-width: 1.07; stroke: #333333; stroke-linecap: butt;' clip-path='url(#cpMHwzMDIuNHwyODh8MA==)' />
<polyline points='222.70,256.49 222.70,253.75 ' style='stroke-width: 1.07; stroke: #333333; stroke-linecap: butt;' clip-path='url(#cpMHwzMDIuNHwyODh8MA==)' />
<polyline points='276.48,256.49 276.48,253.75 ' style='stroke-width: 1.07; stroke: #333333; stroke-linecap: butt;' clip-path='url(#cpMHwzMDIuNHwyODh8MA==)' />
<g clip-path='url(#cpMHwzMDIuNHwyODh8MA==)'><text x='56.36' y='265.12' style='font-size: 8.80px; fill: #4D4D4D; font-family: Arial;' textLength='10.01px' lengthAdjust='spacingAndGlyphs'>10</text></g>
<g clip-path='url(#cpMHwzMDIuNHwyODh8MA==)'><text x='110.14' y='265.12' style='font-size: 8.80px; fill: #4D4D4D; font-family: Arial;' textLength='10.01px' lengthAdjust='spacingAndGlyphs'>15</text></g>
<g clip-path='url(#cpMHwzMDIuNHwyODh8MA==)'><text x='163.92' y='265.12' style='font-size: 8.80px; fill: #4D4D4D; font-family: Arial;' textLength='10.01px' lengthAdjust='spacingAndGlyphs'>20</text></g>
<g clip-path='url(#cpMHwzMDIuNHwyODh8MA==)'><text x='217.70' y='265.12' style='font-size: 8.80px; fill: #4D4D4D; font-family: Arial;' textLength='10.01px' lengthAdjust='spacingAndGlyphs'>25</text></g>
<g clip-path='url(#cpMHwzMDIuNHwyODh8MA==)'><text x='271.48' y='265.12' style='font-size: 8.80px; fill: #4D4D4D; font-family: Arial;' textLength='10.01px' lengthAdjust='spacingAndGlyphs'>30</text></g>
<g clip-path='url(#cpMHwzMDIuNHwyODh8MA==)'><text x='133.74' y='277.88' style='font-size: 10.00px; font-family: Arial;' textLength='63.35px' lengthAdjust='spacingAndGlyphs'>Temperature (</text></g>
<g clip-path='url(#cpMHwzMDIuNHwyODh8MA==)'><text x='197.09' y='277.88' style='font-size: 10.00px; font-family: Symbol;' textLength='4.00px' lengthAdjust='spacingAndGlyphs'>°</text></g>
<g clip-path='url(#cpMHwzMDIuNHwyODh8MA==)'><text x='201.09' y='277.88' style='font-size: 10.00px; font-family: Arial;' textLength='7.22px' lengthAdjust='spacingAndGlyphs'>C</text></g>
<g clip-path='url(#cpMHwzMDIuNHwyODh8MA==)'><text x='208.31' y='277.88' style='font-size: 10.00px; font-family: Arial;' textLength='3.33px' lengthAdjust='spacingAndGlyphs'>)</text></g>
<g clip-path='url(#cpMHwzMDIuNHwyODh8MA==)'><text transform='translate(12.64,171.74) rotate(-90)' style='font-size: 10.00px; font-family: Arial;' textLength='66.70px' lengthAdjust='spacingAndGlyphs'>respiration rate</text></g>
<g clip-path='url(#cpMHwzMDIuNHwyODh8MA==)'><text x='48.46' y='14.07' style='font-size: 12.00px; font-family: Arial;' textLength='81.37px' lengthAdjust='spacingAndGlyphs'>Quercus prinus</text></g>
</svg>
