<?xml version='1.0' encoding='UTF-8' ?>
<svg xmlns='http://www.w3.org/2000/svg' xmlns:xlink='http://www.w3.org/1999/xlink' viewBox='0 0 302.40 288.00'>
<defs>
  <style type='text/css'><![CDATA[
    line, polyline, path, rect, circle {
      fill: none;
      stroke: #000000;
      stroke-linecap: round;
      stroke-linejoin: round;
      stroke-miterlimit: 10.00;
    }
  ]]></style>
</defs>
<rect width='100%' height='100%' style='stroke: none; fill: #FFFFFF;'/>
<rect x='0.00' y='0.00' width='302.40' height='288.00' style='stroke-width: 1.07; stroke: #FFFFFF; fill: #FFFFFF;' />
<defs>
  <clipPath id='cpNTAuNzE0NnwyOTYuOTIxfDI1My43NXwyMy4xNzk4'>
    <rect x='50.71' y='23.18' width='246.21' height='230.57' />
  </clipPath>
</defs>
<rect x='50.71' y='23.18' width='246.21' height='230.57' style='stroke-width: 1.07; stroke: none; fill: #FFFFFF;' clip-path='url(#cpNTAuNzE0NnwyOTYuOTIxfDI1My43NXwyMy4xNzk4)' />
<polyline points='50.71,228.97 296.92,228.97 ' style='stroke-width: 0.53; stroke: #EBEBEB; stroke-linecap: butt;' clip-path='url(#cpNTAuNzE0NnwyOTYuOTIxfDI1My43NXwyMy4xNzk4)' />
<polyline points='50.71,180.54 296.92,180.54 ' style='stroke-width: 0.53; stroke: #EBEBEB; stroke-linecap: butt;' clip-path='url(#cpNTAuNzE0NnwyOTYuOTIxfDI1My43NXwyMy4xNzk4)' />
<polyline points='50.71,132.10 296.92,132.10 ' style='stroke-width: 0.53; stroke: #EBEBEB; stroke-linecap: butt;' clip-path='url(#cpNTAuNzE0NnwyOTYuOTIxfDI1My43NXwyMy4xNzk4)' />
<polyline points='50.71,83.67 296.92,83.67 ' style='stroke-width: 0.53; stroke: #EBEBEB; stroke-linecap: butt;' clip-path='url(#cpNTAuNzE0NnwyOTYuOTIxfDI1My43NXwyMy4xNzk4)' />
<polyline points='50.71,35.24 296.92,35.24 ' style='stroke-width: 0.53; stroke: #EBEBEB; stroke-linecap: butt;' clip-path='url(#cpNTAuNzE0NnwyOTYuOTIxfDI1My43NXwyMy4xNzk4)' />
<polyline points='80.29,253.75 80.29,23.18 ' style='stroke-width: 0.53; stroke: #EBEBEB; stroke-linecap: butt;' clip-path='url(#cpNTAuNzE0NnwyOTYuOTIxfDI1My43NXwyMy4xNzk4)' />
<polyline points='144.24,253.75 144.24,23.18 ' style='stroke-width: 0.53; stroke: #EBEBEB; stroke-linecap: butt;' clip-path='url(#cpNTAuNzE0NnwyOTYuOTIxfDI1My43NXwyMy4xNzk4)' />
<polyline points='208.19,253.75 208.19,23.18 ' style='stroke-width: 0.53; stroke: #EBEBEB; stroke-linecap: butt;' clip-path='url(#cpNTAuNzE0NnwyOTYuOTIxfDI1My43NXwyMy4xNzk4)' />
<polyline points='272.14,253.75 272.14,23.18 ' style='stroke-width: 0.53; stroke: #EBEBEB; stroke-linecap: butt;' clip-path='url(#cpNTAuNzE0NnwyOTYuOTIxfDI1My43NXwyMy4xNzk4)' />
<polyline points='50.71,253.19 296.92,253.19 ' style='stroke-width: 1.07; stroke: #EBEBEB; stroke-linecap: butt;' clip-path='url(#cpNTAuNzE0NnwyOTYuOTIxfDI1My43NXwyMy4xNzk4)' />
<polyline points='50.71,204.75 296.92,204.75 ' style='stroke-width: 1.07; stroke: #EBEBEB; stroke-linecap: butt;' clip-path='url(#cpNTAuNzE0NnwyOTYuOTIxfDI1My43NXwyMy4xNzk4)' />
<polyline points='50.71,156.32 296.92,156.32 ' style='stroke-width: 1.07; stroke: #EBEBEB; stroke-linecap: butt;' clip-path='url(#cpNTAuNzE0NnwyOTYuOTIxfDI1My43NXwyMy4xNzk4)' />
<polyline points='50.71,107.89 296.92,107.89 ' style='stroke-width: 1.07; stroke: #EBEBEB; stroke-linecap: butt;' clip-path='url(#cpNTAuNzE0NnwyOTYuOTIxfDI1My43NXwyMy4xNzk4)' />
<polyline points='50.71,59.45 296.92,59.45 ' style='stroke-width: 1.07; stroke: #EBEBEB; stroke-linecap: butt;' clip-path='url(#cpNTAuNzE0NnwyOTYuOTIxfDI1My43NXwyMy4xNzk4)' />
<polyline points='112.27,253.75 112.27,23.18 ' style='stroke-width: 1.07; stroke: #EBEBEB; stroke-linecap: butt;' clip-path='url(#cpNTAuNzE0NnwyOTYuOTIxfDI1My43NXwyMy4xNzk4)' />
<polyline points='176.22,253.75 176.22,23.18 ' style='stroke-width: 1.07; stroke: #EBEBEB; stroke-linecap: butt;' clip-path='url(#cpNTAuNzE0NnwyOTYuOTIxfDI1My43NXwyMy4xNzk4)' />
<polyline points='240.17,253.75 240.17,23.18 ' style='stroke-width: 1.07; stroke: #EBEBEB; stroke-linecap: butt;' clip-path='url(#cpNTAuNzE0NnwyOTYuOTIxfDI1My43NXwyMy4xNzk4)' />
<circle cx='64.30' cy='157.79' r='3.56pt' style='stroke-width: 0.71; stroke: #000000; stroke-opacity: 0.70; fill: #D1EEEE; fill-opacity: 0.70;' clip-path='url(#cpNTAuNzE0NnwyOTYuOTIxfDI1My43NXwyMy4xNzk4)' />
<circle cx='112.27' cy='137.61' r='3.56pt' style='stroke-width: 0.71; stroke: #000000; stroke-opacity: 0.70; fill: #D1EEEE; fill-opacity: 0.70;' clip-path='url(#cpNTAuNzE0NnwyOTYuOTIxfDI1My43NXwyMy4xNzk4)' />
<circle cx='137.85' cy='124.77' r='3.56pt' style='stroke-width: 0.71; stroke: #000000; stroke-opacity: 0.70; fill: #D1EEEE; fill-opacity: 0.70;' clip-path='url(#cpNTAuNzE0NnwyOTYuOTIxfDI1My43NXwyMy4xNzk4)' />
<circle cx='161.83' cy='115.59' r='3.56pt' style='stroke-width: 0.71; stroke: #000000; stroke-opacity: 0.70; fill: #D1EEEE; fill-opacity: 0.70;' clip-path='url(#cpNTAuNzE0NnwyOTYuOTIxfDI1My43NXwyMy4xNzk4)' />
<circle cx='185.81' cy='99.08' r='3.56pt' style='stroke-width: 0.71; stroke: #000000; stroke-opacity: 0.70; fill: #D1EEEE; fill-opacity: 0.70;' clip-path='url(#cpNTAuNzE0NnwyOTYuOTIxfDI1My43NXwyMy4xNzk4)' />
<circle cx='209.79' cy='78.90' r='3.56pt' style='stroke-width: 0.71; stroke: #000000; stroke-opacity: 0.70; fill: #D1EEEE; fill-opacity: 0.70;' clip-path='url(#cpNTAuNzE0NnwyOTYuOTIxfDI1My43NXwyMy4xNzk4)' />
<circle cx='227.38' cy='62.39' r='3.56pt' style='stroke-width: 0.71; stroke: #000000; stroke-opacity: 0.70; fill: #D1EEEE; fill-opacity: 0.70;' clip-path='url(#cpNTAuNzE0NnwyOTYuOTIxfDI1My43NXwyMy4xNzk4)' />
<circle cx='248.16' cy='44.04' r='3.56pt' style='stroke-width: 0.71; stroke: #000000; stroke-opacity: 0.70; fill: #D1EEEE; fill-opacity: 0.70;' clip-path='url(#cpNTAuNzE0NnwyOTYuOTIxfDI1My43NXwyMy4xNzk4)' />
<circle cx='227.38' cy='62.39' r='3.56pt' style='stroke-width: 0.71; stroke: #000000; stroke-opacity: 0.70; fill: #D1EEEE; fill-opacity: 0.70;' clip-path='url(#cpNTAuNzE0NnwyOTYuOTIxfDI1My43NXwyMy4xNzk4)' />
<circle cx='224.18' cy='69.73' r='3.56pt' style='stroke-width: 0.71; stroke: #000000; stroke-opacity: 0.70; fill: #D1EEEE; fill-opacity: 0.70;' clip-path='url(#cpNTAuNzE0NnwyOTYuOTIxfDI1My43NXwyMy4xNzk4)' />
<circle cx='243.36' cy='45.88' r='3.56pt' style='stroke-width: 0.71; stroke: #000000; stroke-opacity: 0.70; fill: #D1EEEE; fill-opacity: 0.70;' clip-path='url(#cpNTAuNzE0NnwyOTYuOTIxfDI1My43NXwyMy4xNzk4)' />
<circle cx='270.54' cy='42.21' r='3.56pt' style='stroke-width: 0.71; stroke: #000000; stroke-opacity: 0.70; fill: #D1EEEE; fill-opacity: 0.70;' clip-path='url(#cpNTAuNzE0NnwyOTYuOTIxfDI1My43NXwyMy4xNzk4)' />
<circle cx='240.17' cy='49.55' r='3.56pt' style='stroke-width: 0.71; stroke: #000000; stroke-opacity: 0.70; fill: #D1EEEE; fill-opacity: 0.70;' clip-path='url(#cpNTAuNzE0NnwyOTYuOTIxfDI1My43NXwyMy4xNzk4)' />
<circle cx='192.20' cy='93.58' r='3.56pt' style='stroke-width: 0.71; stroke: #000000; stroke-opacity: 0.70; fill: #D1EEEE; fill-opacity: 0.70;' clip-path='url(#cpNTAuNzE0NnwyOTYuOTIxfDI1My43NXwyMy4xNzk4)' />
<polyline points='61.91,161.50 63.03,161.03 64.16,160.56 65.28,160.09 66.40,159.62 67.53,159.14 68.65,158.66 69.78,158.18 70.90,157.69 72.03,157.21 73.15,156.72 74.28,156.23 75.40,155.74 76.53,155.24 77.65,154.75 78.78,154.25 79.90,153.75 81.03,153.24 82.15,152.74 83.28,152.23 84.40,151.72 85.53,151.20 86.65,150.69 87.77,150.17 88.90,149.65 90.02,149.13 91.15,148.60 92.27,148.08 93.40,147.55 94.52,147.01 95.65,146.48 96.77,145.94 97.90,145.40 99.02,144.86 100.15,144.32 101.27,143.77 102.40,143.22 103.52,142.67 104.65,142.11 105.77,141.56 106.90,141.00 108.02,140.44 109.14,139.87 110.27,139.30 111.39,138.73 112.52,138.16 113.64,137.59 114.77,137.01 115.89,136.43 117.02,135.85 118.14,135.26 119.27,134.67 120.39,134.08 121.52,133.49 122.64,132.89 123.77,132.30 124.89,131.69 126.02,131.09 127.14,130.48 128.27,129.87 129.39,129.26 130.52,128.65 131.64,128.03 132.76,127.41 133.89,126.79 135.01,126.16 136.14,125.53 137.26,124.90 138.39,124.26 139.51,123.63 140.64,122.99 141.76,122.34 142.89,121.70 144.01,121.05 145.14,120.40 146.26,119.74 147.39,119.08 148.51,118.42 149.64,117.76 150.76,117.09 151.89,116.43 153.01,115.75 154.13,115.08 155.26,114.40 156.38,113.72 157.51,113.03 158.63,112.35 159.76,111.66 160.88,110.96 162.01,110.27 163.13,109.57 164.26,108.86 165.38,108.16 166.51,107.45 167.63,106.74 168.76,106.02 169.88,105.30 171.01,104.58 172.13,103.86 173.26,103.13 174.38,102.40 175.50,101.66 176.63,100.93 177.75,100.18 178.88,99.44 180.00,98.69 181.13,97.94 182.25,97.19 183.38,96.43 184.50,95.67 185.63,94.91 186.75,94.14 187.88,93.37 189.00,92.59 190.13,91.82 191.25,91.04 192.38,90.25 193.50,89.46 194.63,88.67 195.75,87.88 196.87,87.08 198.00,86.28 199.12,85.47 200.25,84.67 201.37,83.85 202.50,83.04 203.62,82.22 204.75,81.40 205.87,80.57 207.00,79.74 208.12,78.91 209.25,78.07 210.37,77.23 211.50,76.38 212.62,75.54 213.75,74.68 214.87,73.83 216.00,72.97 217.12,72.11 218.24,71.24 219.37,70.37 220.49,69.50 221.62,68.62 222.74,67.74 223.87,66.85 224.99,65.96 226.12,65.07 227.24,64.17 228.37,63.27 229.49,62.37 230.62,61.46 231.74,60.55 232.87,59.63 233.99,58.71 235.12,57.79 236.24,56.86 237.37,55.92 238.49,54.99 239.61,54.05 240.74,53.10 241.86,52.16 242.99,51.20 244.11,50.25 245.24,49.29 246.36,48.32 247.49,47.36 248.61,46.38 249.74,45.41 250.86,44.43 251.99,43.45 253.11,42.47 254.24,41.49 255.36,40.50 256.49,39.53 257.61,38.56 258.74,37.61 259.86,36.70 260.99,35.83 262.11,35.03 263.23,34.36 264.36,33.87 265.48,33.66 266.61,33.89 267.73,34.77 268.86,36.62 269.98,39.88 271.11,45.16 272.23,53.16 273.36,64.62 274.48,80.10 275.61,99.60 276.73,122.29 277.86,146.45 278.98,169.96 280.11,190.90 281.23,208.17 282.36,221.55 283.48,231.41 284.60,238.41 285.73,243.27 ' style='stroke-width: 2.77; stroke: #1B9E77; stroke-linecap: butt;' clip-path='url(#cpNTAuNzE0NnwyOTYuOTIxfDI1My43NXwyMy4xNzk4)' />
<g clip-path='url(#cpNTAuNzE0NnwyOTYuOTIxfDI1My43NXwyMy4xNzk4)'><text x='64.30' y='75.46' style='font-size: 8.54px; font-style: italic; font-family: Arial;' textLength='60.01px' lengthAdjust='spacingAndGlyphs'>R^2 sch= 0.99 </text></g>
<g clip-path='url(#cpNTAuNzE0NnwyOTYuOTIxfDI1My43NXwyMy4xNzk4)'><text x='64.30' y='87.75' style='font-size: 8.54px; font-style: italic; font-family: Arial;' textLength='55.29px' lengthAdjust='spacingAndGlyphs'>E sch= 0.547 </text></g>
<g clip-path='url(#cpNTAuNzE0NnwyOTYuOTIxfDI1My43NXwyMy4xNzk4)'><text x='64.30' y='100.05' style='font-size: 8.54px; font-style: italic; font-family: Arial;' textLength='59.78px' lengthAdjust='spacingAndGlyphs'>AIC sch= -61.2</text></g>
<rect x='50.71' y='23.18' width='246.21' height='230.57' style='stroke-width: 1.07; stroke: #333333;' clip-path='url(#cpNTAuNzE0NnwyOTYuOTIxfDI1My43NXwyMy4xNzk4)' />
<defs>
  <clipPath id='cpMHwzMDIuNHwyODh8MA=='>
    <rect x='0.00' y='0.00' width='302.40' height='288.00' />
  </clipPath>
</defs>
<g clip-path='url(#cpMHwzMDIuNHwyODh8MA==)'><text x='20.51' y='256.41' style='font-size: 8.80px; fill: #4D4D4D; font-family: Arial;' textLength='25.28px' lengthAdjust='spacingAndGlyphs'>0e+00</text></g>
<g clip-path='url(#cpMHwzMDIuNHwyODh8MA==)'><text x='22.76' y='207.97' style='font-size: 8.80px; fill: #4D4D4D; font-family: Arial;' textLength='23.02px' lengthAdjust='spacingAndGlyphs'>1e-07</text></g>
<g clip-path='url(#cpMHwzMDIuNHwyODh8MA==)'><text x='22.76' y='159.54' style='font-size: 8.80px; fill: #4D4D4D; font-family: Arial;' textLength='23.02px' lengthAdjust='spacingAndGlyphs'>2e-07</text></g>
<g clip-path='url(#cpMHwzMDIuNHwyODh8MA==)'><text x='22.76' y='111.11' style='font-size: 8.80px; fill: #4D4D4D; font-family: Arial;' textLength='23.02px' lengthAdjust='spacingAndGlyphs'>3e-07</text></g>
<g clip-path='url(#cpMHwzMDIuNHwyODh8MA==)'><text x='22.76' y='62.67' style='font-size: 8.80px; fill: #4D4D4D; font-family: Arial;' textLength='23.02px' lengthAdjust='spacingAndGlyphs'>4e-07</text></g>
<polyline points='47.97,253.19 50.71,253.19 ' style='stroke-width: 1.07; stroke: #333333; stroke-linecap: butt;' clip-path='url(#cpMHwzMDIuNHwyODh8MA==)' />
<polyline points='47.97,204.75 50.71,204.75 ' style='stroke-width: 1.07; stroke: #333333; stroke-linecap: butt;' clip-path='url(#cpMHwzMDIuNHwyODh8MA==)' />
<polyline points='47.97,156.32 50.71,156.32 ' style='stroke-width: 1.07; stroke: #333333; stroke-linecap: butt;' clip-path='url(#cpMHwzMDIuNHwyODh8MA==)' />
<polyline points='47.97,107.89 50.71,107.89 ' style='stroke-width: 1.07; stroke: #333333; stroke-linecap: butt;' clip-path='url(#cpMHwzMDIuNHwyODh8MA==)' />
<polyline points='47.97,59.45 50.71,59.45 ' style='stroke-width: 1.07; stroke: #333333; stroke-linecap: butt;' clip-path='url(#cpMHwzMDIuNHwyODh8MA==)' />
<polyline points='112.27,256.49 112.27,253.75 ' style='stroke-width: 1.07; stroke: #333333; stroke-linecap: butt;' clip-path='url(#cpMHwzMDIuNHwyODh8MA==)' />
<polyline points='176.22,256.49 176.22,253.75 ' style='stroke-width: 1.07; stroke: #333333; stroke-linecap: butt;' clip-path='url(#cpMHwzMDIuNHwyODh8MA==)' />
<polyline points='240.17,256.49 240.17,253.75 ' style='stroke-width: 1.07; stroke: #333333; stroke-linecap: butt;' clip-path='url(#cpMHwzMDIuNHwyODh8MA==)' />
<g clip-path='url(#cpMHwzMDIuNHwyODh8MA==)'><text x='107.26' y='265.12' style='font-size: 8.80px; fill: #4D4D4D; font-family: Arial;' textLength='10.01px' lengthAdjust='spacingAndGlyphs'>26</text></g>
<g clip-path='url(#cpMHwzMDIuNHwyODh8MA==)'><text x='171.21' y='265.12' style='font-size: 8.80px; fill: #4D4D4D; font-family: Arial;' textLength='10.01px' lengthAdjust='spacingAndGlyphs'>30</text></g>
<g clip-path='url(#cpMHwzMDIuNHwyODh8MA==)'><text x='235.16' y='265.12' style='font-size: 8.80px; fill: #4D4D4D; font-family: Arial;' textLength='10.01px' lengthAdjust='spacingAndGlyphs'>34</text></g>
<g clip-path='url(#cpMHwzMDIuNHwyODh8MA==)'><text x='134.86' y='277.88' style='font-size: 10.00px; font-family: Arial;' textLength='63.35px' lengthAdjust='spacingAndGlyphs'>Temperature (</text></g>
<g clip-path='url(#cpMHwzMDIuNHwyODh8MA==)'><text x='198.22' y='277.88' style='font-size: 10.00px; font-family: Symbol;' textLength='4.00px' lengthAdjust='spacingAndGlyphs'>°</text></g>
<g clip-path='url(#cpMHwzMDIuNHwyODh8MA==)'><text x='202.22' y='277.88' style='font-size: 10.00px; font-family: Arial;' textLength='7.22px' lengthAdjust='spacingAndGlyphs'>C</text></g>
<g clip-path='url(#cpMHwzMDIuNHwyODh8MA==)'><text x='209.44' y='277.88' style='font-size: 10.00px; font-family: Arial;' textLength='3.33px' lengthAdjust='spacingAndGlyphs'>)</text></g>
<g clip-path='url(#cpMHwzMDIuNHwyODh8MA==)'><text transform='translate(12.64,171.81) rotate(-90)' style='font-size: 10.00px; font-family: Arial;' textLength='66.70px' lengthAdjust='spacingAndGlyphs'>respiration rate</text></g>
<g clip-path='url(#cpMHwzMDIuNHwyODh8MA==)'><text x='50.71' y='14.07' style='font-size: 12.00px; font-family: Arial;' textLength='96.74px' lengthAdjust='spacingAndGlyphs'>Rhagodia baccata</text></g>
</svg>
