<?xml version='1.0' encoding='UTF-8' ?>
<svg xmlns='http://www.w3.org/2000/svg' xmlns:xlink='http://www.w3.org/1999/xlink' viewBox='0 0 302.40 288.00'>
<defs>
  <style type='text/css'><![CDATA[
    line, polyline, path, rect, circle {
      fill: none;
      stroke: #000000;
      stroke-linecap: round;
      stroke-linejoin: round;
      stroke-miterlimit: 10.00;
    }
  ]]></style>
</defs>
<rect width='100%' height='100%' style='stroke: none; fill: #FFFFFF;'/>
<rect x='0.00' y='0.00' width='302.40' height='288.00' style='stroke-width: 1.07; stroke: #FFFFFF; fill: #FFFFFF;' />
<defs>
  <clipPath id='cpNTguMTEwNnwyOTYuOTIxfDI1My43NXwyMy4xNzk4'>
    <rect x='58.11' y='23.18' width='238.81' height='230.57' />
  </clipPath>
</defs>
<rect x='58.11' y='23.18' width='238.81' height='230.57' style='stroke-width: 1.07; stroke: none; fill: #FFFFFF;' clip-path='url(#cpNTguMTEwNnwyOTYuOTIxfDI1My43NXwyMy4xNzk4)' />
<polyline points='58.11,245.00 296.92,245.00 ' style='stroke-width: 0.53; stroke: #EBEBEB; stroke-linecap: butt;' clip-path='url(#cpNTguMTEwNnwyOTYuOTIxfDI1My43NXwyMy4xNzk4)' />
<polyline points='58.11,174.68 296.92,174.68 ' style='stroke-width: 0.53; stroke: #EBEBEB; stroke-linecap: butt;' clip-path='url(#cpNTguMTEwNnwyOTYuOTIxfDI1My43NXwyMy4xNzk4)' />
<polyline points='58.11,104.36 296.92,104.36 ' style='stroke-width: 0.53; stroke: #EBEBEB; stroke-linecap: butt;' clip-path='url(#cpNTguMTEwNnwyOTYuOTIxfDI1My43NXwyMy4xNzk4)' />
<polyline points='58.11,34.05 296.92,34.05 ' style='stroke-width: 0.53; stroke: #EBEBEB; stroke-linecap: butt;' clip-path='url(#cpNTguMTEwNnwyOTYuOTIxfDI1My43NXwyMy4xNzk4)' />
<polyline points='71.47,253.75 71.47,23.18 ' style='stroke-width: 0.53; stroke: #EBEBEB; stroke-linecap: butt;' clip-path='url(#cpNTguMTEwNnwyOTYuOTIxfDI1My43NXwyMy4xNzk4)' />
<polyline points='138.27,253.75 138.27,23.18 ' style='stroke-width: 0.53; stroke: #EBEBEB; stroke-linecap: butt;' clip-path='url(#cpNTguMTEwNnwyOTYuOTIxfDI1My43NXwyMy4xNzk4)' />
<polyline points='205.07,253.75 205.07,23.18 ' style='stroke-width: 0.53; stroke: #EBEBEB; stroke-linecap: butt;' clip-path='url(#cpNTguMTEwNnwyOTYuOTIxfDI1My43NXwyMy4xNzk4)' />
<polyline points='271.87,253.75 271.87,23.18 ' style='stroke-width: 0.53; stroke: #EBEBEB; stroke-linecap: butt;' clip-path='url(#cpNTguMTEwNnwyOTYuOTIxfDI1My43NXwyMy4xNzk4)' />
<polyline points='58.11,209.84 296.92,209.84 ' style='stroke-width: 1.07; stroke: #EBEBEB; stroke-linecap: butt;' clip-path='url(#cpNTguMTEwNnwyOTYuOTIxfDI1My43NXwyMy4xNzk4)' />
<polyline points='58.11,139.52 296.92,139.52 ' style='stroke-width: 1.07; stroke: #EBEBEB; stroke-linecap: butt;' clip-path='url(#cpNTguMTEwNnwyOTYuOTIxfDI1My43NXwyMy4xNzk4)' />
<polyline points='58.11,69.21 296.92,69.21 ' style='stroke-width: 1.07; stroke: #EBEBEB; stroke-linecap: butt;' clip-path='url(#cpNTguMTEwNnwyOTYuOTIxfDI1My43NXwyMy4xNzk4)' />
<polyline points='104.87,253.75 104.87,23.18 ' style='stroke-width: 1.07; stroke: #EBEBEB; stroke-linecap: butt;' clip-path='url(#cpNTguMTEwNnwyOTYuOTIxfDI1My43NXwyMy4xNzk4)' />
<polyline points='171.67,253.75 171.67,23.18 ' style='stroke-width: 1.07; stroke: #EBEBEB; stroke-linecap: butt;' clip-path='url(#cpNTguMTEwNnwyOTYuOTIxfDI1My43NXwyMy4xNzk4)' />
<polyline points='238.47,253.75 238.47,23.18 ' style='stroke-width: 1.07; stroke: #EBEBEB; stroke-linecap: butt;' clip-path='url(#cpNTguMTEwNnwyOTYuOTIxfDI1My43NXwyMy4xNzk4)' />
<circle cx='71.47' cy='89.08' r='3.56pt' style='stroke-width: 0.71; stroke: #000000; stroke-opacity: 0.70; fill: #D1EEEE; fill-opacity: 0.70;' clip-path='url(#cpNTguMTEwNnwyOTYuOTIxfDI1My43NXwyMy4xNzk4)' />
<circle cx='121.57' cy='243.27' r='3.56pt' style='stroke-width: 0.71; stroke: #000000; stroke-opacity: 0.70; fill: #D1EEEE; fill-opacity: 0.70;' clip-path='url(#cpNTguMTEwNnwyOTYuOTIxfDI1My43NXwyMy4xNzk4)' />
<circle cx='171.67' cy='120.28' r='3.56pt' style='stroke-width: 0.71; stroke: #000000; stroke-opacity: 0.70; fill: #D1EEEE; fill-opacity: 0.70;' clip-path='url(#cpNTguMTEwNnwyOTYuOTIxfDI1My43NXwyMy4xNzk4)' />
<circle cx='221.77' cy='184.33' r='3.56pt' style='stroke-width: 0.71; stroke: #000000; stroke-opacity: 0.70; fill: #D1EEEE; fill-opacity: 0.70;' clip-path='url(#cpNTguMTEwNnwyOTYuOTIxfDI1My43NXwyMy4xNzk4)' />
<circle cx='271.87' cy='33.66' r='3.56pt' style='stroke-width: 0.71; stroke: #000000; stroke-opacity: 0.70; fill: #D1EEEE; fill-opacity: 0.70;' clip-path='url(#cpNTguMTEwNnwyOTYuOTIxfDI1My43NXwyMy4xNzk4)' />
<polyline points='68.97,170.00 70.06,169.65 71.15,169.29 72.24,168.93 73.33,168.58 74.42,168.22 75.51,167.86 76.60,167.51 77.69,167.15 78.78,166.79 79.88,166.44 80.97,166.08 82.06,165.72 83.15,165.37 84.24,165.01 85.33,164.65 86.42,164.30 87.51,163.94 88.60,163.58 89.69,163.23 90.78,162.87 91.88,162.51 92.97,162.16 94.06,161.80 95.15,161.45 96.24,161.09 97.33,160.73 98.42,160.38 99.51,160.02 100.60,159.66 101.69,159.31 102.79,158.95 103.88,158.60 104.97,158.24 106.06,157.88 107.15,157.53 108.24,157.17 109.33,156.82 110.42,156.46 111.51,156.11 112.60,155.75 113.69,155.39 114.79,155.04 115.88,154.68 116.97,154.33 118.06,153.97 119.15,153.62 120.24,153.26 121.33,152.90 122.42,152.55 123.51,152.19 124.60,151.84 125.70,151.48 126.79,151.13 127.88,150.77 128.97,150.42 130.06,150.06 131.15,149.71 132.24,149.35 133.33,149.00 134.42,148.64 135.51,148.28 136.60,147.93 137.70,147.57 138.79,147.22 139.88,146.86 140.97,146.51 142.06,146.15 143.15,145.80 144.24,145.44 145.33,145.09 146.42,144.73 147.51,144.38 148.61,144.02 149.70,143.67 150.79,143.31 151.88,142.96 152.97,142.61 154.06,142.25 155.15,141.90 156.24,141.54 157.33,141.19 158.42,140.83 159.51,140.48 160.61,140.12 161.70,139.77 162.79,139.41 163.88,139.06 164.97,138.70 166.06,138.35 167.15,138.00 168.24,137.64 169.33,137.29 170.42,136.93 171.52,136.58 172.61,136.22 173.70,135.87 174.79,135.52 175.88,135.16 176.97,134.81 178.06,134.45 179.15,134.10 180.24,133.75 181.33,133.39 182.42,133.04 183.52,132.68 184.61,132.33 185.70,131.98 186.79,131.62 187.88,131.27 188.97,130.91 190.06,130.56 191.15,130.21 192.24,129.85 193.33,129.50 194.43,129.15 195.52,128.79 196.61,128.44 197.70,128.08 198.79,127.73 199.88,127.38 200.97,127.02 202.06,126.67 203.15,126.32 204.24,125.96 205.33,125.61 206.43,125.26 207.52,124.90 208.61,124.55 209.70,124.20 210.79,123.84 211.88,123.49 212.97,123.14 214.06,122.78 215.15,122.43 216.24,122.08 217.34,121.73 218.43,121.37 219.52,121.02 220.61,120.67 221.70,120.31 222.79,119.96 223.88,119.61 224.97,119.25 226.06,118.90 227.15,118.55 228.24,118.20 229.34,117.84 230.43,117.49 231.52,117.14 232.61,116.79 233.70,116.43 234.79,116.08 235.88,115.73 236.97,115.38 238.06,115.02 239.15,114.67 240.25,114.32 241.34,113.97 242.43,113.61 243.52,113.26 244.61,112.91 245.70,112.56 246.79,112.20 247.88,111.85 248.97,111.50 250.06,111.15 251.16,110.80 252.25,110.44 253.34,110.09 254.43,109.74 255.52,109.39 256.61,109.04 257.70,108.68 258.79,108.33 259.88,107.98 260.97,107.63 262.06,107.28 263.16,106.92 264.25,106.57 265.34,106.22 266.43,105.87 267.52,105.52 268.61,105.17 269.70,104.81 270.79,104.46 271.88,104.11 272.97,103.76 274.07,103.41 275.16,103.06 276.25,102.71 277.34,102.35 278.43,102.00 279.52,101.65 280.61,101.30 281.70,100.95 282.79,100.60 283.88,100.25 284.97,99.89 286.07,99.54 ' style='stroke-width: 2.77; stroke: #1B9E77; stroke-linecap: butt;' clip-path='url(#cpNTguMTEwNnwyOTYuOTIxfDI1My43NXwyMy4xNzk4)' />
<g clip-path='url(#cpNTguMTEwNnwyOTYuOTIxfDI1My43NXwyMy4xNzk4)'><text x='71.47' y='125.05' style='font-size: 8.54px; font-style: italic; font-family: Arial;' textLength='60.01px' lengthAdjust='spacingAndGlyphs'>R^2 sch= 0.11 </text></g>
<g clip-path='url(#cpNTguMTEwNnwyOTYuOTIxfDI1My43NXwyMy4xNzk4)'><text x='71.47' y='137.34' style='font-size: 8.54px; font-style: italic; font-family: Arial;' textLength='60.29px' lengthAdjust='spacingAndGlyphs'>E sch= 0.0418 </text></g>
<g clip-path='url(#cpNTguMTEwNnwyOTYuOTIxfDI1My43NXwyMy4xNzk4)'><text x='71.47' y='149.63' style='font-size: 8.54px; font-style: italic; font-family: Arial;' textLength='59.78px' lengthAdjust='spacingAndGlyphs'>AIC sch= -2.28</text></g>
<rect x='58.11' y='23.18' width='238.81' height='230.57' style='stroke-width: 1.07; stroke: #333333;' clip-path='url(#cpNTguMTEwNnwyOTYuOTIxfDI1My43NXwyMy4xNzk4)' />
<defs>
  <clipPath id='cpMHwzMDIuNHwyODh8MA=='>
    <rect x='0.00' y='0.00' width='302.40' height='288.00' />
  </clipPath>
</defs>
<g clip-path='url(#cpMHwzMDIuNHwyODh8MA==)'><text x='20.65' y='213.06' style='font-size: 8.80px; fill: #4D4D4D; font-family: Arial;' textLength='32.53px' lengthAdjust='spacingAndGlyphs'>0.00026</text></g>
<g clip-path='url(#cpMHwzMDIuNHwyODh8MA==)'><text x='20.65' y='142.74' style='font-size: 8.80px; fill: #4D4D4D; font-family: Arial;' textLength='32.53px' lengthAdjust='spacingAndGlyphs'>0.00028</text></g>
<g clip-path='url(#cpMHwzMDIuNHwyODh8MA==)'><text x='20.65' y='72.42' style='font-size: 8.80px; fill: #4D4D4D; font-family: Arial;' textLength='32.53px' lengthAdjust='spacingAndGlyphs'>0.00030</text></g>
<polyline points='55.37,209.84 58.11,209.84 ' style='stroke-width: 1.07; stroke: #333333; stroke-linecap: butt;' clip-path='url(#cpMHwzMDIuNHwyODh8MA==)' />
<polyline points='55.37,139.52 58.11,139.52 ' style='stroke-width: 1.07; stroke: #333333; stroke-linecap: butt;' clip-path='url(#cpMHwzMDIuNHwyODh8MA==)' />
<polyline points='55.37,69.21 58.11,69.21 ' style='stroke-width: 1.07; stroke: #333333; stroke-linecap: butt;' clip-path='url(#cpMHwzMDIuNHwyODh8MA==)' />
<polyline points='104.87,256.49 104.87,253.75 ' style='stroke-width: 1.07; stroke: #333333; stroke-linecap: butt;' clip-path='url(#cpMHwzMDIuNHwyODh8MA==)' />
<polyline points='171.67,256.49 171.67,253.75 ' style='stroke-width: 1.07; stroke: #333333; stroke-linecap: butt;' clip-path='url(#cpMHwzMDIuNHwyODh8MA==)' />
<polyline points='238.47,256.49 238.47,253.75 ' style='stroke-width: 1.07; stroke: #333333; stroke-linecap: butt;' clip-path='url(#cpMHwzMDIuNHwyODh8MA==)' />
<g clip-path='url(#cpMHwzMDIuNHwyODh8MA==)'><text x='99.87' y='265.12' style='font-size: 8.80px; fill: #4D4D4D; font-family: Arial;' textLength='10.01px' lengthAdjust='spacingAndGlyphs'>20</text></g>
<g clip-path='url(#cpMHwzMDIuNHwyODh8MA==)'><text x='166.67' y='265.12' style='font-size: 8.80px; fill: #4D4D4D; font-family: Arial;' textLength='10.01px' lengthAdjust='spacingAndGlyphs'>24</text></g>
<g clip-path='url(#cpMHwzMDIuNHwyODh8MA==)'><text x='233.47' y='265.12' style='font-size: 8.80px; fill: #4D4D4D; font-family: Arial;' textLength='10.01px' lengthAdjust='spacingAndGlyphs'>28</text></g>
<g clip-path='url(#cpMHwzMDIuNHwyODh8MA==)'><text x='138.56' y='277.88' style='font-size: 10.00px; font-family: Arial;' textLength='63.35px' lengthAdjust='spacingAndGlyphs'>Temperature (</text></g>
<g clip-path='url(#cpMHwzMDIuNHwyODh8MA==)'><text x='201.92' y='277.88' style='font-size: 10.00px; font-family: Symbol;' textLength='4.00px' lengthAdjust='spacingAndGlyphs'>°</text></g>
<g clip-path='url(#cpMHwzMDIuNHwyODh8MA==)'><text x='205.92' y='277.88' style='font-size: 10.00px; font-family: Arial;' textLength='7.22px' lengthAdjust='spacingAndGlyphs'>C</text></g>
<g clip-path='url(#cpMHwzMDIuNHwyODh8MA==)'><text x='213.14' y='277.88' style='font-size: 10.00px; font-family: Arial;' textLength='3.33px' lengthAdjust='spacingAndGlyphs'>)</text></g>
<g clip-path='url(#cpMHwzMDIuNHwyODh8MA==)'><text transform='translate(12.64,180.16) rotate(-90)' style='font-size: 10.00px; font-family: Arial;' textLength='83.39px' lengthAdjust='spacingAndGlyphs'>net photosynthesis</text></g>
<g clip-path='url(#cpMHwzMDIuNHwyODh8MA==)'><text x='58.11' y='14.07' style='font-size: 12.00px; font-family: Arial;' textLength='90.72px' lengthAdjust='spacingAndGlyphs'>Betula papyrifera</text></g>
</svg>
