<?xml version='1.0' encoding='UTF-8' ?>
<svg xmlns='http://www.w3.org/2000/svg' xmlns:xlink='http://www.w3.org/1999/xlink' viewBox='0 0 302.40 288.00'>
<defs>
  <style type='text/css'><![CDATA[
    line, polyline, path, rect, circle {
      fill: none;
      stroke: #000000;
      stroke-linecap: round;
      stroke-linejoin: round;
      stroke-miterlimit: 10.00;
    }
  ]]></style>
</defs>
<rect width='100%' height='100%' style='stroke: none; fill: #FFFFFF;'/>
<rect x='0.00' y='0.00' width='302.40' height='288.00' style='stroke-width: 1.07; stroke: #FFFFFF; fill: #FFFFFF;' />
<defs>
  <clipPath id='cpNDguNTk2NXwyOTYuOTIxfDI1My43NXwyMC43ODky'>
    <rect x='48.60' y='20.79' width='248.32' height='232.96' />
  </clipPath>
</defs>
<rect x='48.60' y='20.79' width='248.32' height='232.96' style='stroke-width: 1.07; stroke: none; fill: #FFFFFF;' clip-path='url(#cpNDguNTk2NXwyOTYuOTIxfDI1My43NXwyMC43ODky)' />
<polyline points='48.60,204.67 296.92,204.67 ' style='stroke-width: 0.53; stroke: #EBEBEB; stroke-linecap: butt;' clip-path='url(#cpNDguNTk2NXwyOTYuOTIxfDI1My43NXwyMC43ODky)' />
<polyline points='48.60,146.51 296.92,146.51 ' style='stroke-width: 0.53; stroke: #EBEBEB; stroke-linecap: butt;' clip-path='url(#cpNDguNTk2NXwyOTYuOTIxfDI1My43NXwyMC43ODky)' />
<polyline points='48.60,88.35 296.92,88.35 ' style='stroke-width: 0.53; stroke: #EBEBEB; stroke-linecap: butt;' clip-path='url(#cpNDguNTk2NXwyOTYuOTIxfDI1My43NXwyMC43ODky)' />
<polyline points='48.60,30.19 296.92,30.19 ' style='stroke-width: 0.53; stroke: #EBEBEB; stroke-linecap: butt;' clip-path='url(#cpNDguNTk2NXwyOTYuOTIxfDI1My43NXwyMC43ODky)' />
<polyline points='60.98,253.75 60.98,20.79 ' style='stroke-width: 0.53; stroke: #EBEBEB; stroke-linecap: butt;' clip-path='url(#cpNDguNTk2NXwyOTYuOTIxfDI1My43NXwyMC43ODky)' />
<polyline points='133.80,253.75 133.80,20.79 ' style='stroke-width: 0.53; stroke: #EBEBEB; stroke-linecap: butt;' clip-path='url(#cpNDguNTk2NXwyOTYuOTIxfDI1My43NXwyMC43ODky)' />
<polyline points='206.62,253.75 206.62,20.79 ' style='stroke-width: 0.53; stroke: #EBEBEB; stroke-linecap: butt;' clip-path='url(#cpNDguNTk2NXwyOTYuOTIxfDI1My43NXwyMC43ODky)' />
<polyline points='279.44,253.75 279.44,20.79 ' style='stroke-width: 0.53; stroke: #EBEBEB; stroke-linecap: butt;' clip-path='url(#cpNDguNTk2NXwyOTYuOTIxfDI1My43NXwyMC43ODky)' />
<polyline points='48.60,233.75 296.92,233.75 ' style='stroke-width: 1.07; stroke: #EBEBEB; stroke-linecap: butt;' clip-path='url(#cpNDguNTk2NXwyOTYuOTIxfDI1My43NXwyMC43ODky)' />
<polyline points='48.60,175.59 296.92,175.59 ' style='stroke-width: 1.07; stroke: #EBEBEB; stroke-linecap: butt;' clip-path='url(#cpNDguNTk2NXwyOTYuOTIxfDI1My43NXwyMC43ODky)' />
<polyline points='48.60,117.43 296.92,117.43 ' style='stroke-width: 1.07; stroke: #EBEBEB; stroke-linecap: butt;' clip-path='url(#cpNDguNTk2NXwyOTYuOTIxfDI1My43NXwyMC43ODky)' />
<polyline points='48.60,59.27 296.92,59.27 ' style='stroke-width: 1.07; stroke: #EBEBEB; stroke-linecap: butt;' clip-path='url(#cpNDguNTk2NXwyOTYuOTIxfDI1My43NXwyMC43ODky)' />
<polyline points='97.39,253.75 97.39,20.79 ' style='stroke-width: 1.07; stroke: #EBEBEB; stroke-linecap: butt;' clip-path='url(#cpNDguNTk2NXwyOTYuOTIxfDI1My43NXwyMC43ODky)' />
<polyline points='170.21,253.75 170.21,20.79 ' style='stroke-width: 1.07; stroke: #EBEBEB; stroke-linecap: butt;' clip-path='url(#cpNDguNTk2NXwyOTYuOTIxfDI1My43NXwyMC43ODky)' />
<polyline points='243.03,253.75 243.03,20.79 ' style='stroke-width: 1.07; stroke: #EBEBEB; stroke-linecap: butt;' clip-path='url(#cpNDguNTk2NXwyOTYuOTIxfDI1My43NXwyMC43ODky)' />
<circle cx='61.23' cy='221.96' r='3.56pt' style='stroke-width: 0.71; stroke: #000000; stroke-opacity: 0.70; fill: #D1EEEE; fill-opacity: 0.70;' clip-path='url(#cpNDguNTk2NXwyOTYuOTIxfDI1My43NXwyMC43ODky)' />
<circle cx='97.91' cy='135.41' r='3.56pt' style='stroke-width: 0.71; stroke: #000000; stroke-opacity: 0.70; fill: #D1EEEE; fill-opacity: 0.70;' clip-path='url(#cpNDguNTk2NXwyOTYuOTIxfDI1My43NXwyMC43ODky)' />
<circle cx='134.51' cy='88.65' r='3.56pt' style='stroke-width: 0.71; stroke: #000000; stroke-opacity: 0.70; fill: #D1EEEE; fill-opacity: 0.70;' clip-path='url(#cpNDguNTk2NXwyOTYuOTIxfDI1My43NXwyMC43ODky)' />
<circle cx='171.11' cy='44.01' r='3.56pt' style='stroke-width: 0.71; stroke: #000000; stroke-opacity: 0.70; fill: #D1EEEE; fill-opacity: 0.70;' clip-path='url(#cpNDguNTk2NXwyOTYuOTIxfDI1My43NXwyMC43ODky)' />
<circle cx='207.62' cy='39.87' r='3.56pt' style='stroke-width: 0.71; stroke: #000000; stroke-opacity: 0.70; fill: #D1EEEE; fill-opacity: 0.70;' clip-path='url(#cpNDguNTk2NXwyOTYuOTIxfDI1My43NXwyMC43ODky)' />
<circle cx='242.81' cy='135.88' r='3.56pt' style='stroke-width: 0.71; stroke: #000000; stroke-opacity: 0.70; fill: #D1EEEE; fill-opacity: 0.70;' clip-path='url(#cpNDguNTk2NXwyOTYuOTIxfDI1My43NXwyMC43ODky)' />
<circle cx='279.13' cy='227.64' r='3.56pt' style='stroke-width: 0.71; stroke: #000000; stroke-opacity: 0.70; fill: #D1EEEE; fill-opacity: 0.70;' clip-path='url(#cpNDguNTk2NXwyOTYuOTIxfDI1My43NXwyMC43ODky)' />
<polyline points='59.88,219.37 61.02,217.51 62.15,215.63 63.29,213.75 64.42,211.85 65.56,209.93 66.69,208.01 67.82,206.07 68.96,204.12 70.09,202.15 71.23,200.18 72.36,198.19 73.50,196.19 74.63,194.18 75.77,192.15 76.90,190.12 78.03,188.07 79.17,186.01 80.30,183.94 81.44,181.86 82.57,179.77 83.71,177.66 84.84,175.55 85.98,173.43 87.11,171.30 88.24,169.16 89.38,167.01 90.51,164.85 91.65,162.69 92.78,160.51 93.92,158.33 95.05,156.14 96.19,153.95 97.32,151.74 98.45,149.54 99.59,147.32 100.72,145.10 101.86,142.88 102.99,140.66 104.13,138.43 105.26,136.19 106.40,133.96 107.53,131.72 108.66,129.49 109.80,127.25 110.93,125.01 112.07,122.78 113.20,120.55 114.34,118.32 115.47,116.09 116.60,113.87 117.74,111.65 118.87,109.44 120.01,107.23 121.14,105.04 122.28,102.85 123.41,100.67 124.55,98.50 125.68,96.35 126.81,94.20 127.95,92.07 129.08,89.96 130.22,87.86 131.35,85.78 132.49,83.72 133.62,81.67 134.76,79.65 135.89,77.65 137.02,75.67 138.16,73.72 139.29,71.79 140.43,69.89 141.56,68.02 142.70,66.18 143.83,64.37 144.97,62.59 146.10,60.85 147.23,59.14 148.37,57.47 149.50,55.83 150.64,54.24 151.77,52.69 152.91,51.18 154.04,49.71 155.18,48.29 156.31,46.92 157.44,45.60 158.58,44.32 159.71,43.10 160.85,41.93 161.98,40.81 163.12,39.75 164.25,38.75 165.38,37.80 166.52,36.92 167.65,36.09 168.79,35.33 169.92,34.63 171.06,34.00 172.19,33.43 173.33,32.93 174.46,32.50 175.59,32.13 176.73,31.84 177.86,31.61 179.00,31.46 180.13,31.38 181.27,31.38 182.40,31.45 183.54,31.59 184.67,31.81 185.80,32.10 186.94,32.47 188.07,32.92 189.21,33.44 190.34,34.04 191.48,34.71 192.61,35.47 193.75,36.30 194.88,37.20 196.01,38.18 197.15,39.24 198.28,40.37 199.42,41.58 200.55,42.87 201.69,44.22 202.82,45.65 203.95,47.15 205.09,48.73 206.22,50.37 207.36,52.08 208.49,53.86 209.63,55.71 210.76,57.63 211.90,59.60 213.03,61.64 214.16,63.75 215.30,65.91 216.43,68.13 217.57,70.41 218.70,72.74 219.84,75.12 220.97,77.56 222.11,80.05 223.24,82.58 224.37,85.16 225.51,87.79 226.64,90.46 227.78,93.16 228.91,95.91 230.05,98.69 231.18,101.51 232.32,104.36 233.45,107.24 234.58,110.15 235.72,113.08 236.85,116.04 237.99,119.02 239.12,122.02 240.26,125.04 241.39,128.08 242.53,131.13 243.66,134.20 244.79,137.28 245.93,140.36 247.06,143.46 248.20,146.55 249.33,149.66 250.47,152.76 251.60,155.87 252.73,158.98 253.87,162.08 255.00,165.18 256.14,168.27 257.27,171.36 258.41,174.44 259.54,177.51 260.68,180.57 261.81,183.62 262.94,186.65 264.08,189.67 265.21,192.68 266.35,195.66 267.48,198.63 268.62,201.59 269.75,204.52 270.89,207.43 272.02,210.33 273.15,213.20 274.29,216.05 275.42,218.87 276.56,221.67 277.69,224.45 278.83,227.20 279.96,229.93 281.10,232.63 282.23,235.30 283.36,237.95 284.50,240.57 285.63,243.16 ' style='stroke-width: 2.77; stroke: #1B9E77; stroke-linecap: butt;' clip-path='url(#cpNDguNTk2NXwyOTYuOTIxfDI1My43NXwyMC43ODky)' />
<g clip-path='url(#cpNDguNTk2NXwyOTYuOTIxfDI1My43NXwyMC43ODky)'><text x='61.23' y='118.56' style='font-size: 8.54px; font-style: italic; font-family: Arial;' textLength='60.01px' lengthAdjust='spacingAndGlyphs'>R^2 sch= 0.98 </text></g>
<g clip-path='url(#cpNDguNTk2NXwyOTYuOTIxfDI1My43NXwyMC43ODky)'><text x='61.23' y='130.85' style='font-size: 8.54px; font-style: italic; font-family: Arial;' textLength='50.28px' lengthAdjust='spacingAndGlyphs'>E sch= 0.44 </text></g>
<g clip-path='url(#cpNDguNTk2NXwyOTYuOTIxfDI1My43NXwyMC43ODky)'><text x='61.23' y='143.14' style='font-size: 8.54px; font-style: italic; font-family: Arial;' textLength='59.78px' lengthAdjust='spacingAndGlyphs'>AIC sch= -18.7</text></g>
<rect x='48.60' y='20.79' width='248.32' height='232.96' style='stroke-width: 1.07; stroke: #333333;' clip-path='url(#cpNDguNTk2NXwyOTYuOTIxfDI1My43NXwyMC43ODky)' />
<defs>
  <clipPath id='cpMHwzMDIuNHwyODh8MA=='>
    <rect x='0.00' y='0.00' width='302.40' height='288.00' />
  </clipPath>
</defs>
<g clip-path='url(#cpMHwzMDIuNHwyODh8MA==)'><text x='20.65' y='236.97' style='font-size: 8.80px; fill: #4D4D4D; font-family: Arial;' textLength='23.02px' lengthAdjust='spacingAndGlyphs'>3e-05</text></g>
<g clip-path='url(#cpMHwzMDIuNHwyODh8MA==)'><text x='20.65' y='178.81' style='font-size: 8.80px; fill: #4D4D4D; font-family: Arial;' textLength='23.02px' lengthAdjust='spacingAndGlyphs'>4e-05</text></g>
<g clip-path='url(#cpMHwzMDIuNHwyODh8MA==)'><text x='20.65' y='120.65' style='font-size: 8.80px; fill: #4D4D4D; font-family: Arial;' textLength='23.02px' lengthAdjust='spacingAndGlyphs'>5e-05</text></g>
<g clip-path='url(#cpMHwzMDIuNHwyODh8MA==)'><text x='20.65' y='62.49' style='font-size: 8.80px; fill: #4D4D4D; font-family: Arial;' textLength='23.02px' lengthAdjust='spacingAndGlyphs'>6e-05</text></g>
<polyline points='45.86,233.75 48.60,233.75 ' style='stroke-width: 1.07; stroke: #333333; stroke-linecap: butt;' clip-path='url(#cpMHwzMDIuNHwyODh8MA==)' />
<polyline points='45.86,175.59 48.60,175.59 ' style='stroke-width: 1.07; stroke: #333333; stroke-linecap: butt;' clip-path='url(#cpMHwzMDIuNHwyODh8MA==)' />
<polyline points='45.86,117.43 48.60,117.43 ' style='stroke-width: 1.07; stroke: #333333; stroke-linecap: butt;' clip-path='url(#cpMHwzMDIuNHwyODh8MA==)' />
<polyline points='45.86,59.27 48.60,59.27 ' style='stroke-width: 1.07; stroke: #333333; stroke-linecap: butt;' clip-path='url(#cpMHwzMDIuNHwyODh8MA==)' />
<polyline points='97.39,256.49 97.39,253.75 ' style='stroke-width: 1.07; stroke: #333333; stroke-linecap: butt;' clip-path='url(#cpMHwzMDIuNHwyODh8MA==)' />
<polyline points='170.21,256.49 170.21,253.75 ' style='stroke-width: 1.07; stroke: #333333; stroke-linecap: butt;' clip-path='url(#cpMHwzMDIuNHwyODh8MA==)' />
<polyline points='243.03,256.49 243.03,253.75 ' style='stroke-width: 1.07; stroke: #333333; stroke-linecap: butt;' clip-path='url(#cpMHwzMDIuNHwyODh8MA==)' />
<g clip-path='url(#cpMHwzMDIuNHwyODh8MA==)'><text x='92.38' y='265.12' style='font-size: 8.80px; fill: #4D4D4D; font-family: Arial;' textLength='10.01px' lengthAdjust='spacingAndGlyphs'>10</text></g>
<g clip-path='url(#cpMHwzMDIuNHwyODh8MA==)'><text x='165.20' y='265.12' style='font-size: 8.80px; fill: #4D4D4D; font-family: Arial;' textLength='10.01px' lengthAdjust='spacingAndGlyphs'>20</text></g>
<g clip-path='url(#cpMHwzMDIuNHwyODh8MA==)'><text x='238.03' y='265.12' style='font-size: 8.80px; fill: #4D4D4D; font-family: Arial;' textLength='10.01px' lengthAdjust='spacingAndGlyphs'>30</text></g>
<g clip-path='url(#cpMHwzMDIuNHwyODh8MA==)'><text x='133.81' y='277.88' style='font-size: 10.00px; font-family: Arial;' textLength='63.35px' lengthAdjust='spacingAndGlyphs'>Temperature (</text></g>
<g clip-path='url(#cpMHwzMDIuNHwyODh8MA==)'><text x='197.16' y='277.88' style='font-size: 10.00px; font-family: Symbol;' textLength='4.00px' lengthAdjust='spacingAndGlyphs'>°</text></g>
<g clip-path='url(#cpMHwzMDIuNHwyODh8MA==)'><text x='201.16' y='277.88' style='font-size: 10.00px; font-family: Arial;' textLength='7.22px' lengthAdjust='spacingAndGlyphs'>C</text></g>
<g clip-path='url(#cpMHwzMDIuNHwyODh8MA==)'><text x='208.38' y='277.88' style='font-size: 10.00px; font-family: Arial;' textLength='3.33px' lengthAdjust='spacingAndGlyphs'>)</text></g>
<g clip-path='url(#cpMHwzMDIuNHwyODh8MA==)'><text transform='translate(12.64,178.96) rotate(-90)' style='font-size: 10.00px; font-family: Arial;' textLength='83.39px' lengthAdjust='spacingAndGlyphs'>net photosynthesis</text></g>
<g clip-path='url(#cpMHwzMDIuNHwyODh8MA==)'><text x='48.60' y='14.07' style='font-size: 12.00px; font-family: Arial;' textLength='86.70px' lengthAdjust='spacingAndGlyphs'>Acer saccharum</text></g>
</svg>
