<?xml version='1.0' encoding='UTF-8' ?>
<svg xmlns='http://www.w3.org/2000/svg' xmlns:xlink='http://www.w3.org/1999/xlink' viewBox='0 0 302.40 288.00'>
<defs>
  <style type='text/css'><![CDATA[
    line, polyline, path, rect, circle {
      fill: none;
      stroke: #000000;
      stroke-linecap: round;
      stroke-linejoin: round;
      stroke-miterlimit: 10.00;
    }
  ]]></style>
</defs>
<rect width='100%' height='100%' style='stroke: none; fill: #FFFFFF;'/>
<rect x='-0.00' y='0.00' width='302.40' height='288.00' style='stroke-width: 1.07; stroke: #FFFFFF; fill: #FFFFFF;' />
<defs>
  <clipPath id='cpNTguMzYxMXwyOTYuOTIxfDI1My43NXwyMC43ODky'>
    <rect x='58.36' y='20.79' width='238.56' height='232.96' />
  </clipPath>
</defs>
<rect x='58.36' y='20.79' width='238.56' height='232.96' style='stroke-width: 1.07; stroke: none; fill: #FFFFFF;' clip-path='url(#cpNTguMzYxMXwyOTYuOTIxfDI1My43NXwyMC43ODky)' />
<polyline points='58.36,224.18 296.92,224.18 ' style='stroke-width: 0.53; stroke: #EBEBEB; stroke-linecap: butt;' clip-path='url(#cpNTguMzYxMXwyOTYuOTIxfDI1My43NXwyMC43ODky)' />
<polyline points='58.36,177.06 296.92,177.06 ' style='stroke-width: 0.53; stroke: #EBEBEB; stroke-linecap: butt;' clip-path='url(#cpNTguMzYxMXwyOTYuOTIxfDI1My43NXwyMC43ODky)' />
<polyline points='58.36,129.94 296.92,129.94 ' style='stroke-width: 0.53; stroke: #EBEBEB; stroke-linecap: butt;' clip-path='url(#cpNTguMzYxMXwyOTYuOTIxfDI1My43NXwyMC43ODky)' />
<polyline points='58.36,82.82 296.92,82.82 ' style='stroke-width: 0.53; stroke: #EBEBEB; stroke-linecap: butt;' clip-path='url(#cpNTguMzYxMXwyOTYuOTIxfDI1My43NXwyMC43ODky)' />
<polyline points='58.36,35.71 296.92,35.71 ' style='stroke-width: 0.53; stroke: #EBEBEB; stroke-linecap: butt;' clip-path='url(#cpNTguMzYxMXwyOTYuOTIxfDI1My43NXwyMC43ODky)' />
<polyline points='63.78,253.75 63.78,20.79 ' style='stroke-width: 0.53; stroke: #EBEBEB; stroke-linecap: butt;' clip-path='url(#cpNTguMzYxMXwyOTYuOTIxfDI1My43NXwyMC43ODky)' />
<polyline points='127.57,253.75 127.57,20.79 ' style='stroke-width: 0.53; stroke: #EBEBEB; stroke-linecap: butt;' clip-path='url(#cpNTguMzYxMXwyOTYuOTIxfDI1My43NXwyMC43ODky)' />
<polyline points='191.35,253.75 191.35,20.79 ' style='stroke-width: 0.53; stroke: #EBEBEB; stroke-linecap: butt;' clip-path='url(#cpNTguMzYxMXwyOTYuOTIxfDI1My43NXwyMC43ODky)' />
<polyline points='255.14,253.75 255.14,20.79 ' style='stroke-width: 0.53; stroke: #EBEBEB; stroke-linecap: butt;' clip-path='url(#cpNTguMzYxMXwyOTYuOTIxfDI1My43NXwyMC43ODky)' />
<polyline points='58.36,247.74 296.92,247.74 ' style='stroke-width: 1.07; stroke: #EBEBEB; stroke-linecap: butt;' clip-path='url(#cpNTguMzYxMXwyOTYuOTIxfDI1My43NXwyMC43ODky)' />
<polyline points='58.36,200.62 296.92,200.62 ' style='stroke-width: 1.07; stroke: #EBEBEB; stroke-linecap: butt;' clip-path='url(#cpNTguMzYxMXwyOTYuOTIxfDI1My43NXwyMC43ODky)' />
<polyline points='58.36,153.50 296.92,153.50 ' style='stroke-width: 1.07; stroke: #EBEBEB; stroke-linecap: butt;' clip-path='url(#cpNTguMzYxMXwyOTYuOTIxfDI1My43NXwyMC43ODky)' />
<polyline points='58.36,106.38 296.92,106.38 ' style='stroke-width: 1.07; stroke: #EBEBEB; stroke-linecap: butt;' clip-path='url(#cpNTguMzYxMXwyOTYuOTIxfDI1My43NXwyMC43ODky)' />
<polyline points='58.36,59.26 296.92,59.26 ' style='stroke-width: 1.07; stroke: #EBEBEB; stroke-linecap: butt;' clip-path='url(#cpNTguMzYxMXwyOTYuOTIxfDI1My43NXwyMC43ODky)' />
<polyline points='95.68,253.75 95.68,20.79 ' style='stroke-width: 1.07; stroke: #EBEBEB; stroke-linecap: butt;' clip-path='url(#cpNTguMzYxMXwyOTYuOTIxfDI1My43NXwyMC43ODky)' />
<polyline points='159.46,253.75 159.46,20.79 ' style='stroke-width: 1.07; stroke: #EBEBEB; stroke-linecap: butt;' clip-path='url(#cpNTguMzYxMXwyOTYuOTIxfDI1My43NXwyMC43ODky)' />
<polyline points='223.25,253.75 223.25,20.79 ' style='stroke-width: 1.07; stroke: #EBEBEB; stroke-linecap: butt;' clip-path='url(#cpNTguMzYxMXwyOTYuOTIxfDI1My43NXwyMC43ODky)' />
<polyline points='287.03,253.75 287.03,20.79 ' style='stroke-width: 1.07; stroke: #EBEBEB; stroke-linecap: butt;' clip-path='url(#cpNTguMzYxMXwyOTYuOTIxfDI1My43NXwyMC43ODky)' />
<circle cx='69.57' cy='77.98' r='3.56pt' style='stroke-width: 0.71; stroke: #000000; stroke-opacity: 0.70; fill: #D1EEEE; fill-opacity: 0.70;' clip-path='url(#cpNTguMzYxMXwyOTYuOTIxfDI1My43NXwyMC43ODky)' />
<circle cx='101.96' cy='40.11' r='3.56pt' style='stroke-width: 0.71; stroke: #000000; stroke-opacity: 0.70; fill: #D1EEEE; fill-opacity: 0.70;' clip-path='url(#cpNTguMzYxMXwyOTYuOTIxfDI1My43NXwyMC43ODky)' />
<circle cx='127.79' cy='35.37' r='3.56pt' style='stroke-width: 0.71; stroke: #000000; stroke-opacity: 0.70; fill: #D1EEEE; fill-opacity: 0.70;' clip-path='url(#cpNTguMzYxMXwyOTYuOTIxfDI1My43NXwyMC43ODky)' />
<circle cx='159.92' cy='33.63' r='3.56pt' style='stroke-width: 0.71; stroke: #000000; stroke-opacity: 0.70; fill: #D1EEEE; fill-opacity: 0.70;' clip-path='url(#cpNTguMzYxMXwyOTYuOTIxfDI1My43NXwyMC43ODky)' />
<circle cx='191.35' cy='31.38' r='3.56pt' style='stroke-width: 0.71; stroke: #000000; stroke-opacity: 0.70; fill: #D1EEEE; fill-opacity: 0.70;' clip-path='url(#cpNTguMzYxMXwyOTYuOTIxfDI1My43NXwyMC43ODky)' />
<circle cx='223.22' cy='66.82' r='3.56pt' style='stroke-width: 0.71; stroke: #000000; stroke-opacity: 0.70; fill: #D1EEEE; fill-opacity: 0.70;' clip-path='url(#cpNTguMzYxMXwyOTYuOTIxfDI1My43NXwyMC43ODky)' />
<circle cx='253.61' cy='140.50' r='3.56pt' style='stroke-width: 0.71; stroke: #000000; stroke-opacity: 0.70; fill: #D1EEEE; fill-opacity: 0.70;' clip-path='url(#cpNTguMzYxMXwyOTYuOTIxfDI1My43NXwyMC43ODky)' />
<circle cx='281.27' cy='239.91' r='3.56pt' style='stroke-width: 0.71; stroke: #000000; stroke-opacity: 0.70; fill: #D1EEEE; fill-opacity: 0.70;' clip-path='url(#cpNTguMzYxMXwyOTYuOTIxfDI1My43NXwyMC43ODky)' />
<polyline points='69.20,56.62 70.29,56.48 71.38,56.34 72.47,56.20 73.56,56.07 74.65,55.93 75.74,55.79 76.83,55.65 77.92,55.51 79.01,55.38 80.10,55.24 81.19,55.10 82.28,54.96 83.37,54.82 84.46,54.69 85.55,54.55 86.64,54.41 87.73,54.27 88.82,54.14 89.91,54.00 91.00,53.86 92.09,53.73 93.18,53.59 94.27,53.45 95.36,53.31 96.45,53.18 97.54,53.04 98.63,52.90 99.72,52.77 100.81,52.63 101.90,52.49 102.99,52.36 104.08,52.22 105.17,52.08 106.26,51.95 107.35,51.81 108.44,51.68 109.53,51.54 110.62,51.40 111.71,51.27 112.80,51.13 113.89,51.00 114.98,50.86 116.07,50.72 117.16,50.59 118.25,50.45 119.34,50.32 120.43,50.18 121.52,50.05 122.61,49.91 123.70,49.77 124.79,49.64 125.87,49.50 126.96,49.37 128.05,49.23 129.14,49.10 130.23,48.96 131.32,48.83 132.41,48.69 133.50,48.56 134.59,48.42 135.68,48.29 136.77,48.16 137.86,48.02 138.95,47.89 140.04,47.75 141.13,47.62 142.22,47.48 143.31,47.35 144.40,47.22 145.49,47.08 146.58,46.95 147.67,46.81 148.76,46.68 149.85,46.55 150.94,46.41 152.03,46.28 153.12,46.14 154.21,46.01 155.30,45.88 156.39,45.74 157.48,45.61 158.57,45.48 159.66,45.35 160.75,45.21 161.84,45.08 162.93,44.95 164.02,44.81 165.11,44.68 166.20,44.55 167.29,44.42 168.38,44.28 169.47,44.15 170.56,44.02 171.65,43.89 172.74,43.76 173.83,43.63 174.92,43.50 176.01,43.37 177.10,43.24 178.19,43.11 179.28,42.98 180.37,42.85 181.46,42.72 182.54,42.59 183.63,42.46 184.72,42.34 185.81,42.21 186.90,42.09 187.99,41.96 189.08,41.84 190.17,41.72 191.26,41.60 192.35,41.48 193.44,41.37 194.53,41.26 195.62,41.15 196.71,41.04 197.80,40.94 198.89,40.84 199.98,40.75 201.07,40.66 202.16,40.58 203.25,40.50 204.34,40.44 205.43,40.38 206.52,40.33 207.61,40.30 208.70,40.28 209.79,40.28 210.88,40.29 211.97,40.33 213.06,40.39 214.15,40.48 215.24,40.59 216.33,40.75 217.42,40.94 218.51,41.18 219.60,41.47 220.69,41.82 221.78,42.23 222.87,42.72 223.96,43.29 225.05,43.96 226.14,44.73 227.23,45.63 228.32,46.65 229.41,47.83 230.50,49.17 231.59,50.69 232.68,52.42 233.77,54.36 234.86,56.55 235.95,59.00 237.04,61.73 238.13,64.76 239.22,68.10 240.30,71.78 241.39,75.81 242.48,80.18 243.57,84.92 244.66,90.00 245.75,95.42 246.84,101.17 247.93,107.21 249.02,113.51 250.11,120.04 251.20,126.74 252.29,133.56 253.38,140.44 254.47,147.33 255.56,154.17 256.65,160.89 257.74,167.45 258.83,173.81 259.92,179.91 261.01,185.72 262.10,191.23 263.19,196.41 264.28,201.25 265.37,205.75 266.46,209.91 267.55,213.73 268.64,217.23 269.73,220.43 270.82,223.33 271.91,225.95 273.00,228.32 274.09,230.45 275.18,232.37 276.27,234.09 277.36,235.62 278.45,236.99 279.54,238.21 280.63,239.30 281.72,240.27 282.81,241.12 283.90,241.89 284.99,242.56 286.08,243.16 ' style='stroke-width: 2.77; stroke: #1B9E77; stroke-linecap: butt;' clip-path='url(#cpNTguMzYxMXwyOTYuOTIxfDI1My43NXwyMC43ODky)' />
<g clip-path='url(#cpNTguMzYxMXwyOTYuOTIxfDI1My43NXwyMC43ODky)'><text x='69.57' y='74.14' style='font-size: 8.54px; font-style: italic; font-family: Arial;' textLength='60.01px' lengthAdjust='spacingAndGlyphs'>R^2 sch= 0.96 </text></g>
<g clip-path='url(#cpNTguMzYxMXwyOTYuOTIxfDI1My43NXwyMC43ODky)'><text x='69.57' y='86.43' style='font-size: 8.54px; font-style: italic; font-family: Arial;' textLength='60.29px' lengthAdjust='spacingAndGlyphs'>E sch= 0.0305 </text></g>
<g clip-path='url(#cpNTguMzYxMXwyOTYuOTIxfDI1My43NXwyMC43ODky)'><text x='69.57' y='98.72' style='font-size: 8.54px; font-style: italic; font-family: Arial;' textLength='47.27px' lengthAdjust='spacingAndGlyphs'>AIC sch= -9</text></g>
<rect x='58.36' y='20.79' width='238.56' height='232.96' style='stroke-width: 1.07; stroke: #333333;' clip-path='url(#cpNTguMzYxMXwyOTYuOTIxfDI1My43NXwyMC43ODky)' />
<defs>
  <clipPath id='cpMHwzMDIuNHwyODh8MA=='>
    <rect x='0.00' y='0.00' width='302.40' height='288.00' />
  </clipPath>
</defs>
<g clip-path='url(#cpMHwzMDIuNHwyODh8MA==)'><text x='20.65' y='250.96' style='font-size: 8.80px; fill: #4D4D4D; font-family: Arial;' textLength='32.78px' lengthAdjust='spacingAndGlyphs'>0.0e+00</text></g>
<g clip-path='url(#cpMHwzMDIuNHwyODh8MA==)'><text x='22.91' y='203.84' style='font-size: 8.80px; fill: #4D4D4D; font-family: Arial;' textLength='30.52px' lengthAdjust='spacingAndGlyphs'>5.0e-06</text></g>
<g clip-path='url(#cpMHwzMDIuNHwyODh8MA==)'><text x='22.91' y='156.72' style='font-size: 8.80px; fill: #4D4D4D; font-family: Arial;' textLength='30.52px' lengthAdjust='spacingAndGlyphs'>1.0e-05</text></g>
<g clip-path='url(#cpMHwzMDIuNHwyODh8MA==)'><text x='22.91' y='109.60' style='font-size: 8.80px; fill: #4D4D4D; font-family: Arial;' textLength='30.52px' lengthAdjust='spacingAndGlyphs'>1.5e-05</text></g>
<g clip-path='url(#cpMHwzMDIuNHwyODh8MA==)'><text x='22.91' y='62.48' style='font-size: 8.80px; fill: #4D4D4D; font-family: Arial;' textLength='30.52px' lengthAdjust='spacingAndGlyphs'>2.0e-05</text></g>
<polyline points='55.62,247.74 58.36,247.74 ' style='stroke-width: 1.07; stroke: #333333; stroke-linecap: butt;' clip-path='url(#cpMHwzMDIuNHwyODh8MA==)' />
<polyline points='55.62,200.62 58.36,200.62 ' style='stroke-width: 1.07; stroke: #333333; stroke-linecap: butt;' clip-path='url(#cpMHwzMDIuNHwyODh8MA==)' />
<polyline points='55.62,153.50 58.36,153.50 ' style='stroke-width: 1.07; stroke: #333333; stroke-linecap: butt;' clip-path='url(#cpMHwzMDIuNHwyODh8MA==)' />
<polyline points='55.62,106.38 58.36,106.38 ' style='stroke-width: 1.07; stroke: #333333; stroke-linecap: butt;' clip-path='url(#cpMHwzMDIuNHwyODh8MA==)' />
<polyline points='55.62,59.26 58.36,59.26 ' style='stroke-width: 1.07; stroke: #333333; stroke-linecap: butt;' clip-path='url(#cpMHwzMDIuNHwyODh8MA==)' />
<polyline points='95.68,256.49 95.68,253.75 ' style='stroke-width: 1.07; stroke: #333333; stroke-linecap: butt;' clip-path='url(#cpMHwzMDIuNHwyODh8MA==)' />
<polyline points='159.46,256.49 159.46,253.75 ' style='stroke-width: 1.07; stroke: #333333; stroke-linecap: butt;' clip-path='url(#cpMHwzMDIuNHwyODh8MA==)' />
<polyline points='223.25,256.49 223.25,253.75 ' style='stroke-width: 1.07; stroke: #333333; stroke-linecap: butt;' clip-path='url(#cpMHwzMDIuNHwyODh8MA==)' />
<polyline points='287.03,256.49 287.03,253.75 ' style='stroke-width: 1.07; stroke: #333333; stroke-linecap: butt;' clip-path='url(#cpMHwzMDIuNHwyODh8MA==)' />
<g clip-path='url(#cpMHwzMDIuNHwyODh8MA==)'><text x='90.67' y='265.12' style='font-size: 8.80px; fill: #4D4D4D; font-family: Arial;' textLength='10.01px' lengthAdjust='spacingAndGlyphs'>20</text></g>
<g clip-path='url(#cpMHwzMDIuNHwyODh8MA==)'><text x='154.46' y='265.12' style='font-size: 8.80px; fill: #4D4D4D; font-family: Arial;' textLength='10.01px' lengthAdjust='spacingAndGlyphs'>30</text></g>
<g clip-path='url(#cpMHwzMDIuNHwyODh8MA==)'><text x='218.24' y='265.12' style='font-size: 8.80px; fill: #4D4D4D; font-family: Arial;' textLength='10.01px' lengthAdjust='spacingAndGlyphs'>40</text></g>
<g clip-path='url(#cpMHwzMDIuNHwyODh8MA==)'><text x='282.03' y='265.12' style='font-size: 8.80px; fill: #4D4D4D; font-family: Arial;' textLength='10.01px' lengthAdjust='spacingAndGlyphs'>50</text></g>
<g clip-path='url(#cpMHwzMDIuNHwyODh8MA==)'><text x='138.69' y='277.88' style='font-size: 10.00px; font-family: Arial;' textLength='63.35px' lengthAdjust='spacingAndGlyphs'>Temperature (</text></g>
<g clip-path='url(#cpMHwzMDIuNHwyODh8MA==)'><text x='202.04' y='277.88' style='font-size: 10.00px; font-family: Symbol;' textLength='4.00px' lengthAdjust='spacingAndGlyphs'>°</text></g>
<g clip-path='url(#cpMHwzMDIuNHwyODh8MA==)'><text x='206.04' y='277.88' style='font-size: 10.00px; font-family: Arial;' textLength='7.22px' lengthAdjust='spacingAndGlyphs'>C</text></g>
<g clip-path='url(#cpMHwzMDIuNHwyODh8MA==)'><text x='213.26' y='277.88' style='font-size: 10.00px; font-family: Arial;' textLength='3.33px' lengthAdjust='spacingAndGlyphs'>)</text></g>
<g clip-path='url(#cpMHwzMDIuNHwyODh8MA==)'><text transform='translate(12.64,178.96) rotate(-90)' style='font-size: 10.00px; font-family: Arial;' textLength='83.39px' lengthAdjust='spacingAndGlyphs'>net photosynthesis</text></g>
<g clip-path='url(#cpMHwzMDIuNHwyODh8MA==)'><text x='58.36' y='14.07' style='font-size: 12.00px; font-family: Arial;' textLength='89.38px' lengthAdjust='spacingAndGlyphs'>Larrea divaricata</text></g>
</svg>
