<?xml version='1.0' encoding='UTF-8' ?>
<svg xmlns='http://www.w3.org/2000/svg' xmlns:xlink='http://www.w3.org/1999/xlink' viewBox='0 0 302.40 288.00'>
<defs>
  <style type='text/css'><![CDATA[
    line, polyline, path, rect, circle {
      fill: none;
      stroke: #000000;
      stroke-linecap: round;
      stroke-linejoin: round;
      stroke-miterlimit: 10.00;
    }
  ]]></style>
</defs>
<rect width='100%' height='100%' style='stroke: none; fill: #FFFFFF;'/>
<rect x='0.00' y='0.00' width='302.40' height='288.00' style='stroke-width: 1.07; stroke: #FFFFFF; fill: #FFFFFF;' />
<defs>
  <clipPath id='cpNDguNTk2NXwyOTYuOTIxfDI1My43NXwyMC43ODky'>
    <rect x='48.60' y='20.79' width='248.32' height='232.96' />
  </clipPath>
</defs>
<rect x='48.60' y='20.79' width='248.32' height='232.96' style='stroke-width: 1.07; stroke: none; fill: #FFFFFF;' clip-path='url(#cpNDguNTk2NXwyOTYuOTIxfDI1My43NXwyMC43ODky)' />
<polyline points='48.60,186.65 296.92,186.65 ' style='stroke-width: 0.53; stroke: #EBEBEB; stroke-linecap: butt;' clip-path='url(#cpNDguNTk2NXwyOTYuOTIxfDI1My43NXwyMC43ODky)' />
<polyline points='48.60,117.58 296.92,117.58 ' style='stroke-width: 0.53; stroke: #EBEBEB; stroke-linecap: butt;' clip-path='url(#cpNDguNTk2NXwyOTYuOTIxfDI1My43NXwyMC43ODky)' />
<polyline points='48.60,48.50 296.92,48.50 ' style='stroke-width: 0.53; stroke: #EBEBEB; stroke-linecap: butt;' clip-path='url(#cpNDguNTk2NXwyOTYuOTIxfDI1My43NXwyMC43ODky)' />
<polyline points='60.98,253.75 60.98,20.79 ' style='stroke-width: 0.53; stroke: #EBEBEB; stroke-linecap: butt;' clip-path='url(#cpNDguNTk2NXwyOTYuOTIxfDI1My43NXwyMC43ODky)' />
<polyline points='133.80,253.75 133.80,20.79 ' style='stroke-width: 0.53; stroke: #EBEBEB; stroke-linecap: butt;' clip-path='url(#cpNDguNTk2NXwyOTYuOTIxfDI1My43NXwyMC43ODky)' />
<polyline points='206.62,253.75 206.62,20.79 ' style='stroke-width: 0.53; stroke: #EBEBEB; stroke-linecap: butt;' clip-path='url(#cpNDguNTk2NXwyOTYuOTIxfDI1My43NXwyMC43ODky)' />
<polyline points='279.44,253.75 279.44,20.79 ' style='stroke-width: 0.53; stroke: #EBEBEB; stroke-linecap: butt;' clip-path='url(#cpNDguNTk2NXwyOTYuOTIxfDI1My43NXwyMC43ODky)' />
<polyline points='48.60,221.18 296.92,221.18 ' style='stroke-width: 1.07; stroke: #EBEBEB; stroke-linecap: butt;' clip-path='url(#cpNDguNTk2NXwyOTYuOTIxfDI1My43NXwyMC43ODky)' />
<polyline points='48.60,152.11 296.92,152.11 ' style='stroke-width: 1.07; stroke: #EBEBEB; stroke-linecap: butt;' clip-path='url(#cpNDguNTk2NXwyOTYuOTIxfDI1My43NXwyMC43ODky)' />
<polyline points='48.60,83.04 296.92,83.04 ' style='stroke-width: 1.07; stroke: #EBEBEB; stroke-linecap: butt;' clip-path='url(#cpNDguNTk2NXwyOTYuOTIxfDI1My43NXwyMC43ODky)' />
<polyline points='97.39,253.75 97.39,20.79 ' style='stroke-width: 1.07; stroke: #EBEBEB; stroke-linecap: butt;' clip-path='url(#cpNDguNTk2NXwyOTYuOTIxfDI1My43NXwyMC43ODky)' />
<polyline points='170.21,253.75 170.21,20.79 ' style='stroke-width: 1.07; stroke: #EBEBEB; stroke-linecap: butt;' clip-path='url(#cpNDguNTk2NXwyOTYuOTIxfDI1My43NXwyMC43ODky)' />
<polyline points='243.03,253.75 243.03,20.79 ' style='stroke-width: 1.07; stroke: #EBEBEB; stroke-linecap: butt;' clip-path='url(#cpNDguNTk2NXwyOTYuOTIxfDI1My43NXwyMC43ODky)' />
<circle cx='60.98' cy='240.29' r='3.56pt' style='stroke-width: 0.71; stroke: #000000; stroke-opacity: 0.70; fill: #D1EEEE; fill-opacity: 0.70;' clip-path='url(#cpNDguNTk2NXwyOTYuOTIxfDI1My43NXwyMC43ODky)' />
<circle cx='97.39' cy='214.56' r='3.56pt' style='stroke-width: 0.71; stroke: #000000; stroke-opacity: 0.70; fill: #D1EEEE; fill-opacity: 0.70;' clip-path='url(#cpNDguNTk2NXwyOTYuOTIxfDI1My43NXwyMC43ODky)' />
<circle cx='152.00' cy='116.91' r='3.56pt' style='stroke-width: 0.71; stroke: #000000; stroke-opacity: 0.70; fill: #D1EEEE; fill-opacity: 0.70;' clip-path='url(#cpNDguNTk2NXwyOTYuOTIxfDI1My43NXwyMC43ODky)' />
<circle cx='206.62' cy='73.01' r='3.56pt' style='stroke-width: 0.71; stroke: #000000; stroke-opacity: 0.70; fill: #D1EEEE; fill-opacity: 0.70;' clip-path='url(#cpNDguNTk2NXwyOTYuOTIxfDI1My43NXwyMC43ODky)' />
<circle cx='243.03' cy='42.73' r='3.56pt' style='stroke-width: 0.71; stroke: #000000; stroke-opacity: 0.70; fill: #D1EEEE; fill-opacity: 0.70;' clip-path='url(#cpNDguNTk2NXwyOTYuOTIxfDI1My43NXwyMC43ODky)' />
<circle cx='279.44' cy='31.38' r='3.56pt' style='stroke-width: 0.71; stroke: #000000; stroke-opacity: 0.70; fill: #D1EEEE; fill-opacity: 0.70;' clip-path='url(#cpNDguNTk2NXwyOTYuOTIxfDI1My43NXwyMC43ODky)' />
<polyline points='59.88,243.16 61.02,242.29 62.15,241.40 63.29,240.50 64.42,239.59 65.56,238.66 66.69,237.72 67.82,236.76 68.96,235.80 70.09,234.82 71.23,233.82 72.36,232.81 73.50,231.79 74.63,230.75 75.77,229.71 76.90,228.64 78.03,227.56 79.17,226.47 80.30,225.37 81.44,224.25 82.57,223.11 83.71,221.97 84.84,220.81 85.98,219.63 87.11,218.44 88.24,217.24 89.38,216.02 90.51,214.79 91.65,213.54 92.78,212.29 93.92,211.01 95.05,209.73 96.19,208.43 97.32,207.12 98.45,205.79 99.59,204.45 100.72,203.10 101.86,201.73 102.99,200.36 104.13,198.97 105.26,197.56 106.40,196.15 107.53,194.72 108.66,193.28 109.80,191.83 110.93,190.36 112.07,188.89 113.20,187.40 114.34,185.91 115.47,184.40 116.60,182.88 117.74,181.36 118.87,179.82 120.01,178.27 121.14,176.71 122.28,175.15 123.41,173.57 124.55,171.99 125.68,170.40 126.81,168.80 127.95,167.20 129.08,165.58 130.22,163.97 131.35,162.34 132.49,160.71 133.62,159.07 134.76,157.43 135.89,155.79 137.02,154.13 138.16,152.48 139.29,150.82 140.43,149.16 141.56,147.50 142.70,145.83 143.83,144.17 144.97,142.50 146.10,140.83 147.23,139.16 148.37,137.50 149.50,135.83 150.64,134.16 151.77,132.50 152.91,130.84 154.04,129.18 155.18,127.52 156.31,125.87 157.44,124.22 158.58,122.58 159.71,120.94 160.85,119.31 161.98,117.68 163.12,116.06 164.25,114.45 165.38,112.85 166.52,111.25 167.65,109.66 168.79,108.08 169.92,106.51 171.06,104.95 172.19,103.41 173.33,101.87 174.46,100.34 175.59,98.83 176.73,97.32 177.86,95.83 179.00,94.35 180.13,92.89 181.27,91.44 182.40,90.00 183.54,88.58 184.67,87.18 185.80,85.78 186.94,84.41 188.07,83.05 189.21,81.70 190.34,80.38 191.48,79.07 192.61,77.77 193.75,76.50 194.88,75.24 196.01,74.00 197.15,72.78 198.28,71.58 199.42,70.39 200.55,69.23 201.69,68.08 202.82,66.95 203.95,65.84 205.09,64.76 206.22,63.69 207.36,62.64 208.49,61.61 209.63,60.60 210.76,59.61 211.90,58.65 213.03,57.70 214.16,56.77 215.30,55.86 216.43,54.98 217.57,54.11 218.70,53.27 219.84,52.44 220.97,51.64 222.11,50.85 223.24,50.09 224.37,49.35 225.51,48.63 226.64,47.93 227.78,47.25 228.91,46.58 230.05,45.94 231.18,45.32 232.32,44.72 233.45,44.14 234.58,43.58 235.72,43.04 236.85,42.52 237.99,42.02 239.12,41.54 240.26,41.07 241.39,40.63 242.53,40.20 243.66,39.80 244.79,39.41 245.93,39.04 247.06,38.68 248.20,38.35 249.33,38.04 250.47,37.74 251.60,37.46 252.73,37.19 253.87,36.95 255.00,36.72 256.14,36.50 257.27,36.31 258.41,36.12 259.54,35.96 260.68,35.81 261.81,35.68 262.94,35.56 264.08,35.46 265.21,35.37 266.35,35.30 267.48,35.24 268.62,35.19 269.75,35.16 270.89,35.15 272.02,35.14 273.15,35.15 274.29,35.18 275.42,35.21 276.56,35.26 277.69,35.32 278.83,35.40 279.96,35.48 281.10,35.58 282.23,35.69 283.36,35.81 284.50,35.94 285.63,36.08 ' style='stroke-width: 2.77; stroke: #1B9E77; stroke-linecap: butt;' clip-path='url(#cpNDguNTk2NXwyOTYuOTIxfDI1My43NXwyMC43ODky)' />
<g clip-path='url(#cpNDguNTk2NXwyOTYuOTIxfDI1My43NXwyMC43ODky)'><text x='60.98' y='110.74' style='font-size: 8.54px; font-style: italic; font-family: Arial;' textLength='60.01px' lengthAdjust='spacingAndGlyphs'>R^2 sch= 0.99 </text></g>
<g clip-path='url(#cpNDguNTk2NXwyOTYuOTIxfDI1My43NXwyMC43ODky)'><text x='60.98' y='123.03' style='font-size: 8.54px; font-style: italic; font-family: Arial;' textLength='55.29px' lengthAdjust='spacingAndGlyphs'>E sch= 0.872 </text></g>
<g clip-path='url(#cpNDguNTk2NXwyOTYuOTIxfDI1My43NXwyMC43ODky)'><text x='60.98' y='135.32' style='font-size: 8.54px; font-style: italic; font-family: Arial;' textLength='59.78px' lengthAdjust='spacingAndGlyphs'>AIC sch= -6.78</text></g>
<rect x='48.60' y='20.79' width='248.32' height='232.96' style='stroke-width: 1.07; stroke: #333333;' clip-path='url(#cpNDguNTk2NXwyOTYuOTIxfDI1My43NXwyMC43ODky)' />
<defs>
  <clipPath id='cpMHwzMDIuNHwyODh8MA=='>
    <rect x='0.00' y='0.00' width='302.40' height='288.00' />
  </clipPath>
</defs>
<g clip-path='url(#cpMHwzMDIuNHwyODh8MA==)'><text x='20.65' y='224.40' style='font-size: 8.80px; fill: #4D4D4D; font-family: Arial;' textLength='23.02px' lengthAdjust='spacingAndGlyphs'>1e-05</text></g>
<g clip-path='url(#cpMHwzMDIuNHwyODh8MA==)'><text x='20.65' y='155.33' style='font-size: 8.80px; fill: #4D4D4D; font-family: Arial;' textLength='23.02px' lengthAdjust='spacingAndGlyphs'>2e-05</text></g>
<g clip-path='url(#cpMHwzMDIuNHwyODh8MA==)'><text x='20.65' y='86.26' style='font-size: 8.80px; fill: #4D4D4D; font-family: Arial;' textLength='23.02px' lengthAdjust='spacingAndGlyphs'>3e-05</text></g>
<polyline points='45.86,221.18 48.60,221.18 ' style='stroke-width: 1.07; stroke: #333333; stroke-linecap: butt;' clip-path='url(#cpMHwzMDIuNHwyODh8MA==)' />
<polyline points='45.86,152.11 48.60,152.11 ' style='stroke-width: 1.07; stroke: #333333; stroke-linecap: butt;' clip-path='url(#cpMHwzMDIuNHwyODh8MA==)' />
<polyline points='45.86,83.04 48.60,83.04 ' style='stroke-width: 1.07; stroke: #333333; stroke-linecap: butt;' clip-path='url(#cpMHwzMDIuNHwyODh8MA==)' />
<polyline points='97.39,256.49 97.39,253.75 ' style='stroke-width: 1.07; stroke: #333333; stroke-linecap: butt;' clip-path='url(#cpMHwzMDIuNHwyODh8MA==)' />
<polyline points='170.21,256.49 170.21,253.75 ' style='stroke-width: 1.07; stroke: #333333; stroke-linecap: butt;' clip-path='url(#cpMHwzMDIuNHwyODh8MA==)' />
<polyline points='243.03,256.49 243.03,253.75 ' style='stroke-width: 1.07; stroke: #333333; stroke-linecap: butt;' clip-path='url(#cpMHwzMDIuNHwyODh8MA==)' />
<g clip-path='url(#cpMHwzMDIuNHwyODh8MA==)'><text x='92.38' y='265.12' style='font-size: 8.80px; fill: #4D4D4D; font-family: Arial;' textLength='10.01px' lengthAdjust='spacingAndGlyphs'>10</text></g>
<g clip-path='url(#cpMHwzMDIuNHwyODh8MA==)'><text x='165.20' y='265.12' style='font-size: 8.80px; fill: #4D4D4D; font-family: Arial;' textLength='10.01px' lengthAdjust='spacingAndGlyphs'>20</text></g>
<g clip-path='url(#cpMHwzMDIuNHwyODh8MA==)'><text x='238.03' y='265.12' style='font-size: 8.80px; fill: #4D4D4D; font-family: Arial;' textLength='10.01px' lengthAdjust='spacingAndGlyphs'>30</text></g>
<g clip-path='url(#cpMHwzMDIuNHwyODh8MA==)'><text x='133.81' y='277.88' style='font-size: 10.00px; font-family: Arial;' textLength='63.35px' lengthAdjust='spacingAndGlyphs'>Temperature (</text></g>
<g clip-path='url(#cpMHwzMDIuNHwyODh8MA==)'><text x='197.16' y='277.88' style='font-size: 10.00px; font-family: Symbol;' textLength='4.00px' lengthAdjust='spacingAndGlyphs'>°</text></g>
<g clip-path='url(#cpMHwzMDIuNHwyODh8MA==)'><text x='201.16' y='277.88' style='font-size: 10.00px; font-family: Arial;' textLength='7.22px' lengthAdjust='spacingAndGlyphs'>C</text></g>
<g clip-path='url(#cpMHwzMDIuNHwyODh8MA==)'><text x='208.38' y='277.88' style='font-size: 10.00px; font-family: Arial;' textLength='3.33px' lengthAdjust='spacingAndGlyphs'>)</text></g>
<g clip-path='url(#cpMHwzMDIuNHwyODh8MA==)'><text transform='translate(12.64,178.96) rotate(-90)' style='font-size: 10.00px; font-family: Arial;' textLength='83.39px' lengthAdjust='spacingAndGlyphs'>net photosynthesis</text></g>
<g clip-path='url(#cpMHwzMDIuNHwyODh8MA==)'><text x='48.60' y='14.07' style='font-size: 12.00px; font-family: Arial;' textLength='99.40px' lengthAdjust='spacingAndGlyphs'>Helianthus annuus</text></g>
</svg>
