<?xml version='1.0' encoding='UTF-8' ?>
<svg xmlns='http://www.w3.org/2000/svg' xmlns:xlink='http://www.w3.org/1999/xlink' viewBox='0 0 302.40 288.00'>
<defs>
  <style type='text/css'><![CDATA[
    line, polyline, path, rect, circle {
      fill: none;
      stroke: #000000;
      stroke-linecap: round;
      stroke-linejoin: round;
      stroke-miterlimit: 10.00;
    }
  ]]></style>
</defs>
<rect width='100%' height='100%' style='stroke: none; fill: #FFFFFF;'/>
<rect x='0.00' y='0.00' width='302.40' height='288.00' style='stroke-width: 1.07; stroke: #FFFFFF; fill: #FFFFFF;' />
<defs>
  <clipPath id='cpNTUuOTYxN3wyOTYuOTIxfDI1My43NXwyMy4xNzk4'>
    <rect x='55.96' y='23.18' width='240.96' height='230.57' />
  </clipPath>
</defs>
<rect x='55.96' y='23.18' width='240.96' height='230.57' style='stroke-width: 1.07; stroke: none; fill: #FFFFFF;' clip-path='url(#cpNTUuOTYxN3wyOTYuOTIxfDI1My43NXwyMy4xNzk4)' />
<polyline points='55.96,210.99 296.92,210.99 ' style='stroke-width: 0.53; stroke: #EBEBEB; stroke-linecap: butt;' clip-path='url(#cpNTUuOTYxN3wyOTYuOTIxfDI1My43NXwyMy4xNzk4)' />
<polyline points='55.96,144.12 296.92,144.12 ' style='stroke-width: 0.53; stroke: #EBEBEB; stroke-linecap: butt;' clip-path='url(#cpNTUuOTYxN3wyOTYuOTIxfDI1My43NXwyMy4xNzk4)' />
<polyline points='55.96,77.25 296.92,77.25 ' style='stroke-width: 0.53; stroke: #EBEBEB; stroke-linecap: butt;' clip-path='url(#cpNTUuOTYxN3wyOTYuOTIxfDI1My43NXwyMy4xNzk4)' />
<polyline points='94.56,253.75 94.56,23.18 ' style='stroke-width: 0.53; stroke: #EBEBEB; stroke-linecap: butt;' clip-path='url(#cpNTUuOTYxN3wyOTYuOTIxfDI1My43NXwyMy4xNzk4)' />
<polyline points='146.71,253.75 146.71,23.18 ' style='stroke-width: 0.53; stroke: #EBEBEB; stroke-linecap: butt;' clip-path='url(#cpNTUuOTYxN3wyOTYuOTIxfDI1My43NXwyMy4xNzk4)' />
<polyline points='198.87,253.75 198.87,23.18 ' style='stroke-width: 0.53; stroke: #EBEBEB; stroke-linecap: butt;' clip-path='url(#cpNTUuOTYxN3wyOTYuOTIxfDI1My43NXwyMy4xNzk4)' />
<polyline points='251.02,253.75 251.02,23.18 ' style='stroke-width: 0.53; stroke: #EBEBEB; stroke-linecap: butt;' clip-path='url(#cpNTUuOTYxN3wyOTYuOTIxfDI1My43NXwyMy4xNzk4)' />
<polyline points='55.96,244.42 296.92,244.42 ' style='stroke-width: 1.07; stroke: #EBEBEB; stroke-linecap: butt;' clip-path='url(#cpNTUuOTYxN3wyOTYuOTIxfDI1My43NXwyMy4xNzk4)' />
<polyline points='55.96,177.55 296.92,177.55 ' style='stroke-width: 1.07; stroke: #EBEBEB; stroke-linecap: butt;' clip-path='url(#cpNTUuOTYxN3wyOTYuOTIxfDI1My43NXwyMy4xNzk4)' />
<polyline points='55.96,110.68 296.92,110.68 ' style='stroke-width: 1.07; stroke: #EBEBEB; stroke-linecap: butt;' clip-path='url(#cpNTUuOTYxN3wyOTYuOTIxfDI1My43NXwyMy4xNzk4)' />
<polyline points='55.96,43.82 296.92,43.82 ' style='stroke-width: 1.07; stroke: #EBEBEB; stroke-linecap: butt;' clip-path='url(#cpNTUuOTYxN3wyOTYuOTIxfDI1My43NXwyMy4xNzk4)' />
<polyline points='68.48,253.75 68.48,23.18 ' style='stroke-width: 1.07; stroke: #EBEBEB; stroke-linecap: butt;' clip-path='url(#cpNTUuOTYxN3wyOTYuOTIxfDI1My43NXwyMy4xNzk4)' />
<polyline points='120.63,253.75 120.63,23.18 ' style='stroke-width: 1.07; stroke: #EBEBEB; stroke-linecap: butt;' clip-path='url(#cpNTUuOTYxN3wyOTYuOTIxfDI1My43NXwyMy4xNzk4)' />
<polyline points='172.79,253.75 172.79,23.18 ' style='stroke-width: 1.07; stroke: #EBEBEB; stroke-linecap: butt;' clip-path='url(#cpNTUuOTYxN3wyOTYuOTIxfDI1My43NXwyMy4xNzk4)' />
<polyline points='224.95,253.75 224.95,23.18 ' style='stroke-width: 1.07; stroke: #EBEBEB; stroke-linecap: butt;' clip-path='url(#cpNTUuOTYxN3wyOTYuOTIxfDI1My43NXwyMy4xNzk4)' />
<polyline points='277.10,253.75 277.10,23.18 ' style='stroke-width: 1.07; stroke: #EBEBEB; stroke-linecap: butt;' clip-path='url(#cpNTUuOTYxN3wyOTYuOTIxfDI1My43NXwyMy4xNzk4)' />
<circle cx='68.48' cy='241.44' r='3.56pt' style='stroke-width: 0.71; stroke: #000000; stroke-opacity: 0.70; fill: #D1EEEE; fill-opacity: 0.70;' clip-path='url(#cpNTUuOTYxN3wyOTYuOTIxfDI1My43NXwyMy4xNzk4)' />
<circle cx='120.63' cy='212.60' r='3.56pt' style='stroke-width: 0.71; stroke: #000000; stroke-opacity: 0.70; fill: #D1EEEE; fill-opacity: 0.70;' clip-path='url(#cpNTUuOTYxN3wyOTYuOTIxfDI1My43NXwyMy4xNzk4)' />
<circle cx='172.79' cy='160.69' r='3.56pt' style='stroke-width: 0.71; stroke: #000000; stroke-opacity: 0.70; fill: #D1EEEE; fill-opacity: 0.70;' clip-path='url(#cpNTUuOTYxN3wyOTYuOTIxfDI1My43NXwyMy4xNzk4)' />
<circle cx='224.95' cy='97.89' r='3.56pt' style='stroke-width: 0.71; stroke: #000000; stroke-opacity: 0.70; fill: #D1EEEE; fill-opacity: 0.70;' clip-path='url(#cpNTUuOTYxN3wyOTYuOTIxfDI1My43NXwyMy4xNzk4)' />
<circle cx='277.10' cy='34.45' r='3.56pt' style='stroke-width: 0.71; stroke: #000000; stroke-opacity: 0.70; fill: #D1EEEE; fill-opacity: 0.70;' clip-path='url(#cpNTUuOTYxN3wyOTYuOTIxfDI1My43NXwyMy4xNzk4)' />
<polyline points='66.91,243.27 68.02,242.70 69.12,242.12 70.22,241.54 71.32,240.95 72.42,240.36 73.52,239.77 74.62,239.17 75.72,238.56 76.82,237.95 77.92,237.34 79.02,236.72 80.12,236.10 81.22,235.47 82.33,234.84 83.43,234.20 84.53,233.56 85.63,232.91 86.73,232.26 87.83,231.61 88.93,230.94 90.03,230.28 91.13,229.61 92.23,228.93 93.33,228.25 94.43,227.56 95.53,226.87 96.64,226.17 97.74,225.47 98.84,224.76 99.94,224.05 101.04,223.33 102.14,222.60 103.24,221.87 104.34,221.14 105.44,220.40 106.54,219.65 107.64,218.90 108.74,218.14 109.84,217.38 110.95,216.61 112.05,215.84 113.15,215.06 114.25,214.27 115.35,213.48 116.45,212.68 117.55,211.88 118.65,211.07 119.75,210.25 120.85,209.43 121.95,208.60 123.05,207.77 124.15,206.93 125.26,206.09 126.36,205.23 127.46,204.37 128.56,203.51 129.66,202.64 130.76,201.76 131.86,200.88 132.96,199.99 134.06,199.09 135.16,198.18 136.26,197.27 137.36,196.36 138.46,195.43 139.57,194.50 140.67,193.57 141.77,192.62 142.87,191.67 143.97,190.71 145.07,189.75 146.17,188.78 147.27,187.80 148.37,186.81 149.47,185.82 150.57,184.82 151.67,183.81 152.77,182.79 153.88,181.77 154.98,180.74 156.08,179.70 157.18,178.66 158.28,177.61 159.38,176.55 160.48,175.48 161.58,174.40 162.68,173.32 163.78,172.23 164.88,171.13 165.98,170.02 167.08,168.91 168.19,167.79 169.29,166.66 170.39,165.52 171.49,164.37 172.59,163.22 173.69,162.05 174.79,160.88 175.89,159.70 176.99,158.51 178.09,157.32 179.19,156.11 180.29,154.90 181.39,153.68 182.50,152.45 183.60,151.21 184.70,149.96 185.80,148.70 186.90,147.43 188.00,146.16 189.10,144.87 190.20,143.58 191.30,142.28 192.40,140.97 193.50,139.65 194.60,138.32 195.70,136.98 196.81,135.63 197.91,134.27 199.01,132.90 200.11,131.53 201.21,130.14 202.31,128.74 203.41,127.34 204.51,125.92 205.61,124.50 206.71,123.06 207.81,121.62 208.91,120.16 210.01,118.70 211.12,117.23 212.22,115.74 213.32,114.25 214.42,112.74 215.52,111.23 216.62,109.71 217.72,108.17 218.82,106.63 219.92,105.07 221.02,103.51 222.12,101.94 223.22,100.35 224.32,98.76 225.43,97.16 226.53,95.55 227.63,93.93 228.73,92.30 229.83,90.66 230.93,89.01 232.03,87.36 233.13,85.69 234.23,84.02 235.33,82.34 236.43,80.66 237.53,78.97 238.63,77.27 239.74,75.57 240.84,73.86 241.94,72.15 243.04,70.44 244.14,68.72 245.24,67.01 246.34,65.30 247.44,63.59 248.54,61.89 249.64,60.19 250.74,58.50 251.84,56.83 252.94,55.17 254.05,53.52 255.15,51.90 256.25,50.30 257.35,48.74 258.45,47.20 259.55,45.71 260.65,44.26 261.75,42.87 262.85,41.53 263.95,40.26 265.05,39.07 266.15,37.97 267.25,36.96 268.36,36.06 269.46,35.28 270.56,34.64 271.66,34.14 272.76,33.81 273.86,33.66 274.96,33.71 276.06,33.98 277.16,34.48 278.26,35.25 279.36,36.29 280.46,37.63 281.56,39.29 282.67,41.29 283.77,43.66 284.87,46.40 285.97,49.54 ' style='stroke-width: 2.77; stroke: #1B9E77; stroke-linecap: butt;' clip-path='url(#cpNTUuOTYxN3wyOTYuOTIxfDI1My43NXwyMy4xNzk4)' />
<g clip-path='url(#cpNTUuOTYxN3wyOTYuOTIxfDI1My43NXwyMy4xNzk4)'><text x='68.48' y='140.34' style='font-size: 8.54px; font-style: italic; font-family: Arial;' textLength='60.01px' lengthAdjust='spacingAndGlyphs'>R^2 sch= 1.00 </text></g>
<g clip-path='url(#cpNTUuOTYxN3wyOTYuOTIxfDI1My43NXwyMy4xNzk4)'><text x='68.48' y='152.63' style='font-size: 8.54px; font-style: italic; font-family: Arial;' textLength='55.29px' lengthAdjust='spacingAndGlyphs'>E sch= 0.568 </text></g>
<g clip-path='url(#cpNTUuOTYxN3wyOTYuOTIxfDI1My43NXwyMy4xNzk4)'><text x='68.48' y='164.92' style='font-size: 8.54px; font-style: italic; font-family: Arial;' textLength='59.78px' lengthAdjust='spacingAndGlyphs'>AIC sch= -16.9</text></g>
<rect x='55.96' y='23.18' width='240.96' height='230.57' style='stroke-width: 1.07; stroke: #333333;' clip-path='url(#cpNTUuOTYxN3wyOTYuOTIxfDI1My43NXwyMy4xNzk4)' />
<defs>
  <clipPath id='cpMHwzMDIuNHwyODh8MA=='>
    <rect x='0.00' y='0.00' width='302.40' height='288.00' />
  </clipPath>
</defs>
<g clip-path='url(#cpMHwzMDIuNHwyODh8MA==)'><text x='20.51' y='247.64' style='font-size: 8.80px; fill: #4D4D4D; font-family: Arial;' textLength='30.52px' lengthAdjust='spacingAndGlyphs'>5.0e-06</text></g>
<g clip-path='url(#cpMHwzMDIuNHwyODh8MA==)'><text x='20.51' y='180.77' style='font-size: 8.80px; fill: #4D4D4D; font-family: Arial;' textLength='30.52px' lengthAdjust='spacingAndGlyphs'>1.0e-05</text></g>
<g clip-path='url(#cpMHwzMDIuNHwyODh8MA==)'><text x='20.51' y='113.90' style='font-size: 8.80px; fill: #4D4D4D; font-family: Arial;' textLength='30.52px' lengthAdjust='spacingAndGlyphs'>1.5e-05</text></g>
<g clip-path='url(#cpMHwzMDIuNHwyODh8MA==)'><text x='20.51' y='47.03' style='font-size: 8.80px; fill: #4D4D4D; font-family: Arial;' textLength='30.52px' lengthAdjust='spacingAndGlyphs'>2.0e-05</text></g>
<polyline points='53.22,244.42 55.96,244.42 ' style='stroke-width: 1.07; stroke: #333333; stroke-linecap: butt;' clip-path='url(#cpMHwzMDIuNHwyODh8MA==)' />
<polyline points='53.22,177.55 55.96,177.55 ' style='stroke-width: 1.07; stroke: #333333; stroke-linecap: butt;' clip-path='url(#cpMHwzMDIuNHwyODh8MA==)' />
<polyline points='53.22,110.68 55.96,110.68 ' style='stroke-width: 1.07; stroke: #333333; stroke-linecap: butt;' clip-path='url(#cpMHwzMDIuNHwyODh8MA==)' />
<polyline points='53.22,43.82 55.96,43.82 ' style='stroke-width: 1.07; stroke: #333333; stroke-linecap: butt;' clip-path='url(#cpMHwzMDIuNHwyODh8MA==)' />
<polyline points='68.48,256.49 68.48,253.75 ' style='stroke-width: 1.07; stroke: #333333; stroke-linecap: butt;' clip-path='url(#cpMHwzMDIuNHwyODh8MA==)' />
<polyline points='120.63,256.49 120.63,253.75 ' style='stroke-width: 1.07; stroke: #333333; stroke-linecap: butt;' clip-path='url(#cpMHwzMDIuNHwyODh8MA==)' />
<polyline points='172.79,256.49 172.79,253.75 ' style='stroke-width: 1.07; stroke: #333333; stroke-linecap: butt;' clip-path='url(#cpMHwzMDIuNHwyODh8MA==)' />
<polyline points='224.95,256.49 224.95,253.75 ' style='stroke-width: 1.07; stroke: #333333; stroke-linecap: butt;' clip-path='url(#cpMHwzMDIuNHwyODh8MA==)' />
<polyline points='277.10,256.49 277.10,253.75 ' style='stroke-width: 1.07; stroke: #333333; stroke-linecap: butt;' clip-path='url(#cpMHwzMDIuNHwyODh8MA==)' />
<g clip-path='url(#cpMHwzMDIuNHwyODh8MA==)'><text x='63.47' y='265.12' style='font-size: 8.80px; fill: #4D4D4D; font-family: Arial;' textLength='10.01px' lengthAdjust='spacingAndGlyphs'>15</text></g>
<g clip-path='url(#cpMHwzMDIuNHwyODh8MA==)'><text x='115.63' y='265.12' style='font-size: 8.80px; fill: #4D4D4D; font-family: Arial;' textLength='10.01px' lengthAdjust='spacingAndGlyphs'>20</text></g>
<g clip-path='url(#cpMHwzMDIuNHwyODh8MA==)'><text x='167.78' y='265.12' style='font-size: 8.80px; fill: #4D4D4D; font-family: Arial;' textLength='10.01px' lengthAdjust='spacingAndGlyphs'>25</text></g>
<g clip-path='url(#cpMHwzMDIuNHwyODh8MA==)'><text x='219.94' y='265.12' style='font-size: 8.80px; fill: #4D4D4D; font-family: Arial;' textLength='10.01px' lengthAdjust='spacingAndGlyphs'>30</text></g>
<g clip-path='url(#cpMHwzMDIuNHwyODh8MA==)'><text x='272.10' y='265.12' style='font-size: 8.80px; fill: #4D4D4D; font-family: Arial;' textLength='10.01px' lengthAdjust='spacingAndGlyphs'>35</text></g>
<g clip-path='url(#cpMHwzMDIuNHwyODh8MA==)'><text x='137.49' y='277.88' style='font-size: 10.00px; font-family: Arial;' textLength='63.35px' lengthAdjust='spacingAndGlyphs'>Temperature (</text></g>
<g clip-path='url(#cpMHwzMDIuNHwyODh8MA==)'><text x='200.84' y='277.88' style='font-size: 10.00px; font-family: Symbol;' textLength='4.00px' lengthAdjust='spacingAndGlyphs'>°</text></g>
<g clip-path='url(#cpMHwzMDIuNHwyODh8MA==)'><text x='204.84' y='277.88' style='font-size: 10.00px; font-family: Arial;' textLength='7.22px' lengthAdjust='spacingAndGlyphs'>C</text></g>
<g clip-path='url(#cpMHwzMDIuNHwyODh8MA==)'><text x='212.06' y='277.88' style='font-size: 10.00px; font-family: Arial;' textLength='3.33px' lengthAdjust='spacingAndGlyphs'>)</text></g>
<g clip-path='url(#cpMHwzMDIuNHwyODh8MA==)'><text transform='translate(12.64,171.81) rotate(-90)' style='font-size: 10.00px; font-family: Arial;' textLength='66.70px' lengthAdjust='spacingAndGlyphs'>respiration rate</text></g>
<g clip-path='url(#cpMHwzMDIuNHwyODh8MA==)'><text x='55.96' y='14.07' style='font-size: 12.00px; font-family: Arial;' textLength='118.74px' lengthAdjust='spacingAndGlyphs'>Ledum groenlandicum</text></g>
</svg>
