<?xml version='1.0' encoding='UTF-8' ?>
<svg xmlns='http://www.w3.org/2000/svg' xmlns:xlink='http://www.w3.org/1999/xlink' viewBox='0 0 302.40 288.00'>
<defs>
  <style type='text/css'><![CDATA[
    line, polyline, path, rect, circle {
      fill: none;
      stroke: #000000;
      stroke-linecap: round;
      stroke-linejoin: round;
      stroke-miterlimit: 10.00;
    }
  ]]></style>
</defs>
<rect width='100%' height='100%' style='stroke: none; fill: #FFFFFF;'/>
<rect x='-0.00' y='0.00' width='302.40' height='288.00' style='stroke-width: 1.07; stroke: #FFFFFF; fill: #FFFFFF;' />
<defs>
  <clipPath id='cpNjEuMTA3N3wyOTYuOTIxfDI1My43NXwyMy4wMzky'>
    <rect x='61.11' y='23.04' width='235.81' height='230.71' />
  </clipPath>
</defs>
<rect x='61.11' y='23.04' width='235.81' height='230.71' style='stroke-width: 1.07; stroke: none; fill: #FFFFFF;' clip-path='url(#cpNjEuMTA3N3wyOTYuOTIxfDI1My43NXwyMy4wMzky)' />
<polyline points='61.11,233.88 296.92,233.88 ' style='stroke-width: 0.53; stroke: #EBEBEB; stroke-linecap: butt;' clip-path='url(#cpNjEuMTA3N3wyOTYuOTIxfDI1My43NXwyMy4wMzky)' />
<polyline points='61.11,187.18 296.92,187.18 ' style='stroke-width: 0.53; stroke: #EBEBEB; stroke-linecap: butt;' clip-path='url(#cpNjEuMTA3N3wyOTYuOTIxfDI1My43NXwyMy4wMzky)' />
<polyline points='61.11,140.48 296.92,140.48 ' style='stroke-width: 0.53; stroke: #EBEBEB; stroke-linecap: butt;' clip-path='url(#cpNjEuMTA3N3wyOTYuOTIxfDI1My43NXwyMy4wMzky)' />
<polyline points='61.11,93.78 296.92,93.78 ' style='stroke-width: 0.53; stroke: #EBEBEB; stroke-linecap: butt;' clip-path='url(#cpNjEuMTA3N3wyOTYuOTIxfDI1My43NXwyMy4wMzky)' />
<polyline points='61.11,47.08 296.92,47.08 ' style='stroke-width: 0.53; stroke: #EBEBEB; stroke-linecap: butt;' clip-path='url(#cpNjEuMTA3N3wyOTYuOTIxfDI1My43NXwyMy4wMzky)' />
<polyline points='98.88,253.75 98.88,23.04 ' style='stroke-width: 0.53; stroke: #EBEBEB; stroke-linecap: butt;' clip-path='url(#cpNjEuMTA3N3wyOTYuOTIxfDI1My43NXwyMy4wMzky)' />
<polyline points='149.92,253.75 149.92,23.04 ' style='stroke-width: 0.53; stroke: #EBEBEB; stroke-linecap: butt;' clip-path='url(#cpNjEuMTA3N3wyOTYuOTIxfDI1My43NXwyMy4wMzky)' />
<polyline points='200.96,253.75 200.96,23.04 ' style='stroke-width: 0.53; stroke: #EBEBEB; stroke-linecap: butt;' clip-path='url(#cpNjEuMTA3N3wyOTYuOTIxfDI1My43NXwyMy4wMzky)' />
<polyline points='252.00,253.75 252.00,23.04 ' style='stroke-width: 0.53; stroke: #EBEBEB; stroke-linecap: butt;' clip-path='url(#cpNjEuMTA3N3wyOTYuOTIxfDI1My43NXwyMy4wMzky)' />
<polyline points='61.11,210.53 296.92,210.53 ' style='stroke-width: 1.07; stroke: #EBEBEB; stroke-linecap: butt;' clip-path='url(#cpNjEuMTA3N3wyOTYuOTIxfDI1My43NXwyMy4wMzky)' />
<polyline points='61.11,163.83 296.92,163.83 ' style='stroke-width: 1.07; stroke: #EBEBEB; stroke-linecap: butt;' clip-path='url(#cpNjEuMTA3N3wyOTYuOTIxfDI1My43NXwyMy4wMzky)' />
<polyline points='61.11,117.13 296.92,117.13 ' style='stroke-width: 1.07; stroke: #EBEBEB; stroke-linecap: butt;' clip-path='url(#cpNjEuMTA3N3wyOTYuOTIxfDI1My43NXwyMy4wMzky)' />
<polyline points='61.11,70.43 296.92,70.43 ' style='stroke-width: 1.07; stroke: #EBEBEB; stroke-linecap: butt;' clip-path='url(#cpNjEuMTA3N3wyOTYuOTIxfDI1My43NXwyMy4wMzky)' />
<polyline points='61.11,23.73 296.92,23.73 ' style='stroke-width: 1.07; stroke: #EBEBEB; stroke-linecap: butt;' clip-path='url(#cpNjEuMTA3N3wyOTYuOTIxfDI1My43NXwyMy4wMzky)' />
<polyline points='73.36,253.75 73.36,23.04 ' style='stroke-width: 1.07; stroke: #EBEBEB; stroke-linecap: butt;' clip-path='url(#cpNjEuMTA3N3wyOTYuOTIxfDI1My43NXwyMy4wMzky)' />
<polyline points='124.40,253.75 124.40,23.04 ' style='stroke-width: 1.07; stroke: #EBEBEB; stroke-linecap: butt;' clip-path='url(#cpNjEuMTA3N3wyOTYuOTIxfDI1My43NXwyMy4wMzky)' />
<polyline points='175.44,253.75 175.44,23.04 ' style='stroke-width: 1.07; stroke: #EBEBEB; stroke-linecap: butt;' clip-path='url(#cpNjEuMTA3N3wyOTYuOTIxfDI1My43NXwyMy4wMzky)' />
<polyline points='226.48,253.75 226.48,23.04 ' style='stroke-width: 1.07; stroke: #EBEBEB; stroke-linecap: butt;' clip-path='url(#cpNjEuMTA3N3wyOTYuOTIxfDI1My43NXwyMy4wMzky)' />
<polyline points='277.52,253.75 277.52,23.04 ' style='stroke-width: 1.07; stroke: #EBEBEB; stroke-linecap: butt;' clip-path='url(#cpNjEuMTA3N3wyOTYuOTIxfDI1My43NXwyMy4wMzky)' />
<circle cx='73.36' cy='33.53' r='3.56pt' style='stroke-width: 0.71; stroke: #000000; stroke-opacity: 0.70; fill: #D1EEEE; fill-opacity: 0.70;' clip-path='url(#cpNjEuMTA3N3wyOTYuOTIxfDI1My43NXwyMy4wMzky)' />
<circle cx='124.40' cy='61.96' r='3.56pt' style='stroke-width: 0.71; stroke: #000000; stroke-opacity: 0.70; fill: #D1EEEE; fill-opacity: 0.70;' clip-path='url(#cpNjEuMTA3N3wyOTYuOTIxfDI1My43NXwyMy4wMzky)' />
<circle cx='175.44' cy='83.60' r='3.56pt' style='stroke-width: 0.71; stroke: #000000; stroke-opacity: 0.70; fill: #D1EEEE; fill-opacity: 0.70;' clip-path='url(#cpNjEuMTA3N3wyOTYuOTIxfDI1My43NXwyMy4wMzky)' />
<circle cx='226.48' cy='151.89' r='3.56pt' style='stroke-width: 0.71; stroke: #000000; stroke-opacity: 0.70; fill: #D1EEEE; fill-opacity: 0.70;' clip-path='url(#cpNjEuMTA3N3wyOTYuOTIxfDI1My43NXwyMy4wMzky)' />
<circle cx='277.52' cy='237.69' r='3.56pt' style='stroke-width: 0.71; stroke: #000000; stroke-opacity: 0.70; fill: #D1EEEE; fill-opacity: 0.70;' clip-path='url(#cpNjEuMTA3N3wyOTYuOTIxfDI1My43NXwyMy4wMzky)' />
<polyline points='71.83,52.67 72.90,52.67 73.98,52.68 75.06,52.69 76.14,52.70 77.21,52.71 78.29,52.72 79.37,52.73 80.44,52.74 81.52,52.75 82.60,52.77 83.68,52.78 84.75,52.79 85.83,52.81 86.91,52.82 87.99,52.84 89.06,52.86 90.14,52.87 91.22,52.89 92.29,52.91 93.37,52.93 94.45,52.96 95.53,52.98 96.60,53.00 97.68,53.03 98.76,53.06 99.84,53.09 100.91,53.12 101.99,53.15 103.07,53.18 104.14,53.22 105.22,53.25 106.30,53.29 107.38,53.33 108.45,53.37 109.53,53.42 110.61,53.47 111.69,53.52 112.76,53.57 113.84,53.63 114.92,53.68 115.99,53.74 117.07,53.81 118.15,53.88 119.23,53.95 120.30,54.02 121.38,54.10 122.46,54.18 123.54,54.27 124.61,54.36 125.69,54.46 126.77,54.56 127.84,54.67 128.92,54.78 130.00,54.89 131.08,55.02 132.15,55.15 133.23,55.28 134.31,55.42 135.38,55.57 136.46,55.73 137.54,55.90 138.62,56.07 139.69,56.25 140.77,56.44 141.85,56.64 142.93,56.85 144.00,57.07 145.08,57.30 146.16,57.55 147.23,57.80 148.31,58.07 149.39,58.35 150.47,58.64 151.54,58.95 152.62,59.27 153.70,59.60 154.78,59.96 155.85,60.33 156.93,60.71 158.01,61.12 159.08,61.54 160.16,61.98 161.24,62.44 162.32,62.93 163.39,63.43 164.47,63.96 165.55,64.52 166.63,65.09 167.70,65.70 168.78,66.32 169.86,66.98 170.93,67.66 172.01,68.38 173.09,69.12 174.17,69.90 175.24,70.70 176.32,71.54 177.40,72.42 178.48,73.33 179.55,74.27 180.63,75.25 181.71,76.27 182.78,77.33 183.86,78.43 184.94,79.57 186.02,80.75 187.09,81.97 188.17,83.23 189.25,84.54 190.33,85.89 191.40,87.29 192.48,88.73 193.56,90.22 194.63,91.75 195.71,93.33 196.79,94.96 197.87,96.63 198.94,98.35 200.02,100.11 201.10,101.92 202.18,103.77 203.25,105.67 204.33,107.61 205.41,109.60 206.48,111.63 207.56,113.69 208.64,115.80 209.72,117.95 210.79,120.13 211.87,122.34 212.95,124.59 214.03,126.87 215.10,129.18 216.18,131.52 217.26,133.88 218.33,136.26 219.41,138.66 220.49,141.08 221.57,143.51 222.64,145.96 223.72,148.41 224.80,150.87 225.88,153.33 226.95,155.79 228.03,158.25 229.11,160.70 230.18,163.15 231.26,165.58 232.34,168.00 233.42,170.40 234.49,172.79 235.57,175.15 236.65,177.49 237.72,179.80 238.80,182.09 239.88,184.34 240.96,186.56 242.03,188.75 243.11,190.91 244.19,193.02 245.27,195.10 246.34,197.13 247.42,199.13 248.50,201.08 249.57,203.00 250.65,204.86 251.73,206.69 252.81,208.47 253.88,210.20 254.96,211.89 256.04,213.54 257.12,215.14 258.19,216.69 259.27,218.20 260.35,219.67 261.42,221.09 262.50,222.47 263.58,223.81 264.66,225.10 265.73,226.35 266.81,227.56 267.89,228.73 268.97,229.86 270.04,230.95 271.12,232.01 272.20,233.02 273.27,234.00 274.35,234.95 275.43,235.86 276.51,236.73 277.58,237.58 278.66,238.39 279.74,239.17 280.82,239.92 281.89,240.65 282.97,241.34 284.05,242.01 285.12,242.65 286.20,243.26 ' style='stroke-width: 2.77; stroke: #1B9E77; stroke-linecap: butt;' clip-path='url(#cpNjEuMTA3N3wyOTYuOTIxfDI1My43NXwyMy4wMzky)' />
<g clip-path='url(#cpNjEuMTA3N3wyOTYuOTIxfDI1My43NXwyMy4wMzky)'><text x='73.36' y='104.66' style='font-size: 8.54px; font-style: italic; font-family: Arial;' textLength='60.01px' lengthAdjust='spacingAndGlyphs'>R^2 sch= 0.98 </text></g>
<g clip-path='url(#cpNjEuMTA3N3wyOTYuOTIxfDI1My43NXwyMy4wMzky)'><text x='73.36' y='116.95' style='font-size: 8.54px; font-style: italic; font-family: Arial;' textLength='68.30px' lengthAdjust='spacingAndGlyphs'>E sch= 3.25e-05 </text></g>
<g clip-path='url(#cpNjEuMTA3N3wyOTYuOTIxfDI1My43NXwyMy4wMzky)'><text x='73.36' y='129.24' style='font-size: 8.54px; font-style: italic; font-family: Arial;' textLength='59.78px' lengthAdjust='spacingAndGlyphs'>AIC sch= -4.76</text></g>
<rect x='61.11' y='23.04' width='235.81' height='230.71' style='stroke-width: 1.07; stroke: #333333;' clip-path='url(#cpNjEuMTA3N3wyOTYuOTIxfDI1My43NXwyMy4wMzky)' />
<defs>
  <clipPath id='cpMHwzMDIuNHwyODh8MA=='>
    <rect x='0.00' y='0.00' width='302.40' height='288.00' />
  </clipPath>
</defs>
<g clip-path='url(#cpMHwzMDIuNHwyODh8MA==)'><text x='20.65' y='213.75' style='font-size: 8.80px; fill: #4D4D4D; font-family: Arial;' textLength='35.53px' lengthAdjust='spacingAndGlyphs'>2.50e-06</text></g>
<g clip-path='url(#cpMHwzMDIuNHwyODh8MA==)'><text x='20.65' y='167.05' style='font-size: 8.80px; fill: #4D4D4D; font-family: Arial;' textLength='35.53px' lengthAdjust='spacingAndGlyphs'>5.00e-06</text></g>
<g clip-path='url(#cpMHwzMDIuNHwyODh8MA==)'><text x='20.65' y='120.35' style='font-size: 8.80px; fill: #4D4D4D; font-family: Arial;' textLength='35.53px' lengthAdjust='spacingAndGlyphs'>7.50e-06</text></g>
<g clip-path='url(#cpMHwzMDIuNHwyODh8MA==)'><text x='20.65' y='73.65' style='font-size: 8.80px; fill: #4D4D4D; font-family: Arial;' textLength='35.53px' lengthAdjust='spacingAndGlyphs'>1.00e-05</text></g>
<g clip-path='url(#cpMHwzMDIuNHwyODh8MA==)'><text x='20.65' y='26.94' style='font-size: 8.80px; fill: #4D4D4D; font-family: Arial;' textLength='35.53px' lengthAdjust='spacingAndGlyphs'>1.25e-05</text></g>
<polyline points='58.37,210.53 61.11,210.53 ' style='stroke-width: 1.07; stroke: #333333; stroke-linecap: butt;' clip-path='url(#cpMHwzMDIuNHwyODh8MA==)' />
<polyline points='58.37,163.83 61.11,163.83 ' style='stroke-width: 1.07; stroke: #333333; stroke-linecap: butt;' clip-path='url(#cpMHwzMDIuNHwyODh8MA==)' />
<polyline points='58.37,117.13 61.11,117.13 ' style='stroke-width: 1.07; stroke: #333333; stroke-linecap: butt;' clip-path='url(#cpMHwzMDIuNHwyODh8MA==)' />
<polyline points='58.37,70.43 61.11,70.43 ' style='stroke-width: 1.07; stroke: #333333; stroke-linecap: butt;' clip-path='url(#cpMHwzMDIuNHwyODh8MA==)' />
<polyline points='58.37,23.73 61.11,23.73 ' style='stroke-width: 1.07; stroke: #333333; stroke-linecap: butt;' clip-path='url(#cpMHwzMDIuNHwyODh8MA==)' />
<polyline points='73.36,256.49 73.36,253.75 ' style='stroke-width: 1.07; stroke: #333333; stroke-linecap: butt;' clip-path='url(#cpMHwzMDIuNHwyODh8MA==)' />
<polyline points='124.40,256.49 124.40,253.75 ' style='stroke-width: 1.07; stroke: #333333; stroke-linecap: butt;' clip-path='url(#cpMHwzMDIuNHwyODh8MA==)' />
<polyline points='175.44,256.49 175.44,253.75 ' style='stroke-width: 1.07; stroke: #333333; stroke-linecap: butt;' clip-path='url(#cpMHwzMDIuNHwyODh8MA==)' />
<polyline points='226.48,256.49 226.48,253.75 ' style='stroke-width: 1.07; stroke: #333333; stroke-linecap: butt;' clip-path='url(#cpMHwzMDIuNHwyODh8MA==)' />
<polyline points='277.52,256.49 277.52,253.75 ' style='stroke-width: 1.07; stroke: #333333; stroke-linecap: butt;' clip-path='url(#cpMHwzMDIuNHwyODh8MA==)' />
<g clip-path='url(#cpMHwzMDIuNHwyODh8MA==)'><text x='68.35' y='265.12' style='font-size: 8.80px; fill: #4D4D4D; font-family: Arial;' textLength='10.01px' lengthAdjust='spacingAndGlyphs'>25</text></g>
<g clip-path='url(#cpMHwzMDIuNHwyODh8MA==)'><text x='119.39' y='265.12' style='font-size: 8.80px; fill: #4D4D4D; font-family: Arial;' textLength='10.01px' lengthAdjust='spacingAndGlyphs'>30</text></g>
<g clip-path='url(#cpMHwzMDIuNHwyODh8MA==)'><text x='170.44' y='265.12' style='font-size: 8.80px; fill: #4D4D4D; font-family: Arial;' textLength='10.01px' lengthAdjust='spacingAndGlyphs'>35</text></g>
<g clip-path='url(#cpMHwzMDIuNHwyODh8MA==)'><text x='221.48' y='265.12' style='font-size: 8.80px; fill: #4D4D4D; font-family: Arial;' textLength='10.01px' lengthAdjust='spacingAndGlyphs'>40</text></g>
<g clip-path='url(#cpMHwzMDIuNHwyODh8MA==)'><text x='272.52' y='265.12' style='font-size: 8.80px; fill: #4D4D4D; font-family: Arial;' textLength='10.01px' lengthAdjust='spacingAndGlyphs'>45</text></g>
<g clip-path='url(#cpMHwzMDIuNHwyODh8MA==)'><text x='140.06' y='277.88' style='font-size: 10.00px; font-family: Arial;' textLength='63.35px' lengthAdjust='spacingAndGlyphs'>Temperature (</text></g>
<g clip-path='url(#cpMHwzMDIuNHwyODh8MA==)'><text x='203.42' y='277.88' style='font-size: 10.00px; font-family: Symbol;' textLength='4.00px' lengthAdjust='spacingAndGlyphs'>°</text></g>
<g clip-path='url(#cpMHwzMDIuNHwyODh8MA==)'><text x='207.42' y='277.88' style='font-size: 10.00px; font-family: Arial;' textLength='7.22px' lengthAdjust='spacingAndGlyphs'>C</text></g>
<g clip-path='url(#cpMHwzMDIuNHwyODh8MA==)'><text x='214.64' y='277.88' style='font-size: 10.00px; font-family: Arial;' textLength='3.33px' lengthAdjust='spacingAndGlyphs'>)</text></g>
<g clip-path='url(#cpMHwzMDIuNHwyODh8MA==)'><text transform='translate(12.64,180.09) rotate(-90)' style='font-size: 10.00px; font-family: Arial;' textLength='83.39px' lengthAdjust='spacingAndGlyphs'>net photosynthesis</text></g>
<g clip-path='url(#cpMHwzMDIuNHwyODh8MA==)'><text x='61.11' y='14.07' style='font-size: 12.00px; font-family: Arial;' textLength='106.73px' lengthAdjust='spacingAndGlyphs'>Quercus pubescens</text></g>
</svg>
