<?xml version='1.0' encoding='UTF-8' ?>
<svg xmlns='http://www.w3.org/2000/svg' xmlns:xlink='http://www.w3.org/1999/xlink' viewBox='0 0 302.40 288.00'>
<defs>
  <style type='text/css'><![CDATA[
    line, polyline, path, rect, circle {
      fill: none;
      stroke: #000000;
      stroke-linecap: round;
      stroke-linejoin: round;
      stroke-miterlimit: 10.00;
    }
  ]]></style>
</defs>
<rect width='100%' height='100%' style='stroke: none; fill: #FFFFFF;'/>
<rect x='0.00' y='0.00' width='302.40' height='288.00' style='stroke-width: 1.07; stroke: #FFFFFF; fill: #FFFFFF;' />
<defs>
  <clipPath id='cpNDguNDU1OHwyOTYuOTIxfDI1My43NXwyMy4xNzk4'>
    <rect x='48.46' y='23.18' width='248.46' height='230.57' />
  </clipPath>
</defs>
<rect x='48.46' y='23.18' width='248.46' height='230.57' style='stroke-width: 1.07; stroke: none; fill: #FFFFFF;' clip-path='url(#cpNDguNDU1OHwyOTYuOTIxfDI1My43NXwyMy4xNzk4)' />
<polyline points='48.46,228.84 296.92,228.84 ' style='stroke-width: 0.53; stroke: #EBEBEB; stroke-linecap: butt;' clip-path='url(#cpNDguNDU1OHwyOTYuOTIxfDI1My43NXwyMy4xNzk4)' />
<polyline points='48.46,174.69 296.92,174.69 ' style='stroke-width: 0.53; stroke: #EBEBEB; stroke-linecap: butt;' clip-path='url(#cpNDguNDU1OHwyOTYuOTIxfDI1My43NXwyMy4xNzk4)' />
<polyline points='48.46,120.54 296.92,120.54 ' style='stroke-width: 0.53; stroke: #EBEBEB; stroke-linecap: butt;' clip-path='url(#cpNDguNDU1OHwyOTYuOTIxfDI1My43NXwyMy4xNzk4)' />
<polyline points='48.46,66.39 296.92,66.39 ' style='stroke-width: 0.53; stroke: #EBEBEB; stroke-linecap: butt;' clip-path='url(#cpNDguNDU1OHwyOTYuOTIxfDI1My43NXwyMy4xNzk4)' />
<polyline points='68.41,253.75 68.41,23.18 ' style='stroke-width: 0.53; stroke: #EBEBEB; stroke-linecap: butt;' clip-path='url(#cpNDguNDU1OHwyOTYuOTIxfDI1My43NXwyMy4xNzk4)' />
<polyline points='143.70,253.75 143.70,23.18 ' style='stroke-width: 0.53; stroke: #EBEBEB; stroke-linecap: butt;' clip-path='url(#cpNDguNDU1OHwyOTYuOTIxfDI1My43NXwyMy4xNzk4)' />
<polyline points='218.99,253.75 218.99,23.18 ' style='stroke-width: 0.53; stroke: #EBEBEB; stroke-linecap: butt;' clip-path='url(#cpNDguNDU1OHwyOTYuOTIxfDI1My43NXwyMy4xNzk4)' />
<polyline points='294.29,253.75 294.29,23.18 ' style='stroke-width: 0.53; stroke: #EBEBEB; stroke-linecap: butt;' clip-path='url(#cpNDguNDU1OHwyOTYuOTIxfDI1My43NXwyMy4xNzk4)' />
<polyline points='48.46,201.76 296.92,201.76 ' style='stroke-width: 1.07; stroke: #EBEBEB; stroke-linecap: butt;' clip-path='url(#cpNDguNDU1OHwyOTYuOTIxfDI1My43NXwyMy4xNzk4)' />
<polyline points='48.46,147.62 296.92,147.62 ' style='stroke-width: 1.07; stroke: #EBEBEB; stroke-linecap: butt;' clip-path='url(#cpNDguNDU1OHwyOTYuOTIxfDI1My43NXwyMy4xNzk4)' />
<polyline points='48.46,93.47 296.92,93.47 ' style='stroke-width: 1.07; stroke: #EBEBEB; stroke-linecap: butt;' clip-path='url(#cpNDguNDU1OHwyOTYuOTIxfDI1My43NXwyMy4xNzk4)' />
<polyline points='48.46,39.32 296.92,39.32 ' style='stroke-width: 1.07; stroke: #EBEBEB; stroke-linecap: butt;' clip-path='url(#cpNDguNDU1OHwyOTYuOTIxfDI1My43NXwyMy4xNzk4)' />
<polyline points='106.05,253.75 106.05,23.18 ' style='stroke-width: 1.07; stroke: #EBEBEB; stroke-linecap: butt;' clip-path='url(#cpNDguNDU1OHwyOTYuOTIxfDI1My43NXwyMy4xNzk4)' />
<polyline points='181.35,253.75 181.35,23.18 ' style='stroke-width: 1.07; stroke: #EBEBEB; stroke-linecap: butt;' clip-path='url(#cpNDguNDU1OHwyOTYuOTIxfDI1My43NXwyMy4xNzk4)' />
<polyline points='256.64,253.75 256.64,23.18 ' style='stroke-width: 1.07; stroke: #EBEBEB; stroke-linecap: butt;' clip-path='url(#cpNDguNDU1OHwyOTYuOTIxfDI1My43NXwyMy4xNzk4)' />
<circle cx='62.21' cy='241.99' r='3.56pt' style='stroke-width: 0.71; stroke: #000000; stroke-opacity: 0.70; fill: #D1EEEE; fill-opacity: 0.70;' clip-path='url(#cpNDguNDU1OHwyOTYuOTIxfDI1My43NXwyMy4xNzk4)' />
<circle cx='89.53' cy='237.81' r='3.56pt' style='stroke-width: 0.71; stroke: #000000; stroke-opacity: 0.70; fill: #D1EEEE; fill-opacity: 0.70;' clip-path='url(#cpNDguNDU1OHwyOTYuOTIxfDI1My43NXwyMy4xNzk4)' />
<circle cx='155.74' cy='204.24' r='3.56pt' style='stroke-width: 0.71; stroke: #000000; stroke-opacity: 0.70; fill: #D1EEEE; fill-opacity: 0.70;' clip-path='url(#cpNDguNDU1OHwyOTYuOTIxfDI1My43NXwyMy4xNzk4)' />
<circle cx='200.03' cy='163.55' r='3.56pt' style='stroke-width: 0.71; stroke: #000000; stroke-opacity: 0.70; fill: #D1EEEE; fill-opacity: 0.70;' clip-path='url(#cpNDguNDU1OHwyOTYuOTIxfDI1My43NXwyMy4xNzk4)' />
<circle cx='237.03' cy='114.09' r='3.56pt' style='stroke-width: 0.71; stroke: #000000; stroke-opacity: 0.70; fill: #D1EEEE; fill-opacity: 0.70;' clip-path='url(#cpNDguNDU1OHwyOTYuOTIxfDI1My43NXwyMy4xNzk4)' />
<circle cx='278.28' cy='43.72' r='3.56pt' style='stroke-width: 0.71; stroke: #000000; stroke-opacity: 0.70; fill: #D1EEEE; fill-opacity: 0.70;' clip-path='url(#cpNDguNDU1OHwyOTYuOTIxfDI1My43NXwyMy4xNzk4)' />
<polyline points='59.75,243.27 60.88,243.05 62.02,242.83 63.15,242.60 64.29,242.37 65.42,242.14 66.56,241.90 67.70,241.66 68.83,241.42 69.97,241.17 71.10,240.91 72.24,240.66 73.37,240.40 74.51,240.13 75.64,239.86 76.78,239.59 77.91,239.31 79.05,239.03 80.18,238.74 81.32,238.45 82.45,238.15 83.59,237.85 84.72,237.55 85.86,237.24 86.99,236.92 88.13,236.60 89.26,236.28 90.40,235.95 91.53,235.61 92.67,235.27 93.80,234.92 94.94,234.57 96.07,234.22 97.21,233.85 98.34,233.48 99.48,233.11 100.61,232.73 101.75,232.35 102.88,231.95 104.02,231.56 105.15,231.15 106.29,230.74 107.42,230.33 108.56,229.90 109.69,229.47 110.83,229.04 111.96,228.59 113.10,228.14 114.23,227.69 115.37,227.23 116.50,226.75 117.64,226.28 118.77,225.79 119.91,225.30 121.04,224.80 122.18,224.29 123.31,223.78 124.45,223.26 125.58,222.73 126.72,222.19 127.85,221.64 128.99,221.08 130.12,220.52 131.26,219.95 132.39,219.37 133.53,218.78 134.66,218.18 135.80,217.58 136.93,216.96 138.07,216.34 139.20,215.70 140.34,215.06 141.47,214.41 142.61,213.74 143.74,213.07 144.88,212.39 146.01,211.70 147.15,211.00 148.28,210.28 149.42,209.56 150.55,208.83 151.69,208.08 152.82,207.33 153.96,206.56 155.09,205.79 156.23,205.00 157.36,204.20 158.50,203.39 159.64,202.57 160.77,201.73 161.91,200.89 163.04,200.03 164.18,199.16 165.31,198.28 166.45,197.39 167.58,196.48 168.72,195.56 169.85,194.63 170.99,193.68 172.12,192.72 173.26,191.75 174.39,190.77 175.53,189.77 176.66,188.76 177.80,187.73 178.93,186.69 180.07,185.64 181.20,184.57 182.34,183.49 183.47,182.39 184.61,181.28 185.74,180.15 186.88,179.01 188.01,177.85 189.15,176.68 190.28,175.50 191.42,174.30 192.55,173.08 193.69,171.85 194.82,170.60 195.96,169.34 197.09,168.06 198.23,166.76 199.36,165.45 200.50,164.12 201.63,162.78 202.77,161.42 203.90,160.04 205.04,158.65 206.17,157.24 207.31,155.82 208.44,154.37 209.58,152.92 210.71,151.44 211.85,149.95 212.98,148.44 214.12,146.92 215.25,145.38 216.39,143.82 217.52,142.25 218.66,140.66 219.79,139.05 220.93,137.43 222.06,135.79 223.20,134.14 224.33,132.47 225.47,130.78 226.60,129.08 227.74,127.37 228.87,125.64 230.01,123.89 231.14,122.13 232.28,120.36 233.41,118.57 234.55,116.77 235.68,114.96 236.82,113.13 237.95,111.29 239.09,109.44 240.22,107.57 241.36,105.70 242.49,103.82 243.63,101.92 244.76,100.02 245.90,98.11 247.03,96.19 248.17,94.26 249.30,92.33 250.44,90.39 251.57,88.44 252.71,86.50 253.85,84.54 254.98,82.59 256.12,80.64 257.25,78.68 258.39,76.73 259.52,74.78 260.66,72.83 261.79,70.88 262.93,68.95 264.06,67.02 265.20,65.09 266.33,63.18 267.47,61.28 268.60,59.39 269.74,57.51 270.87,55.65 272.01,53.81 273.14,51.98 274.28,50.18 275.41,48.40 276.55,46.64 277.68,44.91 278.82,43.21 279.95,41.53 281.09,39.89 282.22,38.28 283.36,36.70 284.49,35.16 285.63,33.66 ' style='stroke-width: 2.77; stroke: #1B9E77; stroke-linecap: butt;' clip-path='url(#cpNDguNDU1OHwyOTYuOTIxfDI1My43NXwyMy4xNzk4)' />
<g clip-path='url(#cpNDguNDU1OHwyOTYuOTIxfDI1My43NXwyMy4xNzk4)'><text x='62.21' y='158.49' style='font-size: 8.54px; font-style: italic; font-family: Arial;' textLength='60.01px' lengthAdjust='spacingAndGlyphs'>R^2 sch= 1.00 </text></g>
<g clip-path='url(#cpNDguNDU1OHwyOTYuOTIxfDI1My43NXwyMy4xNzk4)'><text x='62.21' y='170.78' style='font-size: 8.54px; font-style: italic; font-family: Arial;' textLength='55.29px' lengthAdjust='spacingAndGlyphs'>E sch= 0.754 </text></g>
<g clip-path='url(#cpNDguNDU1OHwyOTYuOTIxfDI1My43NXwyMy4xNzk4)'><text x='62.21' y='183.08' style='font-size: 8.54px; font-style: italic; font-family: Arial;' textLength='59.78px' lengthAdjust='spacingAndGlyphs'>AIC sch= -10.5</text></g>
<rect x='48.46' y='23.18' width='248.46' height='230.57' style='stroke-width: 1.07; stroke: #333333;' clip-path='url(#cpNDguNDU1OHwyOTYuOTIxfDI1My43NXwyMy4xNzk4)' />
<defs>
  <clipPath id='cpMHwzMDIuNHwyODh8MA=='>
    <rect x='0.00' y='0.00' width='302.40' height='288.00' />
  </clipPath>
</defs>
<g clip-path='url(#cpMHwzMDIuNHwyODh8MA==)'><text x='20.51' y='204.98' style='font-size: 8.80px; fill: #4D4D4D; font-family: Arial;' textLength='23.02px' lengthAdjust='spacingAndGlyphs'>1e-05</text></g>
<g clip-path='url(#cpMHwzMDIuNHwyODh8MA==)'><text x='20.51' y='150.83' style='font-size: 8.80px; fill: #4D4D4D; font-family: Arial;' textLength='23.02px' lengthAdjust='spacingAndGlyphs'>2e-05</text></g>
<g clip-path='url(#cpMHwzMDIuNHwyODh8MA==)'><text x='20.51' y='96.69' style='font-size: 8.80px; fill: #4D4D4D; font-family: Arial;' textLength='23.02px' lengthAdjust='spacingAndGlyphs'>3e-05</text></g>
<g clip-path='url(#cpMHwzMDIuNHwyODh8MA==)'><text x='20.51' y='42.54' style='font-size: 8.80px; fill: #4D4D4D; font-family: Arial;' textLength='23.02px' lengthAdjust='spacingAndGlyphs'>4e-05</text></g>
<polyline points='45.72,201.76 48.46,201.76 ' style='stroke-width: 1.07; stroke: #333333; stroke-linecap: butt;' clip-path='url(#cpMHwzMDIuNHwyODh8MA==)' />
<polyline points='45.72,147.62 48.46,147.62 ' style='stroke-width: 1.07; stroke: #333333; stroke-linecap: butt;' clip-path='url(#cpMHwzMDIuNHwyODh8MA==)' />
<polyline points='45.72,93.47 48.46,93.47 ' style='stroke-width: 1.07; stroke: #333333; stroke-linecap: butt;' clip-path='url(#cpMHwzMDIuNHwyODh8MA==)' />
<polyline points='45.72,39.32 48.46,39.32 ' style='stroke-width: 1.07; stroke: #333333; stroke-linecap: butt;' clip-path='url(#cpMHwzMDIuNHwyODh8MA==)' />
<polyline points='106.05,256.49 106.05,253.75 ' style='stroke-width: 1.07; stroke: #333333; stroke-linecap: butt;' clip-path='url(#cpMHwzMDIuNHwyODh8MA==)' />
<polyline points='181.35,256.49 181.35,253.75 ' style='stroke-width: 1.07; stroke: #333333; stroke-linecap: butt;' clip-path='url(#cpMHwzMDIuNHwyODh8MA==)' />
<polyline points='256.64,256.49 256.64,253.75 ' style='stroke-width: 1.07; stroke: #333333; stroke-linecap: butt;' clip-path='url(#cpMHwzMDIuNHwyODh8MA==)' />
<g clip-path='url(#cpMHwzMDIuNHwyODh8MA==)'><text x='101.05' y='265.12' style='font-size: 8.80px; fill: #4D4D4D; font-family: Arial;' textLength='10.01px' lengthAdjust='spacingAndGlyphs'>10</text></g>
<g clip-path='url(#cpMHwzMDIuNHwyODh8MA==)'><text x='176.34' y='265.12' style='font-size: 8.80px; fill: #4D4D4D; font-family: Arial;' textLength='10.01px' lengthAdjust='spacingAndGlyphs'>20</text></g>
<g clip-path='url(#cpMHwzMDIuNHwyODh8MA==)'><text x='251.63' y='265.12' style='font-size: 8.80px; fill: #4D4D4D; font-family: Arial;' textLength='10.01px' lengthAdjust='spacingAndGlyphs'>30</text></g>
<g clip-path='url(#cpMHwzMDIuNHwyODh8MA==)'><text x='133.74' y='277.88' style='font-size: 10.00px; font-family: Arial;' textLength='63.35px' lengthAdjust='spacingAndGlyphs'>Temperature (</text></g>
<g clip-path='url(#cpMHwzMDIuNHwyODh8MA==)'><text x='197.09' y='277.88' style='font-size: 10.00px; font-family: Symbol;' textLength='4.00px' lengthAdjust='spacingAndGlyphs'>°</text></g>
<g clip-path='url(#cpMHwzMDIuNHwyODh8MA==)'><text x='201.09' y='277.88' style='font-size: 10.00px; font-family: Arial;' textLength='7.22px' lengthAdjust='spacingAndGlyphs'>C</text></g>
<g clip-path='url(#cpMHwzMDIuNHwyODh8MA==)'><text x='208.31' y='277.88' style='font-size: 10.00px; font-family: Arial;' textLength='3.33px' lengthAdjust='spacingAndGlyphs'>)</text></g>
<g clip-path='url(#cpMHwzMDIuNHwyODh8MA==)'><text transform='translate(12.64,171.81) rotate(-90)' style='font-size: 10.00px; font-family: Arial;' textLength='66.70px' lengthAdjust='spacingAndGlyphs'>respiration rate</text></g>
<g clip-path='url(#cpMHwzMDIuNHwyODh8MA==)'><text x='48.46' y='14.07' style='font-size: 12.00px; font-family: Arial;' textLength='132.08px' lengthAdjust='spacingAndGlyphs'>Sphagnum angustifolium</text></g>
</svg>
