<?xml version='1.0' encoding='UTF-8' ?>
<svg xmlns='http://www.w3.org/2000/svg' xmlns:xlink='http://www.w3.org/1999/xlink' viewBox='0 0 302.40 288.00'>
<defs>
  <style type='text/css'><![CDATA[
    line, polyline, path, rect, circle {
      fill: none;
      stroke: #000000;
      stroke-linecap: round;
      stroke-linejoin: round;
      stroke-miterlimit: 10.00;
    }
  ]]></style>
</defs>
<rect width='100%' height='100%' style='stroke: none; fill: #FFFFFF;'/>
<rect x='-0.00' y='0.00' width='302.40' height='288.00' style='stroke-width: 1.07; stroke: #FFFFFF; fill: #FFFFFF;' />
<defs>
  <clipPath id='cpNjEuMTA3N3wyOTYuOTIxfDI1My43NXwyMC43ODky'>
    <rect x='61.11' y='20.79' width='235.81' height='232.96' />
  </clipPath>
</defs>
<rect x='61.11' y='20.79' width='235.81' height='232.96' style='stroke-width: 1.07; stroke: none; fill: #FFFFFF;' clip-path='url(#cpNjEuMTA3N3wyOTYuOTIxfDI1My43NXwyMC43ODky)' />
<polyline points='61.11,244.51 296.92,244.51 ' style='stroke-width: 0.53; stroke: #EBEBEB; stroke-linecap: butt;' clip-path='url(#cpNjEuMTA3N3wyOTYuOTIxfDI1My43NXwyMC43ODky)' />
<polyline points='61.11,181.19 296.92,181.19 ' style='stroke-width: 0.53; stroke: #EBEBEB; stroke-linecap: butt;' clip-path='url(#cpNjEuMTA3N3wyOTYuOTIxfDI1My43NXwyMC43ODky)' />
<polyline points='61.11,117.88 296.92,117.88 ' style='stroke-width: 0.53; stroke: #EBEBEB; stroke-linecap: butt;' clip-path='url(#cpNjEuMTA3N3wyOTYuOTIxfDI1My43NXwyMC43ODky)' />
<polyline points='61.11,54.56 296.92,54.56 ' style='stroke-width: 0.53; stroke: #EBEBEB; stroke-linecap: butt;' clip-path='url(#cpNjEuMTA3N3wyOTYuOTIxfDI1My43NXwyMC43ODky)' />
<polyline points='100.23,253.75 100.23,20.79 ' style='stroke-width: 0.53; stroke: #EBEBEB; stroke-linecap: butt;' clip-path='url(#cpNjEuMTA3N3wyOTYuOTIxfDI1My43NXwyMC43ODky)' />
<polyline points='153.83,253.75 153.83,20.79 ' style='stroke-width: 0.53; stroke: #EBEBEB; stroke-linecap: butt;' clip-path='url(#cpNjEuMTA3N3wyOTYuOTIxfDI1My43NXwyMC43ODky)' />
<polyline points='207.42,253.75 207.42,20.79 ' style='stroke-width: 0.53; stroke: #EBEBEB; stroke-linecap: butt;' clip-path='url(#cpNjEuMTA3N3wyOTYuOTIxfDI1My43NXwyMC43ODky)' />
<polyline points='261.01,253.75 261.01,20.79 ' style='stroke-width: 0.53; stroke: #EBEBEB; stroke-linecap: butt;' clip-path='url(#cpNjEuMTA3N3wyOTYuOTIxfDI1My43NXwyMC43ODky)' />
<polyline points='61.11,212.85 296.92,212.85 ' style='stroke-width: 1.07; stroke: #EBEBEB; stroke-linecap: butt;' clip-path='url(#cpNjEuMTA3N3wyOTYuOTIxfDI1My43NXwyMC43ODky)' />
<polyline points='61.11,149.53 296.92,149.53 ' style='stroke-width: 1.07; stroke: #EBEBEB; stroke-linecap: butt;' clip-path='url(#cpNjEuMTA3N3wyOTYuOTIxfDI1My43NXwyMC43ODky)' />
<polyline points='61.11,86.22 296.92,86.22 ' style='stroke-width: 1.07; stroke: #EBEBEB; stroke-linecap: butt;' clip-path='url(#cpNjEuMTA3N3wyOTYuOTIxfDI1My43NXwyMC43ODky)' />
<polyline points='61.11,22.91 296.92,22.91 ' style='stroke-width: 1.07; stroke: #EBEBEB; stroke-linecap: butt;' clip-path='url(#cpNjEuMTA3N3wyOTYuOTIxfDI1My43NXwyMC43ODky)' />
<polyline points='73.43,253.75 73.43,20.79 ' style='stroke-width: 1.07; stroke: #EBEBEB; stroke-linecap: butt;' clip-path='url(#cpNjEuMTA3N3wyOTYuOTIxfDI1My43NXwyMC43ODky)' />
<polyline points='127.03,253.75 127.03,20.79 ' style='stroke-width: 1.07; stroke: #EBEBEB; stroke-linecap: butt;' clip-path='url(#cpNjEuMTA3N3wyOTYuOTIxfDI1My43NXwyMC43ODky)' />
<polyline points='180.62,253.75 180.62,20.79 ' style='stroke-width: 1.07; stroke: #EBEBEB; stroke-linecap: butt;' clip-path='url(#cpNjEuMTA3N3wyOTYuOTIxfDI1My43NXwyMC43ODky)' />
<polyline points='234.22,253.75 234.22,20.79 ' style='stroke-width: 1.07; stroke: #EBEBEB; stroke-linecap: butt;' clip-path='url(#cpNjEuMTA3N3wyOTYuOTIxfDI1My43NXwyMC43ODky)' />
<polyline points='287.81,253.75 287.81,20.79 ' style='stroke-width: 1.07; stroke: #EBEBEB; stroke-linecap: butt;' clip-path='url(#cpNjEuMTA3N3wyOTYuOTIxfDI1My43NXwyMC43ODky)' />
<circle cx='80.76' cy='217.58' r='3.56pt' style='stroke-width: 0.71; stroke: #000000; stroke-opacity: 0.70; fill: #D1EEEE; fill-opacity: 0.70;' clip-path='url(#cpNjEuMTA3N3wyOTYuOTIxfDI1My43NXwyMC43ODky)' />
<circle cx='116.01' cy='126.89' r='3.56pt' style='stroke-width: 0.71; stroke: #000000; stroke-opacity: 0.70; fill: #D1EEEE; fill-opacity: 0.70;' clip-path='url(#cpNjEuMTA3N3wyOTYuOTIxfDI1My43NXwyMC43ODky)' />
<circle cx='158.77' cy='53.29' r='3.56pt' style='stroke-width: 0.71; stroke: #000000; stroke-opacity: 0.70; fill: #D1EEEE; fill-opacity: 0.70;' clip-path='url(#cpNjEuMTA3N3wyOTYuOTIxfDI1My43NXwyMC43ODky)' />
<circle cx='202.60' cy='31.44' r='3.56pt' style='stroke-width: 0.71; stroke: #000000; stroke-opacity: 0.70; fill: #D1EEEE; fill-opacity: 0.70;' clip-path='url(#cpNjEuMTA3N3wyOTYuOTIxfDI1My43NXwyMC43ODky)' />
<circle cx='241.99' cy='51.32' r='3.56pt' style='stroke-width: 0.71; stroke: #000000; stroke-opacity: 0.70; fill: #D1EEEE; fill-opacity: 0.70;' clip-path='url(#cpNjEuMTA3N3wyOTYuOTIxfDI1My43NXwyMC43ODky)' />
<circle cx='283.08' cy='96.42' r='3.56pt' style='stroke-width: 0.71; stroke: #000000; stroke-opacity: 0.70; fill: #D1EEEE; fill-opacity: 0.70;' clip-path='url(#cpNjEuMTA3N3wyOTYuOTIxfDI1My43NXwyMC43ODky)' />
<polyline points='71.83,243.16 72.90,240.05 73.98,236.95 75.06,233.85 76.14,230.77 77.21,227.69 78.29,224.62 79.37,221.56 80.44,218.51 81.52,215.47 82.60,212.44 83.68,209.43 84.75,206.42 85.83,203.43 86.91,200.45 87.99,197.49 89.06,194.54 90.14,191.60 91.22,188.68 92.29,185.78 93.37,182.89 94.45,180.02 95.53,177.16 96.60,174.32 97.68,171.50 98.76,168.70 99.84,165.92 100.91,163.15 101.99,160.41 103.07,157.69 104.14,154.98 105.22,152.30 106.30,149.64 107.38,147.01 108.45,144.39 109.53,141.80 110.61,139.23 111.69,136.68 112.76,134.16 113.84,131.67 114.92,129.20 115.99,126.75 117.07,124.33 118.15,121.93 119.23,119.57 120.30,117.23 121.38,114.91 122.46,112.63 123.54,110.37 124.61,108.14 125.69,105.94 126.77,103.76 127.84,101.62 128.92,99.50 130.00,97.42 131.08,95.36 132.15,93.34 133.23,91.34 134.31,89.38 135.38,87.45 136.46,85.55 137.54,83.68 138.62,81.84 139.69,80.03 140.77,78.26 141.85,76.51 142.93,74.80 144.00,73.13 145.08,71.48 146.16,69.87 147.23,68.29 148.31,66.74 149.39,65.23 150.47,63.75 151.54,62.30 152.62,60.89 153.70,59.51 154.78,58.16 155.85,56.85 156.93,55.57 158.01,54.32 159.08,53.11 160.16,51.93 161.24,50.78 162.32,49.67 163.39,48.60 164.47,47.55 165.55,46.54 166.63,45.57 167.70,44.62 168.78,43.71 169.86,42.84 170.93,41.99 172.01,41.18 173.09,40.41 174.17,39.66 175.24,38.95 176.32,38.28 177.40,37.63 178.48,37.02 179.55,36.44 180.63,35.89 181.71,35.38 182.78,34.90 183.86,34.45 184.94,34.03 186.02,33.64 187.09,33.28 188.17,32.96 189.25,32.66 190.33,32.40 191.40,32.17 192.48,31.97 193.56,31.79 194.63,31.65 195.71,31.54 196.79,31.46 197.87,31.40 198.94,31.38 200.02,31.38 201.10,31.42 202.18,31.48 203.25,31.57 204.33,31.68 205.41,31.83 206.48,32.00 207.56,32.20 208.64,32.42 209.72,32.68 210.79,32.96 211.87,33.26 212.95,33.59 214.03,33.95 215.10,34.33 216.18,34.73 217.26,35.16 218.33,35.62 219.41,36.09 220.49,36.60 221.57,37.12 222.64,37.67 223.72,38.24 224.80,38.84 225.88,39.45 226.95,40.09 228.03,40.75 229.11,41.43 230.18,42.13 231.26,42.85 232.34,43.60 233.42,44.36 234.49,45.14 235.57,45.95 236.65,46.77 237.72,47.61 238.80,48.47 239.88,49.35 240.96,50.24 242.03,51.16 243.11,52.09 244.19,53.04 245.27,54.00 246.34,54.98 247.42,55.98 248.50,57.00 249.57,58.03 250.65,59.07 251.73,60.13 252.81,61.21 253.88,62.30 254.96,63.41 256.04,64.53 257.12,65.66 258.19,66.81 259.27,67.97 260.35,69.14 261.42,70.32 262.50,71.52 263.58,72.73 264.66,73.96 265.73,75.19 266.81,76.44 267.89,77.70 268.97,78.96 270.04,80.24 271.12,81.53 272.20,82.83 273.27,84.14 274.35,85.46 275.43,86.79 276.51,88.13 277.58,89.48 278.66,90.84 279.74,92.20 280.82,93.57 281.89,94.96 282.97,96.35 284.05,97.74 285.12,99.15 286.20,100.56 ' style='stroke-width: 2.77; stroke: #1B9E77; stroke-linecap: butt;' clip-path='url(#cpNjEuMTA3N3wyOTYuOTIxfDI1My43NXwyMC43ODky)' />
<g clip-path='url(#cpNjEuMTA3N3wyOTYuOTIxfDI1My43NXwyMC43ODky)'><text x='80.76' y='87.08' style='font-size: 8.54px; font-style: italic; font-family: Arial;' textLength='60.01px' lengthAdjust='spacingAndGlyphs'>R^2 sch= 1.00 </text></g>
<g clip-path='url(#cpNjEuMTA3N3wyOTYuOTIxfDI1My43NXwyMC43ODky)'><text x='80.76' y='99.37' style='font-size: 8.54px; font-style: italic; font-family: Arial;' textLength='55.29px' lengthAdjust='spacingAndGlyphs'>E sch= 0.806 </text></g>
<g clip-path='url(#cpNjEuMTA3N3wyOTYuOTIxfDI1My43NXwyMC43ODky)'><text x='80.76' y='111.66' style='font-size: 8.54px; font-style: italic; font-family: Arial;' textLength='59.78px' lengthAdjust='spacingAndGlyphs'>AIC sch= -74.5</text></g>
<rect x='61.11' y='20.79' width='235.81' height='232.96' style='stroke-width: 1.07; stroke: #333333;' clip-path='url(#cpNjEuMTA3N3wyOTYuOTIxfDI1My43NXwyMC43ODky)' />
<defs>
  <clipPath id='cpMHwzMDIuNHwyODh8MA=='>
    <rect x='0.00' y='0.00' width='302.40' height='288.00' />
  </clipPath>
</defs>
<g clip-path='url(#cpMHwzMDIuNHwyODh8MA==)'><text x='20.65' y='216.07' style='font-size: 8.80px; fill: #4D4D4D; font-family: Arial;' textLength='35.53px' lengthAdjust='spacingAndGlyphs'>2.00e-05</text></g>
<g clip-path='url(#cpMHwzMDIuNHwyODh8MA==)'><text x='20.65' y='152.75' style='font-size: 8.80px; fill: #4D4D4D; font-family: Arial;' textLength='35.53px' lengthAdjust='spacingAndGlyphs'>2.25e-05</text></g>
<g clip-path='url(#cpMHwzMDIuNHwyODh8MA==)'><text x='20.65' y='89.44' style='font-size: 8.80px; fill: #4D4D4D; font-family: Arial;' textLength='35.53px' lengthAdjust='spacingAndGlyphs'>2.50e-05</text></g>
<g clip-path='url(#cpMHwzMDIuNHwyODh8MA==)'><text x='20.65' y='26.13' style='font-size: 8.80px; fill: #4D4D4D; font-family: Arial;' textLength='35.53px' lengthAdjust='spacingAndGlyphs'>2.75e-05</text></g>
<polyline points='58.37,212.85 61.11,212.85 ' style='stroke-width: 1.07; stroke: #333333; stroke-linecap: butt;' clip-path='url(#cpMHwzMDIuNHwyODh8MA==)' />
<polyline points='58.37,149.53 61.11,149.53 ' style='stroke-width: 1.07; stroke: #333333; stroke-linecap: butt;' clip-path='url(#cpMHwzMDIuNHwyODh8MA==)' />
<polyline points='58.37,86.22 61.11,86.22 ' style='stroke-width: 1.07; stroke: #333333; stroke-linecap: butt;' clip-path='url(#cpMHwzMDIuNHwyODh8MA==)' />
<polyline points='58.37,22.91 61.11,22.91 ' style='stroke-width: 1.07; stroke: #333333; stroke-linecap: butt;' clip-path='url(#cpMHwzMDIuNHwyODh8MA==)' />
<polyline points='73.43,256.49 73.43,253.75 ' style='stroke-width: 1.07; stroke: #333333; stroke-linecap: butt;' clip-path='url(#cpMHwzMDIuNHwyODh8MA==)' />
<polyline points='127.03,256.49 127.03,253.75 ' style='stroke-width: 1.07; stroke: #333333; stroke-linecap: butt;' clip-path='url(#cpMHwzMDIuNHwyODh8MA==)' />
<polyline points='180.62,256.49 180.62,253.75 ' style='stroke-width: 1.07; stroke: #333333; stroke-linecap: butt;' clip-path='url(#cpMHwzMDIuNHwyODh8MA==)' />
<polyline points='234.22,256.49 234.22,253.75 ' style='stroke-width: 1.07; stroke: #333333; stroke-linecap: butt;' clip-path='url(#cpMHwzMDIuNHwyODh8MA==)' />
<polyline points='287.81,256.49 287.81,253.75 ' style='stroke-width: 1.07; stroke: #333333; stroke-linecap: butt;' clip-path='url(#cpMHwzMDIuNHwyODh8MA==)' />
<g clip-path='url(#cpMHwzMDIuNHwyODh8MA==)'><text x='68.43' y='265.12' style='font-size: 8.80px; fill: #4D4D4D; font-family: Arial;' textLength='10.01px' lengthAdjust='spacingAndGlyphs'>15</text></g>
<g clip-path='url(#cpMHwzMDIuNHwyODh8MA==)'><text x='122.02' y='265.12' style='font-size: 8.80px; fill: #4D4D4D; font-family: Arial;' textLength='10.01px' lengthAdjust='spacingAndGlyphs'>20</text></g>
<g clip-path='url(#cpMHwzMDIuNHwyODh8MA==)'><text x='175.62' y='265.12' style='font-size: 8.80px; fill: #4D4D4D; font-family: Arial;' textLength='10.01px' lengthAdjust='spacingAndGlyphs'>25</text></g>
<g clip-path='url(#cpMHwzMDIuNHwyODh8MA==)'><text x='229.21' y='265.12' style='font-size: 8.80px; fill: #4D4D4D; font-family: Arial;' textLength='10.01px' lengthAdjust='spacingAndGlyphs'>30</text></g>
<g clip-path='url(#cpMHwzMDIuNHwyODh8MA==)'><text x='282.80' y='265.12' style='font-size: 8.80px; fill: #4D4D4D; font-family: Arial;' textLength='10.01px' lengthAdjust='spacingAndGlyphs'>35</text></g>
<g clip-path='url(#cpMHwzMDIuNHwyODh8MA==)'><text x='140.06' y='277.88' style='font-size: 10.00px; font-family: Arial;' textLength='63.35px' lengthAdjust='spacingAndGlyphs'>Temperature (</text></g>
<g clip-path='url(#cpMHwzMDIuNHwyODh8MA==)'><text x='203.42' y='277.88' style='font-size: 10.00px; font-family: Symbol;' textLength='4.00px' lengthAdjust='spacingAndGlyphs'>°</text></g>
<g clip-path='url(#cpMHwzMDIuNHwyODh8MA==)'><text x='207.42' y='277.88' style='font-size: 10.00px; font-family: Arial;' textLength='7.22px' lengthAdjust='spacingAndGlyphs'>C</text></g>
<g clip-path='url(#cpMHwzMDIuNHwyODh8MA==)'><text x='214.64' y='277.88' style='font-size: 10.00px; font-family: Arial;' textLength='3.33px' lengthAdjust='spacingAndGlyphs'>)</text></g>
<g clip-path='url(#cpMHwzMDIuNHwyODh8MA==)'><text transform='translate(12.64,178.96) rotate(-90)' style='font-size: 10.00px; font-family: Arial;' textLength='83.39px' lengthAdjust='spacingAndGlyphs'>net photosynthesis</text></g>
<g clip-path='url(#cpMHwzMDIuNHwyODh8MA==)'><text x='61.11' y='14.07' style='font-size: 12.00px; font-family: Arial;' textLength='89.38px' lengthAdjust='spacingAndGlyphs'>Larrea divaricata</text></g>
</svg>
