<?xml version='1.0' encoding='UTF-8' ?>
<svg xmlns='http://www.w3.org/2000/svg' xmlns:xlink='http://www.w3.org/1999/xlink' viewBox='0 0 302.40 288.00'>
<defs>
  <style type='text/css'><![CDATA[
    line, polyline, path, rect, circle {
      fill: none;
      stroke: #000000;
      stroke-linecap: round;
      stroke-linejoin: round;
      stroke-miterlimit: 10.00;
    }
  ]]></style>
</defs>
<rect width='100%' height='100%' style='stroke: none; fill: #FFFFFF;'/>
<rect x='0.00' y='0.00' width='302.40' height='288.00' style='stroke-width: 1.07; stroke: #FFFFFF; fill: #FFFFFF;' />
<defs>
  <clipPath id='cpNTYuMTAyM3wyOTYuOTIxfDI1My43NXwyMy4xNzk4'>
    <rect x='56.10' y='23.18' width='240.82' height='230.57' />
  </clipPath>
</defs>
<rect x='56.10' y='23.18' width='240.82' height='230.57' style='stroke-width: 1.07; stroke: none; fill: #FFFFFF;' clip-path='url(#cpNTYuMTAyM3wyOTYuOTIxfDI1My43NXwyMy4xNzk4)' />
<polyline points='56.10,251.05 296.92,251.05 ' style='stroke-width: 0.53; stroke: #EBEBEB; stroke-linecap: butt;' clip-path='url(#cpNTYuMTAyM3wyOTYuOTIxfDI1My43NXwyMy4xNzk4)' />
<polyline points='56.10,199.60 296.92,199.60 ' style='stroke-width: 0.53; stroke: #EBEBEB; stroke-linecap: butt;' clip-path='url(#cpNTYuMTAyM3wyOTYuOTIxfDI1My43NXwyMy4xNzk4)' />
<polyline points='56.10,148.16 296.92,148.16 ' style='stroke-width: 0.53; stroke: #EBEBEB; stroke-linecap: butt;' clip-path='url(#cpNTYuMTAyM3wyOTYuOTIxfDI1My43NXwyMy4xNzk4)' />
<polyline points='56.10,96.71 296.92,96.71 ' style='stroke-width: 0.53; stroke: #EBEBEB; stroke-linecap: butt;' clip-path='url(#cpNTYuMTAyM3wyOTYuOTIxfDI1My43NXwyMy4xNzk4)' />
<polyline points='56.10,45.26 296.92,45.26 ' style='stroke-width: 0.53; stroke: #EBEBEB; stroke-linecap: butt;' clip-path='url(#cpNTYuMTAyM3wyOTYuOTIxfDI1My43NXwyMy4xNzk4)' />
<polyline points='68.22,253.75 68.22,23.18 ' style='stroke-width: 0.53; stroke: #EBEBEB; stroke-linecap: butt;' clip-path='url(#cpNTYuMTAyM3wyOTYuOTIxfDI1My43NXwyMy4xNzk4)' />
<polyline points='146.41,253.75 146.41,23.18 ' style='stroke-width: 0.53; stroke: #EBEBEB; stroke-linecap: butt;' clip-path='url(#cpNTYuMTAyM3wyOTYuOTIxfDI1My43NXwyMy4xNzk4)' />
<polyline points='224.60,253.75 224.60,23.18 ' style='stroke-width: 0.53; stroke: #EBEBEB; stroke-linecap: butt;' clip-path='url(#cpNTYuMTAyM3wyOTYuOTIxfDI1My43NXwyMy4xNzk4)' />
<polyline points='56.10,225.33 296.92,225.33 ' style='stroke-width: 1.07; stroke: #EBEBEB; stroke-linecap: butt;' clip-path='url(#cpNTYuMTAyM3wyOTYuOTIxfDI1My43NXwyMy4xNzk4)' />
<polyline points='56.10,173.88 296.92,173.88 ' style='stroke-width: 1.07; stroke: #EBEBEB; stroke-linecap: butt;' clip-path='url(#cpNTYuMTAyM3wyOTYuOTIxfDI1My43NXwyMy4xNzk4)' />
<polyline points='56.10,122.43 296.92,122.43 ' style='stroke-width: 1.07; stroke: #EBEBEB; stroke-linecap: butt;' clip-path='url(#cpNTYuMTAyM3wyOTYuOTIxfDI1My43NXwyMy4xNzk4)' />
<polyline points='56.10,70.99 296.92,70.99 ' style='stroke-width: 1.07; stroke: #EBEBEB; stroke-linecap: butt;' clip-path='url(#cpNTYuMTAyM3wyOTYuOTIxfDI1My43NXwyMy4xNzk4)' />
<polyline points='107.32,253.75 107.32,23.18 ' style='stroke-width: 1.07; stroke: #EBEBEB; stroke-linecap: butt;' clip-path='url(#cpNTYuMTAyM3wyOTYuOTIxfDI1My43NXwyMy4xNzk4)' />
<polyline points='185.50,253.75 185.50,23.18 ' style='stroke-width: 1.07; stroke: #EBEBEB; stroke-linecap: butt;' clip-path='url(#cpNTYuMTAyM3wyOTYuOTIxfDI1My43NXwyMy4xNzk4)' />
<polyline points='263.69,253.75 263.69,23.18 ' style='stroke-width: 1.07; stroke: #EBEBEB; stroke-linecap: butt;' clip-path='url(#cpNTYuMTAyM3wyOTYuOTIxfDI1My43NXwyMy4xNzk4)' />
<circle cx='74.15' cy='225.77' r='3.56pt' style='stroke-width: 0.71; stroke: #000000; stroke-opacity: 0.70; fill: #D1EEEE; fill-opacity: 0.70;' clip-path='url(#cpNTYuMTAyM3wyOTYuOTIxfDI1My43NXwyMy4xNzk4)' />
<circle cx='91.66' cy='176.27' r='3.56pt' style='stroke-width: 0.71; stroke: #000000; stroke-opacity: 0.70; fill: #D1EEEE; fill-opacity: 0.70;' clip-path='url(#cpNTYuMTAyM3wyOTYuOTIxfDI1My43NXwyMy4xNzk4)' />
<circle cx='121.86' cy='103.60' r='3.56pt' style='stroke-width: 0.71; stroke: #000000; stroke-opacity: 0.70; fill: #D1EEEE; fill-opacity: 0.70;' clip-path='url(#cpNTYuMTAyM3wyOTYuOTIxfDI1My43NXwyMy4xNzk4)' />
<circle cx='156.29' cy='47.30' r='3.56pt' style='stroke-width: 0.71; stroke: #000000; stroke-opacity: 0.70; fill: #D1EEEE; fill-opacity: 0.70;' clip-path='url(#cpNTYuMTAyM3wyOTYuOTIxfDI1My43NXwyMy4xNzk4)' />
<circle cx='187.11' cy='33.73' r='3.56pt' style='stroke-width: 0.71; stroke: #000000; stroke-opacity: 0.70; fill: #D1EEEE; fill-opacity: 0.70;' clip-path='url(#cpNTYuMTAyM3wyOTYuOTIxfDI1My43NXwyMy4xNzk4)' />
<circle cx='209.49' cy='49.83' r='3.56pt' style='stroke-width: 0.71; stroke: #000000; stroke-opacity: 0.70; fill: #D1EEEE; fill-opacity: 0.70;' clip-path='url(#cpNTYuMTAyM3wyOTYuOTIxfDI1My43NXwyMy4xNzk4)' />
<circle cx='228.84' cy='59.41' r='3.56pt' style='stroke-width: 0.71; stroke: #000000; stroke-opacity: 0.70; fill: #D1EEEE; fill-opacity: 0.70;' clip-path='url(#cpNTYuMTAyM3wyOTYuOTIxfDI1My43NXwyMy4xNzk4)' />
<circle cx='251.81' cy='65.66' r='3.56pt' style='stroke-width: 0.71; stroke: #000000; stroke-opacity: 0.70; fill: #D1EEEE; fill-opacity: 0.70;' clip-path='url(#cpNTYuMTAyM3wyOTYuOTIxfDI1My43NXwyMy4xNzk4)' />
<circle cx='279.65' cy='124.38' r='3.56pt' style='stroke-width: 0.71; stroke: #000000; stroke-opacity: 0.70; fill: #D1EEEE; fill-opacity: 0.70;' clip-path='url(#cpNTYuMTAyM3wyOTYuOTIxfDI1My43NXwyMy4xNzk4)' />
<polyline points='67.05,243.27 68.15,240.40 69.25,237.53 70.35,234.65 71.45,231.75 72.55,228.85 73.65,225.94 74.75,223.03 75.85,220.11 76.95,217.18 78.05,214.25 79.15,211.32 80.25,208.38 81.35,205.44 82.45,202.50 83.55,199.56 84.65,196.62 85.75,193.68 86.85,190.75 87.95,187.81 89.05,184.89 90.15,181.96 91.25,179.04 92.35,176.13 93.45,173.23 94.55,170.34 95.65,167.45 96.75,164.58 97.85,161.71 98.95,158.86 100.05,156.02 101.15,153.20 102.25,150.39 103.35,147.60 104.45,144.83 105.55,142.07 106.65,139.33 107.75,136.61 108.85,133.92 109.95,131.24 111.05,128.59 112.15,125.96 113.25,123.35 114.35,120.77 115.45,118.22 116.55,115.69 117.65,113.20 118.75,110.73 119.85,108.28 120.95,105.87 122.06,103.49 123.16,101.15 124.26,98.83 125.36,96.55 126.46,94.30 127.56,92.09 128.66,89.91 129.76,87.77 130.86,85.66 131.96,83.59 133.06,81.56 134.16,79.57 135.26,77.62 136.36,75.70 137.46,73.83 138.56,71.99 139.66,70.20 140.76,68.45 141.86,66.74 142.96,65.07 144.06,63.44 145.16,61.86 146.26,60.31 147.36,58.81 148.46,57.36 149.56,55.95 150.66,54.58 151.76,53.26 152.86,51.97 153.96,50.74 155.06,49.55 156.16,48.40 157.26,47.29 158.36,46.23 159.46,45.22 160.56,44.25 161.66,43.32 162.76,42.44 163.86,41.60 164.96,40.80 166.06,40.05 167.16,39.34 168.26,38.67 169.36,38.05 170.46,37.47 171.56,36.93 172.66,36.44 173.76,35.98 174.86,35.57 175.96,35.20 177.06,34.87 178.16,34.58 179.26,34.33 180.36,34.12 181.46,33.95 182.56,33.82 183.66,33.73 184.76,33.68 185.86,33.66 186.96,33.68 188.06,33.74 189.16,33.83 190.26,33.96 191.36,34.13 192.46,34.33 193.56,34.56 194.66,34.83 195.76,35.13 196.86,35.47 197.96,35.83 199.06,36.23 200.16,36.66 201.26,37.12 202.36,37.61 203.46,38.13 204.56,38.68 205.66,39.26 206.76,39.86 207.87,40.50 208.97,41.16 210.07,41.84 211.17,42.55 212.27,43.29 213.37,44.05 214.47,44.84 215.57,45.64 216.67,46.48 217.77,47.33 218.87,48.21 219.97,49.11 221.07,50.02 222.17,50.96 223.27,51.92 224.37,52.90 225.47,53.90 226.57,54.91 227.67,55.95 228.77,57.00 229.87,58.07 230.97,59.15 232.07,60.25 233.17,61.37 234.27,62.50 235.37,63.64 236.47,64.80 237.57,65.98 238.67,67.16 239.77,68.36 240.87,69.57 241.97,70.79 243.07,72.03 244.17,73.27 245.27,74.53 246.37,75.80 247.47,77.07 248.57,78.36 249.67,79.65 250.77,80.96 251.87,82.27 252.97,83.59 254.07,84.92 255.17,86.25 256.27,87.59 257.37,88.94 258.47,90.30 259.57,91.66 260.67,93.03 261.77,94.40 262.87,95.78 263.97,97.16 265.07,98.54 266.17,99.93 267.27,101.33 268.37,102.73 269.47,104.13 270.57,105.53 271.67,106.94 272.77,108.35 273.87,109.77 274.97,111.18 276.07,112.60 277.17,114.02 278.27,115.44 279.37,116.86 280.47,118.28 281.57,119.71 282.67,121.13 283.77,122.55 284.87,123.98 285.97,125.40 ' style='stroke-width: 2.77; stroke: #1B9E77; stroke-linecap: butt;' clip-path='url(#cpNTYuMTAyM3wyOTYuOTIxfDI1My43NXwyMy4xNzk4)' />
<g clip-path='url(#cpNTYuMTAyM3wyOTYuOTIxfDI1My43NXwyMy4xNzk4)'><text x='74.15' y='89.37' style='font-size: 8.54px; font-style: italic; font-family: Arial;' textLength='60.01px' lengthAdjust='spacingAndGlyphs'>R^2 sch= 0.99 </text></g>
<g clip-path='url(#cpNTYuMTAyM3wyOTYuOTIxfDI1My43NXwyMy4xNzk4)'><text x='74.15' y='101.66' style='font-size: 8.54px; font-style: italic; font-family: Arial;' textLength='50.28px' lengthAdjust='spacingAndGlyphs'>E sch= 0.79 </text></g>
<g clip-path='url(#cpNTYuMTAyM3wyOTYuOTIxfDI1My43NXwyMy4xNzk4)'><text x='74.15' y='113.95' style='font-size: 8.54px; font-style: italic; font-family: Arial;' textLength='59.78px' lengthAdjust='spacingAndGlyphs'>AIC sch= -38.2</text></g>
<rect x='56.10' y='23.18' width='240.82' height='230.57' style='stroke-width: 1.07; stroke: #333333;' clip-path='url(#cpNTYuMTAyM3wyOTYuOTIxfDI1My43NXwyMy4xNzk4)' />
<defs>
  <clipPath id='cpMHwzMDIuNHwyODh8MA=='>
    <rect x='0.00' y='0.00' width='302.40' height='288.00' />
  </clipPath>
</defs>
<g clip-path='url(#cpMHwzMDIuNHwyODh8MA==)'><text x='20.65' y='228.55' style='font-size: 8.80px; fill: #4D4D4D; font-family: Arial;' textLength='30.52px' lengthAdjust='spacingAndGlyphs'>1.0e-05</text></g>
<g clip-path='url(#cpMHwzMDIuNHwyODh8MA==)'><text x='20.65' y='177.10' style='font-size: 8.80px; fill: #4D4D4D; font-family: Arial;' textLength='30.52px' lengthAdjust='spacingAndGlyphs'>1.2e-05</text></g>
<g clip-path='url(#cpMHwzMDIuNHwyODh8MA==)'><text x='20.65' y='125.65' style='font-size: 8.80px; fill: #4D4D4D; font-family: Arial;' textLength='30.52px' lengthAdjust='spacingAndGlyphs'>1.4e-05</text></g>
<g clip-path='url(#cpMHwzMDIuNHwyODh8MA==)'><text x='20.65' y='74.21' style='font-size: 8.80px; fill: #4D4D4D; font-family: Arial;' textLength='30.52px' lengthAdjust='spacingAndGlyphs'>1.6e-05</text></g>
<polyline points='53.36,225.33 56.10,225.33 ' style='stroke-width: 1.07; stroke: #333333; stroke-linecap: butt;' clip-path='url(#cpMHwzMDIuNHwyODh8MA==)' />
<polyline points='53.36,173.88 56.10,173.88 ' style='stroke-width: 1.07; stroke: #333333; stroke-linecap: butt;' clip-path='url(#cpMHwzMDIuNHwyODh8MA==)' />
<polyline points='53.36,122.43 56.10,122.43 ' style='stroke-width: 1.07; stroke: #333333; stroke-linecap: butt;' clip-path='url(#cpMHwzMDIuNHwyODh8MA==)' />
<polyline points='53.36,70.99 56.10,70.99 ' style='stroke-width: 1.07; stroke: #333333; stroke-linecap: butt;' clip-path='url(#cpMHwzMDIuNHwyODh8MA==)' />
<polyline points='107.32,256.49 107.32,253.75 ' style='stroke-width: 1.07; stroke: #333333; stroke-linecap: butt;' clip-path='url(#cpMHwzMDIuNHwyODh8MA==)' />
<polyline points='185.50,256.49 185.50,253.75 ' style='stroke-width: 1.07; stroke: #333333; stroke-linecap: butt;' clip-path='url(#cpMHwzMDIuNHwyODh8MA==)' />
<polyline points='263.69,256.49 263.69,253.75 ' style='stroke-width: 1.07; stroke: #333333; stroke-linecap: butt;' clip-path='url(#cpMHwzMDIuNHwyODh8MA==)' />
<g clip-path='url(#cpMHwzMDIuNHwyODh8MA==)'><text x='102.31' y='265.12' style='font-size: 8.80px; fill: #4D4D4D; font-family: Arial;' textLength='10.01px' lengthAdjust='spacingAndGlyphs'>10</text></g>
<g clip-path='url(#cpMHwzMDIuNHwyODh8MA==)'><text x='180.50' y='265.12' style='font-size: 8.80px; fill: #4D4D4D; font-family: Arial;' textLength='10.01px' lengthAdjust='spacingAndGlyphs'>20</text></g>
<g clip-path='url(#cpMHwzMDIuNHwyODh8MA==)'><text x='258.69' y='265.12' style='font-size: 8.80px; fill: #4D4D4D; font-family: Arial;' textLength='10.01px' lengthAdjust='spacingAndGlyphs'>30</text></g>
<g clip-path='url(#cpMHwzMDIuNHwyODh8MA==)'><text x='137.56' y='277.88' style='font-size: 10.00px; font-family: Arial;' textLength='63.35px' lengthAdjust='spacingAndGlyphs'>Temperature (</text></g>
<g clip-path='url(#cpMHwzMDIuNHwyODh8MA==)'><text x='200.91' y='277.88' style='font-size: 10.00px; font-family: Symbol;' textLength='4.00px' lengthAdjust='spacingAndGlyphs'>°</text></g>
<g clip-path='url(#cpMHwzMDIuNHwyODh8MA==)'><text x='204.91' y='277.88' style='font-size: 10.00px; font-family: Arial;' textLength='7.22px' lengthAdjust='spacingAndGlyphs'>C</text></g>
<g clip-path='url(#cpMHwzMDIuNHwyODh8MA==)'><text x='212.13' y='277.88' style='font-size: 10.00px; font-family: Arial;' textLength='3.33px' lengthAdjust='spacingAndGlyphs'>)</text></g>
<g clip-path='url(#cpMHwzMDIuNHwyODh8MA==)'><text transform='translate(12.64,180.16) rotate(-90)' style='font-size: 10.00px; font-family: Arial;' textLength='83.39px' lengthAdjust='spacingAndGlyphs'>net photosynthesis</text></g>
<g clip-path='url(#cpMHwzMDIuNHwyODh8MA==)'><text x='56.10' y='14.07' style='font-size: 12.00px; font-family: Arial;' textLength='100.72px' lengthAdjust='spacingAndGlyphs'>Phaseolus vulgaris</text></g>
</svg>
