<?xml version='1.0' encoding='UTF-8' ?>
<svg xmlns='http://www.w3.org/2000/svg' xmlns:xlink='http://www.w3.org/1999/xlink' viewBox='0 0 302.40 288.00'>
<defs>
  <style type='text/css'><![CDATA[
    line, polyline, path, rect, circle {
      fill: none;
      stroke: #000000;
      stroke-linecap: round;
      stroke-linejoin: round;
      stroke-miterlimit: 10.00;
    }
  ]]></style>
</defs>
<rect width='100%' height='100%' style='stroke: none; fill: #FFFFFF;'/>
<rect x='0.00' y='0.00' width='302.40' height='288.00' style='stroke-width: 1.07; stroke: #FFFFFF; fill: #FFFFFF;' />
<defs>
  <clipPath id='cpNTYuMTAyM3wyOTYuOTIxfDI1My43NXwyMy4xNzk4'>
    <rect x='56.10' y='23.18' width='240.82' height='230.57' />
  </clipPath>
</defs>
<rect x='56.10' y='23.18' width='240.82' height='230.57' style='stroke-width: 1.07; stroke: none; fill: #FFFFFF;' clip-path='url(#cpNTYuMTAyM3wyOTYuOTIxfDI1My43NXwyMy4xNzk4)' />
<polyline points='56.10,241.28 296.92,241.28 ' style='stroke-width: 0.53; stroke: #EBEBEB; stroke-linecap: butt;' clip-path='url(#cpNTYuMTAyM3wyOTYuOTIxfDI1My43NXwyMy4xNzk4)' />
<polyline points='56.10,198.04 296.92,198.04 ' style='stroke-width: 0.53; stroke: #EBEBEB; stroke-linecap: butt;' clip-path='url(#cpNTYuMTAyM3wyOTYuOTIxfDI1My43NXwyMy4xNzk4)' />
<polyline points='56.10,154.80 296.92,154.80 ' style='stroke-width: 0.53; stroke: #EBEBEB; stroke-linecap: butt;' clip-path='url(#cpNTYuMTAyM3wyOTYuOTIxfDI1My43NXwyMy4xNzk4)' />
<polyline points='56.10,111.56 296.92,111.56 ' style='stroke-width: 0.53; stroke: #EBEBEB; stroke-linecap: butt;' clip-path='url(#cpNTYuMTAyM3wyOTYuOTIxfDI1My43NXwyMy4xNzk4)' />
<polyline points='56.10,68.33 296.92,68.33 ' style='stroke-width: 0.53; stroke: #EBEBEB; stroke-linecap: butt;' clip-path='url(#cpNTYuMTAyM3wyOTYuOTIxfDI1My43NXwyMy4xNzk4)' />
<polyline points='56.10,25.09 296.92,25.09 ' style='stroke-width: 0.53; stroke: #EBEBEB; stroke-linecap: butt;' clip-path='url(#cpNTYuMTAyM3wyOTYuOTIxfDI1My43NXwyMy4xNzk4)' />
<polyline points='121.03,253.75 121.03,23.18 ' style='stroke-width: 0.53; stroke: #EBEBEB; stroke-linecap: butt;' clip-path='url(#cpNTYuMTAyM3wyOTYuOTIxfDI1My43NXwyMy4xNzk4)' />
<polyline points='196.52,253.75 196.52,23.18 ' style='stroke-width: 0.53; stroke: #EBEBEB; stroke-linecap: butt;' clip-path='url(#cpNTYuMTAyM3wyOTYuOTIxfDI1My43NXwyMy4xNzk4)' />
<polyline points='272.01,253.75 272.01,23.18 ' style='stroke-width: 0.53; stroke: #EBEBEB; stroke-linecap: butt;' clip-path='url(#cpNTYuMTAyM3wyOTYuOTIxfDI1My43NXwyMy4xNzk4)' />
<polyline points='56.10,219.66 296.92,219.66 ' style='stroke-width: 1.07; stroke: #EBEBEB; stroke-linecap: butt;' clip-path='url(#cpNTYuMTAyM3wyOTYuOTIxfDI1My43NXwyMy4xNzk4)' />
<polyline points='56.10,176.42 296.92,176.42 ' style='stroke-width: 1.07; stroke: #EBEBEB; stroke-linecap: butt;' clip-path='url(#cpNTYuMTAyM3wyOTYuOTIxfDI1My43NXwyMy4xNzk4)' />
<polyline points='56.10,133.18 296.92,133.18 ' style='stroke-width: 1.07; stroke: #EBEBEB; stroke-linecap: butt;' clip-path='url(#cpNTYuMTAyM3wyOTYuOTIxfDI1My43NXwyMy4xNzk4)' />
<polyline points='56.10,89.95 296.92,89.95 ' style='stroke-width: 1.07; stroke: #EBEBEB; stroke-linecap: butt;' clip-path='url(#cpNTYuMTAyM3wyOTYuOTIxfDI1My43NXwyMy4xNzk4)' />
<polyline points='56.10,46.71 296.92,46.71 ' style='stroke-width: 1.07; stroke: #EBEBEB; stroke-linecap: butt;' clip-path='url(#cpNTYuMTAyM3wyOTYuOTIxfDI1My43NXwyMy4xNzk4)' />
<polyline points='83.28,253.75 83.28,23.18 ' style='stroke-width: 1.07; stroke: #EBEBEB; stroke-linecap: butt;' clip-path='url(#cpNTYuMTAyM3wyOTYuOTIxfDI1My43NXwyMy4xNzk4)' />
<polyline points='158.77,253.75 158.77,23.18 ' style='stroke-width: 1.07; stroke: #EBEBEB; stroke-linecap: butt;' clip-path='url(#cpNTYuMTAyM3wyOTYuOTIxfDI1My43NXwyMy4xNzk4)' />
<polyline points='234.26,253.75 234.26,23.18 ' style='stroke-width: 1.07; stroke: #EBEBEB; stroke-linecap: butt;' clip-path='url(#cpNTYuMTAyM3wyOTYuOTIxfDI1My43NXwyMy4xNzk4)' />
<circle cx='71.96' cy='236.10' r='3.56pt' style='stroke-width: 0.71; stroke: #000000; stroke-opacity: 0.70; fill: #D1EEEE; fill-opacity: 0.70;' clip-path='url(#cpNTYuMTAyM3wyOTYuOTIxfDI1My43NXwyMy4xNzk4)' />
<circle cx='87.05' cy='225.54' r='3.56pt' style='stroke-width: 0.71; stroke: #000000; stroke-opacity: 0.70; fill: #D1EEEE; fill-opacity: 0.70;' clip-path='url(#cpNTYuMTAyM3wyOTYuOTIxfDI1My43NXwyMy4xNzk4)' />
<circle cx='109.70' cy='198.68' r='3.56pt' style='stroke-width: 0.71; stroke: #000000; stroke-opacity: 0.70; fill: #D1EEEE; fill-opacity: 0.70;' clip-path='url(#cpNTYuMTAyM3wyOTYuOTIxfDI1My43NXwyMy4xNzk4)' />
<circle cx='136.12' cy='159.34' r='3.56pt' style='stroke-width: 0.71; stroke: #000000; stroke-opacity: 0.70; fill: #D1EEEE; fill-opacity: 0.70;' clip-path='url(#cpNTYuMTAyM3wyOTYuOTIxfDI1My43NXwyMy4xNzk4)' />
<circle cx='162.55' cy='113.29' r='3.56pt' style='stroke-width: 0.71; stroke: #000000; stroke-opacity: 0.70; fill: #D1EEEE; fill-opacity: 0.70;' clip-path='url(#cpNTYuMTAyM3wyOTYuOTIxfDI1My43NXwyMy4xNzk4)' />
<circle cx='181.42' cy='96.02' r='3.56pt' style='stroke-width: 0.71; stroke: #000000; stroke-opacity: 0.70; fill: #D1EEEE; fill-opacity: 0.70;' clip-path='url(#cpNTYuMTAyM3wyOTYuOTIxfDI1My43NXwyMy4xNzk4)' />
<circle cx='211.62' cy='76.83' r='3.56pt' style='stroke-width: 0.71; stroke: #000000; stroke-opacity: 0.70; fill: #D1EEEE; fill-opacity: 0.70;' clip-path='url(#cpNTYuMTAyM3wyOTYuOTIxfDI1My43NXwyMy4xNzk4)' />
<circle cx='234.26' cy='52.85' r='3.56pt' style='stroke-width: 0.71; stroke: #000000; stroke-opacity: 0.70; fill: #D1EEEE; fill-opacity: 0.70;' clip-path='url(#cpNTYuMTAyM3wyOTYuOTIxfDI1My43NXwyMy4xNzk4)' />
<circle cx='260.68' cy='46.13' r='3.56pt' style='stroke-width: 0.71; stroke: #000000; stroke-opacity: 0.70; fill: #D1EEEE; fill-opacity: 0.70;' clip-path='url(#cpNTYuMTAyM3wyOTYuOTIxfDI1My43NXwyMy4xNzk4)' />
<circle cx='283.33' cy='33.66' r='3.56pt' style='stroke-width: 0.71; stroke: #000000; stroke-opacity: 0.70; fill: #D1EEEE; fill-opacity: 0.70;' clip-path='url(#cpNTYuMTAyM3wyOTYuOTIxfDI1My43NXwyMy4xNzk4)' />
<polyline points='67.05,243.27 68.15,242.25 69.25,241.21 70.35,240.16 71.45,239.11 72.55,238.04 73.65,236.95 74.75,235.86 75.85,234.75 76.95,233.63 78.05,232.50 79.15,231.36 80.25,230.21 81.35,229.04 82.45,227.86 83.55,226.67 84.65,225.47 85.75,224.26 86.85,223.04 87.95,221.80 89.05,220.56 90.15,219.30 91.25,218.04 92.35,216.76 93.45,215.47 94.55,214.17 95.65,212.86 96.75,211.54 97.85,210.21 98.95,208.87 100.05,207.52 101.15,206.16 102.25,204.79 103.35,203.41 104.45,202.02 105.55,200.62 106.65,199.21 107.75,197.80 108.85,196.38 109.95,194.95 111.05,193.51 112.15,192.06 113.25,190.61 114.35,189.15 115.45,187.68 116.55,186.20 117.65,184.72 118.75,183.24 119.85,181.74 120.95,180.24 122.06,178.74 123.16,177.23 124.26,175.72 125.36,174.20 126.46,172.68 127.56,171.15 128.66,169.62 129.76,168.09 130.86,166.56 131.96,165.02 133.06,163.48 134.16,161.94 135.26,160.40 136.36,158.85 137.46,157.31 138.56,155.76 139.66,154.22 140.76,152.67 141.86,151.13 142.96,149.58 144.06,148.04 145.16,146.50 146.26,144.96 147.36,143.42 148.46,141.89 149.56,140.36 150.66,138.83 151.76,137.31 152.86,135.79 153.96,134.27 155.06,132.76 156.16,131.25 157.26,129.75 158.36,128.26 159.46,126.77 160.56,125.29 161.66,123.81 162.76,122.34 163.86,120.88 164.96,119.43 166.06,117.98 167.16,116.55 168.26,115.12 169.36,113.70 170.46,112.29 171.56,110.89 172.66,109.50 173.76,108.12 174.86,106.75 175.96,105.39 177.06,104.04 178.16,102.70 179.26,101.37 180.36,100.06 181.46,98.75 182.56,97.46 183.66,96.18 184.76,94.92 185.86,93.66 186.96,92.42 188.06,91.19 189.16,89.98 190.26,88.77 191.36,87.58 192.46,86.41 193.56,85.25 194.66,84.10 195.76,82.97 196.86,81.85 197.96,80.75 199.06,79.66 200.16,78.58 201.26,77.52 202.36,76.47 203.46,75.44 204.56,74.43 205.66,73.42 206.76,72.44 207.87,71.47 208.97,70.51 210.07,69.57 211.17,68.64 212.27,67.73 213.37,66.84 214.47,65.96 215.57,65.09 216.67,64.24 217.77,63.41 218.87,62.59 219.97,61.79 221.07,61.00 222.17,60.23 223.27,59.47 224.37,58.72 225.47,58.00 226.57,57.28 227.67,56.59 228.77,55.90 229.87,55.24 230.97,54.58 232.07,53.94 233.17,53.32 234.27,52.71 235.37,52.12 236.47,51.54 237.57,50.97 238.67,50.42 239.77,49.88 240.87,49.36 241.97,48.85 243.07,48.35 244.17,47.87 245.27,47.40 246.37,46.94 247.47,46.50 248.57,46.07 249.67,45.66 250.77,45.26 251.87,44.87 252.97,44.49 254.07,44.13 255.17,43.77 256.27,43.43 257.37,43.11 258.47,42.79 259.57,42.49 260.67,42.20 261.77,41.92 262.87,41.65 263.97,41.39 265.07,41.15 266.17,40.91 267.27,40.69 268.37,40.48 269.47,40.28 270.57,40.09 271.67,39.91 272.77,39.74 273.87,39.58 274.97,39.43 276.07,39.29 277.17,39.16 278.27,39.03 279.37,38.92 280.47,38.82 281.57,38.73 282.67,38.65 283.77,38.57 284.87,38.50 285.97,38.45 ' style='stroke-width: 2.77; stroke: #1B9E77; stroke-linecap: butt;' clip-path='url(#cpNTYuMTAyM3wyOTYuOTIxfDI1My43NXwyMy4xNzk4)' />
<g clip-path='url(#cpNTYuMTAyM3wyOTYuOTIxfDI1My43NXwyMy4xNzk4)'><text x='71.96' y='114.77' style='font-size: 8.54px; font-style: italic; font-family: Arial;' textLength='60.01px' lengthAdjust='spacingAndGlyphs'>R^2 sch= 1.00 </text></g>
<g clip-path='url(#cpNTYuMTAyM3wyOTYuOTIxfDI1My43NXwyMy4xNzk4)'><text x='71.96' y='127.06' style='font-size: 8.54px; font-style: italic; font-family: Arial;' textLength='55.29px' lengthAdjust='spacingAndGlyphs'>E sch= 0.894 </text></g>
<g clip-path='url(#cpNTYuMTAyM3wyOTYuOTIxfDI1My43NXwyMy4xNzk4)'><text x='71.96' y='139.36' style='font-size: 8.54px; font-style: italic; font-family: Arial;' textLength='52.27px' lengthAdjust='spacingAndGlyphs'>AIC sch= -33</text></g>
<rect x='56.10' y='23.18' width='240.82' height='230.57' style='stroke-width: 1.07; stroke: #333333;' clip-path='url(#cpNTYuMTAyM3wyOTYuOTIxfDI1My43NXwyMy4xNzk4)' />
<defs>
  <clipPath id='cpMHwzMDIuNHwyODh8MA=='>
    <rect x='0.00' y='0.00' width='302.40' height='288.00' />
  </clipPath>
</defs>
<g clip-path='url(#cpMHwzMDIuNHwyODh8MA==)'><text x='20.65' y='222.88' style='font-size: 8.80px; fill: #4D4D4D; font-family: Arial;' textLength='30.52px' lengthAdjust='spacingAndGlyphs'>1.0e-05</text></g>
<g clip-path='url(#cpMHwzMDIuNHwyODh8MA==)'><text x='20.65' y='179.64' style='font-size: 8.80px; fill: #4D4D4D; font-family: Arial;' textLength='30.52px' lengthAdjust='spacingAndGlyphs'>1.5e-05</text></g>
<g clip-path='url(#cpMHwzMDIuNHwyODh8MA==)'><text x='20.65' y='136.40' style='font-size: 8.80px; fill: #4D4D4D; font-family: Arial;' textLength='30.52px' lengthAdjust='spacingAndGlyphs'>2.0e-05</text></g>
<g clip-path='url(#cpMHwzMDIuNHwyODh8MA==)'><text x='20.65' y='93.16' style='font-size: 8.80px; fill: #4D4D4D; font-family: Arial;' textLength='30.52px' lengthAdjust='spacingAndGlyphs'>2.5e-05</text></g>
<g clip-path='url(#cpMHwzMDIuNHwyODh8MA==)'><text x='20.65' y='49.93' style='font-size: 8.80px; fill: #4D4D4D; font-family: Arial;' textLength='30.52px' lengthAdjust='spacingAndGlyphs'>3.0e-05</text></g>
<polyline points='53.36,219.66 56.10,219.66 ' style='stroke-width: 1.07; stroke: #333333; stroke-linecap: butt;' clip-path='url(#cpMHwzMDIuNHwyODh8MA==)' />
<polyline points='53.36,176.42 56.10,176.42 ' style='stroke-width: 1.07; stroke: #333333; stroke-linecap: butt;' clip-path='url(#cpMHwzMDIuNHwyODh8MA==)' />
<polyline points='53.36,133.18 56.10,133.18 ' style='stroke-width: 1.07; stroke: #333333; stroke-linecap: butt;' clip-path='url(#cpMHwzMDIuNHwyODh8MA==)' />
<polyline points='53.36,89.95 56.10,89.95 ' style='stroke-width: 1.07; stroke: #333333; stroke-linecap: butt;' clip-path='url(#cpMHwzMDIuNHwyODh8MA==)' />
<polyline points='53.36,46.71 56.10,46.71 ' style='stroke-width: 1.07; stroke: #333333; stroke-linecap: butt;' clip-path='url(#cpMHwzMDIuNHwyODh8MA==)' />
<polyline points='83.28,256.49 83.28,253.75 ' style='stroke-width: 1.07; stroke: #333333; stroke-linecap: butt;' clip-path='url(#cpMHwzMDIuNHwyODh8MA==)' />
<polyline points='158.77,256.49 158.77,253.75 ' style='stroke-width: 1.07; stroke: #333333; stroke-linecap: butt;' clip-path='url(#cpMHwzMDIuNHwyODh8MA==)' />
<polyline points='234.26,256.49 234.26,253.75 ' style='stroke-width: 1.07; stroke: #333333; stroke-linecap: butt;' clip-path='url(#cpMHwzMDIuNHwyODh8MA==)' />
<g clip-path='url(#cpMHwzMDIuNHwyODh8MA==)'><text x='78.27' y='265.12' style='font-size: 8.80px; fill: #4D4D4D; font-family: Arial;' textLength='10.01px' lengthAdjust='spacingAndGlyphs'>10</text></g>
<g clip-path='url(#cpMHwzMDIuNHwyODh8MA==)'><text x='153.77' y='265.12' style='font-size: 8.80px; fill: #4D4D4D; font-family: Arial;' textLength='10.01px' lengthAdjust='spacingAndGlyphs'>20</text></g>
<g clip-path='url(#cpMHwzMDIuNHwyODh8MA==)'><text x='229.26' y='265.12' style='font-size: 8.80px; fill: #4D4D4D; font-family: Arial;' textLength='10.01px' lengthAdjust='spacingAndGlyphs'>30</text></g>
<g clip-path='url(#cpMHwzMDIuNHwyODh8MA==)'><text x='137.56' y='277.88' style='font-size: 10.00px; font-family: Arial;' textLength='63.35px' lengthAdjust='spacingAndGlyphs'>Temperature (</text></g>
<g clip-path='url(#cpMHwzMDIuNHwyODh8MA==)'><text x='200.91' y='277.88' style='font-size: 10.00px; font-family: Symbol;' textLength='4.00px' lengthAdjust='spacingAndGlyphs'>°</text></g>
<g clip-path='url(#cpMHwzMDIuNHwyODh8MA==)'><text x='204.91' y='277.88' style='font-size: 10.00px; font-family: Arial;' textLength='7.22px' lengthAdjust='spacingAndGlyphs'>C</text></g>
<g clip-path='url(#cpMHwzMDIuNHwyODh8MA==)'><text x='212.13' y='277.88' style='font-size: 10.00px; font-family: Arial;' textLength='3.33px' lengthAdjust='spacingAndGlyphs'>)</text></g>
<g clip-path='url(#cpMHwzMDIuNHwyODh8MA==)'><text transform='translate(12.64,180.16) rotate(-90)' style='font-size: 10.00px; font-family: Arial;' textLength='83.39px' lengthAdjust='spacingAndGlyphs'>net photosynthesis</text></g>
<g clip-path='url(#cpMHwzMDIuNHwyODh8MA==)'><text x='56.10' y='14.07' style='font-size: 12.00px; font-family: Arial;' textLength='122.75px' lengthAdjust='spacingAndGlyphs'>Muhlenbergia montana</text></g>
</svg>
