<?xml version='1.0' encoding='UTF-8' ?>
<svg xmlns='http://www.w3.org/2000/svg' xmlns:xlink='http://www.w3.org/1999/xlink' viewBox='0 0 302.40 288.00'>
<defs>
  <style type='text/css'><![CDATA[
    line, polyline, path, rect, circle {
      fill: none;
      stroke: #000000;
      stroke-linecap: round;
      stroke-linejoin: round;
      stroke-miterlimit: 10.00;
    }
  ]]></style>
</defs>
<rect width='100%' height='100%' style='stroke: none; fill: #FFFFFF;'/>
<rect x='0.00' y='0.00' width='302.40' height='288.00' style='stroke-width: 1.07; stroke: #FFFFFF; fill: #FFFFFF;' />
<defs>
  <clipPath id='cpNTIuOTY0NnwyOTYuOTIxfDI1My43NXwyMC43ODky'>
    <rect x='52.96' y='20.79' width='243.96' height='232.96' />
  </clipPath>
</defs>
<rect x='52.96' y='20.79' width='243.96' height='232.96' style='stroke-width: 1.07; stroke: none; fill: #FFFFFF;' clip-path='url(#cpNTIuOTY0NnwyOTYuOTIxfDI1My43NXwyMC43ODky)' />
<polyline points='52.96,228.44 296.92,228.44 ' style='stroke-width: 0.53; stroke: #EBEBEB; stroke-linecap: butt;' clip-path='url(#cpNTIuOTY0NnwyOTYuOTIxfDI1My43NXwyMC43ODky)' />
<polyline points='52.96,178.42 296.92,178.42 ' style='stroke-width: 0.53; stroke: #EBEBEB; stroke-linecap: butt;' clip-path='url(#cpNTIuOTY0NnwyOTYuOTIxfDI1My43NXwyMC43ODky)' />
<polyline points='52.96,128.40 296.92,128.40 ' style='stroke-width: 0.53; stroke: #EBEBEB; stroke-linecap: butt;' clip-path='url(#cpNTIuOTY0NnwyOTYuOTIxfDI1My43NXwyMC43ODky)' />
<polyline points='52.96,78.39 296.92,78.39 ' style='stroke-width: 0.53; stroke: #EBEBEB; stroke-linecap: butt;' clip-path='url(#cpNTIuOTY0NnwyOTYuOTIxfDI1My43NXwyMC43ODky)' />
<polyline points='52.96,28.37 296.92,28.37 ' style='stroke-width: 0.53; stroke: #EBEBEB; stroke-linecap: butt;' clip-path='url(#cpNTIuOTY0NnwyOTYuOTIxfDI1My43NXwyMC43ODky)' />
<polyline points='102.60,253.75 102.60,20.79 ' style='stroke-width: 0.53; stroke: #EBEBEB; stroke-linecap: butt;' clip-path='url(#cpNTIuOTY0NnwyOTYuOTIxfDI1My43NXwyMC43ODky)' />
<polyline points='155.40,253.75 155.40,20.79 ' style='stroke-width: 0.53; stroke: #EBEBEB; stroke-linecap: butt;' clip-path='url(#cpNTIuOTY0NnwyOTYuOTIxfDI1My43NXwyMC43ODky)' />
<polyline points='208.21,253.75 208.21,20.79 ' style='stroke-width: 0.53; stroke: #EBEBEB; stroke-linecap: butt;' clip-path='url(#cpNTIuOTY0NnwyOTYuOTIxfDI1My43NXwyMC43ODky)' />
<polyline points='261.01,253.75 261.01,20.79 ' style='stroke-width: 0.53; stroke: #EBEBEB; stroke-linecap: butt;' clip-path='url(#cpNTIuOTY0NnwyOTYuOTIxfDI1My43NXwyMC43ODky)' />
<polyline points='52.96,253.44 296.92,253.44 ' style='stroke-width: 1.07; stroke: #EBEBEB; stroke-linecap: butt;' clip-path='url(#cpNTIuOTY0NnwyOTYuOTIxfDI1My43NXwyMC43ODky)' />
<polyline points='52.96,203.43 296.92,203.43 ' style='stroke-width: 1.07; stroke: #EBEBEB; stroke-linecap: butt;' clip-path='url(#cpNTIuOTY0NnwyOTYuOTIxfDI1My43NXwyMC43ODky)' />
<polyline points='52.96,153.41 296.92,153.41 ' style='stroke-width: 1.07; stroke: #EBEBEB; stroke-linecap: butt;' clip-path='url(#cpNTIuOTY0NnwyOTYuOTIxfDI1My43NXwyMC43ODky)' />
<polyline points='52.96,103.40 296.92,103.40 ' style='stroke-width: 1.07; stroke: #EBEBEB; stroke-linecap: butt;' clip-path='url(#cpNTIuOTY0NnwyOTYuOTIxfDI1My43NXwyMC43ODky)' />
<polyline points='52.96,53.38 296.92,53.38 ' style='stroke-width: 1.07; stroke: #EBEBEB; stroke-linecap: butt;' clip-path='url(#cpNTIuOTY0NnwyOTYuOTIxfDI1My43NXwyMC43ODky)' />
<polyline points='76.20,253.75 76.20,20.79 ' style='stroke-width: 1.07; stroke: #EBEBEB; stroke-linecap: butt;' clip-path='url(#cpNTIuOTY0NnwyOTYuOTIxfDI1My43NXwyMC43ODky)' />
<polyline points='129.00,253.75 129.00,20.79 ' style='stroke-width: 1.07; stroke: #EBEBEB; stroke-linecap: butt;' clip-path='url(#cpNTIuOTY0NnwyOTYuOTIxfDI1My43NXwyMC43ODky)' />
<polyline points='181.81,253.75 181.81,20.79 ' style='stroke-width: 1.07; stroke: #EBEBEB; stroke-linecap: butt;' clip-path='url(#cpNTIuOTY0NnwyOTYuOTIxfDI1My43NXwyMC43ODky)' />
<polyline points='234.61,253.75 234.61,20.79 ' style='stroke-width: 1.07; stroke: #EBEBEB; stroke-linecap: butt;' clip-path='url(#cpNTIuOTY0NnwyOTYuOTIxfDI1My43NXwyMC43ODky)' />
<polyline points='287.42,253.75 287.42,20.79 ' style='stroke-width: 1.07; stroke: #EBEBEB; stroke-linecap: butt;' clip-path='url(#cpNTIuOTY0NnwyOTYuOTIxfDI1My43NXwyMC43ODky)' />
<circle cx='73.68' cy='243.16' r='3.56pt' style='stroke-width: 0.71; stroke: #000000; stroke-opacity: 0.70; fill: #D1EEEE; fill-opacity: 0.70;' clip-path='url(#cpNTIuOTY0NnwyOTYuOTIxfDI1My43NXwyMC43ODky)' />
<circle cx='74.34' cy='216.09' r='3.56pt' style='stroke-width: 0.71; stroke: #000000; stroke-opacity: 0.70; fill: #D1EEEE; fill-opacity: 0.70;' clip-path='url(#cpNTIuOTY0NnwyOTYuOTIxfDI1My43NXwyMC43ODky)' />
<circle cx='126.73' cy='196.85' r='3.56pt' style='stroke-width: 0.71; stroke: #000000; stroke-opacity: 0.70; fill: #D1EEEE; fill-opacity: 0.70;' clip-path='url(#cpNTIuOTY0NnwyOTYuOTIxfDI1My43NXwyMC43ODky)' />
<circle cx='126.78' cy='175.93' r='3.56pt' style='stroke-width: 0.71; stroke: #000000; stroke-opacity: 0.70; fill: #D1EEEE; fill-opacity: 0.70;' clip-path='url(#cpNTIuOTY0NnwyOTYuOTIxfDI1My43NXwyMC43ODky)' />
<circle cx='179.76' cy='160.39' r='3.56pt' style='stroke-width: 0.71; stroke: #000000; stroke-opacity: 0.70; fill: #D1EEEE; fill-opacity: 0.70;' clip-path='url(#cpNTIuOTY0NnwyOTYuOTIxfDI1My43NXwyMC43ODky)' />
<circle cx='180.43' cy='129.62' r='3.56pt' style='stroke-width: 0.71; stroke: #000000; stroke-opacity: 0.70; fill: #D1EEEE; fill-opacity: 0.70;' clip-path='url(#cpNTIuOTY0NnwyOTYuOTIxfDI1My43NXwyMC43ODky)' />
<circle cx='232.26' cy='89.46' r='3.56pt' style='stroke-width: 0.71; stroke: #000000; stroke-opacity: 0.70; fill: #D1EEEE; fill-opacity: 0.70;' clip-path='url(#cpNTIuOTY0NnwyOTYuOTIxfDI1My43NXwyMC43ODky)' />
<circle cx='231.70' cy='72.22' r='3.56pt' style='stroke-width: 0.71; stroke: #000000; stroke-opacity: 0.70; fill: #D1EEEE; fill-opacity: 0.70;' clip-path='url(#cpNTIuOTY0NnwyOTYuOTIxfDI1My43NXwyMC43ODky)' />
<circle cx='284.13' cy='33.29' r='3.56pt' style='stroke-width: 0.71; stroke: #000000; stroke-opacity: 0.70; fill: #D1EEEE; fill-opacity: 0.70;' clip-path='url(#cpNTIuOTY0NnwyOTYuOTIxfDI1My43NXwyMC43ODky)' />
<circle cx='284.13' cy='34.52' r='3.56pt' style='stroke-width: 0.71; stroke: #000000; stroke-opacity: 0.70; fill: #D1EEEE; fill-opacity: 0.70;' clip-path='url(#cpNTIuOTY0NnwyOTYuOTIxfDI1My43NXwyMC43ODky)' />
<polyline points='64.05,236.55 65.17,235.87 66.28,235.18 67.40,234.49 68.51,233.80 69.63,233.10 70.74,232.39 71.85,231.68 72.97,230.96 74.08,230.24 75.20,229.52 76.31,228.78 77.43,228.05 78.54,227.30 79.66,226.56 80.77,225.80 81.88,225.05 83.00,224.28 84.11,223.52 85.23,222.74 86.34,221.96 87.46,221.18 88.57,220.39 89.69,219.60 90.80,218.80 91.92,217.99 93.03,217.18 94.14,216.37 95.26,215.55 96.37,214.72 97.49,213.89 98.60,213.06 99.72,212.22 100.83,211.37 101.95,210.52 103.06,209.66 104.17,208.80 105.29,207.93 106.40,207.06 107.52,206.19 108.63,205.30 109.75,204.42 110.86,203.53 111.98,202.63 113.09,201.73 114.20,200.82 115.32,199.91 116.43,198.99 117.55,198.07 118.66,197.15 119.78,196.21 120.89,195.28 122.01,194.34 123.12,193.39 124.23,192.44 125.35,191.49 126.46,190.53 127.58,189.56 128.69,188.59 129.81,187.62 130.92,186.64 132.04,185.66 133.15,184.67 134.26,183.68 135.38,182.69 136.49,181.69 137.61,180.68 138.72,179.67 139.84,178.66 140.95,177.64 142.07,176.62 143.18,175.60 144.29,174.57 145.41,173.53 146.52,172.49 147.64,171.45 148.75,170.41 149.87,169.36 150.98,168.30 152.10,167.25 153.21,166.19 154.33,165.12 155.44,164.05 156.55,162.98 157.67,161.91 158.78,160.83 159.90,159.74 161.01,158.66 162.13,157.57 163.24,156.48 164.36,155.38 165.47,154.28 166.58,153.18 167.70,152.08 168.81,150.97 169.93,149.86 171.04,148.75 172.16,147.63 173.27,146.51 174.39,145.39 175.50,144.26 176.61,143.14 177.73,142.01 178.84,140.88 179.96,139.74 181.07,138.61 182.19,137.47 183.30,136.33 184.42,135.18 185.53,134.04 186.64,132.89 187.76,131.74 188.87,130.59 189.99,129.44 191.10,128.29 192.22,127.13 193.33,125.97 194.45,124.81 195.56,123.65 196.67,122.49 197.79,121.33 198.90,120.16 200.02,119.00 201.13,117.83 202.25,116.67 203.36,115.50 204.48,114.33 205.59,113.16 206.70,111.99 207.82,110.82 208.93,109.65 210.05,108.47 211.16,107.30 212.28,106.13 213.39,104.95 214.51,103.78 215.62,102.61 216.73,101.43 217.85,100.26 218.96,99.09 220.08,97.91 221.19,96.74 222.31,95.57 223.42,94.39 224.54,93.22 225.65,92.05 226.77,90.88 227.88,89.71 228.99,88.54 230.11,87.37 231.22,86.20 232.34,85.04 233.45,83.87 234.57,82.70 235.68,81.54 236.80,80.38 237.91,79.22 239.02,78.06 240.14,76.90 241.25,75.74 242.37,74.58 243.48,73.43 244.60,72.28 245.71,71.13 246.83,69.98 247.94,68.83 249.05,67.69 250.17,66.54 251.28,65.40 252.40,64.26 253.51,63.13 254.63,61.99 255.74,60.86 256.86,59.73 257.97,58.60 259.08,57.48 260.20,56.36 261.31,55.24 262.43,54.12 263.54,53.01 264.66,51.90 265.77,50.79 266.89,49.68 268.00,48.58 269.11,47.48 270.23,46.38 271.34,45.29 272.46,44.20 273.57,43.11 274.69,42.03 275.80,40.95 276.92,39.87 278.03,38.80 279.14,37.73 280.26,36.66 281.37,35.60 282.49,34.54 283.60,33.48 284.72,32.43 285.83,31.38 ' style='stroke-width: 2.77; stroke: #1B9E77; stroke-linecap: butt;' clip-path='url(#cpNTIuOTY0NnwyOTYuOTIxfDI1My43NXwyMC43ODky)' />
<g clip-path='url(#cpNTIuOTY0NnwyOTYuOTIxfDI1My43NXwyMC43ODky)'><text x='73.68' y='126.08' style='font-size: 8.54px; font-style: italic; font-family: Arial;' textLength='60.01px' lengthAdjust='spacingAndGlyphs'>R^2 sch= 0.97 </text></g>
<g clip-path='url(#cpNTIuOTY0NnwyOTYuOTIxfDI1My43NXwyMC43ODky)'><text x='73.68' y='138.37' style='font-size: 8.54px; font-style: italic; font-family: Arial;' textLength='45.28px' lengthAdjust='spacingAndGlyphs'>E sch= 0.8 </text></g>
<g clip-path='url(#cpNTIuOTY0NnwyOTYuOTIxfDI1My43NXwyMC43ODky)'><text x='73.68' y='150.66' style='font-size: 8.54px; font-style: italic; font-family: Arial;' textLength='59.78px' lengthAdjust='spacingAndGlyphs'>AIC sch= -6.75</text></g>
<rect x='52.96' y='20.79' width='243.96' height='232.96' style='stroke-width: 1.07; stroke: #333333;' clip-path='url(#cpNTIuOTY0NnwyOTYuOTIxfDI1My43NXwyMC43ODky)' />
<defs>
  <clipPath id='cpMHwzMDIuNHwyODh8MA=='>
    <rect x='0.00' y='0.00' width='302.40' height='288.00' />
  </clipPath>
</defs>
<g clip-path='url(#cpMHwzMDIuNHwyODh8MA==)'><text x='20.51' y='256.66' style='font-size: 8.80px; fill: #4D4D4D; font-family: Arial;' textLength='27.53px' lengthAdjust='spacingAndGlyphs'>0.0025</text></g>
<g clip-path='url(#cpMHwzMDIuNHwyODh8MA==)'><text x='20.51' y='206.65' style='font-size: 8.80px; fill: #4D4D4D; font-family: Arial;' textLength='27.53px' lengthAdjust='spacingAndGlyphs'>0.0050</text></g>
<g clip-path='url(#cpMHwzMDIuNHwyODh8MA==)'><text x='20.51' y='156.63' style='font-size: 8.80px; fill: #4D4D4D; font-family: Arial;' textLength='27.53px' lengthAdjust='spacingAndGlyphs'>0.0075</text></g>
<g clip-path='url(#cpMHwzMDIuNHwyODh8MA==)'><text x='20.51' y='106.62' style='font-size: 8.80px; fill: #4D4D4D; font-family: Arial;' textLength='27.53px' lengthAdjust='spacingAndGlyphs'>0.0100</text></g>
<g clip-path='url(#cpMHwzMDIuNHwyODh8MA==)'><text x='20.51' y='56.60' style='font-size: 8.80px; fill: #4D4D4D; font-family: Arial;' textLength='27.53px' lengthAdjust='spacingAndGlyphs'>0.0125</text></g>
<polyline points='50.22,253.44 52.96,253.44 ' style='stroke-width: 1.07; stroke: #333333; stroke-linecap: butt;' clip-path='url(#cpMHwzMDIuNHwyODh8MA==)' />
<polyline points='50.22,203.43 52.96,203.43 ' style='stroke-width: 1.07; stroke: #333333; stroke-linecap: butt;' clip-path='url(#cpMHwzMDIuNHwyODh8MA==)' />
<polyline points='50.22,153.41 52.96,153.41 ' style='stroke-width: 1.07; stroke: #333333; stroke-linecap: butt;' clip-path='url(#cpMHwzMDIuNHwyODh8MA==)' />
<polyline points='50.22,103.40 52.96,103.40 ' style='stroke-width: 1.07; stroke: #333333; stroke-linecap: butt;' clip-path='url(#cpMHwzMDIuNHwyODh8MA==)' />
<polyline points='50.22,53.38 52.96,53.38 ' style='stroke-width: 1.07; stroke: #333333; stroke-linecap: butt;' clip-path='url(#cpMHwzMDIuNHwyODh8MA==)' />
<polyline points='76.20,256.49 76.20,253.75 ' style='stroke-width: 1.07; stroke: #333333; stroke-linecap: butt;' clip-path='url(#cpMHwzMDIuNHwyODh8MA==)' />
<polyline points='129.00,256.49 129.00,253.75 ' style='stroke-width: 1.07; stroke: #333333; stroke-linecap: butt;' clip-path='url(#cpMHwzMDIuNHwyODh8MA==)' />
<polyline points='181.81,256.49 181.81,253.75 ' style='stroke-width: 1.07; stroke: #333333; stroke-linecap: butt;' clip-path='url(#cpMHwzMDIuNHwyODh8MA==)' />
<polyline points='234.61,256.49 234.61,253.75 ' style='stroke-width: 1.07; stroke: #333333; stroke-linecap: butt;' clip-path='url(#cpMHwzMDIuNHwyODh8MA==)' />
<polyline points='287.42,256.49 287.42,253.75 ' style='stroke-width: 1.07; stroke: #333333; stroke-linecap: butt;' clip-path='url(#cpMHwzMDIuNHwyODh8MA==)' />
<g clip-path='url(#cpMHwzMDIuNHwyODh8MA==)'><text x='71.19' y='265.12' style='font-size: 8.80px; fill: #4D4D4D; font-family: Arial;' textLength='10.01px' lengthAdjust='spacingAndGlyphs'>15</text></g>
<g clip-path='url(#cpMHwzMDIuNHwyODh8MA==)'><text x='124.00' y='265.12' style='font-size: 8.80px; fill: #4D4D4D; font-family: Arial;' textLength='10.01px' lengthAdjust='spacingAndGlyphs'>20</text></g>
<g clip-path='url(#cpMHwzMDIuNHwyODh8MA==)'><text x='176.80' y='265.12' style='font-size: 8.80px; fill: #4D4D4D; font-family: Arial;' textLength='10.01px' lengthAdjust='spacingAndGlyphs'>25</text></g>
<g clip-path='url(#cpMHwzMDIuNHwyODh8MA==)'><text x='229.61' y='265.12' style='font-size: 8.80px; fill: #4D4D4D; font-family: Arial;' textLength='10.01px' lengthAdjust='spacingAndGlyphs'>30</text></g>
<g clip-path='url(#cpMHwzMDIuNHwyODh8MA==)'><text x='282.41' y='265.12' style='font-size: 8.80px; fill: #4D4D4D; font-family: Arial;' textLength='10.01px' lengthAdjust='spacingAndGlyphs'>35</text></g>
<g clip-path='url(#cpMHwzMDIuNHwyODh8MA==)'><text x='135.99' y='277.88' style='font-size: 10.00px; font-family: Arial;' textLength='63.35px' lengthAdjust='spacingAndGlyphs'>Temperature (</text></g>
<g clip-path='url(#cpMHwzMDIuNHwyODh8MA==)'><text x='199.34' y='277.88' style='font-size: 10.00px; font-family: Symbol;' textLength='4.00px' lengthAdjust='spacingAndGlyphs'>°</text></g>
<g clip-path='url(#cpMHwzMDIuNHwyODh8MA==)'><text x='203.34' y='277.88' style='font-size: 10.00px; font-family: Arial;' textLength='7.22px' lengthAdjust='spacingAndGlyphs'>C</text></g>
<g clip-path='url(#cpMHwzMDIuNHwyODh8MA==)'><text x='210.57' y='277.88' style='font-size: 10.00px; font-family: Arial;' textLength='3.33px' lengthAdjust='spacingAndGlyphs'>)</text></g>
<g clip-path='url(#cpMHwzMDIuNHwyODh8MA==)'><text transform='translate(12.64,170.62) rotate(-90)' style='font-size: 10.00px; font-family: Arial;' textLength='66.70px' lengthAdjust='spacingAndGlyphs'>respiration rate</text></g>
<g clip-path='url(#cpMHwzMDIuNHwyODh8MA==)'><text x='52.96' y='14.07' style='font-size: 12.00px; font-family: Arial;' textLength='93.39px' lengthAdjust='spacingAndGlyphs'>Aloe arborescens</text></g>
</svg>
