<?xml version='1.0' encoding='UTF-8' ?>
<svg xmlns='http://www.w3.org/2000/svg' xmlns:xlink='http://www.w3.org/1999/xlink' viewBox='0 0 302.40 288.00'>
<defs>
  <style type='text/css'><![CDATA[
    line, polyline, path, rect, circle {
      fill: none;
      stroke: #000000;
      stroke-linecap: round;
      stroke-linejoin: round;
      stroke-miterlimit: 10.00;
    }
  ]]></style>
</defs>
<rect width='100%' height='100%' style='stroke: none; fill: #FFFFFF;'/>
<rect x='0.00' y='0.00' width='302.40' height='288.00' style='stroke-width: 1.07; stroke: #FFFFFF; fill: #FFFFFF;' />
<defs>
  <clipPath id='cpNTguMTEwNnwyOTYuOTIxfDI1My43NXwyMy4wMzky'>
    <rect x='58.11' y='23.04' width='238.81' height='230.71' />
  </clipPath>
</defs>
<rect x='58.11' y='23.04' width='238.81' height='230.71' style='stroke-width: 1.07; stroke: none; fill: #FFFFFF;' clip-path='url(#cpNTguMTEwNnwyOTYuOTIxfDI1My43NXwyMy4wMzky)' />
<polyline points='58.11,228.48 296.92,228.48 ' style='stroke-width: 0.53; stroke: #EBEBEB; stroke-linecap: butt;' clip-path='url(#cpNTguMTEwNnwyOTYuOTIxfDI1My43NXwyMy4wMzky)' />
<polyline points='58.11,177.02 296.92,177.02 ' style='stroke-width: 0.53; stroke: #EBEBEB; stroke-linecap: butt;' clip-path='url(#cpNTguMTEwNnwyOTYuOTIxfDI1My43NXwyMy4wMzky)' />
<polyline points='58.11,125.56 296.92,125.56 ' style='stroke-width: 0.53; stroke: #EBEBEB; stroke-linecap: butt;' clip-path='url(#cpNTguMTEwNnwyOTYuOTIxfDI1My43NXwyMy4wMzky)' />
<polyline points='58.11,74.09 296.92,74.09 ' style='stroke-width: 0.53; stroke: #EBEBEB; stroke-linecap: butt;' clip-path='url(#cpNTguMTEwNnwyOTYuOTIxfDI1My43NXwyMy4wMzky)' />
<polyline points='71.47,253.75 71.47,23.04 ' style='stroke-width: 0.53; stroke: #EBEBEB; stroke-linecap: butt;' clip-path='url(#cpNTguMTEwNnwyOTYuOTIxfDI1My43NXwyMy4wMzky)' />
<polyline points='138.27,253.75 138.27,23.04 ' style='stroke-width: 0.53; stroke: #EBEBEB; stroke-linecap: butt;' clip-path='url(#cpNTguMTEwNnwyOTYuOTIxfDI1My43NXwyMy4wMzky)' />
<polyline points='205.07,253.75 205.07,23.04 ' style='stroke-width: 0.53; stroke: #EBEBEB; stroke-linecap: butt;' clip-path='url(#cpNTguMTEwNnwyOTYuOTIxfDI1My43NXwyMy4wMzky)' />
<polyline points='271.87,253.75 271.87,23.04 ' style='stroke-width: 0.53; stroke: #EBEBEB; stroke-linecap: butt;' clip-path='url(#cpNTguMTEwNnwyOTYuOTIxfDI1My43NXwyMy4wMzky)' />
<polyline points='58.11,202.75 296.92,202.75 ' style='stroke-width: 1.07; stroke: #EBEBEB; stroke-linecap: butt;' clip-path='url(#cpNTguMTEwNnwyOTYuOTIxfDI1My43NXwyMy4wMzky)' />
<polyline points='58.11,151.29 296.92,151.29 ' style='stroke-width: 1.07; stroke: #EBEBEB; stroke-linecap: butt;' clip-path='url(#cpNTguMTEwNnwyOTYuOTIxfDI1My43NXwyMy4wMzky)' />
<polyline points='58.11,99.83 296.92,99.83 ' style='stroke-width: 1.07; stroke: #EBEBEB; stroke-linecap: butt;' clip-path='url(#cpNTguMTEwNnwyOTYuOTIxfDI1My43NXwyMy4wMzky)' />
<polyline points='58.11,48.36 296.92,48.36 ' style='stroke-width: 1.07; stroke: #EBEBEB; stroke-linecap: butt;' clip-path='url(#cpNTguMTEwNnwyOTYuOTIxfDI1My43NXwyMy4wMzky)' />
<polyline points='104.87,253.75 104.87,23.04 ' style='stroke-width: 1.07; stroke: #EBEBEB; stroke-linecap: butt;' clip-path='url(#cpNTguMTEwNnwyOTYuOTIxfDI1My43NXwyMy4wMzky)' />
<polyline points='171.67,253.75 171.67,23.04 ' style='stroke-width: 1.07; stroke: #EBEBEB; stroke-linecap: butt;' clip-path='url(#cpNTguMTEwNnwyOTYuOTIxfDI1My43NXwyMy4wMzky)' />
<polyline points='238.47,253.75 238.47,23.04 ' style='stroke-width: 1.07; stroke: #EBEBEB; stroke-linecap: butt;' clip-path='url(#cpNTguMTEwNnwyOTYuOTIxfDI1My43NXwyMy4wMzky)' />
<circle cx='71.47' cy='182.79' r='3.56pt' style='stroke-width: 0.71; stroke: #000000; stroke-opacity: 0.70; fill: #D1EEEE; fill-opacity: 0.70;' clip-path='url(#cpNTguMTEwNnwyOTYuOTIxfDI1My43NXwyMy4wMzky)' />
<circle cx='121.57' cy='70.87' r='3.56pt' style='stroke-width: 0.71; stroke: #000000; stroke-opacity: 0.70; fill: #D1EEEE; fill-opacity: 0.70;' clip-path='url(#cpNTguMTEwNnwyOTYuOTIxfDI1My43NXwyMy4wMzky)' />
<circle cx='171.67' cy='97.88' r='3.56pt' style='stroke-width: 0.71; stroke: #000000; stroke-opacity: 0.70; fill: #D1EEEE; fill-opacity: 0.70;' clip-path='url(#cpNTguMTEwNnwyOTYuOTIxfDI1My43NXwyMy4wMzky)' />
<circle cx='221.77' cy='243.26' r='3.56pt' style='stroke-width: 0.71; stroke: #000000; stroke-opacity: 0.70; fill: #D1EEEE; fill-opacity: 0.70;' clip-path='url(#cpNTguMTEwNnwyOTYuOTIxfDI1My43NXwyMy4wMzky)' />
<circle cx='271.87' cy='33.53' r='3.56pt' style='stroke-width: 0.71; stroke: #000000; stroke-opacity: 0.70; fill: #D1EEEE; fill-opacity: 0.70;' clip-path='url(#cpNTguMTEwNnwyOTYuOTIxfDI1My43NXwyMy4wMzky)' />
<polyline points='68.97,152.01 70.06,151.75 71.15,151.50 72.24,151.24 73.33,150.98 74.42,150.72 75.51,150.46 76.60,150.20 77.69,149.94 78.78,149.69 79.88,149.43 80.97,149.17 82.06,148.91 83.15,148.65 84.24,148.39 85.33,148.14 86.42,147.88 87.51,147.62 88.60,147.36 89.69,147.11 90.78,146.85 91.88,146.59 92.97,146.33 94.06,146.07 95.15,145.82 96.24,145.56 97.33,145.30 98.42,145.04 99.51,144.79 100.60,144.53 101.69,144.27 102.79,144.02 103.88,143.76 104.97,143.50 106.06,143.25 107.15,142.99 108.24,142.73 109.33,142.48 110.42,142.22 111.51,141.96 112.60,141.71 113.69,141.45 114.79,141.19 115.88,140.94 116.97,140.68 118.06,140.42 119.15,140.17 120.24,139.91 121.33,139.66 122.42,139.40 123.51,139.14 124.60,138.89 125.70,138.63 126.79,138.38 127.88,138.12 128.97,137.86 130.06,137.61 131.15,137.35 132.24,137.10 133.33,136.84 134.42,136.59 135.51,136.33 136.60,136.08 137.70,135.82 138.79,135.57 139.88,135.31 140.97,135.06 142.06,134.80 143.15,134.55 144.24,134.29 145.33,134.04 146.42,133.78 147.51,133.53 148.61,133.27 149.70,133.02 150.79,132.76 151.88,132.51 152.97,132.25 154.06,132.00 155.15,131.75 156.24,131.49 157.33,131.24 158.42,130.98 159.51,130.73 160.61,130.48 161.70,130.22 162.79,129.97 163.88,129.71 164.97,129.46 166.06,129.21 167.15,128.95 168.24,128.70 169.33,128.45 170.42,128.19 171.52,127.94 172.61,127.69 173.70,127.43 174.79,127.18 175.88,126.93 176.97,126.67 178.06,126.42 179.15,126.17 180.24,125.91 181.33,125.66 182.42,125.41 183.52,125.16 184.61,124.90 185.70,124.65 186.79,124.40 187.88,124.15 188.97,123.89 190.06,123.64 191.15,123.39 192.24,123.14 193.33,122.88 194.43,122.63 195.52,122.38 196.61,122.13 197.70,121.88 198.79,121.62 199.88,121.37 200.97,121.12 202.06,120.87 203.15,120.62 204.24,120.36 205.33,120.11 206.43,119.86 207.52,119.61 208.61,119.36 209.70,119.11 210.79,118.86 211.88,118.60 212.97,118.35 214.06,118.10 215.15,117.85 216.24,117.60 217.34,117.35 218.43,117.10 219.52,116.85 220.61,116.60 221.70,116.35 222.79,116.10 223.88,115.85 224.97,115.59 226.06,115.34 227.15,115.09 228.24,114.84 229.34,114.59 230.43,114.34 231.52,114.09 232.61,113.84 233.70,113.59 234.79,113.34 235.88,113.09 236.97,112.84 238.06,112.59 239.15,112.34 240.25,112.09 241.34,111.84 242.43,111.59 243.52,111.34 244.61,111.09 245.70,110.85 246.79,110.60 247.88,110.35 248.97,110.10 250.06,109.85 251.16,109.60 252.25,109.35 253.34,109.10 254.43,108.85 255.52,108.60 256.61,108.35 257.70,108.10 258.79,107.86 259.88,107.61 260.97,107.36 262.06,107.11 263.16,106.86 264.25,106.61 265.34,106.36 266.43,106.12 267.52,105.87 268.61,105.62 269.70,105.37 270.79,105.12 271.88,104.88 272.97,104.63 274.07,104.38 275.16,104.13 276.25,103.88 277.34,103.64 278.43,103.39 279.52,103.14 280.61,102.89 281.70,102.65 282.79,102.40 283.88,102.15 284.97,101.90 286.07,101.66 ' style='stroke-width: 2.77; stroke: #1B9E77; stroke-linecap: butt;' clip-path='url(#cpNTguMTEwNnwyOTYuOTIxfDI1My43NXwyMy4wMzky)' />
<g clip-path='url(#cpNTguMTEwNnwyOTYuOTIxfDI1My43NXwyMy4wMzky)'><text x='71.47' y='116.59' style='font-size: 8.54px; font-style: italic; font-family: Arial;' textLength='60.01px' lengthAdjust='spacingAndGlyphs'>R^2 sch= 0.05 </text></g>
<g clip-path='url(#cpNTguMTEwNnwyOTYuOTIxfDI1My43NXwyMy4wMzky)'><text x='71.47' y='128.88' style='font-size: 8.54px; font-style: italic; font-family: Arial;' textLength='60.29px' lengthAdjust='spacingAndGlyphs'>E sch= 0.0245 </text></g>
<g clip-path='url(#cpNTguMTEwNnwyOTYuOTIxfDI1My43NXwyMy4wMzky)'><text x='71.47' y='141.18' style='font-size: 8.54px; font-style: italic; font-family: Arial;' textLength='59.78px' lengthAdjust='spacingAndGlyphs'>AIC sch= -3.49</text></g>
<rect x='58.11' y='23.04' width='238.81' height='230.71' style='stroke-width: 1.07; stroke: #333333;' clip-path='url(#cpNTguMTEwNnwyOTYuOTIxfDI1My43NXwyMy4wMzky)' />
<defs>
  <clipPath id='cpMHwzMDIuNHwyODh8MA=='>
    <rect x='0.00' y='0.00' width='302.40' height='288.00' />
  </clipPath>
</defs>
<g clip-path='url(#cpMHwzMDIuNHwyODh8MA==)'><text x='20.65' y='205.97' style='font-size: 8.80px; fill: #4D4D4D; font-family: Arial;' textLength='32.53px' lengthAdjust='spacingAndGlyphs'>0.00022</text></g>
<g clip-path='url(#cpMHwzMDIuNHwyODh8MA==)'><text x='20.65' y='154.51' style='font-size: 8.80px; fill: #4D4D4D; font-family: Arial;' textLength='32.53px' lengthAdjust='spacingAndGlyphs'>0.00023</text></g>
<g clip-path='url(#cpMHwzMDIuNHwyODh8MA==)'><text x='20.65' y='103.04' style='font-size: 8.80px; fill: #4D4D4D; font-family: Arial;' textLength='32.53px' lengthAdjust='spacingAndGlyphs'>0.00024</text></g>
<g clip-path='url(#cpMHwzMDIuNHwyODh8MA==)'><text x='20.65' y='51.58' style='font-size: 8.80px; fill: #4D4D4D; font-family: Arial;' textLength='32.53px' lengthAdjust='spacingAndGlyphs'>0.00025</text></g>
<polyline points='55.37,202.75 58.11,202.75 ' style='stroke-width: 1.07; stroke: #333333; stroke-linecap: butt;' clip-path='url(#cpMHwzMDIuNHwyODh8MA==)' />
<polyline points='55.37,151.29 58.11,151.29 ' style='stroke-width: 1.07; stroke: #333333; stroke-linecap: butt;' clip-path='url(#cpMHwzMDIuNHwyODh8MA==)' />
<polyline points='55.37,99.83 58.11,99.83 ' style='stroke-width: 1.07; stroke: #333333; stroke-linecap: butt;' clip-path='url(#cpMHwzMDIuNHwyODh8MA==)' />
<polyline points='55.37,48.36 58.11,48.36 ' style='stroke-width: 1.07; stroke: #333333; stroke-linecap: butt;' clip-path='url(#cpMHwzMDIuNHwyODh8MA==)' />
<polyline points='104.87,256.49 104.87,253.75 ' style='stroke-width: 1.07; stroke: #333333; stroke-linecap: butt;' clip-path='url(#cpMHwzMDIuNHwyODh8MA==)' />
<polyline points='171.67,256.49 171.67,253.75 ' style='stroke-width: 1.07; stroke: #333333; stroke-linecap: butt;' clip-path='url(#cpMHwzMDIuNHwyODh8MA==)' />
<polyline points='238.47,256.49 238.47,253.75 ' style='stroke-width: 1.07; stroke: #333333; stroke-linecap: butt;' clip-path='url(#cpMHwzMDIuNHwyODh8MA==)' />
<g clip-path='url(#cpMHwzMDIuNHwyODh8MA==)'><text x='99.87' y='265.12' style='font-size: 8.80px; fill: #4D4D4D; font-family: Arial;' textLength='10.01px' lengthAdjust='spacingAndGlyphs'>20</text></g>
<g clip-path='url(#cpMHwzMDIuNHwyODh8MA==)'><text x='166.67' y='265.12' style='font-size: 8.80px; fill: #4D4D4D; font-family: Arial;' textLength='10.01px' lengthAdjust='spacingAndGlyphs'>24</text></g>
<g clip-path='url(#cpMHwzMDIuNHwyODh8MA==)'><text x='233.47' y='265.12' style='font-size: 8.80px; fill: #4D4D4D; font-family: Arial;' textLength='10.01px' lengthAdjust='spacingAndGlyphs'>28</text></g>
<g clip-path='url(#cpMHwzMDIuNHwyODh8MA==)'><text x='138.56' y='277.88' style='font-size: 10.00px; font-family: Arial;' textLength='63.35px' lengthAdjust='spacingAndGlyphs'>Temperature (</text></g>
<g clip-path='url(#cpMHwzMDIuNHwyODh8MA==)'><text x='201.92' y='277.88' style='font-size: 10.00px; font-family: Symbol;' textLength='4.00px' lengthAdjust='spacingAndGlyphs'>°</text></g>
<g clip-path='url(#cpMHwzMDIuNHwyODh8MA==)'><text x='205.92' y='277.88' style='font-size: 10.00px; font-family: Arial;' textLength='7.22px' lengthAdjust='spacingAndGlyphs'>C</text></g>
<g clip-path='url(#cpMHwzMDIuNHwyODh8MA==)'><text x='213.14' y='277.88' style='font-size: 10.00px; font-family: Arial;' textLength='3.33px' lengthAdjust='spacingAndGlyphs'>)</text></g>
<g clip-path='url(#cpMHwzMDIuNHwyODh8MA==)'><text transform='translate(12.64,180.09) rotate(-90)' style='font-size: 10.00px; font-family: Arial;' textLength='83.39px' lengthAdjust='spacingAndGlyphs'>net photosynthesis</text></g>
<g clip-path='url(#cpMHwzMDIuNHwyODh8MA==)'><text x='58.11' y='14.07' style='font-size: 12.00px; font-family: Arial;' textLength='108.73px' lengthAdjust='spacingAndGlyphs'>Populus tremuloides</text></g>
</svg>
