<?xml version='1.0' encoding='UTF-8' ?>
<svg xmlns='http://www.w3.org/2000/svg' xmlns:xlink='http://www.w3.org/1999/xlink' viewBox='0 0 302.40 288.00'>
<defs>
  <style type='text/css'><![CDATA[
    line, polyline, path, rect, circle {
      fill: none;
      stroke: #000000;
      stroke-linecap: round;
      stroke-linejoin: round;
      stroke-miterlimit: 10.00;
    }
  ]]></style>
</defs>
<rect width='100%' height='100%' style='stroke: none; fill: #FFFFFF;'/>
<rect x='0.00' y='0.00' width='302.40' height='288.00' style='stroke-width: 1.07; stroke: #FFFFFF; fill: #FFFFFF;' />
<defs>
  <clipPath id='cpNDguNDU1OHwyOTYuOTIxfDI1My43NXwyMy4xNzk4'>
    <rect x='48.46' y='23.18' width='248.46' height='230.57' />
  </clipPath>
</defs>
<rect x='48.46' y='23.18' width='248.46' height='230.57' style='stroke-width: 1.07; stroke: none; fill: #FFFFFF;' clip-path='url(#cpNDguNDU1OHwyOTYuOTIxfDI1My43NXwyMy4xNzk4)' />
<polyline points='48.46,225.04 296.92,225.04 ' style='stroke-width: 0.53; stroke: #EBEBEB; stroke-linecap: butt;' clip-path='url(#cpNDguNDU1OHwyOTYuOTIxfDI1My43NXwyMy4xNzk4)' />
<polyline points='48.46,171.84 296.92,171.84 ' style='stroke-width: 0.53; stroke: #EBEBEB; stroke-linecap: butt;' clip-path='url(#cpNDguNDU1OHwyOTYuOTIxfDI1My43NXwyMy4xNzk4)' />
<polyline points='48.46,118.65 296.92,118.65 ' style='stroke-width: 0.53; stroke: #EBEBEB; stroke-linecap: butt;' clip-path='url(#cpNDguNDU1OHwyOTYuOTIxfDI1My43NXwyMy4xNzk4)' />
<polyline points='48.46,65.45 296.92,65.45 ' style='stroke-width: 0.53; stroke: #EBEBEB; stroke-linecap: butt;' clip-path='url(#cpNDguNDU1OHwyOTYuOTIxfDI1My43NXwyMy4xNzk4)' />
<polyline points='68.13,253.75 68.13,23.18 ' style='stroke-width: 0.53; stroke: #EBEBEB; stroke-linecap: butt;' clip-path='url(#cpNDguNDU1OHwyOTYuOTIxfDI1My43NXwyMy4xNzk4)' />
<polyline points='140.99,253.75 140.99,23.18 ' style='stroke-width: 0.53; stroke: #EBEBEB; stroke-linecap: butt;' clip-path='url(#cpNDguNDU1OHwyOTYuOTIxfDI1My43NXwyMy4xNzk4)' />
<polyline points='213.86,253.75 213.86,23.18 ' style='stroke-width: 0.53; stroke: #EBEBEB; stroke-linecap: butt;' clip-path='url(#cpNDguNDU1OHwyOTYuOTIxfDI1My43NXwyMy4xNzk4)' />
<polyline points='286.72,253.75 286.72,23.18 ' style='stroke-width: 0.53; stroke: #EBEBEB; stroke-linecap: butt;' clip-path='url(#cpNDguNDU1OHwyOTYuOTIxfDI1My43NXwyMy4xNzk4)' />
<polyline points='48.46,251.63 296.92,251.63 ' style='stroke-width: 1.07; stroke: #EBEBEB; stroke-linecap: butt;' clip-path='url(#cpNDguNDU1OHwyOTYuOTIxfDI1My43NXwyMy4xNzk4)' />
<polyline points='48.46,198.44 296.92,198.44 ' style='stroke-width: 1.07; stroke: #EBEBEB; stroke-linecap: butt;' clip-path='url(#cpNDguNDU1OHwyOTYuOTIxfDI1My43NXwyMy4xNzk4)' />
<polyline points='48.46,145.24 296.92,145.24 ' style='stroke-width: 1.07; stroke: #EBEBEB; stroke-linecap: butt;' clip-path='url(#cpNDguNDU1OHwyOTYuOTIxfDI1My43NXwyMy4xNzk4)' />
<polyline points='48.46,92.05 296.92,92.05 ' style='stroke-width: 1.07; stroke: #EBEBEB; stroke-linecap: butt;' clip-path='url(#cpNDguNDU1OHwyOTYuOTIxfDI1My43NXwyMy4xNzk4)' />
<polyline points='48.46,38.86 296.92,38.86 ' style='stroke-width: 1.07; stroke: #EBEBEB; stroke-linecap: butt;' clip-path='url(#cpNDguNDU1OHwyOTYuOTIxfDI1My43NXwyMy4xNzk4)' />
<polyline points='104.56,253.75 104.56,23.18 ' style='stroke-width: 1.07; stroke: #EBEBEB; stroke-linecap: butt;' clip-path='url(#cpNDguNDU1OHwyOTYuOTIxfDI1My43NXwyMy4xNzk4)' />
<polyline points='177.42,253.75 177.42,23.18 ' style='stroke-width: 1.07; stroke: #EBEBEB; stroke-linecap: butt;' clip-path='url(#cpNDguNDU1OHwyOTYuOTIxfDI1My43NXwyMy4xNzk4)' />
<polyline points='250.29,253.75 250.29,23.18 ' style='stroke-width: 1.07; stroke: #EBEBEB; stroke-linecap: butt;' clip-path='url(#cpNDguNDU1OHwyOTYuOTIxfDI1My43NXwyMy4xNzk4)' />
<circle cx='66.32' cy='201.97' r='3.56pt' style='stroke-width: 0.71; stroke: #000000; stroke-opacity: 0.70; fill: #D1EEEE; fill-opacity: 0.70;' clip-path='url(#cpNDguNDU1OHwyOTYuOTIxfDI1My43NXwyMy4xNzk4)' />
<circle cx='102.49' cy='243.27' r='3.56pt' style='stroke-width: 0.71; stroke: #000000; stroke-opacity: 0.70; fill: #D1EEEE; fill-opacity: 0.70;' clip-path='url(#cpNDguNDU1OHwyOTYuOTIxfDI1My43NXwyMy4xNzk4)' />
<circle cx='139.18' cy='223.01' r='3.56pt' style='stroke-width: 0.71; stroke: #000000; stroke-opacity: 0.70; fill: #D1EEEE; fill-opacity: 0.70;' clip-path='url(#cpNDguNDU1OHwyOTYuOTIxfDI1My43NXwyMy4xNzk4)' />
<circle cx='175.36' cy='170.80' r='3.56pt' style='stroke-width: 0.71; stroke: #000000; stroke-opacity: 0.70; fill: #D1EEEE; fill-opacity: 0.70;' clip-path='url(#cpNDguNDU1OHwyOTYuOTIxfDI1My43NXwyMy4xNzk4)' />
<circle cx='211.53' cy='142.75' r='3.56pt' style='stroke-width: 0.71; stroke: #000000; stroke-opacity: 0.70; fill: #D1EEEE; fill-opacity: 0.70;' clip-path='url(#cpNDguNDU1OHwyOTYuOTIxfDI1My43NXwyMy4xNzk4)' />
<circle cx='230.13' cy='65.61' r='3.56pt' style='stroke-width: 0.71; stroke: #000000; stroke-opacity: 0.70; fill: #D1EEEE; fill-opacity: 0.70;' clip-path='url(#cpNDguNDU1OHwyOTYuOTIxfDI1My43NXwyMy4xNzk4)' />
<circle cx='248.22' cy='33.66' r='3.56pt' style='stroke-width: 0.71; stroke: #000000; stroke-opacity: 0.70; fill: #D1EEEE; fill-opacity: 0.70;' clip-path='url(#cpNDguNDU1OHwyOTYuOTIxfDI1My43NXwyMy4xNzk4)' />
<circle cx='284.39' cy='96.78' r='3.56pt' style='stroke-width: 0.71; stroke: #000000; stroke-opacity: 0.70; fill: #D1EEEE; fill-opacity: 0.70;' clip-path='url(#cpNDguNDU1OHwyOTYuOTIxfDI1My43NXwyMy4xNzk4)' />
<polyline points='59.75,242.80 60.88,242.27 62.02,241.73 63.15,241.18 64.29,240.64 65.42,240.09 66.56,239.53 67.70,238.97 68.83,238.41 69.97,237.84 71.10,237.27 72.24,236.70 73.37,236.12 74.51,235.53 75.64,234.94 76.78,234.35 77.91,233.75 79.05,233.15 80.18,232.55 81.32,231.94 82.45,231.32 83.59,230.70 84.72,230.08 85.86,229.45 86.99,228.82 88.13,228.18 89.26,227.54 90.40,226.89 91.53,226.24 92.67,225.58 93.80,224.92 94.94,224.26 96.07,223.59 97.21,222.91 98.34,222.23 99.48,221.54 100.61,220.85 101.75,220.16 102.88,219.46 104.02,218.75 105.15,218.04 106.29,217.33 107.42,216.61 108.56,215.88 109.69,215.15 110.83,214.42 111.96,213.68 113.10,212.93 114.23,212.18 115.37,211.42 116.50,210.66 117.64,209.89 118.77,209.12 119.91,208.34 121.04,207.56 122.18,206.77 123.31,205.97 124.45,205.17 125.58,204.37 126.72,203.55 127.85,202.74 128.99,201.91 130.12,201.09 131.26,200.25 132.39,199.41 133.53,198.56 134.66,197.71 135.80,196.85 136.93,195.99 138.07,195.12 139.20,194.25 140.34,193.36 141.47,192.48 142.61,191.58 143.74,190.68 144.88,189.78 146.01,188.86 147.15,187.94 148.28,187.02 149.42,186.09 150.55,185.15 151.69,184.21 152.82,183.26 153.96,182.30 155.09,181.33 156.23,180.36 157.36,179.39 158.50,178.41 159.64,177.42 160.77,176.42 161.91,175.42 163.04,174.41 164.18,173.39 165.31,172.37 166.45,171.34 167.58,170.30 168.72,169.25 169.85,168.20 170.99,167.14 172.12,166.08 173.26,165.01 174.39,163.93 175.53,162.84 176.66,161.75 177.80,160.65 178.93,159.54 180.07,158.42 181.20,157.30 182.34,156.17 183.47,155.03 184.61,153.88 185.74,152.73 186.88,151.57 188.01,150.40 189.15,149.23 190.28,148.04 191.42,146.85 192.55,145.65 193.69,144.45 194.82,143.23 195.96,142.01 197.09,140.78 198.23,139.54 199.36,138.29 200.50,137.04 201.63,135.77 202.77,134.50 203.90,133.22 205.04,131.94 206.17,130.64 207.31,129.34 208.44,128.02 209.58,126.70 210.71,125.37 211.85,124.04 212.98,122.69 214.12,121.34 215.25,119.97 216.39,118.60 217.52,117.22 218.66,115.83 219.79,114.43 220.93,113.02 222.06,111.61 223.20,110.18 224.33,108.74 225.47,107.30 226.60,105.85 227.74,104.39 228.87,102.92 230.01,101.44 231.14,99.95 232.28,98.45 233.41,96.94 234.55,95.42 235.68,93.89 236.82,92.36 237.95,90.81 239.09,89.25 240.22,87.69 241.36,86.11 242.49,84.53 243.63,82.93 244.76,81.33 245.90,79.71 247.03,78.09 248.17,76.45 249.30,74.81 250.44,73.15 251.57,71.49 252.71,69.81 253.85,68.12 254.98,66.43 256.12,64.72 257.25,63.00 258.39,61.28 259.52,59.54 260.66,57.79 261.79,56.03 262.93,54.26 264.06,52.48 265.20,50.69 266.33,48.90 267.47,47.09 268.60,45.29 269.74,43.48 270.87,41.69 272.01,39.93 273.14,38.23 274.28,36.66 275.41,35.29 276.55,34.32 277.68,34.03 278.82,34.90 279.95,37.76 281.09,43.83 282.22,54.87 283.36,72.91 284.49,99.39 285.63,133.77 ' style='stroke-width: 2.77; stroke: #1B9E77; stroke-linecap: butt;' clip-path='url(#cpNDguNDU1OHwyOTYuOTIxfDI1My43NXwyMy4xNzk4)' />
<g clip-path='url(#cpNDguNDU1OHwyOTYuOTIxfDI1My43NXwyMy4xNzk4)'><text x='66.32' y='138.16' style='font-size: 8.54px; font-style: italic; font-family: Arial;' textLength='60.01px' lengthAdjust='spacingAndGlyphs'>R^2 sch= 0.85 </text></g>
<g clip-path='url(#cpNDguNDU1OHwyOTYuOTIxfDI1My43NXwyMy4xNzk4)'><text x='66.32' y='150.45' style='font-size: 8.54px; font-style: italic; font-family: Arial;' textLength='55.29px' lengthAdjust='spacingAndGlyphs'>E sch= 0.364 </text></g>
<g clip-path='url(#cpNDguNDU1OHwyOTYuOTIxfDI1My43NXwyMy4xNzk4)'><text x='66.32' y='162.74' style='font-size: 8.54px; font-style: italic; font-family: Arial;' textLength='56.78px' lengthAdjust='spacingAndGlyphs'>AIC sch= 10.1</text></g>
<rect x='48.46' y='23.18' width='248.46' height='230.57' style='stroke-width: 1.07; stroke: #333333;' clip-path='url(#cpNDguNDU1OHwyOTYuOTIxfDI1My43NXwyMy4xNzk4)' />
<defs>
  <clipPath id='cpMHwzMDIuNHwyODh8MA=='>
    <rect x='0.00' y='0.00' width='302.40' height='288.00' />
  </clipPath>
</defs>
<g clip-path='url(#cpMHwzMDIuNHwyODh8MA==)'><text x='20.51' y='254.85' style='font-size: 8.80px; fill: #4D4D4D; font-family: Arial;' textLength='23.02px' lengthAdjust='spacingAndGlyphs'>2e-05</text></g>
<g clip-path='url(#cpMHwzMDIuNHwyODh8MA==)'><text x='20.51' y='201.66' style='font-size: 8.80px; fill: #4D4D4D; font-family: Arial;' textLength='23.02px' lengthAdjust='spacingAndGlyphs'>4e-05</text></g>
<g clip-path='url(#cpMHwzMDIuNHwyODh8MA==)'><text x='20.51' y='148.46' style='font-size: 8.80px; fill: #4D4D4D; font-family: Arial;' textLength='23.02px' lengthAdjust='spacingAndGlyphs'>6e-05</text></g>
<g clip-path='url(#cpMHwzMDIuNHwyODh8MA==)'><text x='20.51' y='95.27' style='font-size: 8.80px; fill: #4D4D4D; font-family: Arial;' textLength='23.02px' lengthAdjust='spacingAndGlyphs'>8e-05</text></g>
<g clip-path='url(#cpMHwzMDIuNHwyODh8MA==)'><text x='20.51' y='42.07' style='font-size: 8.80px; fill: #4D4D4D; font-family: Arial;' textLength='23.02px' lengthAdjust='spacingAndGlyphs'>1e-04</text></g>
<polyline points='45.72,251.63 48.46,251.63 ' style='stroke-width: 1.07; stroke: #333333; stroke-linecap: butt;' clip-path='url(#cpMHwzMDIuNHwyODh8MA==)' />
<polyline points='45.72,198.44 48.46,198.44 ' style='stroke-width: 1.07; stroke: #333333; stroke-linecap: butt;' clip-path='url(#cpMHwzMDIuNHwyODh8MA==)' />
<polyline points='45.72,145.24 48.46,145.24 ' style='stroke-width: 1.07; stroke: #333333; stroke-linecap: butt;' clip-path='url(#cpMHwzMDIuNHwyODh8MA==)' />
<polyline points='45.72,92.05 48.46,92.05 ' style='stroke-width: 1.07; stroke: #333333; stroke-linecap: butt;' clip-path='url(#cpMHwzMDIuNHwyODh8MA==)' />
<polyline points='45.72,38.86 48.46,38.86 ' style='stroke-width: 1.07; stroke: #333333; stroke-linecap: butt;' clip-path='url(#cpMHwzMDIuNHwyODh8MA==)' />
<polyline points='104.56,256.49 104.56,253.75 ' style='stroke-width: 1.07; stroke: #333333; stroke-linecap: butt;' clip-path='url(#cpMHwzMDIuNHwyODh8MA==)' />
<polyline points='177.42,256.49 177.42,253.75 ' style='stroke-width: 1.07; stroke: #333333; stroke-linecap: butt;' clip-path='url(#cpMHwzMDIuNHwyODh8MA==)' />
<polyline points='250.29,256.49 250.29,253.75 ' style='stroke-width: 1.07; stroke: #333333; stroke-linecap: butt;' clip-path='url(#cpMHwzMDIuNHwyODh8MA==)' />
<g clip-path='url(#cpMHwzMDIuNHwyODh8MA==)'><text x='99.56' y='265.12' style='font-size: 8.80px; fill: #4D4D4D; font-family: Arial;' textLength='10.01px' lengthAdjust='spacingAndGlyphs'>10</text></g>
<g clip-path='url(#cpMHwzMDIuNHwyODh8MA==)'><text x='172.42' y='265.12' style='font-size: 8.80px; fill: #4D4D4D; font-family: Arial;' textLength='10.01px' lengthAdjust='spacingAndGlyphs'>20</text></g>
<g clip-path='url(#cpMHwzMDIuNHwyODh8MA==)'><text x='245.28' y='265.12' style='font-size: 8.80px; fill: #4D4D4D; font-family: Arial;' textLength='10.01px' lengthAdjust='spacingAndGlyphs'>30</text></g>
<g clip-path='url(#cpMHwzMDIuNHwyODh8MA==)'><text x='133.74' y='277.88' style='font-size: 10.00px; font-family: Arial;' textLength='63.35px' lengthAdjust='spacingAndGlyphs'>Temperature (</text></g>
<g clip-path='url(#cpMHwzMDIuNHwyODh8MA==)'><text x='197.09' y='277.88' style='font-size: 10.00px; font-family: Symbol;' textLength='4.00px' lengthAdjust='spacingAndGlyphs'>°</text></g>
<g clip-path='url(#cpMHwzMDIuNHwyODh8MA==)'><text x='201.09' y='277.88' style='font-size: 10.00px; font-family: Arial;' textLength='7.22px' lengthAdjust='spacingAndGlyphs'>C</text></g>
<g clip-path='url(#cpMHwzMDIuNHwyODh8MA==)'><text x='208.31' y='277.88' style='font-size: 10.00px; font-family: Arial;' textLength='3.33px' lengthAdjust='spacingAndGlyphs'>)</text></g>
<g clip-path='url(#cpMHwzMDIuNHwyODh8MA==)'><text transform='translate(12.64,171.81) rotate(-90)' style='font-size: 10.00px; font-family: Arial;' textLength='66.70px' lengthAdjust='spacingAndGlyphs'>respiration rate</text></g>
<g clip-path='url(#cpMHwzMDIuNHwyODh8MA==)'><text x='48.46' y='14.07' style='font-size: 12.00px; font-family: Arial;' textLength='105.42px' lengthAdjust='spacingAndGlyphs'>Plantago lanceolata</text></g>
</svg>
