<?xml version='1.0' encoding='UTF-8' ?>
<svg xmlns='http://www.w3.org/2000/svg' xmlns:xlink='http://www.w3.org/1999/xlink' viewBox='0 0 302.40 288.00'>
<defs>
  <style type='text/css'><![CDATA[
    line, polyline, path, rect, circle {
      fill: none;
      stroke: #000000;
      stroke-linecap: round;
      stroke-linejoin: round;
      stroke-miterlimit: 10.00;
    }
  ]]></style>
</defs>
<rect width='100%' height='100%' style='stroke: none; fill: #FFFFFF;'/>
<rect x='0.00' y='0.00' width='302.40' height='288.00' style='stroke-width: 1.07; stroke: #FFFFFF; fill: #FFFFFF;' />
<defs>
  <clipPath id='cpNTUuOTYxN3wyOTYuOTIxfDI1My43NXwyMC43ODky'>
    <rect x='55.96' y='20.79' width='240.96' height='232.96' />
  </clipPath>
</defs>
<rect x='55.96' y='20.79' width='240.96' height='232.96' style='stroke-width: 1.07; stroke: none; fill: #FFFFFF;' clip-path='url(#cpNTUuOTYxN3wyOTYuOTIxfDI1My43NXwyMC43ODky)' />
<polyline points='55.96,239.48 296.92,239.48 ' style='stroke-width: 0.53; stroke: #EBEBEB; stroke-linecap: butt;' clip-path='url(#cpNTUuOTYxN3wyOTYuOTIxfDI1My43NXwyMC43ODky)' />
<polyline points='55.96,181.60 296.92,181.60 ' style='stroke-width: 0.53; stroke: #EBEBEB; stroke-linecap: butt;' clip-path='url(#cpNTUuOTYxN3wyOTYuOTIxfDI1My43NXwyMC43ODky)' />
<polyline points='55.96,123.72 296.92,123.72 ' style='stroke-width: 0.53; stroke: #EBEBEB; stroke-linecap: butt;' clip-path='url(#cpNTUuOTYxN3wyOTYuOTIxfDI1My43NXwyMC43ODky)' />
<polyline points='55.96,65.83 296.92,65.83 ' style='stroke-width: 0.53; stroke: #EBEBEB; stroke-linecap: butt;' clip-path='url(#cpNTUuOTYxN3wyOTYuOTIxfDI1My43NXwyMC43ODky)' />
<polyline points='71.76,253.75 71.76,20.79 ' style='stroke-width: 0.53; stroke: #EBEBEB; stroke-linecap: butt;' clip-path='url(#cpNTUuOTYxN3wyOTYuOTIxfDI1My43NXwyMC43ODky)' />
<polyline points='156.01,253.75 156.01,20.79 ' style='stroke-width: 0.53; stroke: #EBEBEB; stroke-linecap: butt;' clip-path='url(#cpNTUuOTYxN3wyOTYuOTIxfDI1My43NXwyMC43ODky)' />
<polyline points='240.26,253.75 240.26,20.79 ' style='stroke-width: 0.53; stroke: #EBEBEB; stroke-linecap: butt;' clip-path='url(#cpNTUuOTYxN3wyOTYuOTIxfDI1My43NXwyMC43ODky)' />
<polyline points='55.96,210.54 296.92,210.54 ' style='stroke-width: 1.07; stroke: #EBEBEB; stroke-linecap: butt;' clip-path='url(#cpNTUuOTYxN3wyOTYuOTIxfDI1My43NXwyMC43ODky)' />
<polyline points='55.96,152.66 296.92,152.66 ' style='stroke-width: 1.07; stroke: #EBEBEB; stroke-linecap: butt;' clip-path='url(#cpNTUuOTYxN3wyOTYuOTIxfDI1My43NXwyMC43ODky)' />
<polyline points='55.96,94.77 296.92,94.77 ' style='stroke-width: 1.07; stroke: #EBEBEB; stroke-linecap: butt;' clip-path='url(#cpNTUuOTYxN3wyOTYuOTIxfDI1My43NXwyMC43ODky)' />
<polyline points='55.96,36.89 296.92,36.89 ' style='stroke-width: 1.07; stroke: #EBEBEB; stroke-linecap: butt;' clip-path='url(#cpNTUuOTYxN3wyOTYuOTIxfDI1My43NXwyMC43ODky)' />
<polyline points='113.88,253.75 113.88,20.79 ' style='stroke-width: 1.07; stroke: #EBEBEB; stroke-linecap: butt;' clip-path='url(#cpNTUuOTYxN3wyOTYuOTIxfDI1My43NXwyMC43ODky)' />
<polyline points='198.14,253.75 198.14,20.79 ' style='stroke-width: 1.07; stroke: #EBEBEB; stroke-linecap: butt;' clip-path='url(#cpNTUuOTYxN3wyOTYuOTIxfDI1My43NXwyMC43ODky)' />
<polyline points='282.39,253.75 282.39,20.79 ' style='stroke-width: 1.07; stroke: #EBEBEB; stroke-linecap: butt;' clip-path='url(#cpNTUuOTYxN3wyOTYuOTIxfDI1My43NXwyMC43ODky)' />
<circle cx='70.25' cy='239.37' r='3.56pt' style='stroke-width: 0.71; stroke: #000000; stroke-opacity: 0.70; fill: #D1EEEE; fill-opacity: 0.70;' clip-path='url(#cpNTUuOTYxN3wyOTYuOTIxfDI1My43NXwyMC43ODky)' />
<circle cx='72.70' cy='243.16' r='3.56pt' style='stroke-width: 0.71; stroke: #000000; stroke-opacity: 0.70; fill: #D1EEEE; fill-opacity: 0.70;' clip-path='url(#cpNTUuOTYxN3wyOTYuOTIxfDI1My43NXwyMC43ODky)' />
<circle cx='113.21' cy='214.54' r='3.56pt' style='stroke-width: 0.71; stroke: #000000; stroke-opacity: 0.70; fill: #D1EEEE; fill-opacity: 0.70;' clip-path='url(#cpNTUuOTYxN3wyOTYuOTIxfDI1My43NXwyMC43ODky)' />
<circle cx='114.34' cy='206.96' r='3.56pt' style='stroke-width: 0.71; stroke: #000000; stroke-opacity: 0.70; fill: #D1EEEE; fill-opacity: 0.70;' clip-path='url(#cpNTUuOTYxN3wyOTYuOTIxfDI1My43NXwyMC43ODky)' />
<circle cx='154.09' cy='142.97' r='3.56pt' style='stroke-width: 0.71; stroke: #000000; stroke-opacity: 0.70; fill: #D1EEEE; fill-opacity: 0.70;' clip-path='url(#cpNTUuOTYxN3wyOTYuOTIxfDI1My43NXwyMC43ODky)' />
<circle cx='156.73' cy='140.03' r='3.56pt' style='stroke-width: 0.71; stroke: #000000; stroke-opacity: 0.70; fill: #D1EEEE; fill-opacity: 0.70;' clip-path='url(#cpNTUuOTYxN3wyOTYuOTIxfDI1My43NXwyMC43ODky)' />
<circle cx='198.17' cy='76.04' r='3.56pt' style='stroke-width: 0.71; stroke: #000000; stroke-opacity: 0.70; fill: #D1EEEE; fill-opacity: 0.70;' clip-path='url(#cpNTUuOTYxN3wyOTYuOTIxfDI1My43NXwyMC43ODky)' />
<circle cx='202.51' cy='76.88' r='3.56pt' style='stroke-width: 0.71; stroke: #000000; stroke-opacity: 0.70; fill: #D1EEEE; fill-opacity: 0.70;' clip-path='url(#cpNTUuOTYxN3wyOTYuOTIxfDI1My43NXwyMC43ODky)' />
<circle cx='238.68' cy='40.68' r='3.56pt' style='stroke-width: 0.71; stroke: #000000; stroke-opacity: 0.70; fill: #D1EEEE; fill-opacity: 0.70;' clip-path='url(#cpNTUuOTYxN3wyOTYuOTIxfDI1My43NXwyMC43ODky)' />
<circle cx='240.56' cy='31.42' r='3.56pt' style='stroke-width: 0.71; stroke: #000000; stroke-opacity: 0.70; fill: #D1EEEE; fill-opacity: 0.70;' clip-path='url(#cpNTUuOTYxN3wyOTYuOTIxfDI1My43NXwyMC43ODky)' />
<circle cx='282.39' cy='163.18' r='3.56pt' style='stroke-width: 0.71; stroke: #000000; stroke-opacity: 0.70; fill: #D1EEEE; fill-opacity: 0.70;' clip-path='url(#cpNTUuOTYxN3wyOTYuOTIxfDI1My43NXwyMC43ODky)' />
<polyline points='66.91,243.15 68.02,242.63 69.12,242.10 70.22,241.55 71.32,241.00 72.42,240.43 73.52,239.86 74.62,239.28 75.72,238.68 76.82,238.07 77.92,237.45 79.02,236.82 80.12,236.18 81.22,235.53 82.33,234.87 83.43,234.19 84.53,233.50 85.63,232.80 86.73,232.08 87.83,231.35 88.93,230.61 90.03,229.86 91.13,229.09 92.23,228.31 93.33,227.51 94.43,226.70 95.53,225.88 96.64,225.04 97.74,224.19 98.84,223.32 99.94,222.43 101.04,221.53 102.14,220.62 103.24,219.69 104.34,218.74 105.44,217.77 106.54,216.79 107.64,215.79 108.74,214.78 109.84,213.74 110.95,212.69 112.05,211.62 113.15,210.54 114.25,209.43 115.35,208.31 116.45,207.16 117.55,206.00 118.65,204.82 119.75,203.61 120.85,202.39 121.95,201.15 123.05,199.89 124.15,198.60 125.26,197.30 126.36,195.97 127.46,194.62 128.56,193.25 129.66,191.86 130.76,190.44 131.86,189.01 132.96,187.55 134.06,186.07 135.16,184.56 136.26,183.03 137.36,181.48 138.46,179.90 139.57,178.30 140.67,176.67 141.77,175.02 142.87,173.35 143.97,171.65 145.07,169.93 146.17,168.18 147.27,166.40 148.37,164.60 149.47,162.78 150.57,160.93 151.67,159.05 152.77,157.15 153.88,155.23 154.98,153.28 156.08,151.30 157.18,149.30 158.28,147.27 159.38,145.22 160.48,143.15 161.58,141.05 162.68,138.92 163.78,136.78 164.88,134.61 165.98,132.41 167.08,130.20 168.19,127.96 169.29,125.71 170.39,123.43 171.49,121.14 172.59,118.82 173.69,116.49 174.79,114.14 175.89,111.78 176.99,109.40 178.09,107.01 179.19,104.61 180.29,102.20 181.39,99.79 182.50,97.36 183.60,94.93 184.70,92.50 185.80,90.07 186.90,87.64 188.00,85.22 189.10,82.81 190.20,80.40 191.30,78.01 192.40,75.63 193.50,73.27 194.60,70.94 195.70,68.63 196.81,66.34 197.91,64.10 199.01,61.89 200.11,59.72 201.21,57.59 202.31,55.52 203.41,53.49 204.51,51.53 205.61,49.63 206.71,47.80 207.81,46.03 208.91,44.35 210.01,42.75 211.12,41.23 212.22,39.80 213.32,38.47 214.42,37.24 215.52,36.11 216.62,35.10 217.72,34.20 218.82,33.41 219.92,32.75 221.02,32.21 222.12,31.80 223.22,31.52 224.32,31.38 225.43,31.38 226.53,31.51 227.63,31.79 228.73,32.21 229.83,32.77 230.93,33.48 232.03,34.33 233.13,35.33 234.23,36.47 235.33,37.75 236.43,39.18 237.53,40.74 238.63,42.43 239.74,44.26 240.84,46.22 241.94,48.30 243.04,50.50 244.14,52.82 245.24,55.24 246.34,57.78 247.44,60.41 248.54,63.14 249.64,65.95 250.74,68.85 251.84,71.82 252.94,74.86 254.05,77.96 255.15,81.12 256.25,84.33 257.35,87.58 258.45,90.87 259.55,94.19 260.65,97.54 261.75,100.90 262.85,104.27 263.95,107.66 265.05,111.04 266.15,114.42 267.25,117.80 268.36,121.16 269.46,124.50 270.56,127.82 271.66,131.12 272.76,134.38 273.86,137.62 274.96,140.82 276.06,143.98 277.16,147.10 278.26,150.18 279.36,153.21 280.46,156.20 281.56,159.13 282.67,162.02 283.77,164.86 284.87,167.64 285.97,170.37 ' style='stroke-width: 2.77; stroke: #1B9E77; stroke-linecap: butt;' clip-path='url(#cpNTUuOTYxN3wyOTYuOTIxfDI1My43NXwyMC43ODky)' />
<g clip-path='url(#cpNTUuOTYxN3wyOTYuOTIxfDI1My43NXwyMC43ODky)'><text x='70.25' y='134.13' style='font-size: 8.54px; font-style: italic; font-family: Arial;' textLength='60.01px' lengthAdjust='spacingAndGlyphs'>R^2 sch= 0.98 </text></g>
<g clip-path='url(#cpNTUuOTYxN3wyOTYuOTIxfDI1My43NXwyMC43ODky)'><text x='70.25' y='146.42' style='font-size: 8.54px; font-style: italic; font-family: Arial;' textLength='55.29px' lengthAdjust='spacingAndGlyphs'>E sch= 0.539 </text></g>
<g clip-path='url(#cpNTUuOTYxN3wyOTYuOTIxfDI1My43NXwyMC43ODky)'><text x='70.25' y='158.71' style='font-size: 8.54px; font-style: italic; font-family: Arial;' textLength='52.27px' lengthAdjust='spacingAndGlyphs'>AIC sch= -16</text></g>
<rect x='55.96' y='20.79' width='240.96' height='232.96' style='stroke-width: 1.07; stroke: #333333;' clip-path='url(#cpNTUuOTYxN3wyOTYuOTIxfDI1My43NXwyMC43ODky)' />
<defs>
  <clipPath id='cpMHwzMDIuNHwyODh8MA=='>
    <rect x='0.00' y='0.00' width='302.40' height='288.00' />
  </clipPath>
</defs>
<g clip-path='url(#cpMHwzMDIuNHwyODh8MA==)'><text x='20.51' y='213.76' style='font-size: 8.80px; fill: #4D4D4D; font-family: Arial;' textLength='30.52px' lengthAdjust='spacingAndGlyphs'>5.0e-06</text></g>
<g clip-path='url(#cpMHwzMDIuNHwyODh8MA==)'><text x='20.51' y='155.87' style='font-size: 8.80px; fill: #4D4D4D; font-family: Arial;' textLength='30.52px' lengthAdjust='spacingAndGlyphs'>1.0e-05</text></g>
<g clip-path='url(#cpMHwzMDIuNHwyODh8MA==)'><text x='20.51' y='97.99' style='font-size: 8.80px; fill: #4D4D4D; font-family: Arial;' textLength='30.52px' lengthAdjust='spacingAndGlyphs'>1.5e-05</text></g>
<g clip-path='url(#cpMHwzMDIuNHwyODh8MA==)'><text x='20.51' y='40.11' style='font-size: 8.80px; fill: #4D4D4D; font-family: Arial;' textLength='30.52px' lengthAdjust='spacingAndGlyphs'>2.0e-05</text></g>
<polyline points='53.22,210.54 55.96,210.54 ' style='stroke-width: 1.07; stroke: #333333; stroke-linecap: butt;' clip-path='url(#cpMHwzMDIuNHwyODh8MA==)' />
<polyline points='53.22,152.66 55.96,152.66 ' style='stroke-width: 1.07; stroke: #333333; stroke-linecap: butt;' clip-path='url(#cpMHwzMDIuNHwyODh8MA==)' />
<polyline points='53.22,94.77 55.96,94.77 ' style='stroke-width: 1.07; stroke: #333333; stroke-linecap: butt;' clip-path='url(#cpMHwzMDIuNHwyODh8MA==)' />
<polyline points='53.22,36.89 55.96,36.89 ' style='stroke-width: 1.07; stroke: #333333; stroke-linecap: butt;' clip-path='url(#cpMHwzMDIuNHwyODh8MA==)' />
<polyline points='113.88,256.49 113.88,253.75 ' style='stroke-width: 1.07; stroke: #333333; stroke-linecap: butt;' clip-path='url(#cpMHwzMDIuNHwyODh8MA==)' />
<polyline points='198.14,256.49 198.14,253.75 ' style='stroke-width: 1.07; stroke: #333333; stroke-linecap: butt;' clip-path='url(#cpMHwzMDIuNHwyODh8MA==)' />
<polyline points='282.39,256.49 282.39,253.75 ' style='stroke-width: 1.07; stroke: #333333; stroke-linecap: butt;' clip-path='url(#cpMHwzMDIuNHwyODh8MA==)' />
<g clip-path='url(#cpMHwzMDIuNHwyODh8MA==)'><text x='108.88' y='265.12' style='font-size: 8.80px; fill: #4D4D4D; font-family: Arial;' textLength='10.01px' lengthAdjust='spacingAndGlyphs'>20</text></g>
<g clip-path='url(#cpMHwzMDIuNHwyODh8MA==)'><text x='193.13' y='265.12' style='font-size: 8.80px; fill: #4D4D4D; font-family: Arial;' textLength='10.01px' lengthAdjust='spacingAndGlyphs'>40</text></g>
<g clip-path='url(#cpMHwzMDIuNHwyODh8MA==)'><text x='277.38' y='265.12' style='font-size: 8.80px; fill: #4D4D4D; font-family: Arial;' textLength='10.01px' lengthAdjust='spacingAndGlyphs'>60</text></g>
<g clip-path='url(#cpMHwzMDIuNHwyODh8MA==)'><text x='137.49' y='277.88' style='font-size: 10.00px; font-family: Arial;' textLength='63.35px' lengthAdjust='spacingAndGlyphs'>Temperature (</text></g>
<g clip-path='url(#cpMHwzMDIuNHwyODh8MA==)'><text x='200.84' y='277.88' style='font-size: 10.00px; font-family: Symbol;' textLength='4.00px' lengthAdjust='spacingAndGlyphs'>°</text></g>
<g clip-path='url(#cpMHwzMDIuNHwyODh8MA==)'><text x='204.84' y='277.88' style='font-size: 10.00px; font-family: Arial;' textLength='7.22px' lengthAdjust='spacingAndGlyphs'>C</text></g>
<g clip-path='url(#cpMHwzMDIuNHwyODh8MA==)'><text x='212.06' y='277.88' style='font-size: 10.00px; font-family: Arial;' textLength='3.33px' lengthAdjust='spacingAndGlyphs'>)</text></g>
<g clip-path='url(#cpMHwzMDIuNHwyODh8MA==)'><text transform='translate(12.64,170.62) rotate(-90)' style='font-size: 10.00px; font-family: Arial;' textLength='66.70px' lengthAdjust='spacingAndGlyphs'>respiration rate</text></g>
<g clip-path='url(#cpMHwzMDIuNHwyODh8MA==)'><text x='55.96' y='14.07' style='font-size: 12.00px; font-family: Arial;' textLength='124.74px' lengthAdjust='spacingAndGlyphs'>Ferocactus acanthodes</text></g>
</svg>
