<?xml version='1.0' encoding='UTF-8' ?>
<svg xmlns='http://www.w3.org/2000/svg' xmlns:xlink='http://www.w3.org/1999/xlink' viewBox='0 0 302.40 288.00'>
<defs>
  <style type='text/css'><![CDATA[
    line, polyline, path, rect, circle {
      fill: none;
      stroke: #000000;
      stroke-linecap: round;
      stroke-linejoin: round;
      stroke-miterlimit: 10.00;
    }
  ]]></style>
</defs>
<rect width='100%' height='100%' style='stroke: none; fill: #FFFFFF;'/>
<rect x='-0.00' y='0.00' width='302.40' height='288.00' style='stroke-width: 1.07; stroke: #FFFFFF; fill: #FFFFFF;' />
<defs>
  <clipPath id='cpNjEuMTA3N3wyOTYuOTIxfDI1My43NXwyMy4xNzk4'>
    <rect x='61.11' y='23.18' width='235.81' height='230.57' />
  </clipPath>
</defs>
<rect x='61.11' y='23.18' width='235.81' height='230.57' style='stroke-width: 1.07; stroke: none; fill: #FFFFFF;' clip-path='url(#cpNjEuMTA3N3wyOTYuOTIxfDI1My43NXwyMy4xNzk4)' />
<polyline points='61.11,222.33 296.92,222.33 ' style='stroke-width: 0.53; stroke: #EBEBEB; stroke-linecap: butt;' clip-path='url(#cpNjEuMTA3N3wyOTYuOTIxfDI1My43NXwyMy4xNzk4)' />
<polyline points='61.11,162.84 296.92,162.84 ' style='stroke-width: 0.53; stroke: #EBEBEB; stroke-linecap: butt;' clip-path='url(#cpNjEuMTA3N3wyOTYuOTIxfDI1My43NXwyMy4xNzk4)' />
<polyline points='61.11,103.36 296.92,103.36 ' style='stroke-width: 0.53; stroke: #EBEBEB; stroke-linecap: butt;' clip-path='url(#cpNjEuMTA3N3wyOTYuOTIxfDI1My43NXwyMy4xNzk4)' />
<polyline points='61.11,43.88 296.92,43.88 ' style='stroke-width: 0.53; stroke: #EBEBEB; stroke-linecap: butt;' clip-path='url(#cpNjEuMTA3N3wyOTYuOTIxfDI1My43NXwyMy4xNzk4)' />
<polyline points='98.88,253.75 98.88,23.18 ' style='stroke-width: 0.53; stroke: #EBEBEB; stroke-linecap: butt;' clip-path='url(#cpNjEuMTA3N3wyOTYuOTIxfDI1My43NXwyMy4xNzk4)' />
<polyline points='149.92,253.75 149.92,23.18 ' style='stroke-width: 0.53; stroke: #EBEBEB; stroke-linecap: butt;' clip-path='url(#cpNjEuMTA3N3wyOTYuOTIxfDI1My43NXwyMy4xNzk4)' />
<polyline points='200.96,253.75 200.96,23.18 ' style='stroke-width: 0.53; stroke: #EBEBEB; stroke-linecap: butt;' clip-path='url(#cpNjEuMTA3N3wyOTYuOTIxfDI1My43NXwyMy4xNzk4)' />
<polyline points='252.00,253.75 252.00,23.18 ' style='stroke-width: 0.53; stroke: #EBEBEB; stroke-linecap: butt;' clip-path='url(#cpNjEuMTA3N3wyOTYuOTIxfDI1My43NXwyMy4xNzk4)' />
<polyline points='61.11,252.07 296.92,252.07 ' style='stroke-width: 1.07; stroke: #EBEBEB; stroke-linecap: butt;' clip-path='url(#cpNjEuMTA3N3wyOTYuOTIxfDI1My43NXwyMy4xNzk4)' />
<polyline points='61.11,192.59 296.92,192.59 ' style='stroke-width: 1.07; stroke: #EBEBEB; stroke-linecap: butt;' clip-path='url(#cpNjEuMTA3N3wyOTYuOTIxfDI1My43NXwyMy4xNzk4)' />
<polyline points='61.11,133.10 296.92,133.10 ' style='stroke-width: 1.07; stroke: #EBEBEB; stroke-linecap: butt;' clip-path='url(#cpNjEuMTA3N3wyOTYuOTIxfDI1My43NXwyMy4xNzk4)' />
<polyline points='61.11,73.62 296.92,73.62 ' style='stroke-width: 1.07; stroke: #EBEBEB; stroke-linecap: butt;' clip-path='url(#cpNjEuMTA3N3wyOTYuOTIxfDI1My43NXwyMy4xNzk4)' />
<polyline points='73.36,253.75 73.36,23.18 ' style='stroke-width: 1.07; stroke: #EBEBEB; stroke-linecap: butt;' clip-path='url(#cpNjEuMTA3N3wyOTYuOTIxfDI1My43NXwyMy4xNzk4)' />
<polyline points='124.40,253.75 124.40,23.18 ' style='stroke-width: 1.07; stroke: #EBEBEB; stroke-linecap: butt;' clip-path='url(#cpNjEuMTA3N3wyOTYuOTIxfDI1My43NXwyMy4xNzk4)' />
<polyline points='175.44,253.75 175.44,23.18 ' style='stroke-width: 1.07; stroke: #EBEBEB; stroke-linecap: butt;' clip-path='url(#cpNjEuMTA3N3wyOTYuOTIxfDI1My43NXwyMy4xNzk4)' />
<polyline points='226.48,253.75 226.48,23.18 ' style='stroke-width: 1.07; stroke: #EBEBEB; stroke-linecap: butt;' clip-path='url(#cpNjEuMTA3N3wyOTYuOTIxfDI1My43NXwyMy4xNzk4)' />
<polyline points='277.52,253.75 277.52,23.18 ' style='stroke-width: 1.07; stroke: #EBEBEB; stroke-linecap: butt;' clip-path='url(#cpNjEuMTA3N3wyOTYuOTIxfDI1My43NXwyMy4xNzk4)' />
<circle cx='73.36' cy='137.14' r='3.56pt' style='stroke-width: 0.71; stroke: #000000; stroke-opacity: 0.70; fill: #D1EEEE; fill-opacity: 0.70;' clip-path='url(#cpNjEuMTA3N3wyOTYuOTIxfDI1My43NXwyMy4xNzk4)' />
<circle cx='124.40' cy='66.42' r='3.56pt' style='stroke-width: 0.71; stroke: #000000; stroke-opacity: 0.70; fill: #D1EEEE; fill-opacity: 0.70;' clip-path='url(#cpNjEuMTA3N3wyOTYuOTIxfDI1My43NXwyMy4xNzk4)' />
<circle cx='175.44' cy='43.46' r='3.56pt' style='stroke-width: 0.71; stroke: #000000; stroke-opacity: 0.70; fill: #D1EEEE; fill-opacity: 0.70;' clip-path='url(#cpNjEuMTA3N3wyOTYuOTIxfDI1My43NXwyMy4xNzk4)' />
<circle cx='226.48' cy='71.93' r='3.56pt' style='stroke-width: 0.71; stroke: #000000; stroke-opacity: 0.70; fill: #D1EEEE; fill-opacity: 0.70;' clip-path='url(#cpNjEuMTA3N3wyOTYuOTIxfDI1My43NXwyMy4xNzk4)' />
<circle cx='277.52' cy='217.96' r='3.56pt' style='stroke-width: 0.71; stroke: #000000; stroke-opacity: 0.70; fill: #D1EEEE; fill-opacity: 0.70;' clip-path='url(#cpNjEuMTA3N3wyOTYuOTIxfDI1My43NXwyMy4xNzk4)' />
<polyline points='71.83,136.13 72.90,134.89 73.98,133.65 75.06,132.41 76.14,131.17 77.21,129.92 78.29,128.68 79.37,127.43 80.44,126.18 81.52,124.93 82.60,123.67 83.68,122.42 84.75,121.16 85.83,119.90 86.91,118.64 87.99,117.38 89.06,116.12 90.14,114.86 91.22,113.59 92.29,112.33 93.37,111.06 94.45,109.80 95.53,108.53 96.60,107.27 97.68,106.00 98.76,104.74 99.84,103.47 100.91,102.21 101.99,100.95 103.07,99.68 104.14,98.42 105.22,97.16 106.30,95.90 107.38,94.65 108.45,93.39 109.53,92.14 110.61,90.89 111.69,89.64 112.76,88.40 113.84,87.16 114.92,85.92 115.99,84.68 117.07,83.45 118.15,82.23 119.23,81.01 120.30,79.79 121.38,78.58 122.46,77.37 123.54,76.17 124.61,74.98 125.69,73.79 126.77,72.61 127.84,71.44 128.92,70.27 130.00,69.11 131.08,67.96 132.15,66.82 133.23,65.69 134.31,64.57 135.38,63.46 136.46,62.36 137.54,61.27 138.62,60.19 139.69,59.13 140.77,58.07 141.85,57.03 142.93,56.01 144.00,55.00 145.08,54.00 146.16,53.02 147.23,52.05 148.31,51.10 149.39,50.17 150.47,49.25 151.54,48.36 152.62,47.48 153.70,46.62 154.78,45.79 155.85,44.97 156.93,44.18 158.01,43.40 159.08,42.66 160.16,41.93 161.24,41.23 162.32,40.56 163.39,39.91 164.47,39.29 165.55,38.70 166.63,38.13 167.70,37.60 168.78,37.09 169.86,36.62 170.93,36.17 172.01,35.77 173.09,35.39 174.17,35.05 175.24,34.74 176.32,34.47 177.40,34.24 178.48,34.04 179.55,33.89 180.63,33.77 181.71,33.70 182.78,33.66 183.86,33.67 184.94,33.72 186.02,33.81 187.09,33.95 188.17,34.14 189.25,34.37 190.33,34.64 191.40,34.97 192.48,35.34 193.56,35.77 194.63,36.24 195.71,36.77 196.79,37.34 197.87,37.97 198.94,38.66 200.02,39.39 201.10,40.18 202.18,41.03 203.25,41.92 204.33,42.88 205.41,43.89 206.48,44.96 207.56,46.08 208.64,47.27 209.72,48.51 210.79,49.80 211.87,51.16 212.95,52.57 214.03,54.05 215.10,55.58 216.18,57.17 217.26,58.81 218.33,60.52 219.41,62.28 220.49,64.10 221.57,65.98 222.64,67.91 223.72,69.91 224.80,71.95 225.88,74.06 226.95,76.22 228.03,78.43 229.11,80.70 230.18,83.02 231.26,85.39 232.34,87.81 233.42,90.29 234.49,92.81 235.57,95.38 236.65,98.00 237.72,100.66 238.80,103.37 239.88,106.12 240.96,108.92 242.03,111.75 243.11,114.63 244.19,117.54 245.27,120.49 246.34,123.48 247.42,126.49 248.50,129.54 249.57,132.62 250.65,135.73 251.73,138.87 252.81,142.03 253.88,145.21 254.96,148.42 256.04,151.64 257.12,154.89 258.19,158.15 259.27,161.42 260.35,164.71 261.42,168.01 262.50,171.32 263.58,174.64 264.66,177.96 265.73,181.29 266.81,184.62 267.89,187.95 268.97,191.28 270.04,194.61 271.12,197.93 272.20,201.25 273.27,204.57 274.35,207.87 275.43,211.17 276.51,214.45 277.58,217.72 278.66,220.97 279.74,224.22 280.82,227.44 281.89,230.65 282.97,233.83 284.05,237.00 285.12,240.15 286.20,243.27 ' style='stroke-width: 2.77; stroke: #1B9E77; stroke-linecap: butt;' clip-path='url(#cpNjEuMTA3N3wyOTYuOTIxfDI1My43NXwyMy4xNzk4)' />
<g clip-path='url(#cpNjEuMTA3N3wyOTYuOTIxfDI1My43NXwyMy4xNzk4)'><text x='73.36' y='98.31' style='font-size: 8.54px; font-style: italic; font-family: Arial;' textLength='60.01px' lengthAdjust='spacingAndGlyphs'>R^2 sch= 0.99 </text></g>
<g clip-path='url(#cpNjEuMTA3N3wyOTYuOTIxfDI1My43NXwyMy4xNzk4)'><text x='73.36' y='110.60' style='font-size: 8.54px; font-style: italic; font-family: Arial;' textLength='55.29px' lengthAdjust='spacingAndGlyphs'>E sch= 0.297 </text></g>
<g clip-path='url(#cpNjEuMTA3N3wyOTYuOTIxfDI1My43NXwyMy4xNzk4)'><text x='73.36' y='122.89' style='font-size: 8.54px; font-style: italic; font-family: Arial;' textLength='59.78px' lengthAdjust='spacingAndGlyphs'>AIC sch= -17.2</text></g>
<rect x='61.11' y='23.18' width='235.81' height='230.57' style='stroke-width: 1.07; stroke: #333333;' clip-path='url(#cpNjEuMTA3N3wyOTYuOTIxfDI1My43NXwyMy4xNzk4)' />
<defs>
  <clipPath id='cpMHwzMDIuNHwyODh8MA=='>
    <rect x='0.00' y='0.00' width='302.40' height='288.00' />
  </clipPath>
</defs>
<g clip-path='url(#cpMHwzMDIuNHwyODh8MA==)'><text x='20.65' y='255.29' style='font-size: 8.80px; fill: #4D4D4D; font-family: Arial;' textLength='35.53px' lengthAdjust='spacingAndGlyphs'>7.50e-06</text></g>
<g clip-path='url(#cpMHwzMDIuNHwyODh8MA==)'><text x='20.65' y='195.80' style='font-size: 8.80px; fill: #4D4D4D; font-family: Arial;' textLength='35.53px' lengthAdjust='spacingAndGlyphs'>1.00e-05</text></g>
<g clip-path='url(#cpMHwzMDIuNHwyODh8MA==)'><text x='20.65' y='136.32' style='font-size: 8.80px; fill: #4D4D4D; font-family: Arial;' textLength='35.53px' lengthAdjust='spacingAndGlyphs'>1.25e-05</text></g>
<g clip-path='url(#cpMHwzMDIuNHwyODh8MA==)'><text x='20.65' y='76.84' style='font-size: 8.80px; fill: #4D4D4D; font-family: Arial;' textLength='35.53px' lengthAdjust='spacingAndGlyphs'>1.50e-05</text></g>
<polyline points='58.37,252.07 61.11,252.07 ' style='stroke-width: 1.07; stroke: #333333; stroke-linecap: butt;' clip-path='url(#cpMHwzMDIuNHwyODh8MA==)' />
<polyline points='58.37,192.59 61.11,192.59 ' style='stroke-width: 1.07; stroke: #333333; stroke-linecap: butt;' clip-path='url(#cpMHwzMDIuNHwyODh8MA==)' />
<polyline points='58.37,133.10 61.11,133.10 ' style='stroke-width: 1.07; stroke: #333333; stroke-linecap: butt;' clip-path='url(#cpMHwzMDIuNHwyODh8MA==)' />
<polyline points='58.37,73.62 61.11,73.62 ' style='stroke-width: 1.07; stroke: #333333; stroke-linecap: butt;' clip-path='url(#cpMHwzMDIuNHwyODh8MA==)' />
<polyline points='73.36,256.49 73.36,253.75 ' style='stroke-width: 1.07; stroke: #333333; stroke-linecap: butt;' clip-path='url(#cpMHwzMDIuNHwyODh8MA==)' />
<polyline points='124.40,256.49 124.40,253.75 ' style='stroke-width: 1.07; stroke: #333333; stroke-linecap: butt;' clip-path='url(#cpMHwzMDIuNHwyODh8MA==)' />
<polyline points='175.44,256.49 175.44,253.75 ' style='stroke-width: 1.07; stroke: #333333; stroke-linecap: butt;' clip-path='url(#cpMHwzMDIuNHwyODh8MA==)' />
<polyline points='226.48,256.49 226.48,253.75 ' style='stroke-width: 1.07; stroke: #333333; stroke-linecap: butt;' clip-path='url(#cpMHwzMDIuNHwyODh8MA==)' />
<polyline points='277.52,256.49 277.52,253.75 ' style='stroke-width: 1.07; stroke: #333333; stroke-linecap: butt;' clip-path='url(#cpMHwzMDIuNHwyODh8MA==)' />
<g clip-path='url(#cpMHwzMDIuNHwyODh8MA==)'><text x='68.35' y='265.12' style='font-size: 8.80px; fill: #4D4D4D; font-family: Arial;' textLength='10.01px' lengthAdjust='spacingAndGlyphs'>15</text></g>
<g clip-path='url(#cpMHwzMDIuNHwyODh8MA==)'><text x='119.39' y='265.12' style='font-size: 8.80px; fill: #4D4D4D; font-family: Arial;' textLength='10.01px' lengthAdjust='spacingAndGlyphs'>20</text></g>
<g clip-path='url(#cpMHwzMDIuNHwyODh8MA==)'><text x='170.44' y='265.12' style='font-size: 8.80px; fill: #4D4D4D; font-family: Arial;' textLength='10.01px' lengthAdjust='spacingAndGlyphs'>25</text></g>
<g clip-path='url(#cpMHwzMDIuNHwyODh8MA==)'><text x='221.48' y='265.12' style='font-size: 8.80px; fill: #4D4D4D; font-family: Arial;' textLength='10.01px' lengthAdjust='spacingAndGlyphs'>30</text></g>
<g clip-path='url(#cpMHwzMDIuNHwyODh8MA==)'><text x='272.52' y='265.12' style='font-size: 8.80px; fill: #4D4D4D; font-family: Arial;' textLength='10.01px' lengthAdjust='spacingAndGlyphs'>35</text></g>
<g clip-path='url(#cpMHwzMDIuNHwyODh8MA==)'><text x='140.06' y='277.88' style='font-size: 10.00px; font-family: Arial;' textLength='63.35px' lengthAdjust='spacingAndGlyphs'>Temperature (</text></g>
<g clip-path='url(#cpMHwzMDIuNHwyODh8MA==)'><text x='203.42' y='277.88' style='font-size: 10.00px; font-family: Symbol;' textLength='4.00px' lengthAdjust='spacingAndGlyphs'>°</text></g>
<g clip-path='url(#cpMHwzMDIuNHwyODh8MA==)'><text x='207.42' y='277.88' style='font-size: 10.00px; font-family: Arial;' textLength='7.22px' lengthAdjust='spacingAndGlyphs'>C</text></g>
<g clip-path='url(#cpMHwzMDIuNHwyODh8MA==)'><text x='214.64' y='277.88' style='font-size: 10.00px; font-family: Arial;' textLength='3.33px' lengthAdjust='spacingAndGlyphs'>)</text></g>
<g clip-path='url(#cpMHwzMDIuNHwyODh8MA==)'><text transform='translate(12.64,180.16) rotate(-90)' style='font-size: 10.00px; font-family: Arial;' textLength='83.39px' lengthAdjust='spacingAndGlyphs'>net photosynthesis</text></g>
<g clip-path='url(#cpMHwzMDIuNHwyODh8MA==)'><text x='61.11' y='14.07' style='font-size: 12.00px; font-family: Arial;' textLength='118.74px' lengthAdjust='spacingAndGlyphs'>Ledum groenlandicum</text></g>
</svg>
