<?xml version='1.0' encoding='UTF-8' ?>
<svg xmlns='http://www.w3.org/2000/svg' xmlns:xlink='http://www.w3.org/1999/xlink' viewBox='0 0 302.40 288.00'>
<defs>
  <style type='text/css'><![CDATA[
    line, polyline, path, rect, circle {
      fill: none;
      stroke: #000000;
      stroke-linecap: round;
      stroke-linejoin: round;
      stroke-miterlimit: 10.00;
    }
  ]]></style>
</defs>
<rect width='100%' height='100%' style='stroke: none; fill: #FFFFFF;'/>
<rect x='0.00' y='0.00' width='302.40' height='288.00' style='stroke-width: 1.07; stroke: #FFFFFF; fill: #FFFFFF;' />
<defs>
  <clipPath id='cpNTYuMTAyM3wyOTYuOTIxfDI1My43NXwyMC43ODky'>
    <rect x='56.10' y='20.79' width='240.82' height='232.96' />
  </clipPath>
</defs>
<rect x='56.10' y='20.79' width='240.82' height='232.96' style='stroke-width: 1.07; stroke: none; fill: #FFFFFF;' clip-path='url(#cpNTYuMTAyM3wyOTYuOTIxfDI1My43NXwyMC43ODky)' />
<polyline points='56.10,226.42 296.92,226.42 ' style='stroke-width: 0.53; stroke: #EBEBEB; stroke-linecap: butt;' clip-path='url(#cpNTYuMTAyM3wyOTYuOTIxfDI1My43NXwyMC43ODky)' />
<polyline points='56.10,181.77 296.92,181.77 ' style='stroke-width: 0.53; stroke: #EBEBEB; stroke-linecap: butt;' clip-path='url(#cpNTYuMTAyM3wyOTYuOTIxfDI1My43NXwyMC43ODky)' />
<polyline points='56.10,137.13 296.92,137.13 ' style='stroke-width: 0.53; stroke: #EBEBEB; stroke-linecap: butt;' clip-path='url(#cpNTYuMTAyM3wyOTYuOTIxfDI1My43NXwyMC43ODky)' />
<polyline points='56.10,92.48 296.92,92.48 ' style='stroke-width: 0.53; stroke: #EBEBEB; stroke-linecap: butt;' clip-path='url(#cpNTYuMTAyM3wyOTYuOTIxfDI1My43NXwyMC43ODky)' />
<polyline points='56.10,47.84 296.92,47.84 ' style='stroke-width: 0.53; stroke: #EBEBEB; stroke-linecap: butt;' clip-path='url(#cpNTYuMTAyM3wyOTYuOTIxfDI1My43NXwyMC43ODky)' />
<polyline points='94.67,253.75 94.67,20.79 ' style='stroke-width: 0.53; stroke: #EBEBEB; stroke-linecap: butt;' clip-path='url(#cpNTYuMTAyM3wyOTYuOTIxfDI1My43NXwyMC43ODky)' />
<polyline points='146.80,253.75 146.80,20.79 ' style='stroke-width: 0.53; stroke: #EBEBEB; stroke-linecap: butt;' clip-path='url(#cpNTYuMTAyM3wyOTYuOTIxfDI1My43NXwyMC43ODky)' />
<polyline points='198.93,253.75 198.93,20.79 ' style='stroke-width: 0.53; stroke: #EBEBEB; stroke-linecap: butt;' clip-path='url(#cpNTYuMTAyM3wyOTYuOTIxfDI1My43NXwyMC43ODky)' />
<polyline points='251.05,253.75 251.05,20.79 ' style='stroke-width: 0.53; stroke: #EBEBEB; stroke-linecap: butt;' clip-path='url(#cpNTYuMTAyM3wyOTYuOTIxfDI1My43NXwyMC43ODky)' />
<polyline points='56.10,248.74 296.92,248.74 ' style='stroke-width: 1.07; stroke: #EBEBEB; stroke-linecap: butt;' clip-path='url(#cpNTYuMTAyM3wyOTYuOTIxfDI1My43NXwyMC43ODky)' />
<polyline points='56.10,204.09 296.92,204.09 ' style='stroke-width: 1.07; stroke: #EBEBEB; stroke-linecap: butt;' clip-path='url(#cpNTYuMTAyM3wyOTYuOTIxfDI1My43NXwyMC43ODky)' />
<polyline points='56.10,159.45 296.92,159.45 ' style='stroke-width: 1.07; stroke: #EBEBEB; stroke-linecap: butt;' clip-path='url(#cpNTYuMTAyM3wyOTYuOTIxfDI1My43NXwyMC43ODky)' />
<polyline points='56.10,114.80 296.92,114.80 ' style='stroke-width: 1.07; stroke: #EBEBEB; stroke-linecap: butt;' clip-path='url(#cpNTYuMTAyM3wyOTYuOTIxfDI1My43NXwyMC43ODky)' />
<polyline points='56.10,70.16 296.92,70.16 ' style='stroke-width: 1.07; stroke: #EBEBEB; stroke-linecap: butt;' clip-path='url(#cpNTYuMTAyM3wyOTYuOTIxfDI1My43NXwyMC43ODky)' />
<polyline points='56.10,25.52 296.92,25.52 ' style='stroke-width: 1.07; stroke: #EBEBEB; stroke-linecap: butt;' clip-path='url(#cpNTYuMTAyM3wyOTYuOTIxfDI1My43NXwyMC43ODky)' />
<polyline points='68.61,253.75 68.61,20.79 ' style='stroke-width: 1.07; stroke: #EBEBEB; stroke-linecap: butt;' clip-path='url(#cpNTYuMTAyM3wyOTYuOTIxfDI1My43NXwyMC43ODky)' />
<polyline points='120.74,253.75 120.74,20.79 ' style='stroke-width: 1.07; stroke: #EBEBEB; stroke-linecap: butt;' clip-path='url(#cpNTYuMTAyM3wyOTYuOTIxfDI1My43NXwyMC43ODky)' />
<polyline points='172.86,253.75 172.86,20.79 ' style='stroke-width: 1.07; stroke: #EBEBEB; stroke-linecap: butt;' clip-path='url(#cpNTYuMTAyM3wyOTYuOTIxfDI1My43NXwyMC43ODky)' />
<polyline points='224.99,253.75 224.99,20.79 ' style='stroke-width: 1.07; stroke: #EBEBEB; stroke-linecap: butt;' clip-path='url(#cpNTYuMTAyM3wyOTYuOTIxfDI1My43NXwyMC43ODky)' />
<polyline points='277.11,253.75 277.11,20.79 ' style='stroke-width: 1.07; stroke: #EBEBEB; stroke-linecap: butt;' clip-path='url(#cpNTYuMTAyM3wyOTYuOTIxfDI1My43NXwyMC43ODky)' />
<circle cx='68.61' cy='240.51' r='3.56pt' style='stroke-width: 0.71; stroke: #000000; stroke-opacity: 0.70; fill: #D1EEEE; fill-opacity: 0.70;' clip-path='url(#cpNTYuMTAyM3wyOTYuOTIxfDI1My43NXwyMC43ODky)' />
<circle cx='120.74' cy='139.04' r='3.56pt' style='stroke-width: 0.71; stroke: #000000; stroke-opacity: 0.70; fill: #D1EEEE; fill-opacity: 0.70;' clip-path='url(#cpNTYuMTAyM3wyOTYuOTIxfDI1My43NXwyMC43ODky)' />
<circle cx='172.86' cy='68.02' r='3.56pt' style='stroke-width: 0.71; stroke: #000000; stroke-opacity: 0.70; fill: #D1EEEE; fill-opacity: 0.70;' clip-path='url(#cpNTYuMTAyM3wyOTYuOTIxfDI1My43NXwyMC43ODky)' />
<circle cx='224.99' cy='31.38' r='3.56pt' style='stroke-width: 0.71; stroke: #000000; stroke-opacity: 0.70; fill: #D1EEEE; fill-opacity: 0.70;' clip-path='url(#cpNTYuMTAyM3wyOTYuOTIxfDI1My43NXwyMC43ODky)' />
<circle cx='277.11' cy='50.54' r='3.56pt' style='stroke-width: 0.71; stroke: #000000; stroke-opacity: 0.70; fill: #D1EEEE; fill-opacity: 0.70;' clip-path='url(#cpNTYuMTAyM3wyOTYuOTIxfDI1My43NXwyMC43ODky)' />
<polyline points='67.05,243.16 68.15,241.03 69.25,238.89 70.35,236.75 71.45,234.62 72.55,232.47 73.65,230.33 74.75,228.19 75.85,226.04 76.95,223.90 78.05,221.75 79.15,219.61 80.25,217.46 81.35,215.32 82.45,213.17 83.55,211.03 84.65,208.89 85.75,206.75 86.85,204.61 87.95,202.47 89.05,200.33 90.15,198.20 91.25,196.07 92.35,193.94 93.45,191.82 94.55,189.69 95.65,187.58 96.75,185.46 97.85,183.35 98.95,181.25 100.05,179.15 101.15,177.05 102.25,174.96 103.35,172.88 104.45,170.80 105.55,168.73 106.65,166.66 107.75,164.60 108.85,162.55 109.95,160.51 111.05,158.47 112.15,156.44 113.25,154.42 114.35,152.41 115.45,150.40 116.55,148.41 117.65,146.43 118.75,144.45 119.85,142.48 120.95,140.53 122.06,138.58 123.16,136.65 124.26,134.73 125.36,132.81 126.46,130.91 127.56,129.02 128.66,127.15 129.76,125.28 130.86,123.43 131.96,121.59 133.06,119.77 134.16,117.96 135.26,116.16 136.36,114.38 137.46,112.61 138.56,110.85 139.66,109.11 140.76,107.39 141.86,105.68 142.96,103.98 144.06,102.31 145.16,100.64 146.26,99.00 147.36,97.37 148.46,95.76 149.56,94.16 150.66,92.58 151.76,91.02 152.86,89.48 153.96,87.95 155.06,86.45 156.16,84.96 157.26,83.49 158.36,82.03 159.46,80.60 160.56,79.19 161.66,77.79 162.76,76.42 163.86,75.06 164.96,73.73 166.06,72.41 167.16,71.12 168.26,69.84 169.36,68.59 170.46,67.36 171.56,66.14 172.66,64.95 173.76,63.78 174.86,62.63 175.96,61.50 177.06,60.40 178.16,59.31 179.26,58.25 180.36,57.20 181.46,56.18 182.56,55.19 183.66,54.21 184.76,53.26 185.86,52.32 186.96,51.42 188.06,50.53 189.16,49.66 190.26,48.82 191.36,48.00 192.46,47.21 193.56,46.43 194.66,45.68 195.76,44.95 196.86,44.24 197.96,43.56 199.06,42.90 200.16,42.26 201.26,41.65 202.36,41.05 203.46,40.48 204.56,39.94 205.66,39.41 206.76,38.91 207.87,38.43 208.97,37.98 210.07,37.54 211.17,37.13 212.27,36.74 213.37,36.38 214.47,36.03 215.57,35.71 216.67,35.41 217.77,35.14 218.87,34.88 219.97,34.65 221.07,34.44 222.17,34.25 223.27,34.08 224.37,33.94 225.47,33.81 226.57,33.71 227.67,33.63 228.77,33.57 229.87,33.54 230.97,33.52 232.07,33.52 233.17,33.55 234.27,33.59 235.37,33.66 236.47,33.75 237.57,33.86 238.67,33.98 239.77,34.13 240.87,34.30 241.97,34.49 243.07,34.69 244.17,34.92 245.27,35.16 246.37,35.43 247.47,35.71 248.57,36.01 249.67,36.34 250.77,36.68 251.87,37.03 252.97,37.41 254.07,37.80 255.17,38.22 256.27,38.65 257.37,39.09 258.47,39.56 259.57,40.04 260.67,40.54 261.77,41.05 262.87,41.58 263.97,42.13 265.07,42.69 266.17,43.27 267.27,43.87 268.37,44.48 269.47,45.11 270.57,45.75 271.67,46.40 272.77,47.08 273.87,47.76 274.97,48.46 276.07,49.18 277.17,49.91 278.27,50.65 279.37,51.41 280.47,52.18 281.57,52.96 282.67,53.75 283.77,54.56 284.87,55.39 285.97,56.22 ' style='stroke-width: 2.77; stroke: #1B9E77; stroke-linecap: butt;' clip-path='url(#cpNTYuMTAyM3wyOTYuOTIxfDI1My43NXwyMC43ODky)' />
<g clip-path='url(#cpNTYuMTAyM3wyOTYuOTIxfDI1My43NXwyMC43ODky)'><text x='68.61' y='96.83' style='font-size: 8.54px; font-style: italic; font-family: Arial;' textLength='60.01px' lengthAdjust='spacingAndGlyphs'>R^2 sch= 1.00 </text></g>
<g clip-path='url(#cpNTYuMTAyM3wyOTYuOTIxfDI1My43NXwyMC43ODky)'><text x='68.61' y='109.12' style='font-size: 8.54px; font-style: italic; font-family: Arial;' textLength='55.29px' lengthAdjust='spacingAndGlyphs'>E sch= 0.615 </text></g>
<g clip-path='url(#cpNTYuMTAyM3wyOTYuOTIxfDI1My43NXwyMC43ODky)'><text x='68.61' y='121.41' style='font-size: 8.54px; font-style: italic; font-family: Arial;' textLength='59.78px' lengthAdjust='spacingAndGlyphs'>AIC sch= -30.5</text></g>
<rect x='56.10' y='20.79' width='240.82' height='232.96' style='stroke-width: 1.07; stroke: #333333;' clip-path='url(#cpNTYuMTAyM3wyOTYuOTIxfDI1My43NXwyMC43ODky)' />
<defs>
  <clipPath id='cpMHwzMDIuNHwyODh8MA=='>
    <rect x='0.00' y='0.00' width='302.40' height='288.00' />
  </clipPath>
</defs>
<g clip-path='url(#cpMHwzMDIuNHwyODh8MA==)'><text x='20.65' y='251.96' style='font-size: 8.80px; fill: #4D4D4D; font-family: Arial;' textLength='30.52px' lengthAdjust='spacingAndGlyphs'>3.5e-05</text></g>
<g clip-path='url(#cpMHwzMDIuNHwyODh8MA==)'><text x='20.65' y='207.31' style='font-size: 8.80px; fill: #4D4D4D; font-family: Arial;' textLength='30.52px' lengthAdjust='spacingAndGlyphs'>4.0e-05</text></g>
<g clip-path='url(#cpMHwzMDIuNHwyODh8MA==)'><text x='20.65' y='162.67' style='font-size: 8.80px; fill: #4D4D4D; font-family: Arial;' textLength='30.52px' lengthAdjust='spacingAndGlyphs'>4.5e-05</text></g>
<g clip-path='url(#cpMHwzMDIuNHwyODh8MA==)'><text x='20.65' y='118.02' style='font-size: 8.80px; fill: #4D4D4D; font-family: Arial;' textLength='30.52px' lengthAdjust='spacingAndGlyphs'>5.0e-05</text></g>
<g clip-path='url(#cpMHwzMDIuNHwyODh8MA==)'><text x='20.65' y='73.38' style='font-size: 8.80px; fill: #4D4D4D; font-family: Arial;' textLength='30.52px' lengthAdjust='spacingAndGlyphs'>5.5e-05</text></g>
<g clip-path='url(#cpMHwzMDIuNHwyODh8MA==)'><text x='20.65' y='28.73' style='font-size: 8.80px; fill: #4D4D4D; font-family: Arial;' textLength='30.52px' lengthAdjust='spacingAndGlyphs'>6.0e-05</text></g>
<polyline points='53.36,248.74 56.10,248.74 ' style='stroke-width: 1.07; stroke: #333333; stroke-linecap: butt;' clip-path='url(#cpMHwzMDIuNHwyODh8MA==)' />
<polyline points='53.36,204.09 56.10,204.09 ' style='stroke-width: 1.07; stroke: #333333; stroke-linecap: butt;' clip-path='url(#cpMHwzMDIuNHwyODh8MA==)' />
<polyline points='53.36,159.45 56.10,159.45 ' style='stroke-width: 1.07; stroke: #333333; stroke-linecap: butt;' clip-path='url(#cpMHwzMDIuNHwyODh8MA==)' />
<polyline points='53.36,114.80 56.10,114.80 ' style='stroke-width: 1.07; stroke: #333333; stroke-linecap: butt;' clip-path='url(#cpMHwzMDIuNHwyODh8MA==)' />
<polyline points='53.36,70.16 56.10,70.16 ' style='stroke-width: 1.07; stroke: #333333; stroke-linecap: butt;' clip-path='url(#cpMHwzMDIuNHwyODh8MA==)' />
<polyline points='53.36,25.52 56.10,25.52 ' style='stroke-width: 1.07; stroke: #333333; stroke-linecap: butt;' clip-path='url(#cpMHwzMDIuNHwyODh8MA==)' />
<polyline points='68.61,256.49 68.61,253.75 ' style='stroke-width: 1.07; stroke: #333333; stroke-linecap: butt;' clip-path='url(#cpMHwzMDIuNHwyODh8MA==)' />
<polyline points='120.74,256.49 120.74,253.75 ' style='stroke-width: 1.07; stroke: #333333; stroke-linecap: butt;' clip-path='url(#cpMHwzMDIuNHwyODh8MA==)' />
<polyline points='172.86,256.49 172.86,253.75 ' style='stroke-width: 1.07; stroke: #333333; stroke-linecap: butt;' clip-path='url(#cpMHwzMDIuNHwyODh8MA==)' />
<polyline points='224.99,256.49 224.99,253.75 ' style='stroke-width: 1.07; stroke: #333333; stroke-linecap: butt;' clip-path='url(#cpMHwzMDIuNHwyODh8MA==)' />
<polyline points='277.11,256.49 277.11,253.75 ' style='stroke-width: 1.07; stroke: #333333; stroke-linecap: butt;' clip-path='url(#cpMHwzMDIuNHwyODh8MA==)' />
<g clip-path='url(#cpMHwzMDIuNHwyODh8MA==)'><text x='63.61' y='265.12' style='font-size: 8.80px; fill: #4D4D4D; font-family: Arial;' textLength='10.01px' lengthAdjust='spacingAndGlyphs'>10</text></g>
<g clip-path='url(#cpMHwzMDIuNHwyODh8MA==)'><text x='115.73' y='265.12' style='font-size: 8.80px; fill: #4D4D4D; font-family: Arial;' textLength='10.01px' lengthAdjust='spacingAndGlyphs'>15</text></g>
<g clip-path='url(#cpMHwzMDIuNHwyODh8MA==)'><text x='167.86' y='265.12' style='font-size: 8.80px; fill: #4D4D4D; font-family: Arial;' textLength='10.01px' lengthAdjust='spacingAndGlyphs'>20</text></g>
<g clip-path='url(#cpMHwzMDIuNHwyODh8MA==)'><text x='219.98' y='265.12' style='font-size: 8.80px; fill: #4D4D4D; font-family: Arial;' textLength='10.01px' lengthAdjust='spacingAndGlyphs'>25</text></g>
<g clip-path='url(#cpMHwzMDIuNHwyODh8MA==)'><text x='272.11' y='265.12' style='font-size: 8.80px; fill: #4D4D4D; font-family: Arial;' textLength='10.01px' lengthAdjust='spacingAndGlyphs'>30</text></g>
<g clip-path='url(#cpMHwzMDIuNHwyODh8MA==)'><text x='137.56' y='277.88' style='font-size: 10.00px; font-family: Arial;' textLength='63.35px' lengthAdjust='spacingAndGlyphs'>Temperature (</text></g>
<g clip-path='url(#cpMHwzMDIuNHwyODh8MA==)'><text x='200.91' y='277.88' style='font-size: 10.00px; font-family: Symbol;' textLength='4.00px' lengthAdjust='spacingAndGlyphs'>°</text></g>
<g clip-path='url(#cpMHwzMDIuNHwyODh8MA==)'><text x='204.91' y='277.88' style='font-size: 10.00px; font-family: Arial;' textLength='7.22px' lengthAdjust='spacingAndGlyphs'>C</text></g>
<g clip-path='url(#cpMHwzMDIuNHwyODh8MA==)'><text x='212.13' y='277.88' style='font-size: 10.00px; font-family: Arial;' textLength='3.33px' lengthAdjust='spacingAndGlyphs'>)</text></g>
<g clip-path='url(#cpMHwzMDIuNHwyODh8MA==)'><text transform='translate(12.64,178.96) rotate(-90)' style='font-size: 10.00px; font-family: Arial;' textLength='83.39px' lengthAdjust='spacingAndGlyphs'>net photosynthesis</text></g>
<g clip-path='url(#cpMHwzMDIuNHwyODh8MA==)'><text x='56.10' y='14.07' style='font-size: 12.00px; font-family: Arial;' textLength='144.73px' lengthAdjust='spacingAndGlyphs'>Chamaebatiaria millefolium</text></g>
</svg>
