<?xml version='1.0' encoding='UTF-8' ?>
<svg xmlns='http://www.w3.org/2000/svg' xmlns:xlink='http://www.w3.org/1999/xlink' viewBox='0 0 302.40 288.00'>
<defs>
  <style type='text/css'><![CDATA[
    line, polyline, path, rect, circle {
      fill: none;
      stroke: #000000;
      stroke-linecap: round;
      stroke-linejoin: round;
      stroke-miterlimit: 10.00;
    }
  ]]></style>
</defs>
<rect width='100%' height='100%' style='stroke: none; fill: #FFFFFF;'/>
<rect x='0.00' y='0.00' width='302.40' height='288.00' style='stroke-width: 1.07; stroke: #FFFFFF; fill: #FFFFFF;' />
<defs>
  <clipPath id='cpNDguNTk2NXwyOTYuOTIxfDI1My43NXwyMy4xNzk4'>
    <rect x='48.60' y='23.18' width='248.32' height='230.57' />
  </clipPath>
</defs>
<rect x='48.60' y='23.18' width='248.32' height='230.57' style='stroke-width: 1.07; stroke: none; fill: #FFFFFF;' clip-path='url(#cpNDguNTk2NXwyOTYuOTIxfDI1My43NXwyMy4xNzk4)' />
<polyline points='48.60,229.21 296.92,229.21 ' style='stroke-width: 0.53; stroke: #EBEBEB; stroke-linecap: butt;' clip-path='url(#cpNDguNTk2NXwyOTYuOTIxfDI1My43NXwyMy4xNzk4)' />
<polyline points='48.60,165.43 296.92,165.43 ' style='stroke-width: 0.53; stroke: #EBEBEB; stroke-linecap: butt;' clip-path='url(#cpNDguNTk2NXwyOTYuOTIxfDI1My43NXwyMy4xNzk4)' />
<polyline points='48.60,101.65 296.92,101.65 ' style='stroke-width: 0.53; stroke: #EBEBEB; stroke-linecap: butt;' clip-path='url(#cpNDguNTk2NXwyOTYuOTIxfDI1My43NXwyMy4xNzk4)' />
<polyline points='48.60,37.86 296.92,37.86 ' style='stroke-width: 0.53; stroke: #EBEBEB; stroke-linecap: butt;' clip-path='url(#cpNDguNTk2NXwyOTYuOTIxfDI1My43NXwyMy4xNzk4)' />
<polyline points='60.82,253.75 60.82,23.18 ' style='stroke-width: 0.53; stroke: #EBEBEB; stroke-linecap: butt;' clip-path='url(#cpNDguNTk2NXwyOTYuOTIxfDI1My43NXwyMy4xNzk4)' />
<polyline points='123.53,253.75 123.53,23.18 ' style='stroke-width: 0.53; stroke: #EBEBEB; stroke-linecap: butt;' clip-path='url(#cpNDguNTk2NXwyOTYuOTIxfDI1My43NXwyMy4xNzk4)' />
<polyline points='186.24,253.75 186.24,23.18 ' style='stroke-width: 0.53; stroke: #EBEBEB; stroke-linecap: butt;' clip-path='url(#cpNDguNTk2NXwyOTYuOTIxfDI1My43NXwyMy4xNzk4)' />
<polyline points='248.95,253.75 248.95,23.18 ' style='stroke-width: 0.53; stroke: #EBEBEB; stroke-linecap: butt;' clip-path='url(#cpNDguNTk2NXwyOTYuOTIxfDI1My43NXwyMy4xNzk4)' />
<polyline points='48.60,197.32 296.92,197.32 ' style='stroke-width: 1.07; stroke: #EBEBEB; stroke-linecap: butt;' clip-path='url(#cpNDguNTk2NXwyOTYuOTIxfDI1My43NXwyMy4xNzk4)' />
<polyline points='48.60,133.54 296.92,133.54 ' style='stroke-width: 1.07; stroke: #EBEBEB; stroke-linecap: butt;' clip-path='url(#cpNDguNTk2NXwyOTYuOTIxfDI1My43NXwyMy4xNzk4)' />
<polyline points='48.60,69.76 296.92,69.76 ' style='stroke-width: 1.07; stroke: #EBEBEB; stroke-linecap: butt;' clip-path='url(#cpNDguNTk2NXwyOTYuOTIxfDI1My43NXwyMy4xNzk4)' />
<polyline points='92.18,253.75 92.18,23.18 ' style='stroke-width: 1.07; stroke: #EBEBEB; stroke-linecap: butt;' clip-path='url(#cpNDguNTk2NXwyOTYuOTIxfDI1My43NXwyMy4xNzk4)' />
<polyline points='154.89,253.75 154.89,23.18 ' style='stroke-width: 1.07; stroke: #EBEBEB; stroke-linecap: butt;' clip-path='url(#cpNDguNTk2NXwyOTYuOTIxfDI1My43NXwyMy4xNzk4)' />
<polyline points='217.59,253.75 217.59,23.18 ' style='stroke-width: 1.07; stroke: #EBEBEB; stroke-linecap: butt;' clip-path='url(#cpNDguNTk2NXwyOTYuOTIxfDI1My43NXwyMy4xNzk4)' />
<polyline points='280.30,253.75 280.30,23.18 ' style='stroke-width: 1.07; stroke: #EBEBEB; stroke-linecap: butt;' clip-path='url(#cpNDguNTk2NXwyOTYuOTIxfDI1My43NXwyMy4xNzk4)' />
<circle cx='60.82' cy='241.46' r='3.56pt' style='stroke-width: 0.71; stroke: #000000; stroke-opacity: 0.70; fill: #D1EEEE; fill-opacity: 0.70;' clip-path='url(#cpNDguNTk2NXwyOTYuOTIxfDI1My43NXwyMy4xNzk4)' />
<circle cx='92.18' cy='129.33' r='3.56pt' style='stroke-width: 0.71; stroke: #000000; stroke-opacity: 0.70; fill: #D1EEEE; fill-opacity: 0.70;' clip-path='url(#cpNDguNTk2NXwyOTYuOTIxfDI1My43NXwyMy4xNzk4)' />
<circle cx='123.53' cy='77.69' r='3.56pt' style='stroke-width: 0.71; stroke: #000000; stroke-opacity: 0.70; fill: #D1EEEE; fill-opacity: 0.70;' clip-path='url(#cpNDguNTk2NXwyOTYuOTIxfDI1My43NXwyMy4xNzk4)' />
<circle cx='154.89' cy='42.46' r='3.56pt' style='stroke-width: 0.71; stroke: #000000; stroke-opacity: 0.70; fill: #D1EEEE; fill-opacity: 0.70;' clip-path='url(#cpNDguNTk2NXwyOTYuOTIxfDI1My43NXwyMy4xNzk4)' />
<circle cx='186.24' cy='74.94' r='3.56pt' style='stroke-width: 0.71; stroke: #000000; stroke-opacity: 0.70; fill: #D1EEEE; fill-opacity: 0.70;' clip-path='url(#cpNDguNTk2NXwyOTYuOTIxfDI1My43NXwyMy4xNzk4)' />
<circle cx='217.59' cy='46.96' r='3.56pt' style='stroke-width: 0.71; stroke: #000000; stroke-opacity: 0.70; fill: #D1EEEE; fill-opacity: 0.70;' clip-path='url(#cpNDguNTk2NXwyOTYuOTIxfDI1My43NXwyMy4xNzk4)' />
<circle cx='248.95' cy='33.66' r='3.56pt' style='stroke-width: 0.71; stroke: #000000; stroke-opacity: 0.70; fill: #D1EEEE; fill-opacity: 0.70;' clip-path='url(#cpNDguNTk2NXwyOTYuOTIxfDI1My43NXwyMy4xNzk4)' />
<circle cx='280.30' cy='115.57' r='3.56pt' style='stroke-width: 0.71; stroke: #000000; stroke-opacity: 0.70; fill: #D1EEEE; fill-opacity: 0.70;' clip-path='url(#cpNDguNTk2NXwyOTYuOTIxfDI1My43NXwyMy4xNzk4)' />
<polyline points='59.88,243.27 61.02,239.27 62.15,235.27 63.29,231.27 64.42,227.26 65.56,223.26 66.69,219.26 67.82,215.28 68.96,211.30 70.09,207.34 71.23,203.39 72.36,199.46 73.50,195.55 74.63,191.67 75.77,187.81 76.90,183.99 78.03,180.19 79.17,176.43 80.30,172.70 81.44,169.01 82.57,165.37 83.71,161.76 84.84,158.20 85.98,154.68 87.11,151.22 88.24,147.80 89.38,144.43 90.51,141.12 91.65,137.86 92.78,134.65 93.92,131.51 95.05,128.42 96.19,125.38 97.32,122.41 98.45,119.50 99.59,116.65 100.72,113.86 101.86,111.13 102.99,108.47 104.13,105.87 105.26,103.33 106.40,100.85 107.53,98.44 108.66,96.09 109.80,93.81 110.93,91.59 112.07,89.43 113.20,87.33 114.34,85.30 115.47,83.33 116.60,81.42 117.74,79.57 118.87,77.78 120.01,76.05 121.14,74.38 122.28,72.77 123.41,71.21 124.55,69.72 125.68,68.27 126.81,66.89 127.95,65.56 129.08,64.28 130.22,63.05 131.35,61.88 132.49,60.75 133.62,59.68 134.76,58.66 135.89,57.68 137.02,56.75 138.16,55.86 139.29,55.02 140.43,54.23 141.56,53.48 142.70,52.76 143.83,52.09 144.97,51.46 146.10,50.87 147.23,50.32 148.37,49.81 149.50,49.33 150.64,48.88 151.77,48.47 152.91,48.10 154.04,47.75 155.18,47.44 156.31,47.16 157.44,46.91 158.58,46.68 159.71,46.49 160.85,46.32 161.98,46.18 163.12,46.07 164.25,45.98 165.38,45.91 166.52,45.87 167.65,45.85 168.79,45.86 169.92,45.88 171.06,45.93 172.19,46.00 173.33,46.08 174.46,46.19 175.59,46.31 176.73,46.45 177.86,46.61 179.00,46.78 180.13,46.97 181.27,47.18 182.40,47.40 183.54,47.63 184.67,47.88 185.80,48.15 186.94,48.42 188.07,48.71 189.21,49.01 190.34,49.32 191.48,49.65 192.61,49.98 193.75,50.33 194.88,50.68 196.01,51.04 197.15,51.42 198.28,51.80 199.42,52.19 200.55,52.59 201.69,53.00 202.82,53.42 203.95,53.84 205.09,54.27 206.22,54.71 207.36,55.15 208.49,55.60 209.63,56.06 210.76,56.52 211.90,56.99 213.03,57.46 214.16,57.94 215.30,58.42 216.43,58.91 217.57,59.40 218.70,59.89 219.84,60.39 220.97,60.90 222.11,61.40 223.24,61.92 224.37,62.43 225.51,62.95 226.64,63.47 227.78,63.99 228.91,64.52 230.05,65.05 231.18,65.58 232.32,66.12 233.45,66.65 234.58,67.19 235.72,67.73 236.85,68.27 237.99,68.82 239.12,69.36 240.26,69.91 241.39,70.46 242.53,71.01 243.66,71.56 244.79,72.11 245.93,72.66 247.06,73.22 248.20,73.77 249.33,74.33 250.47,74.89 251.60,75.44 252.73,76.00 253.87,76.56 255.00,77.12 256.14,77.68 257.27,78.24 258.41,78.80 259.54,79.36 260.68,79.92 261.81,80.48 262.94,81.04 264.08,81.60 265.21,82.16 266.35,82.72 267.48,83.28 268.62,83.84 269.75,84.40 270.89,84.96 272.02,85.52 273.15,86.08 274.29,86.64 275.42,87.20 276.56,87.76 277.69,88.32 278.83,88.87 279.96,89.43 281.10,89.98 282.23,90.54 283.36,91.09 284.50,91.65 285.63,92.20 ' style='stroke-width: 2.77; stroke: #1B9E77; stroke-linecap: butt;' clip-path='url(#cpNDguNTk2NXwyOTYuOTIxfDI1My43NXwyMy4xNzk4)' />
<g clip-path='url(#cpNDguNTk2NXwyOTYuOTIxfDI1My43NXwyMy4xNzk4)'><text x='60.82' y='86.18' style='font-size: 8.54px; font-style: italic; font-family: Arial;' textLength='60.01px' lengthAdjust='spacingAndGlyphs'>R^2 sch= 0.90 </text></g>
<g clip-path='url(#cpNDguNTk2NXwyOTYuOTIxfDI1My43NXwyMy4xNzk4)'><text x='60.82' y='98.48' style='font-size: 8.54px; font-style: italic; font-family: Arial;' textLength='50.28px' lengthAdjust='spacingAndGlyphs'>E sch= 1.23 </text></g>
<g clip-path='url(#cpNDguNTk2NXwyOTYuOTIxfDI1My43NXwyMy4xNzk4)'><text x='60.82' y='110.77' style='font-size: 8.54px; font-style: italic; font-family: Arial;' textLength='59.78px' lengthAdjust='spacingAndGlyphs'>AIC sch= -14.3</text></g>
<rect x='48.60' y='23.18' width='248.32' height='230.57' style='stroke-width: 1.07; stroke: #333333;' clip-path='url(#cpNDguNTk2NXwyOTYuOTIxfDI1My43NXwyMy4xNzk4)' />
<defs>
  <clipPath id='cpMHwzMDIuNHwyODh8MA=='>
    <rect x='0.00' y='0.00' width='302.40' height='288.00' />
  </clipPath>
</defs>
<g clip-path='url(#cpMHwzMDIuNHwyODh8MA==)'><text x='20.65' y='200.54' style='font-size: 8.80px; fill: #4D4D4D; font-family: Arial;' textLength='23.02px' lengthAdjust='spacingAndGlyphs'>4e-05</text></g>
<g clip-path='url(#cpMHwzMDIuNHwyODh8MA==)'><text x='20.65' y='136.76' style='font-size: 8.80px; fill: #4D4D4D; font-family: Arial;' textLength='23.02px' lengthAdjust='spacingAndGlyphs'>5e-05</text></g>
<g clip-path='url(#cpMHwzMDIuNHwyODh8MA==)'><text x='20.65' y='72.97' style='font-size: 8.80px; fill: #4D4D4D; font-family: Arial;' textLength='23.02px' lengthAdjust='spacingAndGlyphs'>6e-05</text></g>
<polyline points='45.86,197.32 48.60,197.32 ' style='stroke-width: 1.07; stroke: #333333; stroke-linecap: butt;' clip-path='url(#cpMHwzMDIuNHwyODh8MA==)' />
<polyline points='45.86,133.54 48.60,133.54 ' style='stroke-width: 1.07; stroke: #333333; stroke-linecap: butt;' clip-path='url(#cpMHwzMDIuNHwyODh8MA==)' />
<polyline points='45.86,69.76 48.60,69.76 ' style='stroke-width: 1.07; stroke: #333333; stroke-linecap: butt;' clip-path='url(#cpMHwzMDIuNHwyODh8MA==)' />
<polyline points='92.18,256.49 92.18,253.75 ' style='stroke-width: 1.07; stroke: #333333; stroke-linecap: butt;' clip-path='url(#cpMHwzMDIuNHwyODh8MA==)' />
<polyline points='154.89,256.49 154.89,253.75 ' style='stroke-width: 1.07; stroke: #333333; stroke-linecap: butt;' clip-path='url(#cpMHwzMDIuNHwyODh8MA==)' />
<polyline points='217.59,256.49 217.59,253.75 ' style='stroke-width: 1.07; stroke: #333333; stroke-linecap: butt;' clip-path='url(#cpMHwzMDIuNHwyODh8MA==)' />
<polyline points='280.30,256.49 280.30,253.75 ' style='stroke-width: 1.07; stroke: #333333; stroke-linecap: butt;' clip-path='url(#cpMHwzMDIuNHwyODh8MA==)' />
<g clip-path='url(#cpMHwzMDIuNHwyODh8MA==)'><text x='87.17' y='265.12' style='font-size: 8.80px; fill: #4D4D4D; font-family: Arial;' textLength='10.01px' lengthAdjust='spacingAndGlyphs'>10</text></g>
<g clip-path='url(#cpMHwzMDIuNHwyODh8MA==)'><text x='149.88' y='265.12' style='font-size: 8.80px; fill: #4D4D4D; font-family: Arial;' textLength='10.01px' lengthAdjust='spacingAndGlyphs'>20</text></g>
<g clip-path='url(#cpMHwzMDIuNHwyODh8MA==)'><text x='212.59' y='265.12' style='font-size: 8.80px; fill: #4D4D4D; font-family: Arial;' textLength='10.01px' lengthAdjust='spacingAndGlyphs'>30</text></g>
<g clip-path='url(#cpMHwzMDIuNHwyODh8MA==)'><text x='275.30' y='265.12' style='font-size: 8.80px; fill: #4D4D4D; font-family: Arial;' textLength='10.01px' lengthAdjust='spacingAndGlyphs'>40</text></g>
<g clip-path='url(#cpMHwzMDIuNHwyODh8MA==)'><text x='133.81' y='277.88' style='font-size: 10.00px; font-family: Arial;' textLength='63.35px' lengthAdjust='spacingAndGlyphs'>Temperature (</text></g>
<g clip-path='url(#cpMHwzMDIuNHwyODh8MA==)'><text x='197.16' y='277.88' style='font-size: 10.00px; font-family: Symbol;' textLength='4.00px' lengthAdjust='spacingAndGlyphs'>°</text></g>
<g clip-path='url(#cpMHwzMDIuNHwyODh8MA==)'><text x='201.16' y='277.88' style='font-size: 10.00px; font-family: Arial;' textLength='7.22px' lengthAdjust='spacingAndGlyphs'>C</text></g>
<g clip-path='url(#cpMHwzMDIuNHwyODh8MA==)'><text x='208.38' y='277.88' style='font-size: 10.00px; font-family: Arial;' textLength='3.33px' lengthAdjust='spacingAndGlyphs'>)</text></g>
<g clip-path='url(#cpMHwzMDIuNHwyODh8MA==)'><text transform='translate(12.64,180.16) rotate(-90)' style='font-size: 10.00px; font-family: Arial;' textLength='83.39px' lengthAdjust='spacingAndGlyphs'>net photosynthesis</text></g>
<g clip-path='url(#cpMHwzMDIuNHwyODh8MA==)'><text x='48.60' y='14.07' style='font-size: 12.00px; font-family: Arial;' textLength='122.72px' lengthAdjust='spacingAndGlyphs'>Carex aquatilis (alpine)</text></g>
</svg>
