<?xml version='1.0' encoding='UTF-8' ?>
<svg xmlns='http://www.w3.org/2000/svg' xmlns:xlink='http://www.w3.org/1999/xlink' viewBox='0 0 302.40 288.00'>
<defs>
  <style type='text/css'><![CDATA[
    line, polyline, path, rect, circle {
      fill: none;
      stroke: #000000;
      stroke-linecap: round;
      stroke-linejoin: round;
      stroke-miterlimit: 10.00;
    }
  ]]></style>
</defs>
<rect width='100%' height='100%' style='stroke: none; fill: #FFFFFF;'/>
<rect x='0.00' y='0.00' width='302.40' height='288.00' style='stroke-width: 1.07; stroke: #FFFFFF; fill: #FFFFFF;' />
<defs>
  <clipPath id='cpNTUuOTYxN3wyOTYuOTIxfDI1My43NXwyMy4xNzk4'>
    <rect x='55.96' y='23.18' width='240.96' height='230.57' />
  </clipPath>
</defs>
<rect x='55.96' y='23.18' width='240.96' height='230.57' style='stroke-width: 1.07; stroke: none; fill: #FFFFFF;' clip-path='url(#cpNTUuOTYxN3wyOTYuOTIxfDI1My43NXwyMy4xNzk4)' />
<polyline points='55.96,238.86 296.92,238.86 ' style='stroke-width: 0.53; stroke: #EBEBEB; stroke-linecap: butt;' clip-path='url(#cpNTUuOTYxN3wyOTYuOTIxfDI1My43NXwyMy4xNzk4)' />
<polyline points='55.96,181.59 296.92,181.59 ' style='stroke-width: 0.53; stroke: #EBEBEB; stroke-linecap: butt;' clip-path='url(#cpNTUuOTYxN3wyOTYuOTIxfDI1My43NXwyMy4xNzk4)' />
<polyline points='55.96,124.31 296.92,124.31 ' style='stroke-width: 0.53; stroke: #EBEBEB; stroke-linecap: butt;' clip-path='url(#cpNTUuOTYxN3wyOTYuOTIxfDI1My43NXwyMy4xNzk4)' />
<polyline points='55.96,67.04 296.92,67.04 ' style='stroke-width: 0.53; stroke: #EBEBEB; stroke-linecap: butt;' clip-path='url(#cpNTUuOTYxN3wyOTYuOTIxfDI1My43NXwyMy4xNzk4)' />
<polyline points='99.77,253.75 99.77,23.18 ' style='stroke-width: 0.53; stroke: #EBEBEB; stroke-linecap: butt;' clip-path='url(#cpNTUuOTYxN3wyOTYuOTIxfDI1My43NXwyMy4xNzk4)' />
<polyline points='153.20,253.75 153.20,23.18 ' style='stroke-width: 0.53; stroke: #EBEBEB; stroke-linecap: butt;' clip-path='url(#cpNTUuOTYxN3wyOTYuOTIxfDI1My43NXwyMy4xNzk4)' />
<polyline points='206.63,253.75 206.63,23.18 ' style='stroke-width: 0.53; stroke: #EBEBEB; stroke-linecap: butt;' clip-path='url(#cpNTUuOTYxN3wyOTYuOTIxfDI1My43NXwyMy4xNzk4)' />
<polyline points='260.06,253.75 260.06,23.18 ' style='stroke-width: 0.53; stroke: #EBEBEB; stroke-linecap: butt;' clip-path='url(#cpNTUuOTYxN3wyOTYuOTIxfDI1My43NXwyMy4xNzk4)' />
<polyline points='55.96,210.22 296.92,210.22 ' style='stroke-width: 1.07; stroke: #EBEBEB; stroke-linecap: butt;' clip-path='url(#cpNTUuOTYxN3wyOTYuOTIxfDI1My43NXwyMy4xNzk4)' />
<polyline points='55.96,152.95 296.92,152.95 ' style='stroke-width: 1.07; stroke: #EBEBEB; stroke-linecap: butt;' clip-path='url(#cpNTUuOTYxN3wyOTYuOTIxfDI1My43NXwyMy4xNzk4)' />
<polyline points='55.96,95.68 296.92,95.68 ' style='stroke-width: 1.07; stroke: #EBEBEB; stroke-linecap: butt;' clip-path='url(#cpNTUuOTYxN3wyOTYuOTIxfDI1My43NXwyMy4xNzk4)' />
<polyline points='55.96,38.41 296.92,38.41 ' style='stroke-width: 1.07; stroke: #EBEBEB; stroke-linecap: butt;' clip-path='url(#cpNTUuOTYxN3wyOTYuOTIxfDI1My43NXwyMy4xNzk4)' />
<polyline points='73.06,253.75 73.06,23.18 ' style='stroke-width: 1.07; stroke: #EBEBEB; stroke-linecap: butt;' clip-path='url(#cpNTUuOTYxN3wyOTYuOTIxfDI1My43NXwyMy4xNzk4)' />
<polyline points='126.49,253.75 126.49,23.18 ' style='stroke-width: 1.07; stroke: #EBEBEB; stroke-linecap: butt;' clip-path='url(#cpNTUuOTYxN3wyOTYuOTIxfDI1My43NXwyMy4xNzk4)' />
<polyline points='179.91,253.75 179.91,23.18 ' style='stroke-width: 1.07; stroke: #EBEBEB; stroke-linecap: butt;' clip-path='url(#cpNTUuOTYxN3wyOTYuOTIxfDI1My43NXwyMy4xNzk4)' />
<polyline points='233.34,253.75 233.34,23.18 ' style='stroke-width: 1.07; stroke: #EBEBEB; stroke-linecap: butt;' clip-path='url(#cpNTUuOTYxN3wyOTYuOTIxfDI1My43NXwyMy4xNzk4)' />
<polyline points='286.77,253.75 286.77,23.18 ' style='stroke-width: 1.07; stroke: #EBEBEB; stroke-linecap: butt;' clip-path='url(#cpNTUuOTYxN3wyOTYuOTIxfDI1My43NXwyMy4xNzk4)' />
<circle cx='67.39' cy='239.61' r='3.56pt' style='stroke-width: 0.71; stroke: #000000; stroke-opacity: 0.70; fill: #D1EEEE; fill-opacity: 0.70;' clip-path='url(#cpNTUuOTYxN3wyOTYuOTIxfDI1My43NXwyMy4xNzk4)' />
<circle cx='72.32' cy='240.18' r='3.56pt' style='stroke-width: 0.71; stroke: #000000; stroke-opacity: 0.70; fill: #D1EEEE; fill-opacity: 0.70;' clip-path='url(#cpNTUuOTYxN3wyOTYuOTIxfDI1My43NXwyMy4xNzk4)' />
<circle cx='73.96' cy='236.37' r='3.56pt' style='stroke-width: 0.71; stroke: #000000; stroke-opacity: 0.70; fill: #D1EEEE; fill-opacity: 0.70;' clip-path='url(#cpNTUuOTYxN3wyOTYuOTIxfDI1My43NXwyMy4xNzk4)' />
<circle cx='95.59' cy='229.00' r='3.56pt' style='stroke-width: 0.71; stroke: #000000; stroke-opacity: 0.70; fill: #D1EEEE; fill-opacity: 0.70;' clip-path='url(#cpNTUuOTYxN3wyOTYuOTIxfDI1My43NXwyMy4xNzk4)' />
<circle cx='124.36' cy='227.77' r='3.56pt' style='stroke-width: 0.71; stroke: #000000; stroke-opacity: 0.70; fill: #D1EEEE; fill-opacity: 0.70;' clip-path='url(#cpNTUuOTYxN3wyOTYuOTIxfDI1My43NXwyMy4xNzk4)' />
<circle cx='128.47' cy='227.76' r='3.56pt' style='stroke-width: 0.71; stroke: #000000; stroke-opacity: 0.70; fill: #D1EEEE; fill-opacity: 0.70;' clip-path='url(#cpNTUuOTYxN3wyOTYuOTIxfDI1My43NXwyMy4xNzk4)' />
<circle cx='157.49' cy='215.98' r='3.56pt' style='stroke-width: 0.71; stroke: #000000; stroke-opacity: 0.70; fill: #D1EEEE; fill-opacity: 0.70;' clip-path='url(#cpNTUuOTYxN3wyOTYuOTIxfDI1My43NXwyMy4xNzk4)' />
<circle cx='178.53' cy='182.54' r='3.56pt' style='stroke-width: 0.71; stroke: #000000; stroke-opacity: 0.70; fill: #D1EEEE; fill-opacity: 0.70;' clip-path='url(#cpNTUuOTYxN3wyOTYuOTIxfDI1My43NXwyMy4xNzk4)' />
<circle cx='179.36' cy='186.05' r='3.56pt' style='stroke-width: 0.71; stroke: #000000; stroke-opacity: 0.70; fill: #D1EEEE; fill-opacity: 0.70;' clip-path='url(#cpNTUuOTYxN3wyOTYuOTIxfDI1My43NXwyMy4xNzk4)' />
<circle cx='231.54' cy='103.90' r='3.56pt' style='stroke-width: 0.71; stroke: #000000; stroke-opacity: 0.70; fill: #D1EEEE; fill-opacity: 0.70;' clip-path='url(#cpNTUuOTYxN3wyOTYuOTIxfDI1My43NXwyMy4xNzk4)' />
<circle cx='231.52' cy='94.24' r='3.56pt' style='stroke-width: 0.71; stroke: #000000; stroke-opacity: 0.70; fill: #D1EEEE; fill-opacity: 0.70;' clip-path='url(#cpNTUuOTYxN3wyOTYuOTIxfDI1My43NXwyMy4xNzk4)' />
<circle cx='255.03' cy='64.89' r='3.56pt' style='stroke-width: 0.71; stroke: #000000; stroke-opacity: 0.70; fill: #D1EEEE; fill-opacity: 0.70;' clip-path='url(#cpNTUuOTYxN3wyOTYuOTIxfDI1My43NXwyMy4xNzk4)' />
<circle cx='255.30' cy='59.32' r='3.56pt' style='stroke-width: 0.71; stroke: #000000; stroke-opacity: 0.70; fill: #D1EEEE; fill-opacity: 0.70;' clip-path='url(#cpNTUuOTYxN3wyOTYuOTIxfDI1My43NXwyMy4xNzk4)' />
<circle cx='282.73' cy='76.26' r='3.56pt' style='stroke-width: 0.71; stroke: #000000; stroke-opacity: 0.70; fill: #D1EEEE; fill-opacity: 0.70;' clip-path='url(#cpNTUuOTYxN3wyOTYuOTIxfDI1My43NXwyMy4xNzk4)' />
<polyline points='66.91,243.27 68.02,242.94 69.12,242.60 70.22,242.26 71.32,241.92 72.42,241.57 73.52,241.22 74.62,240.87 75.72,240.51 76.82,240.14 77.92,239.77 79.02,239.40 80.12,239.02 81.22,238.64 82.33,238.25 83.43,237.86 84.53,237.47 85.63,237.06 86.73,236.66 87.83,236.25 88.93,235.83 90.03,235.41 91.13,234.99 92.23,234.56 93.33,234.12 94.43,233.68 95.53,233.24 96.64,232.79 97.74,232.33 98.84,231.87 99.94,231.40 101.04,230.93 102.14,230.45 103.24,229.97 104.34,229.48 105.44,228.99 106.54,228.48 107.64,227.98 108.74,227.47 109.84,226.95 110.95,226.43 112.05,225.90 113.15,225.36 114.25,224.82 115.35,224.27 116.45,223.72 117.55,223.16 118.65,222.59 119.75,222.02 120.85,221.44 121.95,220.85 123.05,220.26 124.15,219.66 125.26,219.05 126.36,218.44 127.46,217.82 128.56,217.19 129.66,216.56 130.76,215.91 131.86,215.27 132.96,214.61 134.06,213.95 135.16,213.28 136.26,212.60 137.36,211.91 138.46,211.22 139.57,210.52 140.67,209.81 141.77,209.10 142.87,208.37 143.97,207.64 145.07,206.90 146.17,206.15 147.27,205.40 148.37,204.63 149.47,203.86 150.57,203.08 151.67,202.29 152.77,201.49 153.88,200.69 154.98,199.87 156.08,199.05 157.18,198.21 158.28,197.37 159.38,196.52 160.48,195.66 161.58,194.79 162.68,193.91 163.78,193.02 164.88,192.12 165.98,191.22 167.08,190.30 168.19,189.37 169.29,188.44 170.39,187.49 171.49,186.53 172.59,185.57 173.69,184.59 174.79,183.60 175.89,182.61 176.99,181.60 178.09,180.58 179.19,179.55 180.29,178.51 181.39,177.46 182.50,176.40 183.60,175.32 184.70,174.24 185.80,173.15 186.90,172.04 188.00,170.92 189.10,169.79 190.20,168.65 191.30,167.50 192.40,166.33 193.50,165.16 194.60,163.97 195.70,162.76 196.81,161.55 197.91,160.33 199.01,159.09 200.11,157.84 201.21,156.57 202.31,155.30 203.41,154.01 204.51,152.70 205.61,151.39 206.71,150.06 207.81,148.72 208.91,147.36 210.01,145.99 211.12,144.61 212.22,143.21 213.32,141.80 214.42,140.37 215.52,138.93 216.62,137.48 217.72,136.01 218.82,134.53 219.92,133.03 221.02,131.52 222.12,129.99 223.22,128.45 224.32,126.89 225.43,125.32 226.53,123.73 227.63,122.12 228.73,120.50 229.83,118.87 230.93,117.22 232.03,115.55 233.13,113.86 234.23,112.16 235.33,110.44 236.43,108.71 237.53,106.96 238.63,105.19 239.74,103.41 240.84,101.60 241.94,99.78 243.04,97.95 244.14,96.09 245.24,94.22 246.34,92.33 247.44,90.42 248.54,88.49 249.64,86.55 250.74,84.58 251.84,82.60 252.94,80.60 254.05,78.58 255.15,76.54 256.25,74.48 257.35,72.40 258.45,70.30 259.55,68.18 260.65,66.04 261.75,63.89 262.85,61.71 263.95,59.51 265.05,57.29 266.15,55.05 267.25,52.79 268.36,50.51 269.46,48.22 270.56,45.92 271.66,43.61 272.76,41.32 273.86,39.08 274.96,36.97 276.06,35.14 277.16,33.85 278.26,33.66 279.36,35.55 280.46,41.22 281.56,53.29 282.67,74.75 283.77,106.94 284.87,146.55 285.97,185.72 ' style='stroke-width: 2.77; stroke: #1B9E77; stroke-linecap: butt;' clip-path='url(#cpNTUuOTYxN3wyOTYuOTIxfDI1My43NXwyMy4xNzk4)' />
<g clip-path='url(#cpNTUuOTYxN3wyOTYuOTIxfDI1My43NXwyMy4xNzk4)'><text x='67.39' y='161.20' style='font-size: 8.54px; font-style: italic; font-family: Arial;' textLength='60.01px' lengthAdjust='spacingAndGlyphs'>R^2 sch= 0.98 </text></g>
<g clip-path='url(#cpNTUuOTYxN3wyOTYuOTIxfDI1My43NXwyMy4xNzk4)'><text x='67.39' y='173.49' style='font-size: 8.54px; font-style: italic; font-family: Arial;' textLength='55.29px' lengthAdjust='spacingAndGlyphs'>E sch= 0.452 </text></g>
<g clip-path='url(#cpNTUuOTYxN3wyOTYuOTIxfDI1My43NXwyMy4xNzk4)'><text x='67.39' y='185.79' style='font-size: 8.54px; font-style: italic; font-family: Arial;' textLength='59.78px' lengthAdjust='spacingAndGlyphs'>AIC sch= -4.82</text></g>
<rect x='55.96' y='23.18' width='240.96' height='230.57' style='stroke-width: 1.07; stroke: #333333;' clip-path='url(#cpNTUuOTYxN3wyOTYuOTIxfDI1My43NXwyMy4xNzk4)' />
<defs>
  <clipPath id='cpMHwzMDIuNHwyODh8MA=='>
    <rect x='0.00' y='0.00' width='302.40' height='288.00' />
  </clipPath>
</defs>
<g clip-path='url(#cpMHwzMDIuNHwyODh8MA==)'><text x='20.51' y='213.44' style='font-size: 8.80px; fill: #4D4D4D; font-family: Arial;' textLength='30.52px' lengthAdjust='spacingAndGlyphs'>5.0e-06</text></g>
<g clip-path='url(#cpMHwzMDIuNHwyODh8MA==)'><text x='20.51' y='156.17' style='font-size: 8.80px; fill: #4D4D4D; font-family: Arial;' textLength='30.52px' lengthAdjust='spacingAndGlyphs'>1.0e-05</text></g>
<g clip-path='url(#cpMHwzMDIuNHwyODh8MA==)'><text x='20.51' y='98.90' style='font-size: 8.80px; fill: #4D4D4D; font-family: Arial;' textLength='30.52px' lengthAdjust='spacingAndGlyphs'>1.5e-05</text></g>
<g clip-path='url(#cpMHwzMDIuNHwyODh8MA==)'><text x='20.51' y='41.63' style='font-size: 8.80px; fill: #4D4D4D; font-family: Arial;' textLength='30.52px' lengthAdjust='spacingAndGlyphs'>2.0e-05</text></g>
<polyline points='53.22,210.22 55.96,210.22 ' style='stroke-width: 1.07; stroke: #333333; stroke-linecap: butt;' clip-path='url(#cpMHwzMDIuNHwyODh8MA==)' />
<polyline points='53.22,152.95 55.96,152.95 ' style='stroke-width: 1.07; stroke: #333333; stroke-linecap: butt;' clip-path='url(#cpMHwzMDIuNHwyODh8MA==)' />
<polyline points='53.22,95.68 55.96,95.68 ' style='stroke-width: 1.07; stroke: #333333; stroke-linecap: butt;' clip-path='url(#cpMHwzMDIuNHwyODh8MA==)' />
<polyline points='53.22,38.41 55.96,38.41 ' style='stroke-width: 1.07; stroke: #333333; stroke-linecap: butt;' clip-path='url(#cpMHwzMDIuNHwyODh8MA==)' />
<polyline points='73.06,256.49 73.06,253.75 ' style='stroke-width: 1.07; stroke: #333333; stroke-linecap: butt;' clip-path='url(#cpMHwzMDIuNHwyODh8MA==)' />
<polyline points='126.49,256.49 126.49,253.75 ' style='stroke-width: 1.07; stroke: #333333; stroke-linecap: butt;' clip-path='url(#cpMHwzMDIuNHwyODh8MA==)' />
<polyline points='179.91,256.49 179.91,253.75 ' style='stroke-width: 1.07; stroke: #333333; stroke-linecap: butt;' clip-path='url(#cpMHwzMDIuNHwyODh8MA==)' />
<polyline points='233.34,256.49 233.34,253.75 ' style='stroke-width: 1.07; stroke: #333333; stroke-linecap: butt;' clip-path='url(#cpMHwzMDIuNHwyODh8MA==)' />
<polyline points='286.77,256.49 286.77,253.75 ' style='stroke-width: 1.07; stroke: #333333; stroke-linecap: butt;' clip-path='url(#cpMHwzMDIuNHwyODh8MA==)' />
<g clip-path='url(#cpMHwzMDIuNHwyODh8MA==)'><text x='68.05' y='265.12' style='font-size: 8.80px; fill: #4D4D4D; font-family: Arial;' textLength='10.01px' lengthAdjust='spacingAndGlyphs'>10</text></g>
<g clip-path='url(#cpMHwzMDIuNHwyODh8MA==)'><text x='121.48' y='265.12' style='font-size: 8.80px; fill: #4D4D4D; font-family: Arial;' textLength='10.01px' lengthAdjust='spacingAndGlyphs'>20</text></g>
<g clip-path='url(#cpMHwzMDIuNHwyODh8MA==)'><text x='174.91' y='265.12' style='font-size: 8.80px; fill: #4D4D4D; font-family: Arial;' textLength='10.01px' lengthAdjust='spacingAndGlyphs'>30</text></g>
<g clip-path='url(#cpMHwzMDIuNHwyODh8MA==)'><text x='228.34' y='265.12' style='font-size: 8.80px; fill: #4D4D4D; font-family: Arial;' textLength='10.01px' lengthAdjust='spacingAndGlyphs'>40</text></g>
<g clip-path='url(#cpMHwzMDIuNHwyODh8MA==)'><text x='281.76' y='265.12' style='font-size: 8.80px; fill: #4D4D4D; font-family: Arial;' textLength='10.01px' lengthAdjust='spacingAndGlyphs'>50</text></g>
<g clip-path='url(#cpMHwzMDIuNHwyODh8MA==)'><text x='137.49' y='277.88' style='font-size: 10.00px; font-family: Arial;' textLength='63.35px' lengthAdjust='spacingAndGlyphs'>Temperature (</text></g>
<g clip-path='url(#cpMHwzMDIuNHwyODh8MA==)'><text x='200.84' y='277.88' style='font-size: 10.00px; font-family: Symbol;' textLength='4.00px' lengthAdjust='spacingAndGlyphs'>°</text></g>
<g clip-path='url(#cpMHwzMDIuNHwyODh8MA==)'><text x='204.84' y='277.88' style='font-size: 10.00px; font-family: Arial;' textLength='7.22px' lengthAdjust='spacingAndGlyphs'>C</text></g>
<g clip-path='url(#cpMHwzMDIuNHwyODh8MA==)'><text x='212.06' y='277.88' style='font-size: 10.00px; font-family: Arial;' textLength='3.33px' lengthAdjust='spacingAndGlyphs'>)</text></g>
<g clip-path='url(#cpMHwzMDIuNHwyODh8MA==)'><text transform='translate(12.64,171.81) rotate(-90)' style='font-size: 10.00px; font-family: Arial;' textLength='66.70px' lengthAdjust='spacingAndGlyphs'>respiration rate</text></g>
<g clip-path='url(#cpMHwzMDIuNHwyODh8MA==)'><text x='55.96' y='14.07' style='font-size: 12.00px; font-family: Arial;' textLength='73.38px' lengthAdjust='spacingAndGlyphs'>Agave deserti</text></g>
</svg>
