<?xml version='1.0' encoding='UTF-8' ?>
<svg xmlns='http://www.w3.org/2000/svg' xmlns:xlink='http://www.w3.org/1999/xlink' viewBox='0 0 302.40 288.00'>
<defs>
  <style type='text/css'><![CDATA[
    line, polyline, path, rect, circle {
      fill: none;
      stroke: #000000;
      stroke-linecap: round;
      stroke-linejoin: round;
      stroke-miterlimit: 10.00;
    }
  ]]></style>
</defs>
<rect width='100%' height='100%' style='stroke: none; fill: #FFFFFF;'/>
<rect x='0.00' y='0.00' width='302.40' height='288.00' style='stroke-width: 1.07; stroke: #FFFFFF; fill: #FFFFFF;' />
<defs>
  <clipPath id='cpNDguNTk2NXwyOTYuOTIxfDI1My43NXwyMC43ODky'>
    <rect x='48.60' y='20.79' width='248.32' height='232.96' />
  </clipPath>
</defs>
<rect x='48.60' y='20.79' width='248.32' height='232.96' style='stroke-width: 1.07; stroke: none; fill: #FFFFFF;' clip-path='url(#cpNDguNTk2NXwyOTYuOTIxfDI1My43NXwyMC43ODky)' />
<polyline points='48.60,246.25 296.92,246.25 ' style='stroke-width: 0.53; stroke: #EBEBEB; stroke-linecap: butt;' clip-path='url(#cpNDguNTk2NXwyOTYuOTIxfDI1My43NXwyMC43ODky)' />
<polyline points='48.60,183.91 296.92,183.91 ' style='stroke-width: 0.53; stroke: #EBEBEB; stroke-linecap: butt;' clip-path='url(#cpNDguNTk2NXwyOTYuOTIxfDI1My43NXwyMC43ODky)' />
<polyline points='48.60,121.58 296.92,121.58 ' style='stroke-width: 0.53; stroke: #EBEBEB; stroke-linecap: butt;' clip-path='url(#cpNDguNTk2NXwyOTYuOTIxfDI1My43NXwyMC43ODky)' />
<polyline points='48.60,59.25 296.92,59.25 ' style='stroke-width: 0.53; stroke: #EBEBEB; stroke-linecap: butt;' clip-path='url(#cpNDguNTk2NXwyOTYuOTIxfDI1My43NXwyMC43ODky)' />
<polyline points='86.65,253.75 86.65,20.79 ' style='stroke-width: 0.53; stroke: #EBEBEB; stroke-linecap: butt;' clip-path='url(#cpNDguNTk2NXwyOTYuOTIxfDI1My43NXwyMC43ODky)' />
<polyline points='151.15,253.75 151.15,20.79 ' style='stroke-width: 0.53; stroke: #EBEBEB; stroke-linecap: butt;' clip-path='url(#cpNDguNTk2NXwyOTYuOTIxfDI1My43NXwyMC43ODky)' />
<polyline points='215.65,253.75 215.65,20.79 ' style='stroke-width: 0.53; stroke: #EBEBEB; stroke-linecap: butt;' clip-path='url(#cpNDguNTk2NXwyOTYuOTIxfDI1My43NXwyMC43ODky)' />
<polyline points='280.15,253.75 280.15,20.79 ' style='stroke-width: 0.53; stroke: #EBEBEB; stroke-linecap: butt;' clip-path='url(#cpNDguNTk2NXwyOTYuOTIxfDI1My43NXwyMC43ODky)' />
<polyline points='48.60,215.08 296.92,215.08 ' style='stroke-width: 1.07; stroke: #EBEBEB; stroke-linecap: butt;' clip-path='url(#cpNDguNTk2NXwyOTYuOTIxfDI1My43NXwyMC43ODky)' />
<polyline points='48.60,152.75 296.92,152.75 ' style='stroke-width: 1.07; stroke: #EBEBEB; stroke-linecap: butt;' clip-path='url(#cpNDguNTk2NXwyOTYuOTIxfDI1My43NXwyMC43ODky)' />
<polyline points='48.60,90.41 296.92,90.41 ' style='stroke-width: 1.07; stroke: #EBEBEB; stroke-linecap: butt;' clip-path='url(#cpNDguNTk2NXwyOTYuOTIxfDI1My43NXwyMC43ODky)' />
<polyline points='48.60,28.08 296.92,28.08 ' style='stroke-width: 1.07; stroke: #EBEBEB; stroke-linecap: butt;' clip-path='url(#cpNDguNTk2NXwyOTYuOTIxfDI1My43NXwyMC43ODky)' />
<polyline points='54.40,253.75 54.40,20.79 ' style='stroke-width: 1.07; stroke: #EBEBEB; stroke-linecap: butt;' clip-path='url(#cpNDguNTk2NXwyOTYuOTIxfDI1My43NXwyMC43ODky)' />
<polyline points='118.90,253.75 118.90,20.79 ' style='stroke-width: 1.07; stroke: #EBEBEB; stroke-linecap: butt;' clip-path='url(#cpNDguNTk2NXwyOTYuOTIxfDI1My43NXwyMC43ODky)' />
<polyline points='183.40,253.75 183.40,20.79 ' style='stroke-width: 1.07; stroke: #EBEBEB; stroke-linecap: butt;' clip-path='url(#cpNDguNTk2NXwyOTYuOTIxfDI1My43NXwyMC43ODky)' />
<polyline points='247.90,253.75 247.90,20.79 ' style='stroke-width: 1.07; stroke: #EBEBEB; stroke-linecap: butt;' clip-path='url(#cpNDguNTk2NXwyOTYuOTIxfDI1My43NXwyMC43ODky)' />
<circle cx='63.49' cy='93.57' r='3.56pt' style='stroke-width: 0.71; stroke: #000000; stroke-opacity: 0.70; fill: #D1EEEE; fill-opacity: 0.70;' clip-path='url(#cpNDguNTk2NXwyOTYuOTIxfDI1My43NXwyMC43ODky)' />
<circle cx='86.48' cy='61.87' r='3.56pt' style='stroke-width: 0.71; stroke: #000000; stroke-opacity: 0.70; fill: #D1EEEE; fill-opacity: 0.70;' clip-path='url(#cpNDguNTk2NXwyOTYuOTIxfDI1My43NXwyMC43ODky)' />
<circle cx='120.06' cy='54.93' r='3.56pt' style='stroke-width: 0.71; stroke: #000000; stroke-opacity: 0.70; fill: #D1EEEE; fill-opacity: 0.70;' clip-path='url(#cpNDguNTk2NXwyOTYuOTIxfDI1My43NXwyMC43ODky)' />
<circle cx='151.75' cy='45.73' r='3.56pt' style='stroke-width: 0.71; stroke: #000000; stroke-opacity: 0.70; fill: #D1EEEE; fill-opacity: 0.70;' clip-path='url(#cpNDguNTk2NXwyOTYuOTIxfDI1My43NXwyMC43ODky)' />
<circle cx='186.13' cy='106.43' r='3.56pt' style='stroke-width: 0.71; stroke: #000000; stroke-opacity: 0.70; fill: #D1EEEE; fill-opacity: 0.70;' clip-path='url(#cpNDguNTk2NXwyOTYuOTIxfDI1My43NXwyMC43ODky)' />
<circle cx='213.35' cy='204.38' r='3.56pt' style='stroke-width: 0.71; stroke: #000000; stroke-opacity: 0.70; fill: #D1EEEE; fill-opacity: 0.70;' clip-path='url(#cpNDguNTk2NXwyOTYuOTIxfDI1My43NXwyMC43ODky)' />
<circle cx='238.27' cy='218.90' r='3.56pt' style='stroke-width: 0.71; stroke: #000000; stroke-opacity: 0.70; fill: #D1EEEE; fill-opacity: 0.70;' clip-path='url(#cpNDguNTk2NXwyOTYuOTIxfDI1My43NXwyMC43ODky)' />
<circle cx='261.67' cy='227.80' r='3.56pt' style='stroke-width: 0.71; stroke: #000000; stroke-opacity: 0.70; fill: #D1EEEE; fill-opacity: 0.70;' clip-path='url(#cpNDguNTk2NXwyOTYuOTIxfDI1My43NXwyMC43ODky)' />
<circle cx='282.05' cy='236.71' r='3.56pt' style='stroke-width: 0.71; stroke: #000000; stroke-opacity: 0.70; fill: #D1EEEE; fill-opacity: 0.70;' clip-path='url(#cpNDguNTk2NXwyOTYuOTIxfDI1My43NXwyMC43ODky)' />
<polyline points='59.88,107.88 61.02,105.42 62.15,102.96 63.29,100.50 64.42,98.04 65.56,95.59 66.69,93.16 67.82,90.73 68.96,88.32 70.09,85.92 71.23,83.55 72.36,81.19 73.50,78.86 74.63,76.55 75.77,74.28 76.90,72.03 78.03,69.82 79.17,67.64 80.30,65.51 81.44,63.41 82.57,61.37 83.71,59.36 84.84,57.41 85.98,55.51 87.11,53.67 88.24,51.88 89.38,50.16 90.51,48.49 91.65,46.89 92.78,45.36 93.92,43.90 95.05,42.51 96.19,41.20 97.32,39.96 98.45,38.80 99.59,37.72 100.72,36.71 101.86,35.80 102.99,34.96 104.13,34.21 105.26,33.55 106.40,32.97 107.53,32.49 108.66,32.09 109.80,31.78 110.93,31.55 112.07,31.42 113.20,31.38 114.34,31.42 115.47,31.56 116.60,31.78 117.74,32.09 118.87,32.49 120.01,32.97 121.14,33.53 122.28,34.18 123.41,34.91 124.55,35.72 125.68,36.61 126.81,37.58 127.95,38.62 129.08,39.73 130.22,40.92 131.35,42.17 132.49,43.49 133.62,44.88 134.76,46.32 135.89,47.83 137.02,49.39 138.16,51.01 139.29,52.68 140.43,54.40 141.56,56.17 142.70,57.98 143.83,59.83 144.97,61.73 146.10,63.66 147.23,65.62 148.37,67.62 149.50,69.65 150.64,71.70 151.77,73.79 152.91,75.89 154.04,78.01 155.18,80.16 156.31,82.32 157.44,84.49 158.58,86.68 159.71,88.87 160.85,91.08 161.98,93.29 163.12,95.50 164.25,97.72 165.38,99.94 166.52,102.16 167.65,104.38 168.79,106.60 169.92,108.81 171.06,111.02 172.19,113.22 173.33,115.41 174.46,117.59 175.59,119.76 176.73,121.92 177.86,124.06 179.00,126.20 180.13,128.32 181.27,130.42 182.40,132.51 183.54,134.59 184.67,136.64 185.80,138.68 186.94,140.70 188.07,142.70 189.21,144.68 190.34,146.65 191.48,148.59 192.61,150.51 193.75,152.42 194.88,154.30 196.01,156.16 197.15,158.00 198.28,159.82 199.42,161.61 200.55,163.39 201.69,165.14 202.82,166.87 203.95,168.58 205.09,170.27 206.22,171.93 207.36,173.58 208.49,175.20 209.63,176.80 210.76,178.38 211.90,179.93 213.03,181.47 214.16,182.98 215.30,184.47 216.43,185.94 217.57,187.39 218.70,188.82 219.84,190.23 220.97,191.61 222.11,192.98 223.24,194.32 224.37,195.65 225.51,196.95 226.64,198.24 227.78,199.51 228.91,200.75 230.05,201.98 231.18,203.19 232.32,204.38 233.45,205.55 234.58,206.70 235.72,207.84 236.85,208.95 237.99,210.05 239.12,211.13 240.26,212.20 241.39,213.25 242.53,214.28 243.66,215.29 244.79,216.29 245.93,217.27 247.06,218.24 248.20,219.19 249.33,220.12 250.47,221.04 251.60,221.95 252.73,222.84 253.87,223.71 255.00,224.57 256.14,225.42 257.27,226.25 258.41,227.07 259.54,227.88 260.68,228.67 261.81,229.45 262.94,230.22 264.08,230.98 265.21,231.72 266.35,232.45 267.48,233.16 268.62,233.87 269.75,234.57 270.89,235.25 272.02,235.92 273.15,236.58 274.29,237.23 275.42,237.87 276.56,238.50 277.69,239.11 278.83,239.72 279.96,240.32 281.10,240.91 282.23,241.48 283.36,242.05 284.50,242.61 285.63,243.16 ' style='stroke-width: 2.77; stroke: #1B9E77; stroke-linecap: butt;' clip-path='url(#cpNDguNTk2NXwyOTYuOTIxfDI1My43NXwyMC43ODky)' />
<g clip-path='url(#cpNDguNTk2NXwyOTYuOTIxfDI1My43NXwyMC43ODky)'><text x='63.49' y='129.85' style='font-size: 8.54px; font-style: italic; font-family: Arial;' textLength='60.01px' lengthAdjust='spacingAndGlyphs'>R^2 sch= 0.94 </text></g>
<g clip-path='url(#cpNDguNTk2NXwyOTYuOTIxfDI1My43NXwyMC43ODky)'><text x='63.49' y='142.14' style='font-size: 8.54px; font-style: italic; font-family: Arial;' textLength='50.28px' lengthAdjust='spacingAndGlyphs'>E sch= 0.79 </text></g>
<g clip-path='url(#cpNDguNTk2NXwyOTYuOTIxfDI1My43NXwyMC43ODky)'><text x='63.49' y='154.44' style='font-size: 8.54px; font-style: italic; font-family: Arial;' textLength='61.79px' lengthAdjust='spacingAndGlyphs'>AIC sch= 0.332</text></g>
<rect x='48.60' y='20.79' width='248.32' height='232.96' style='stroke-width: 1.07; stroke: #333333;' clip-path='url(#cpNDguNTk2NXwyOTYuOTIxfDI1My43NXwyMC43ODky)' />
<defs>
  <clipPath id='cpMHwzMDIuNHwyODh8MA=='>
    <rect x='0.00' y='0.00' width='302.40' height='288.00' />
  </clipPath>
</defs>
<g clip-path='url(#cpMHwzMDIuNHwyODh8MA==)'><text x='20.65' y='218.30' style='font-size: 8.80px; fill: #4D4D4D; font-family: Arial;' textLength='23.02px' lengthAdjust='spacingAndGlyphs'>1e-06</text></g>
<g clip-path='url(#cpMHwzMDIuNHwyODh8MA==)'><text x='20.65' y='155.97' style='font-size: 8.80px; fill: #4D4D4D; font-family: Arial;' textLength='23.02px' lengthAdjust='spacingAndGlyphs'>2e-06</text></g>
<g clip-path='url(#cpMHwzMDIuNHwyODh8MA==)'><text x='20.65' y='93.63' style='font-size: 8.80px; fill: #4D4D4D; font-family: Arial;' textLength='23.02px' lengthAdjust='spacingAndGlyphs'>3e-06</text></g>
<g clip-path='url(#cpMHwzMDIuNHwyODh8MA==)'><text x='20.65' y='31.30' style='font-size: 8.80px; fill: #4D4D4D; font-family: Arial;' textLength='23.02px' lengthAdjust='spacingAndGlyphs'>4e-06</text></g>
<polyline points='45.86,215.08 48.60,215.08 ' style='stroke-width: 1.07; stroke: #333333; stroke-linecap: butt;' clip-path='url(#cpMHwzMDIuNHwyODh8MA==)' />
<polyline points='45.86,152.75 48.60,152.75 ' style='stroke-width: 1.07; stroke: #333333; stroke-linecap: butt;' clip-path='url(#cpMHwzMDIuNHwyODh8MA==)' />
<polyline points='45.86,90.41 48.60,90.41 ' style='stroke-width: 1.07; stroke: #333333; stroke-linecap: butt;' clip-path='url(#cpMHwzMDIuNHwyODh8MA==)' />
<polyline points='45.86,28.08 48.60,28.08 ' style='stroke-width: 1.07; stroke: #333333; stroke-linecap: butt;' clip-path='url(#cpMHwzMDIuNHwyODh8MA==)' />
<polyline points='54.40,256.49 54.40,253.75 ' style='stroke-width: 1.07; stroke: #333333; stroke-linecap: butt;' clip-path='url(#cpMHwzMDIuNHwyODh8MA==)' />
<polyline points='118.90,256.49 118.90,253.75 ' style='stroke-width: 1.07; stroke: #333333; stroke-linecap: butt;' clip-path='url(#cpMHwzMDIuNHwyODh8MA==)' />
<polyline points='183.40,256.49 183.40,253.75 ' style='stroke-width: 1.07; stroke: #333333; stroke-linecap: butt;' clip-path='url(#cpMHwzMDIuNHwyODh8MA==)' />
<polyline points='247.90,256.49 247.90,253.75 ' style='stroke-width: 1.07; stroke: #333333; stroke-linecap: butt;' clip-path='url(#cpMHwzMDIuNHwyODh8MA==)' />
<g clip-path='url(#cpMHwzMDIuNHwyODh8MA==)'><text x='49.40' y='265.12' style='font-size: 8.80px; fill: #4D4D4D; font-family: Arial;' textLength='10.01px' lengthAdjust='spacingAndGlyphs'>10</text></g>
<g clip-path='url(#cpMHwzMDIuNHwyODh8MA==)'><text x='113.90' y='265.12' style='font-size: 8.80px; fill: #4D4D4D; font-family: Arial;' textLength='10.01px' lengthAdjust='spacingAndGlyphs'>20</text></g>
<g clip-path='url(#cpMHwzMDIuNHwyODh8MA==)'><text x='178.40' y='265.12' style='font-size: 8.80px; fill: #4D4D4D; font-family: Arial;' textLength='10.01px' lengthAdjust='spacingAndGlyphs'>30</text></g>
<g clip-path='url(#cpMHwzMDIuNHwyODh8MA==)'><text x='242.90' y='265.12' style='font-size: 8.80px; fill: #4D4D4D; font-family: Arial;' textLength='10.01px' lengthAdjust='spacingAndGlyphs'>40</text></g>
<g clip-path='url(#cpMHwzMDIuNHwyODh8MA==)'><text x='133.81' y='277.88' style='font-size: 10.00px; font-family: Arial;' textLength='63.35px' lengthAdjust='spacingAndGlyphs'>Temperature (</text></g>
<g clip-path='url(#cpMHwzMDIuNHwyODh8MA==)'><text x='197.16' y='277.88' style='font-size: 10.00px; font-family: Symbol;' textLength='4.00px' lengthAdjust='spacingAndGlyphs'>°</text></g>
<g clip-path='url(#cpMHwzMDIuNHwyODh8MA==)'><text x='201.16' y='277.88' style='font-size: 10.00px; font-family: Arial;' textLength='7.22px' lengthAdjust='spacingAndGlyphs'>C</text></g>
<g clip-path='url(#cpMHwzMDIuNHwyODh8MA==)'><text x='208.38' y='277.88' style='font-size: 10.00px; font-family: Arial;' textLength='3.33px' lengthAdjust='spacingAndGlyphs'>)</text></g>
<g clip-path='url(#cpMHwzMDIuNHwyODh8MA==)'><text transform='translate(12.64,178.96) rotate(-90)' style='font-size: 10.00px; font-family: Arial;' textLength='83.39px' lengthAdjust='spacingAndGlyphs'>net photosynthesis</text></g>
<g clip-path='url(#cpMHwzMDIuNHwyODh8MA==)'><text x='48.60' y='14.07' style='font-size: 12.00px; font-family: Arial;' textLength='78.05px' lengthAdjust='spacingAndGlyphs'>Coffea arabica</text></g>
</svg>
