<?xml version='1.0' encoding='UTF-8' ?>
<svg xmlns='http://www.w3.org/2000/svg' xmlns:xlink='http://www.w3.org/1999/xlink' viewBox='0 0 302.40 288.00'>
<defs>
  <style type='text/css'><![CDATA[
    line, polyline, path, rect, circle {
      fill: none;
      stroke: #000000;
      stroke-linecap: round;
      stroke-linejoin: round;
      stroke-miterlimit: 10.00;
    }
  ]]></style>
</defs>
<rect width='100%' height='100%' style='stroke: none; fill: #FFFFFF;'/>
<rect x='0.00' y='0.00' width='302.40' height='288.00' style='stroke-width: 1.07; stroke: #FFFFFF; fill: #FFFFFF;' />
<defs>
  <clipPath id='cpNTguMTEwNnwyOTYuOTIxfDI1My43NXwyMy4xNzk4'>
    <rect x='58.11' y='23.18' width='238.81' height='230.57' />
  </clipPath>
</defs>
<rect x='58.11' y='23.18' width='238.81' height='230.57' style='stroke-width: 1.07; stroke: none; fill: #FFFFFF;' clip-path='url(#cpNTguMTEwNnwyOTYuOTIxfDI1My43NXwyMy4xNzk4)' />
<polyline points='58.11,222.96 296.92,222.96 ' style='stroke-width: 0.53; stroke: #EBEBEB; stroke-linecap: butt;' clip-path='url(#cpNTguMTEwNnwyOTYuOTIxfDI1My43NXwyMy4xNzk4)' />
<polyline points='58.11,185.96 296.92,185.96 ' style='stroke-width: 0.53; stroke: #EBEBEB; stroke-linecap: butt;' clip-path='url(#cpNTguMTEwNnwyOTYuOTIxfDI1My43NXwyMy4xNzk4)' />
<polyline points='58.11,148.96 296.92,148.96 ' style='stroke-width: 0.53; stroke: #EBEBEB; stroke-linecap: butt;' clip-path='url(#cpNTguMTEwNnwyOTYuOTIxfDI1My43NXwyMy4xNzk4)' />
<polyline points='58.11,111.97 296.92,111.97 ' style='stroke-width: 0.53; stroke: #EBEBEB; stroke-linecap: butt;' clip-path='url(#cpNTguMTEwNnwyOTYuOTIxfDI1My43NXwyMy4xNzk4)' />
<polyline points='58.11,74.97 296.92,74.97 ' style='stroke-width: 0.53; stroke: #EBEBEB; stroke-linecap: butt;' clip-path='url(#cpNTguMTEwNnwyOTYuOTIxfDI1My43NXwyMy4xNzk4)' />
<polyline points='58.11,37.97 296.92,37.97 ' style='stroke-width: 0.53; stroke: #EBEBEB; stroke-linecap: butt;' clip-path='url(#cpNTguMTEwNnwyOTYuOTIxfDI1My43NXwyMy4xNzk4)' />
<polyline points='71.47,253.75 71.47,23.18 ' style='stroke-width: 0.53; stroke: #EBEBEB; stroke-linecap: butt;' clip-path='url(#cpNTguMTEwNnwyOTYuOTIxfDI1My43NXwyMy4xNzk4)' />
<polyline points='138.27,253.75 138.27,23.18 ' style='stroke-width: 0.53; stroke: #EBEBEB; stroke-linecap: butt;' clip-path='url(#cpNTguMTEwNnwyOTYuOTIxfDI1My43NXwyMy4xNzk4)' />
<polyline points='205.07,253.75 205.07,23.18 ' style='stroke-width: 0.53; stroke: #EBEBEB; stroke-linecap: butt;' clip-path='url(#cpNTguMTEwNnwyOTYuOTIxfDI1My43NXwyMy4xNzk4)' />
<polyline points='271.87,253.75 271.87,23.18 ' style='stroke-width: 0.53; stroke: #EBEBEB; stroke-linecap: butt;' clip-path='url(#cpNTguMTEwNnwyOTYuOTIxfDI1My43NXwyMy4xNzk4)' />
<polyline points='58.11,241.46 296.92,241.46 ' style='stroke-width: 1.07; stroke: #EBEBEB; stroke-linecap: butt;' clip-path='url(#cpNTguMTEwNnwyOTYuOTIxfDI1My43NXwyMy4xNzk4)' />
<polyline points='58.11,204.46 296.92,204.46 ' style='stroke-width: 1.07; stroke: #EBEBEB; stroke-linecap: butt;' clip-path='url(#cpNTguMTEwNnwyOTYuOTIxfDI1My43NXwyMy4xNzk4)' />
<polyline points='58.11,167.46 296.92,167.46 ' style='stroke-width: 1.07; stroke: #EBEBEB; stroke-linecap: butt;' clip-path='url(#cpNTguMTEwNnwyOTYuOTIxfDI1My43NXwyMy4xNzk4)' />
<polyline points='58.11,130.46 296.92,130.46 ' style='stroke-width: 1.07; stroke: #EBEBEB; stroke-linecap: butt;' clip-path='url(#cpNTguMTEwNnwyOTYuOTIxfDI1My43NXwyMy4xNzk4)' />
<polyline points='58.11,93.47 296.92,93.47 ' style='stroke-width: 1.07; stroke: #EBEBEB; stroke-linecap: butt;' clip-path='url(#cpNTguMTEwNnwyOTYuOTIxfDI1My43NXwyMy4xNzk4)' />
<polyline points='58.11,56.47 296.92,56.47 ' style='stroke-width: 1.07; stroke: #EBEBEB; stroke-linecap: butt;' clip-path='url(#cpNTguMTEwNnwyOTYuOTIxfDI1My43NXwyMy4xNzk4)' />
<polyline points='104.87,253.75 104.87,23.18 ' style='stroke-width: 1.07; stroke: #EBEBEB; stroke-linecap: butt;' clip-path='url(#cpNTguMTEwNnwyOTYuOTIxfDI1My43NXwyMy4xNzk4)' />
<polyline points='171.67,253.75 171.67,23.18 ' style='stroke-width: 1.07; stroke: #EBEBEB; stroke-linecap: butt;' clip-path='url(#cpNTguMTEwNnwyOTYuOTIxfDI1My43NXwyMy4xNzk4)' />
<polyline points='238.47,253.75 238.47,23.18 ' style='stroke-width: 1.07; stroke: #EBEBEB; stroke-linecap: butt;' clip-path='url(#cpNTguMTEwNnwyOTYuOTIxfDI1My43NXwyMy4xNzk4)' />
<circle cx='71.47' cy='81.01' r='3.56pt' style='stroke-width: 0.71; stroke: #000000; stroke-opacity: 0.70; fill: #D1EEEE; fill-opacity: 0.70;' clip-path='url(#cpNTguMTEwNnwyOTYuOTIxfDI1My43NXwyMy4xNzk4)' />
<circle cx='121.57' cy='243.27' r='3.56pt' style='stroke-width: 0.71; stroke: #000000; stroke-opacity: 0.70; fill: #D1EEEE; fill-opacity: 0.70;' clip-path='url(#cpNTguMTEwNnwyOTYuOTIxfDI1My43NXwyMy4xNzk4)' />
<circle cx='171.67' cy='33.66' r='3.56pt' style='stroke-width: 0.71; stroke: #000000; stroke-opacity: 0.70; fill: #D1EEEE; fill-opacity: 0.70;' clip-path='url(#cpNTguMTEwNnwyOTYuOTIxfDI1My43NXwyMy4xNzk4)' />
<circle cx='221.77' cy='235.96' r='3.56pt' style='stroke-width: 0.71; stroke: #000000; stroke-opacity: 0.70; fill: #D1EEEE; fill-opacity: 0.70;' clip-path='url(#cpNTguMTEwNnwyOTYuOTIxfDI1My43NXwyMy4xNzk4)' />
<circle cx='271.87' cy='168.53' r='3.56pt' style='stroke-width: 0.71; stroke: #000000; stroke-opacity: 0.70; fill: #D1EEEE; fill-opacity: 0.70;' clip-path='url(#cpNTguMTEwNnwyOTYuOTIxfDI1My43NXwyMy4xNzk4)' />
<polyline points='68.97,121.81 70.06,122.19 71.15,122.56 72.24,122.93 73.33,123.31 74.42,123.68 75.51,124.05 76.60,124.43 77.69,124.80 78.78,125.17 79.88,125.54 80.97,125.91 82.06,126.29 83.15,126.66 84.24,127.03 85.33,127.40 86.42,127.77 87.51,128.14 88.60,128.51 89.69,128.88 90.78,129.25 91.88,129.62 92.97,129.99 94.06,130.36 95.15,130.73 96.24,131.10 97.33,131.47 98.42,131.83 99.51,132.20 100.60,132.57 101.69,132.94 102.79,133.31 103.88,133.67 104.97,134.04 106.06,134.41 107.15,134.77 108.24,135.14 109.33,135.51 110.42,135.87 111.51,136.24 112.60,136.60 113.69,136.97 114.79,137.34 115.88,137.70 116.97,138.06 118.06,138.43 119.15,138.79 120.24,139.16 121.33,139.52 122.42,139.89 123.51,140.25 124.60,140.61 125.70,140.98 126.79,141.34 127.88,141.70 128.97,142.06 130.06,142.43 131.15,142.79 132.24,143.15 133.33,143.51 134.42,143.87 135.51,144.23 136.60,144.59 137.70,144.95 138.79,145.31 139.88,145.67 140.97,146.03 142.06,146.39 143.15,146.75 144.24,147.11 145.33,147.47 146.42,147.83 147.51,148.19 148.61,148.55 149.70,148.91 150.79,149.26 151.88,149.62 152.97,149.98 154.06,150.34 155.15,150.69 156.24,151.05 157.33,151.41 158.42,151.76 159.51,152.12 160.61,152.48 161.70,152.83 162.79,153.19 163.88,153.54 164.97,153.90 166.06,154.25 167.15,154.61 168.24,154.96 169.33,155.32 170.42,155.67 171.52,156.03 172.61,156.38 173.70,156.73 174.79,157.09 175.88,157.44 176.97,157.79 178.06,158.14 179.15,158.50 180.24,158.85 181.33,159.20 182.42,159.55 183.52,159.90 184.61,160.25 185.70,160.60 186.79,160.96 187.88,161.31 188.97,161.66 190.06,162.01 191.15,162.36 192.24,162.71 193.33,163.06 194.43,163.40 195.52,163.75 196.61,164.10 197.70,164.45 198.79,164.80 199.88,165.15 200.97,165.49 202.06,165.84 203.15,166.19 204.24,166.54 205.33,166.88 206.43,167.23 207.52,167.58 208.61,167.92 209.70,168.27 210.79,168.62 211.88,168.96 212.97,169.31 214.06,169.65 215.15,170.00 216.24,170.34 217.34,170.69 218.43,171.03 219.52,171.37 220.61,171.72 221.70,172.06 222.79,172.41 223.88,172.75 224.97,173.09 226.06,173.43 227.15,173.78 228.24,174.12 229.34,174.46 230.43,174.80 231.52,175.14 232.61,175.49 233.70,175.83 234.79,176.17 235.88,176.51 236.97,176.85 238.06,177.19 239.15,177.53 240.25,177.87 241.34,178.21 242.43,178.55 243.52,178.89 244.61,179.23 245.70,179.57 246.79,179.90 247.88,180.24 248.97,180.58 250.06,180.92 251.16,181.26 252.25,181.59 253.34,181.93 254.43,182.27 255.52,182.60 256.61,182.94 257.70,183.28 258.79,183.61 259.88,183.95 260.97,184.29 262.06,184.62 263.16,184.96 264.25,185.29 265.34,185.63 266.43,185.96 267.52,186.29 268.61,186.63 269.70,186.96 270.79,187.30 271.88,187.63 272.97,187.96 274.07,188.30 275.16,188.63 276.25,188.96 277.34,189.29 278.43,189.63 279.52,189.96 280.61,190.29 281.70,190.62 282.79,190.95 283.88,191.28 284.97,191.61 286.07,191.95 ' style='stroke-width: 2.77; stroke: #1B9E77; stroke-linecap: butt;' clip-path='url(#cpNTguMTEwNnwyOTYuOTIxfDI1My43NXwyMy4xNzk4)' />
<g clip-path='url(#cpNTguMTEwNnwyOTYuOTIxfDI1My43NXwyMy4xNzk4)'><text x='71.47' y='143.41' style='font-size: 8.54px; font-style: italic; font-family: Arial;' textLength='60.01px' lengthAdjust='spacingAndGlyphs'>R^2 sch= 0.08 </text></g>
<g clip-path='url(#cpNTguMTEwNnwyOTYuOTIxfDI1My43NXwyMy4xNzk4)'><text x='71.47' y='155.71' style='font-size: 8.54px; font-style: italic; font-family: Arial;' textLength='55.29px' lengthAdjust='spacingAndGlyphs'>E sch= 0.402 </text></g>
<g clip-path='url(#cpNTguMTEwNnwyOTYuOTIxfDI1My43NXwyMy4xNzk4)'><text x='71.47' y='168.00' style='font-size: 8.54px; font-style: italic; font-family: Arial;' textLength='59.78px' lengthAdjust='spacingAndGlyphs'>AIC sch= -1.27</text></g>
<rect x='58.11' y='23.18' width='238.81' height='230.57' style='stroke-width: 1.07; stroke: #333333;' clip-path='url(#cpNTguMTEwNnwyOTYuOTIxfDI1My43NXwyMy4xNzk4)' />
<defs>
  <clipPath id='cpMHwzMDIuNHwyODh8MA=='>
    <rect x='0.00' y='0.00' width='302.40' height='288.00' />
  </clipPath>
</defs>
<g clip-path='url(#cpMHwzMDIuNHwyODh8MA==)'><text x='20.65' y='244.68' style='font-size: 8.80px; fill: #4D4D4D; font-family: Arial;' textLength='32.53px' lengthAdjust='spacingAndGlyphs'>0.00025</text></g>
<g clip-path='url(#cpMHwzMDIuNHwyODh8MA==)'><text x='20.65' y='207.68' style='font-size: 8.80px; fill: #4D4D4D; font-family: Arial;' textLength='32.53px' lengthAdjust='spacingAndGlyphs'>0.00026</text></g>
<g clip-path='url(#cpMHwzMDIuNHwyODh8MA==)'><text x='20.65' y='170.68' style='font-size: 8.80px; fill: #4D4D4D; font-family: Arial;' textLength='32.53px' lengthAdjust='spacingAndGlyphs'>0.00027</text></g>
<g clip-path='url(#cpMHwzMDIuNHwyODh8MA==)'><text x='20.65' y='133.68' style='font-size: 8.80px; fill: #4D4D4D; font-family: Arial;' textLength='32.53px' lengthAdjust='spacingAndGlyphs'>0.00028</text></g>
<g clip-path='url(#cpMHwzMDIuNHwyODh8MA==)'><text x='20.65' y='96.68' style='font-size: 8.80px; fill: #4D4D4D; font-family: Arial;' textLength='32.53px' lengthAdjust='spacingAndGlyphs'>0.00029</text></g>
<g clip-path='url(#cpMHwzMDIuNHwyODh8MA==)'><text x='20.65' y='59.69' style='font-size: 8.80px; fill: #4D4D4D; font-family: Arial;' textLength='32.53px' lengthAdjust='spacingAndGlyphs'>0.00030</text></g>
<polyline points='55.37,241.46 58.11,241.46 ' style='stroke-width: 1.07; stroke: #333333; stroke-linecap: butt;' clip-path='url(#cpMHwzMDIuNHwyODh8MA==)' />
<polyline points='55.37,204.46 58.11,204.46 ' style='stroke-width: 1.07; stroke: #333333; stroke-linecap: butt;' clip-path='url(#cpMHwzMDIuNHwyODh8MA==)' />
<polyline points='55.37,167.46 58.11,167.46 ' style='stroke-width: 1.07; stroke: #333333; stroke-linecap: butt;' clip-path='url(#cpMHwzMDIuNHwyODh8MA==)' />
<polyline points='55.37,130.46 58.11,130.46 ' style='stroke-width: 1.07; stroke: #333333; stroke-linecap: butt;' clip-path='url(#cpMHwzMDIuNHwyODh8MA==)' />
<polyline points='55.37,93.47 58.11,93.47 ' style='stroke-width: 1.07; stroke: #333333; stroke-linecap: butt;' clip-path='url(#cpMHwzMDIuNHwyODh8MA==)' />
<polyline points='55.37,56.47 58.11,56.47 ' style='stroke-width: 1.07; stroke: #333333; stroke-linecap: butt;' clip-path='url(#cpMHwzMDIuNHwyODh8MA==)' />
<polyline points='104.87,256.49 104.87,253.75 ' style='stroke-width: 1.07; stroke: #333333; stroke-linecap: butt;' clip-path='url(#cpMHwzMDIuNHwyODh8MA==)' />
<polyline points='171.67,256.49 171.67,253.75 ' style='stroke-width: 1.07; stroke: #333333; stroke-linecap: butt;' clip-path='url(#cpMHwzMDIuNHwyODh8MA==)' />
<polyline points='238.47,256.49 238.47,253.75 ' style='stroke-width: 1.07; stroke: #333333; stroke-linecap: butt;' clip-path='url(#cpMHwzMDIuNHwyODh8MA==)' />
<g clip-path='url(#cpMHwzMDIuNHwyODh8MA==)'><text x='99.87' y='265.12' style='font-size: 8.80px; fill: #4D4D4D; font-family: Arial;' textLength='10.01px' lengthAdjust='spacingAndGlyphs'>20</text></g>
<g clip-path='url(#cpMHwzMDIuNHwyODh8MA==)'><text x='166.67' y='265.12' style='font-size: 8.80px; fill: #4D4D4D; font-family: Arial;' textLength='10.01px' lengthAdjust='spacingAndGlyphs'>24</text></g>
<g clip-path='url(#cpMHwzMDIuNHwyODh8MA==)'><text x='233.47' y='265.12' style='font-size: 8.80px; fill: #4D4D4D; font-family: Arial;' textLength='10.01px' lengthAdjust='spacingAndGlyphs'>28</text></g>
<g clip-path='url(#cpMHwzMDIuNHwyODh8MA==)'><text x='138.56' y='277.88' style='font-size: 10.00px; font-family: Arial;' textLength='63.35px' lengthAdjust='spacingAndGlyphs'>Temperature (</text></g>
<g clip-path='url(#cpMHwzMDIuNHwyODh8MA==)'><text x='201.92' y='277.88' style='font-size: 10.00px; font-family: Symbol;' textLength='4.00px' lengthAdjust='spacingAndGlyphs'>°</text></g>
<g clip-path='url(#cpMHwzMDIuNHwyODh8MA==)'><text x='205.92' y='277.88' style='font-size: 10.00px; font-family: Arial;' textLength='7.22px' lengthAdjust='spacingAndGlyphs'>C</text></g>
<g clip-path='url(#cpMHwzMDIuNHwyODh8MA==)'><text x='213.14' y='277.88' style='font-size: 10.00px; font-family: Arial;' textLength='3.33px' lengthAdjust='spacingAndGlyphs'>)</text></g>
<g clip-path='url(#cpMHwzMDIuNHwyODh8MA==)'><text transform='translate(12.64,180.16) rotate(-90)' style='font-size: 10.00px; font-family: Arial;' textLength='83.39px' lengthAdjust='spacingAndGlyphs'>net photosynthesis</text></g>
<g clip-path='url(#cpMHwzMDIuNHwyODh8MA==)'><text x='58.11' y='14.07' style='font-size: 12.00px; font-family: Arial;' textLength='90.72px' lengthAdjust='spacingAndGlyphs'>Betula papyrifera</text></g>
</svg>
