<?xml version='1.0' encoding='UTF-8' ?>
<svg xmlns='http://www.w3.org/2000/svg' xmlns:xlink='http://www.w3.org/1999/xlink' viewBox='0 0 302.40 288.00'>
<defs>
  <style type='text/css'><![CDATA[
    line, polyline, path, rect, circle {
      fill: none;
      stroke: #000000;
      stroke-linecap: round;
      stroke-linejoin: round;
      stroke-miterlimit: 10.00;
    }
  ]]></style>
</defs>
<rect width='100%' height='100%' style='stroke: none; fill: #FFFFFF;'/>
<rect x='0.00' y='0.00' width='302.40' height='288.00' style='stroke-width: 1.07; stroke: #FFFFFF; fill: #FFFFFF;' />
<defs>
  <clipPath id='cpNTYuMTAyM3wyOTYuOTIxfDI1My43NXwyMy4xNzk4'>
    <rect x='56.10' y='23.18' width='240.82' height='230.57' />
  </clipPath>
</defs>
<rect x='56.10' y='23.18' width='240.82' height='230.57' style='stroke-width: 1.07; stroke: none; fill: #FFFFFF;' clip-path='url(#cpNTYuMTAyM3wyOTYuOTIxfDI1My43NXwyMy4xNzk4)' />
<polyline points='56.10,247.74 296.92,247.74 ' style='stroke-width: 0.53; stroke: #EBEBEB; stroke-linecap: butt;' clip-path='url(#cpNTYuMTAyM3wyOTYuOTIxfDI1My43NXwyMy4xNzk4)' />
<polyline points='56.10,185.90 296.92,185.90 ' style='stroke-width: 0.53; stroke: #EBEBEB; stroke-linecap: butt;' clip-path='url(#cpNTYuMTAyM3wyOTYuOTIxfDI1My43NXwyMy4xNzk4)' />
<polyline points='56.10,124.06 296.92,124.06 ' style='stroke-width: 0.53; stroke: #EBEBEB; stroke-linecap: butt;' clip-path='url(#cpNTYuMTAyM3wyOTYuOTIxfDI1My43NXwyMy4xNzk4)' />
<polyline points='56.10,62.21 296.92,62.21 ' style='stroke-width: 0.53; stroke: #EBEBEB; stroke-linecap: butt;' clip-path='url(#cpNTYuMTAyM3wyOTYuOTIxfDI1My43NXwyMy4xNzk4)' />
<polyline points='60.63,253.75 60.63,23.18 ' style='stroke-width: 0.53; stroke: #EBEBEB; stroke-linecap: butt;' clip-path='url(#cpNTYuMTAyM3wyOTYuOTIxfDI1My43NXwyMy4xNzk4)' />
<polyline points='136.12,253.75 136.12,23.18 ' style='stroke-width: 0.53; stroke: #EBEBEB; stroke-linecap: butt;' clip-path='url(#cpNTYuMTAyM3wyOTYuOTIxfDI1My43NXwyMy4xNzk4)' />
<polyline points='211.62,253.75 211.62,23.18 ' style='stroke-width: 0.53; stroke: #EBEBEB; stroke-linecap: butt;' clip-path='url(#cpNTYuMTAyM3wyOTYuOTIxfDI1My43NXwyMy4xNzk4)' />
<polyline points='287.11,253.75 287.11,23.18 ' style='stroke-width: 0.53; stroke: #EBEBEB; stroke-linecap: butt;' clip-path='url(#cpNTYuMTAyM3wyOTYuOTIxfDI1My43NXwyMy4xNzk4)' />
<polyline points='56.10,216.82 296.92,216.82 ' style='stroke-width: 1.07; stroke: #EBEBEB; stroke-linecap: butt;' clip-path='url(#cpNTYuMTAyM3wyOTYuOTIxfDI1My43NXwyMy4xNzk4)' />
<polyline points='56.10,154.98 296.92,154.98 ' style='stroke-width: 1.07; stroke: #EBEBEB; stroke-linecap: butt;' clip-path='url(#cpNTYuMTAyM3wyOTYuOTIxfDI1My43NXwyMy4xNzk4)' />
<polyline points='56.10,93.13 296.92,93.13 ' style='stroke-width: 1.07; stroke: #EBEBEB; stroke-linecap: butt;' clip-path='url(#cpNTYuMTAyM3wyOTYuOTIxfDI1My43NXwyMy4xNzk4)' />
<polyline points='56.10,31.29 296.92,31.29 ' style='stroke-width: 1.07; stroke: #EBEBEB; stroke-linecap: butt;' clip-path='url(#cpNTYuMTAyM3wyOTYuOTIxfDI1My43NXwyMy4xNzk4)' />
<polyline points='98.38,253.75 98.38,23.18 ' style='stroke-width: 1.07; stroke: #EBEBEB; stroke-linecap: butt;' clip-path='url(#cpNTYuMTAyM3wyOTYuOTIxfDI1My43NXwyMy4xNzk4)' />
<polyline points='173.87,253.75 173.87,23.18 ' style='stroke-width: 1.07; stroke: #EBEBEB; stroke-linecap: butt;' clip-path='url(#cpNTYuMTAyM3wyOTYuOTIxfDI1My43NXwyMy4xNzk4)' />
<polyline points='249.36,253.75 249.36,23.18 ' style='stroke-width: 1.07; stroke: #EBEBEB; stroke-linecap: butt;' clip-path='url(#cpNTYuMTAyM3wyOTYuOTIxfDI1My43NXwyMy4xNzk4)' />
<circle cx='68.18' cy='242.49' r='3.56pt' style='stroke-width: 0.71; stroke: #000000; stroke-opacity: 0.70; fill: #D1EEEE; fill-opacity: 0.70;' clip-path='url(#cpNTYuMTAyM3wyOTYuOTIxfDI1My43NXwyMy4xNzk4)' />
<circle cx='121.03' cy='149.64' r='3.56pt' style='stroke-width: 0.71; stroke: #000000; stroke-opacity: 0.70; fill: #D1EEEE; fill-opacity: 0.70;' clip-path='url(#cpNTYuMTAyM3wyOTYuOTIxfDI1My43NXwyMy4xNzk4)' />
<circle cx='173.87' cy='92.99' r='3.56pt' style='stroke-width: 0.71; stroke: #000000; stroke-opacity: 0.70; fill: #D1EEEE; fill-opacity: 0.70;' clip-path='url(#cpNTYuMTAyM3wyOTYuOTIxfDI1My43NXwyMy4xNzk4)' />
<circle cx='226.71' cy='33.66' r='3.56pt' style='stroke-width: 0.71; stroke: #000000; stroke-opacity: 0.70; fill: #D1EEEE; fill-opacity: 0.70;' clip-path='url(#cpNTYuMTAyM3wyOTYuOTIxfDI1My43NXwyMy4xNzk4)' />
<circle cx='279.56' cy='58.79' r='3.56pt' style='stroke-width: 0.71; stroke: #000000; stroke-opacity: 0.70; fill: #D1EEEE; fill-opacity: 0.70;' clip-path='url(#cpNTYuMTAyM3wyOTYuOTIxfDI1My43NXwyMy4xNzk4)' />
<polyline points='67.05,243.27 68.15,241.73 69.25,240.18 70.35,238.61 71.45,237.02 72.55,235.43 73.65,233.81 74.75,232.19 75.85,230.55 76.95,228.90 78.05,227.23 79.15,225.55 80.25,223.86 81.35,222.16 82.45,220.44 83.55,218.71 84.65,216.98 85.75,215.23 86.85,213.46 87.95,211.69 89.05,209.91 90.15,208.12 91.25,206.32 92.35,204.51 93.45,202.69 94.55,200.86 95.65,199.03 96.75,197.19 97.85,195.34 98.95,193.48 100.05,191.62 101.15,189.75 102.25,187.88 103.35,186.00 104.45,184.12 105.55,182.24 106.65,180.35 107.75,178.46 108.85,176.56 109.95,174.67 111.05,172.77 112.15,170.87 113.25,168.98 114.35,167.08 115.45,165.18 116.55,163.29 117.65,161.40 118.75,159.51 119.85,157.62 120.95,155.73 122.06,153.85 123.16,151.98 124.26,150.11 125.36,148.24 126.46,146.39 127.56,144.54 128.66,142.69 129.76,140.86 130.86,139.03 131.96,137.21 133.06,135.40 134.16,133.60 135.26,131.81 136.36,130.04 137.46,128.27 138.56,126.51 139.66,124.77 140.76,123.04 141.86,121.33 142.96,119.63 144.06,117.94 145.16,116.27 146.26,114.61 147.36,112.97 148.46,111.34 149.56,109.73 150.66,108.14 151.76,106.56 152.86,105.00 153.96,103.46 155.06,101.94 156.16,100.43 157.26,98.95 158.36,97.48 159.46,96.04 160.56,94.61 161.66,93.20 162.76,91.82 163.86,90.45 164.96,89.10 166.06,87.78 167.16,86.47 168.26,85.19 169.36,83.93 170.46,82.69 171.56,81.47 172.66,80.27 173.76,79.10 174.86,77.94 175.96,76.81 177.06,75.71 178.16,74.62 179.26,73.55 180.36,72.51 181.46,71.49 182.56,70.50 183.66,69.52 184.76,68.57 185.86,67.64 186.96,66.73 188.06,65.85 189.16,64.99 190.26,64.15 191.36,63.33 192.46,62.53 193.56,61.76 194.66,61.00 195.76,60.27 196.86,59.56 197.96,58.88 199.06,58.21 200.16,57.57 201.26,56.94 202.36,56.34 203.46,55.76 204.56,55.20 205.66,54.66 206.76,54.14 207.87,53.64 208.97,53.16 210.07,52.70 211.17,52.26 212.27,51.84 213.37,51.44 214.47,51.05 215.57,50.69 216.67,50.35 217.77,50.02 218.87,49.71 219.97,49.42 221.07,49.15 222.17,48.89 223.27,48.65 224.37,48.43 225.47,48.23 226.57,48.04 227.67,47.87 228.77,47.71 229.87,47.57 230.97,47.45 232.07,47.34 233.17,47.25 234.27,47.17 235.37,47.11 236.47,47.06 237.57,47.02 238.67,47.00 239.77,47.00 240.87,47.00 241.97,47.02 243.07,47.06 244.17,47.10 245.27,47.16 246.37,47.23 247.47,47.31 248.57,47.41 249.67,47.52 250.77,47.63 251.87,47.76 252.97,47.90 254.07,48.06 255.17,48.22 256.27,48.39 257.37,48.57 258.47,48.77 259.57,48.97 260.67,49.18 261.77,49.40 262.87,49.63 263.97,49.87 265.07,50.12 266.17,50.38 267.27,50.64 268.37,50.91 269.47,51.20 270.57,51.48 271.67,51.78 272.77,52.09 273.87,52.40 274.97,52.72 276.07,53.04 277.17,53.38 278.27,53.72 279.37,54.06 280.47,54.41 281.57,54.77 282.67,55.14 283.77,55.51 284.87,55.88 285.97,56.26 ' style='stroke-width: 2.77; stroke: #1B9E77; stroke-linecap: butt;' clip-path='url(#cpNTYuMTAyM3wyOTYuOTIxfDI1My43NXwyMy4xNzk4)' />
<g clip-path='url(#cpNTYuMTAyM3wyOTYuOTIxfDI1My43NXwyMy4xNzk4)'><text x='68.18' y='106.44' style='font-size: 8.54px; font-style: italic; font-family: Arial;' textLength='60.01px' lengthAdjust='spacingAndGlyphs'>R^2 sch= 0.98 </text></g>
<g clip-path='url(#cpNTYuMTAyM3wyOTYuOTIxfDI1My43NXwyMy4xNzk4)'><text x='68.18' y='118.73' style='font-size: 8.54px; font-style: italic; font-family: Arial;' textLength='55.29px' lengthAdjust='spacingAndGlyphs'>E sch= 0.917 </text></g>
<g clip-path='url(#cpNTYuMTAyM3wyOTYuOTIxfDI1My43NXwyMy4xNzk4)'><text x='68.18' y='131.03' style='font-size: 8.54px; font-style: italic; font-family: Arial;' textLength='54.77px' lengthAdjust='spacingAndGlyphs'>AIC sch= -8.9</text></g>
<rect x='56.10' y='23.18' width='240.82' height='230.57' style='stroke-width: 1.07; stroke: #333333;' clip-path='url(#cpNTYuMTAyM3wyOTYuOTIxfDI1My43NXwyMy4xNzk4)' />
<defs>
  <clipPath id='cpMHwzMDIuNHwyODh8MA=='>
    <rect x='0.00' y='0.00' width='302.40' height='288.00' />
  </clipPath>
</defs>
<g clip-path='url(#cpMHwzMDIuNHwyODh8MA==)'><text x='20.65' y='220.04' style='font-size: 8.80px; fill: #4D4D4D; font-family: Arial;' textLength='30.52px' lengthAdjust='spacingAndGlyphs'>1.0e-05</text></g>
<g clip-path='url(#cpMHwzMDIuNHwyODh8MA==)'><text x='20.65' y='158.20' style='font-size: 8.80px; fill: #4D4D4D; font-family: Arial;' textLength='30.52px' lengthAdjust='spacingAndGlyphs'>1.5e-05</text></g>
<g clip-path='url(#cpMHwzMDIuNHwyODh8MA==)'><text x='20.65' y='96.35' style='font-size: 8.80px; fill: #4D4D4D; font-family: Arial;' textLength='30.52px' lengthAdjust='spacingAndGlyphs'>2.0e-05</text></g>
<g clip-path='url(#cpMHwzMDIuNHwyODh8MA==)'><text x='20.65' y='34.51' style='font-size: 8.80px; fill: #4D4D4D; font-family: Arial;' textLength='30.52px' lengthAdjust='spacingAndGlyphs'>2.5e-05</text></g>
<polyline points='53.36,216.82 56.10,216.82 ' style='stroke-width: 1.07; stroke: #333333; stroke-linecap: butt;' clip-path='url(#cpMHwzMDIuNHwyODh8MA==)' />
<polyline points='53.36,154.98 56.10,154.98 ' style='stroke-width: 1.07; stroke: #333333; stroke-linecap: butt;' clip-path='url(#cpMHwzMDIuNHwyODh8MA==)' />
<polyline points='53.36,93.13 56.10,93.13 ' style='stroke-width: 1.07; stroke: #333333; stroke-linecap: butt;' clip-path='url(#cpMHwzMDIuNHwyODh8MA==)' />
<polyline points='53.36,31.29 56.10,31.29 ' style='stroke-width: 1.07; stroke: #333333; stroke-linecap: butt;' clip-path='url(#cpMHwzMDIuNHwyODh8MA==)' />
<polyline points='98.38,256.49 98.38,253.75 ' style='stroke-width: 1.07; stroke: #333333; stroke-linecap: butt;' clip-path='url(#cpMHwzMDIuNHwyODh8MA==)' />
<polyline points='173.87,256.49 173.87,253.75 ' style='stroke-width: 1.07; stroke: #333333; stroke-linecap: butt;' clip-path='url(#cpMHwzMDIuNHwyODh8MA==)' />
<polyline points='249.36,256.49 249.36,253.75 ' style='stroke-width: 1.07; stroke: #333333; stroke-linecap: butt;' clip-path='url(#cpMHwzMDIuNHwyODh8MA==)' />
<g clip-path='url(#cpMHwzMDIuNHwyODh8MA==)'><text x='93.37' y='265.12' style='font-size: 8.80px; fill: #4D4D4D; font-family: Arial;' textLength='10.01px' lengthAdjust='spacingAndGlyphs'>10</text></g>
<g clip-path='url(#cpMHwzMDIuNHwyODh8MA==)'><text x='168.86' y='265.12' style='font-size: 8.80px; fill: #4D4D4D; font-family: Arial;' textLength='10.01px' lengthAdjust='spacingAndGlyphs'>20</text></g>
<g clip-path='url(#cpMHwzMDIuNHwyODh8MA==)'><text x='244.36' y='265.12' style='font-size: 8.80px; fill: #4D4D4D; font-family: Arial;' textLength='10.01px' lengthAdjust='spacingAndGlyphs'>30</text></g>
<g clip-path='url(#cpMHwzMDIuNHwyODh8MA==)'><text x='137.56' y='277.88' style='font-size: 10.00px; font-family: Arial;' textLength='63.35px' lengthAdjust='spacingAndGlyphs'>Temperature (</text></g>
<g clip-path='url(#cpMHwzMDIuNHwyODh8MA==)'><text x='200.91' y='277.88' style='font-size: 10.00px; font-family: Symbol;' textLength='4.00px' lengthAdjust='spacingAndGlyphs'>°</text></g>
<g clip-path='url(#cpMHwzMDIuNHwyODh8MA==)'><text x='204.91' y='277.88' style='font-size: 10.00px; font-family: Arial;' textLength='7.22px' lengthAdjust='spacingAndGlyphs'>C</text></g>
<g clip-path='url(#cpMHwzMDIuNHwyODh8MA==)'><text x='212.13' y='277.88' style='font-size: 10.00px; font-family: Arial;' textLength='3.33px' lengthAdjust='spacingAndGlyphs'>)</text></g>
<g clip-path='url(#cpMHwzMDIuNHwyODh8MA==)'><text transform='translate(12.64,180.16) rotate(-90)' style='font-size: 10.00px; font-family: Arial;' textLength='83.39px' lengthAdjust='spacingAndGlyphs'>net photosynthesis</text></g>
<g clip-path='url(#cpMHwzMDIuNHwyODh8MA==)'><text x='56.10' y='14.07' style='font-size: 12.00px; font-family: Arial;' textLength='105.40px' lengthAdjust='spacingAndGlyphs'>Plantago euryphylla</text></g>
</svg>
