<?xml version='1.0' encoding='UTF-8' ?>
<svg xmlns='http://www.w3.org/2000/svg' xmlns:xlink='http://www.w3.org/1999/xlink' viewBox='0 0 302.40 288.00'>
<defs>
  <style type='text/css'><![CDATA[
    line, polyline, path, rect, circle {
      fill: none;
      stroke: #000000;
      stroke-linecap: round;
      stroke-linejoin: round;
      stroke-miterlimit: 10.00;
    }
  ]]></style>
</defs>
<rect width='100%' height='100%' style='stroke: none; fill: #FFFFFF;'/>
<rect x='0.00' y='0.00' width='302.40' height='288.00' style='stroke-width: 1.07; stroke: #FFFFFF; fill: #FFFFFF;' />
<defs>
  <clipPath id='cpNTUuOTYxN3wyOTYuOTIxfDI1My43NXwyMy4xNzk4'>
    <rect x='55.96' y='23.18' width='240.96' height='230.57' />
  </clipPath>
</defs>
<rect x='55.96' y='23.18' width='240.96' height='230.57' style='stroke-width: 1.07; stroke: none; fill: #FFFFFF;' clip-path='url(#cpNTUuOTYxN3wyOTYuOTIxfDI1My43NXwyMy4xNzk4)' />
<polyline points='55.96,233.83 296.92,233.83 ' style='stroke-width: 0.53; stroke: #EBEBEB; stroke-linecap: butt;' clip-path='url(#cpNTUuOTYxN3wyOTYuOTIxfDI1My43NXwyMy4xNzk4)' />
<polyline points='55.96,187.59 296.92,187.59 ' style='stroke-width: 0.53; stroke: #EBEBEB; stroke-linecap: butt;' clip-path='url(#cpNTUuOTYxN3wyOTYuOTIxfDI1My43NXwyMy4xNzk4)' />
<polyline points='55.96,141.35 296.92,141.35 ' style='stroke-width: 0.53; stroke: #EBEBEB; stroke-linecap: butt;' clip-path='url(#cpNTUuOTYxN3wyOTYuOTIxfDI1My43NXwyMy4xNzk4)' />
<polyline points='55.96,95.10 296.92,95.10 ' style='stroke-width: 0.53; stroke: #EBEBEB; stroke-linecap: butt;' clip-path='url(#cpNTUuOTYxN3wyOTYuOTIxfDI1My43NXwyMy4xNzk4)' />
<polyline points='55.96,48.86 296.92,48.86 ' style='stroke-width: 0.53; stroke: #EBEBEB; stroke-linecap: butt;' clip-path='url(#cpNTUuOTYxN3wyOTYuOTIxfDI1My43NXwyMy4xNzk4)' />
<polyline points='59.47,253.75 59.47,23.18 ' style='stroke-width: 0.53; stroke: #EBEBEB; stroke-linecap: butt;' clip-path='url(#cpNTUuOTYxN3wyOTYuOTIxfDI1My43NXwyMy4xNzk4)' />
<polyline points='147.09,253.75 147.09,23.18 ' style='stroke-width: 0.53; stroke: #EBEBEB; stroke-linecap: butt;' clip-path='url(#cpNTUuOTYxN3wyOTYuOTIxfDI1My43NXwyMy4xNzk4)' />
<polyline points='234.71,253.75 234.71,23.18 ' style='stroke-width: 0.53; stroke: #EBEBEB; stroke-linecap: butt;' clip-path='url(#cpNTUuOTYxN3wyOTYuOTIxfDI1My43NXwyMy4xNzk4)' />
<polyline points='55.96,210.71 296.92,210.71 ' style='stroke-width: 1.07; stroke: #EBEBEB; stroke-linecap: butt;' clip-path='url(#cpNTUuOTYxN3wyOTYuOTIxfDI1My43NXwyMy4xNzk4)' />
<polyline points='55.96,164.47 296.92,164.47 ' style='stroke-width: 1.07; stroke: #EBEBEB; stroke-linecap: butt;' clip-path='url(#cpNTUuOTYxN3wyOTYuOTIxfDI1My43NXwyMy4xNzk4)' />
<polyline points='55.96,118.22 296.92,118.22 ' style='stroke-width: 1.07; stroke: #EBEBEB; stroke-linecap: butt;' clip-path='url(#cpNTUuOTYxN3wyOTYuOTIxfDI1My43NXwyMy4xNzk4)' />
<polyline points='55.96,71.98 296.92,71.98 ' style='stroke-width: 1.07; stroke: #EBEBEB; stroke-linecap: butt;' clip-path='url(#cpNTUuOTYxN3wyOTYuOTIxfDI1My43NXwyMy4xNzk4)' />
<polyline points='55.96,25.74 296.92,25.74 ' style='stroke-width: 1.07; stroke: #EBEBEB; stroke-linecap: butt;' clip-path='url(#cpNTUuOTYxN3wyOTYuOTIxfDI1My43NXwyMy4xNzk4)' />
<polyline points='103.28,253.75 103.28,23.18 ' style='stroke-width: 1.07; stroke: #EBEBEB; stroke-linecap: butt;' clip-path='url(#cpNTUuOTYxN3wyOTYuOTIxfDI1My43NXwyMy4xNzk4)' />
<polyline points='190.90,253.75 190.90,23.18 ' style='stroke-width: 1.07; stroke: #EBEBEB; stroke-linecap: butt;' clip-path='url(#cpNTUuOTYxN3wyOTYuOTIxfDI1My43NXwyMy4xNzk4)' />
<polyline points='278.52,253.75 278.52,23.18 ' style='stroke-width: 1.07; stroke: #EBEBEB; stroke-linecap: butt;' clip-path='url(#cpNTUuOTYxN3wyOTYuOTIxfDI1My43NXwyMy4xNzk4)' />
<circle cx='71.72' cy='242.30' r='3.56pt' style='stroke-width: 0.71; stroke: #000000; stroke-opacity: 0.70; fill: #D1EEEE; fill-opacity: 0.70;' clip-path='url(#cpNTUuOTYxN3wyOTYuOTIxfDI1My43NXwyMy4xNzk4)' />
<circle cx='145.62' cy='213.23' r='3.56pt' style='stroke-width: 0.71; stroke: #000000; stroke-opacity: 0.70; fill: #D1EEEE; fill-opacity: 0.70;' clip-path='url(#cpNTUuOTYxN3wyOTYuOTIxfDI1My43NXwyMy4xNzk4)' />
<circle cx='186.84' cy='179.37' r='3.56pt' style='stroke-width: 0.71; stroke: #000000; stroke-opacity: 0.70; fill: #D1EEEE; fill-opacity: 0.70;' clip-path='url(#cpNTUuOTYxN3wyOTYuOTIxfDI1My43NXwyMy4xNzk4)' />
<circle cx='236.13' cy='126.23' r='3.56pt' style='stroke-width: 0.71; stroke: #000000; stroke-opacity: 0.70; fill: #D1EEEE; fill-opacity: 0.70;' clip-path='url(#cpNTUuOTYxN3wyOTYuOTIxfDI1My43NXwyMy4xNzk4)' />
<circle cx='283.22' cy='35.83' r='3.56pt' style='stroke-width: 0.71; stroke: #000000; stroke-opacity: 0.70; fill: #D1EEEE; fill-opacity: 0.70;' clip-path='url(#cpNTUuOTYxN3wyOTYuOTIxfDI1My43NXwyMy4xNzk4)' />
<polyline points='66.91,243.27 68.02,243.03 69.12,242.80 70.22,242.55 71.32,242.31 72.42,242.06 73.52,241.80 74.62,241.54 75.72,241.28 76.82,241.02 77.92,240.75 79.02,240.47 80.12,240.19 81.22,239.91 82.33,239.62 83.43,239.33 84.53,239.03 85.63,238.73 86.73,238.43 87.83,238.11 88.93,237.80 90.03,237.48 91.13,237.15 92.23,236.82 93.33,236.49 94.43,236.15 95.53,235.80 96.64,235.45 97.74,235.10 98.84,234.73 99.94,234.37 101.04,233.99 102.14,233.62 103.24,233.23 104.34,232.84 105.44,232.45 106.54,232.05 107.64,231.64 108.74,231.23 109.84,230.81 110.95,230.38 112.05,229.95 113.15,229.51 114.25,229.07 115.35,228.62 116.45,228.16 117.55,227.70 118.65,227.23 119.75,226.75 120.85,226.27 121.95,225.78 123.05,225.28 124.15,224.77 125.26,224.26 126.36,223.74 127.46,223.21 128.56,222.68 129.66,222.13 130.76,221.59 131.86,221.03 132.96,220.46 134.06,219.89 135.16,219.31 136.26,218.72 137.36,218.12 138.46,217.52 139.57,216.90 140.67,216.28 141.77,215.65 142.87,215.01 143.97,214.36 145.07,213.70 146.17,213.04 147.27,212.36 148.37,211.68 149.47,210.99 150.57,210.29 151.67,209.57 152.77,208.85 153.88,208.12 154.98,207.38 156.08,206.64 157.18,205.88 158.28,205.11 159.38,204.33 160.48,203.54 161.58,202.74 162.68,201.93 163.78,201.11 164.88,200.28 165.98,199.44 167.08,198.59 168.19,197.73 169.29,196.86 170.39,195.98 171.49,195.08 172.59,194.18 173.69,193.26 174.79,192.34 175.89,191.40 176.99,190.45 178.09,189.49 179.19,188.52 180.29,187.53 181.39,186.54 182.50,185.53 183.60,184.51 184.70,183.48 185.80,182.44 186.90,181.38 188.00,180.32 189.10,179.24 190.20,178.15 191.30,177.04 192.40,175.93 193.50,174.80 194.60,173.66 195.70,172.51 196.81,171.34 197.91,170.16 199.01,168.97 200.11,167.77 201.21,166.55 202.31,165.32 203.41,164.08 204.51,162.82 205.61,161.55 206.71,160.27 207.81,158.97 208.91,157.66 210.01,156.34 211.12,155.01 212.22,153.66 213.32,152.30 214.42,150.92 215.52,149.53 216.62,148.13 217.72,146.72 218.82,145.29 219.92,143.84 221.02,142.39 222.12,140.92 223.22,139.43 224.32,137.94 225.43,136.43 226.53,134.90 227.63,133.37 228.73,131.81 229.83,130.25 230.93,128.67 232.03,127.08 233.13,125.47 234.23,123.85 235.33,122.22 236.43,120.58 237.53,118.92 238.63,117.24 239.74,115.56 240.84,113.86 241.94,112.15 243.04,110.42 244.14,108.68 245.24,106.93 246.34,105.16 247.44,103.38 248.54,101.59 249.64,99.79 250.74,97.97 251.84,96.14 252.94,94.30 254.05,92.44 255.15,90.57 256.25,88.69 257.35,86.80 258.45,84.90 259.55,82.98 260.65,81.05 261.75,79.11 262.85,77.16 263.95,75.19 265.05,73.22 266.15,71.23 267.25,69.23 268.36,67.22 269.46,65.20 270.56,63.17 271.66,61.12 272.76,59.07 273.86,57.01 274.96,54.93 276.06,52.85 277.16,50.75 278.26,48.65 279.36,46.54 280.46,44.41 281.56,42.28 282.67,40.14 283.77,37.99 284.87,35.83 285.97,33.66 ' style='stroke-width: 2.77; stroke: #1B9E77; stroke-linecap: butt;' clip-path='url(#cpNTUuOTYxN3wyOTYuOTIxfDI1My43NXwyMy4xNzk4)' />
<g clip-path='url(#cpNTUuOTYxN3wyOTYuOTIxfDI1My43NXwyMy4xNzk4)'><text x='71.72' y='150.32' style='font-size: 8.54px; font-style: italic; font-family: Arial;' textLength='60.01px' lengthAdjust='spacingAndGlyphs'>R^2 sch= 1.00 </text></g>
<g clip-path='url(#cpNTUuOTYxN3wyOTYuOTIxfDI1My43NXwyMy4xNzk4)'><text x='71.72' y='162.61' style='font-size: 8.54px; font-style: italic; font-family: Arial;' textLength='55.29px' lengthAdjust='spacingAndGlyphs'>E sch= 0.928 </text></g>
<g clip-path='url(#cpNTUuOTYxN3wyOTYuOTIxfDI1My43NXwyMy4xNzk4)'><text x='71.72' y='174.90' style='font-size: 8.54px; font-style: italic; font-family: Arial;' textLength='59.78px' lengthAdjust='spacingAndGlyphs'>AIC sch= -13.8</text></g>
<rect x='55.96' y='23.18' width='240.96' height='230.57' style='stroke-width: 1.07; stroke: #333333;' clip-path='url(#cpNTUuOTYxN3wyOTYuOTIxfDI1My43NXwyMy4xNzk4)' />
<defs>
  <clipPath id='cpMHwzMDIuNHwyODh8MA=='>
    <rect x='0.00' y='0.00' width='302.40' height='288.00' />
  </clipPath>
</defs>
<g clip-path='url(#cpMHwzMDIuNHwyODh8MA==)'><text x='20.51' y='213.93' style='font-size: 8.80px; fill: #4D4D4D; font-family: Arial;' textLength='30.52px' lengthAdjust='spacingAndGlyphs'>5.0e-06</text></g>
<g clip-path='url(#cpMHwzMDIuNHwyODh8MA==)'><text x='20.51' y='167.69' style='font-size: 8.80px; fill: #4D4D4D; font-family: Arial;' textLength='30.52px' lengthAdjust='spacingAndGlyphs'>1.0e-05</text></g>
<g clip-path='url(#cpMHwzMDIuNHwyODh8MA==)'><text x='20.51' y='121.44' style='font-size: 8.80px; fill: #4D4D4D; font-family: Arial;' textLength='30.52px' lengthAdjust='spacingAndGlyphs'>1.5e-05</text></g>
<g clip-path='url(#cpMHwzMDIuNHwyODh8MA==)'><text x='20.51' y='75.20' style='font-size: 8.80px; fill: #4D4D4D; font-family: Arial;' textLength='30.52px' lengthAdjust='spacingAndGlyphs'>2.0e-05</text></g>
<g clip-path='url(#cpMHwzMDIuNHwyODh8MA==)'><text x='20.51' y='28.95' style='font-size: 8.80px; fill: #4D4D4D; font-family: Arial;' textLength='30.52px' lengthAdjust='spacingAndGlyphs'>2.5e-05</text></g>
<polyline points='53.22,210.71 55.96,210.71 ' style='stroke-width: 1.07; stroke: #333333; stroke-linecap: butt;' clip-path='url(#cpMHwzMDIuNHwyODh8MA==)' />
<polyline points='53.22,164.47 55.96,164.47 ' style='stroke-width: 1.07; stroke: #333333; stroke-linecap: butt;' clip-path='url(#cpMHwzMDIuNHwyODh8MA==)' />
<polyline points='53.22,118.22 55.96,118.22 ' style='stroke-width: 1.07; stroke: #333333; stroke-linecap: butt;' clip-path='url(#cpMHwzMDIuNHwyODh8MA==)' />
<polyline points='53.22,71.98 55.96,71.98 ' style='stroke-width: 1.07; stroke: #333333; stroke-linecap: butt;' clip-path='url(#cpMHwzMDIuNHwyODh8MA==)' />
<polyline points='53.22,25.74 55.96,25.74 ' style='stroke-width: 1.07; stroke: #333333; stroke-linecap: butt;' clip-path='url(#cpMHwzMDIuNHwyODh8MA==)' />
<polyline points='103.28,256.49 103.28,253.75 ' style='stroke-width: 1.07; stroke: #333333; stroke-linecap: butt;' clip-path='url(#cpMHwzMDIuNHwyODh8MA==)' />
<polyline points='190.90,256.49 190.90,253.75 ' style='stroke-width: 1.07; stroke: #333333; stroke-linecap: butt;' clip-path='url(#cpMHwzMDIuNHwyODh8MA==)' />
<polyline points='278.52,256.49 278.52,253.75 ' style='stroke-width: 1.07; stroke: #333333; stroke-linecap: butt;' clip-path='url(#cpMHwzMDIuNHwyODh8MA==)' />
<g clip-path='url(#cpMHwzMDIuNHwyODh8MA==)'><text x='98.27' y='265.12' style='font-size: 8.80px; fill: #4D4D4D; font-family: Arial;' textLength='10.01px' lengthAdjust='spacingAndGlyphs'>10</text></g>
<g clip-path='url(#cpMHwzMDIuNHwyODh8MA==)'><text x='185.89' y='265.12' style='font-size: 8.80px; fill: #4D4D4D; font-family: Arial;' textLength='10.01px' lengthAdjust='spacingAndGlyphs'>20</text></g>
<g clip-path='url(#cpMHwzMDIuNHwyODh8MA==)'><text x='273.51' y='265.12' style='font-size: 8.80px; fill: #4D4D4D; font-family: Arial;' textLength='10.01px' lengthAdjust='spacingAndGlyphs'>30</text></g>
<g clip-path='url(#cpMHwzMDIuNHwyODh8MA==)'><text x='137.49' y='277.88' style='font-size: 10.00px; font-family: Arial;' textLength='63.35px' lengthAdjust='spacingAndGlyphs'>Temperature (</text></g>
<g clip-path='url(#cpMHwzMDIuNHwyODh8MA==)'><text x='200.84' y='277.88' style='font-size: 10.00px; font-family: Symbol;' textLength='4.00px' lengthAdjust='spacingAndGlyphs'>°</text></g>
<g clip-path='url(#cpMHwzMDIuNHwyODh8MA==)'><text x='204.84' y='277.88' style='font-size: 10.00px; font-family: Arial;' textLength='7.22px' lengthAdjust='spacingAndGlyphs'>C</text></g>
<g clip-path='url(#cpMHwzMDIuNHwyODh8MA==)'><text x='212.06' y='277.88' style='font-size: 10.00px; font-family: Arial;' textLength='3.33px' lengthAdjust='spacingAndGlyphs'>)</text></g>
<g clip-path='url(#cpMHwzMDIuNHwyODh8MA==)'><text transform='translate(12.64,171.81) rotate(-90)' style='font-size: 10.00px; font-family: Arial;' textLength='66.70px' lengthAdjust='spacingAndGlyphs'>respiration rate</text></g>
<g clip-path='url(#cpMHwzMDIuNHwyODh8MA==)'><text x='55.96' y='14.07' style='font-size: 12.00px; font-family: Arial;' textLength='124.73px' lengthAdjust='spacingAndGlyphs'>Sphagnum squarrosum</text></g>
</svg>
