<?xml version='1.0' encoding='UTF-8' ?>
<svg xmlns='http://www.w3.org/2000/svg' xmlns:xlink='http://www.w3.org/1999/xlink' viewBox='0 0 302.40 288.00'>
<defs>
  <style type='text/css'><![CDATA[
    line, polyline, path, rect, circle {
      fill: none;
      stroke: #000000;
      stroke-linecap: round;
      stroke-linejoin: round;
      stroke-miterlimit: 10.00;
    }
  ]]></style>
</defs>
<rect width='100%' height='100%' style='stroke: none; fill: #FFFFFF;'/>
<rect x='0.00' y='0.00' width='302.40' height='288.00' style='stroke-width: 1.07; stroke: #FFFFFF; fill: #FFFFFF;' />
<defs>
  <clipPath id='cpNDguNDU1OHwyOTYuOTIxfDI1My43NXwyMy4xNzk4'>
    <rect x='48.46' y='23.18' width='248.46' height='230.57' />
  </clipPath>
</defs>
<rect x='48.46' y='23.18' width='248.46' height='230.57' style='stroke-width: 1.07; stroke: none; fill: #FFFFFF;' clip-path='url(#cpNDguNDU1OHwyOTYuOTIxfDI1My43NXwyMy4xNzk4)' />
<polyline points='48.46,220.63 296.92,220.63 ' style='stroke-width: 0.53; stroke: #EBEBEB; stroke-linecap: butt;' clip-path='url(#cpNDguNDU1OHwyOTYuOTIxfDI1My43NXwyMy4xNzk4)' />
<polyline points='48.46,131.64 296.92,131.64 ' style='stroke-width: 0.53; stroke: #EBEBEB; stroke-linecap: butt;' clip-path='url(#cpNDguNDU1OHwyOTYuOTIxfDI1My43NXwyMy4xNzk4)' />
<polyline points='48.46,42.65 296.92,42.65 ' style='stroke-width: 0.53; stroke: #EBEBEB; stroke-linecap: butt;' clip-path='url(#cpNDguNDU1OHwyOTYuOTIxfDI1My43NXwyMy4xNzk4)' />
<polyline points='89.31,253.75 89.31,23.18 ' style='stroke-width: 0.53; stroke: #EBEBEB; stroke-linecap: butt;' clip-path='url(#cpNDguNDU1OHwyOTYuOTIxfDI1My43NXwyMy4xNzk4)' />
<polyline points='137.36,253.75 137.36,23.18 ' style='stroke-width: 0.53; stroke: #EBEBEB; stroke-linecap: butt;' clip-path='url(#cpNDguNDU1OHwyOTYuOTIxfDI1My43NXwyMy4xNzk4)' />
<polyline points='185.42,253.75 185.42,23.18 ' style='stroke-width: 0.53; stroke: #EBEBEB; stroke-linecap: butt;' clip-path='url(#cpNDguNDU1OHwyOTYuOTIxfDI1My43NXwyMy4xNzk4)' />
<polyline points='233.48,253.75 233.48,23.18 ' style='stroke-width: 0.53; stroke: #EBEBEB; stroke-linecap: butt;' clip-path='url(#cpNDguNDU1OHwyOTYuOTIxfDI1My43NXwyMy4xNzk4)' />
<polyline points='281.54,253.75 281.54,23.18 ' style='stroke-width: 0.53; stroke: #EBEBEB; stroke-linecap: butt;' clip-path='url(#cpNDguNDU1OHwyOTYuOTIxfDI1My43NXwyMy4xNzk4)' />
<polyline points='48.46,176.13 296.92,176.13 ' style='stroke-width: 1.07; stroke: #EBEBEB; stroke-linecap: butt;' clip-path='url(#cpNDguNDU1OHwyOTYuOTIxfDI1My43NXwyMy4xNzk4)' />
<polyline points='48.46,87.14 296.92,87.14 ' style='stroke-width: 1.07; stroke: #EBEBEB; stroke-linecap: butt;' clip-path='url(#cpNDguNDU1OHwyOTYuOTIxfDI1My43NXwyMy4xNzk4)' />
<polyline points='65.28,253.75 65.28,23.18 ' style='stroke-width: 1.07; stroke: #EBEBEB; stroke-linecap: butt;' clip-path='url(#cpNDguNDU1OHwyOTYuOTIxfDI1My43NXwyMy4xNzk4)' />
<polyline points='113.34,253.75 113.34,23.18 ' style='stroke-width: 1.07; stroke: #EBEBEB; stroke-linecap: butt;' clip-path='url(#cpNDguNDU1OHwyOTYuOTIxfDI1My43NXwyMy4xNzk4)' />
<polyline points='161.39,253.75 161.39,23.18 ' style='stroke-width: 1.07; stroke: #EBEBEB; stroke-linecap: butt;' clip-path='url(#cpNDguNDU1OHwyOTYuOTIxfDI1My43NXwyMy4xNzk4)' />
<polyline points='209.45,253.75 209.45,23.18 ' style='stroke-width: 1.07; stroke: #EBEBEB; stroke-linecap: butt;' clip-path='url(#cpNDguNDU1OHwyOTYuOTIxfDI1My43NXwyMy4xNzk4)' />
<polyline points='257.51,253.75 257.51,23.18 ' style='stroke-width: 1.07; stroke: #EBEBEB; stroke-linecap: butt;' clip-path='url(#cpNDguNDU1OHwyOTYuOTIxfDI1My43NXwyMy4xNzk4)' />
<circle cx='64.11' cy='241.11' r='3.56pt' style='stroke-width: 0.71; stroke: #000000; stroke-opacity: 0.70; fill: #D1EEEE; fill-opacity: 0.70;' clip-path='url(#cpNDguNDU1OHwyOTYuOTIxfDI1My43NXwyMy4xNzk4)' />
<circle cx='91.72' cy='224.31' r='3.56pt' style='stroke-width: 0.71; stroke: #000000; stroke-opacity: 0.70; fill: #D1EEEE; fill-opacity: 0.70;' clip-path='url(#cpNDguNDU1OHwyOTYuOTIxfDI1My43NXwyMy4xNzk4)' />
<circle cx='108.10' cy='226.84' r='3.56pt' style='stroke-width: 0.71; stroke: #000000; stroke-opacity: 0.70; fill: #D1EEEE; fill-opacity: 0.70;' clip-path='url(#cpNDguNDU1OHwyOTYuOTIxfDI1My43NXwyMy4xNzk4)' />
<circle cx='131.86' cy='194.15' r='3.56pt' style='stroke-width: 0.71; stroke: #000000; stroke-opacity: 0.70; fill: #D1EEEE; fill-opacity: 0.70;' clip-path='url(#cpNDguNDU1OHwyOTYuOTIxfDI1My43NXwyMy4xNzk4)' />
<circle cx='152.57' cy='181.06' r='3.56pt' style='stroke-width: 0.71; stroke: #000000; stroke-opacity: 0.70; fill: #D1EEEE; fill-opacity: 0.70;' clip-path='url(#cpNDguNDU1OHwyOTYuOTIxfDI1My43NXwyMy4xNzk4)' />
<circle cx='172.87' cy='154.15' r='3.56pt' style='stroke-width: 0.71; stroke: #000000; stroke-opacity: 0.70; fill: #D1EEEE; fill-opacity: 0.70;' clip-path='url(#cpNDguNDU1OHwyOTYuOTIxfDI1My43NXwyMy4xNzk4)' />
<circle cx='188.43' cy='127.09' r='3.56pt' style='stroke-width: 0.71; stroke: #000000; stroke-opacity: 0.70; fill: #D1EEEE; fill-opacity: 0.70;' clip-path='url(#cpNDguNDU1OHwyOTYuOTIxfDI1My43NXwyMy4xNzk4)' />
<circle cx='217.79' cy='100.50' r='3.56pt' style='stroke-width: 0.71; stroke: #000000; stroke-opacity: 0.70; fill: #D1EEEE; fill-opacity: 0.70;' clip-path='url(#cpNDguNDU1OHwyOTYuOTIxfDI1My43NXwyMy4xNzk4)' />
<circle cx='249.70' cy='91.73' r='3.56pt' style='stroke-width: 0.71; stroke: #000000; stroke-opacity: 0.70; fill: #D1EEEE; fill-opacity: 0.70;' clip-path='url(#cpNDguNDU1OHwyOTYuOTIxfDI1My43NXwyMy4xNzk4)' />
<circle cx='280.82' cy='33.66' r='3.56pt' style='stroke-width: 0.71; stroke: #000000; stroke-opacity: 0.70; fill: #D1EEEE; fill-opacity: 0.70;' clip-path='url(#cpNDguNDU1OHwyOTYuOTIxfDI1My43NXwyMy4xNzk4)' />
<polyline points='59.75,243.27 60.88,242.84 62.02,242.41 63.15,241.97 64.29,241.52 65.42,241.06 66.56,240.60 67.70,240.13 68.83,239.65 69.97,239.16 71.10,238.67 72.24,238.17 73.37,237.66 74.51,237.14 75.64,236.61 76.78,236.08 77.91,235.53 79.05,234.98 80.18,234.42 81.32,233.85 82.45,233.27 83.59,232.69 84.72,232.09 85.86,231.49 86.99,230.88 88.13,230.26 89.26,229.62 90.40,228.98 91.53,228.33 92.67,227.68 93.80,227.01 94.94,226.33 96.07,225.64 97.21,224.95 98.34,224.24 99.48,223.52 100.61,222.80 101.75,222.06 102.88,221.31 104.02,220.56 105.15,219.79 106.29,219.02 107.42,218.23 108.56,217.43 109.69,216.63 110.83,215.81 111.96,214.98 113.10,214.15 114.23,213.30 115.37,212.44 116.50,211.57 117.64,210.69 118.77,209.81 119.91,208.91 121.04,208.00 122.18,207.08 123.31,206.15 124.45,205.21 125.58,204.25 126.72,203.29 127.85,202.32 128.99,201.34 130.12,200.35 131.26,199.34 132.39,198.33 133.53,197.31 134.66,196.27 135.80,195.23 136.93,194.18 138.07,193.11 139.20,192.04 140.34,190.96 141.47,189.86 142.61,188.76 143.74,187.65 144.88,186.53 146.01,185.39 147.15,184.25 148.28,183.10 149.42,181.95 150.55,180.78 151.69,179.60 152.82,178.42 153.96,177.22 155.09,176.02 156.23,174.81 157.36,173.59 158.50,172.36 159.64,171.13 160.77,169.89 161.91,168.64 163.04,167.38 164.18,166.12 165.31,164.85 166.45,163.57 167.58,162.29 168.72,161.00 169.85,159.70 170.99,158.40 172.12,157.09 173.26,155.78 174.39,154.46 175.53,153.14 176.66,151.81 177.80,150.48 178.93,149.14 180.07,147.80 181.20,146.46 182.34,145.11 183.47,143.76 184.61,142.41 185.74,141.05 186.88,139.69 188.01,138.33 189.15,136.97 190.28,135.61 191.42,134.24 192.55,132.88 193.69,131.51 194.82,130.15 195.96,128.78 197.09,127.41 198.23,126.05 199.36,124.69 200.50,123.32 201.63,121.96 202.77,120.60 203.90,119.25 205.04,117.89 206.17,116.54 207.31,115.19 208.44,113.85 209.58,112.50 210.71,111.17 211.85,109.83 212.98,108.51 214.12,107.18 215.25,105.86 216.39,104.55 217.52,103.24 218.66,101.94 219.79,100.65 220.93,99.36 222.06,98.08 223.20,96.80 224.33,95.54 225.47,94.28 226.60,93.03 227.74,91.79 228.87,90.55 230.01,89.33 231.14,88.11 232.28,86.90 233.41,85.71 234.55,84.52 235.68,83.34 236.82,82.17 237.95,81.02 239.09,79.87 240.22,78.73 241.36,77.61 242.49,76.50 243.63,75.40 244.76,74.31 245.90,73.23 247.03,72.16 248.17,71.11 249.30,70.06 250.44,69.03 251.57,68.02 252.71,67.01 253.85,66.02 254.98,65.04 256.12,64.08 257.25,63.12 258.39,62.18 259.52,61.26 260.66,60.35 261.79,59.45 262.93,58.56 264.06,57.69 265.20,56.83 266.33,55.99 267.47,55.16 268.60,54.34 269.74,53.54 270.87,52.75 272.01,51.98 273.14,51.22 274.28,50.47 275.41,49.74 276.55,49.02 277.68,48.32 278.82,47.63 279.95,46.95 281.09,46.29 282.22,45.64 283.36,45.01 284.49,44.39 285.63,43.78 ' style='stroke-width: 2.77; stroke: #1B9E77; stroke-linecap: butt;' clip-path='url(#cpNDguNDU1OHwyOTYuOTIxfDI1My43NXwyMy4xNzk4)' />
<g clip-path='url(#cpNDguNDU1OHwyOTYuOTIxfDI1My43NXwyMy4xNzk4)'><text x='64.11' y='148.39' style='font-size: 8.54px; font-style: italic; font-family: Arial;' textLength='60.01px' lengthAdjust='spacingAndGlyphs'>R^2 sch= 0.98 </text></g>
<g clip-path='url(#cpNDguNDU1OHwyOTYuOTIxfDI1My43NXwyMy4xNzk4)'><text x='64.11' y='160.68' style='font-size: 8.54px; font-style: italic; font-family: Arial;' textLength='55.29px' lengthAdjust='spacingAndGlyphs'>E sch= 0.587 </text></g>
<g clip-path='url(#cpNDguNDU1OHwyOTYuOTIxfDI1My43NXwyMy4xNzk4)'><text x='64.11' y='172.97' style='font-size: 8.54px; font-style: italic; font-family: Arial;' textLength='59.78px' lengthAdjust='spacingAndGlyphs'>AIC sch= -9.19</text></g>
<rect x='48.46' y='23.18' width='248.46' height='230.57' style='stroke-width: 1.07; stroke: #333333;' clip-path='url(#cpNDguNDU1OHwyOTYuOTIxfDI1My43NXwyMy4xNzk4)' />
<defs>
  <clipPath id='cpMHwzMDIuNHwyODh8MA=='>
    <rect x='0.00' y='0.00' width='302.40' height='288.00' />
  </clipPath>
</defs>
<g clip-path='url(#cpMHwzMDIuNHwyODh8MA==)'><text x='20.51' y='179.35' style='font-size: 8.80px; fill: #4D4D4D; font-family: Arial;' textLength='23.02px' lengthAdjust='spacingAndGlyphs'>1e-05</text></g>
<g clip-path='url(#cpMHwzMDIuNHwyODh8MA==)'><text x='20.51' y='90.36' style='font-size: 8.80px; fill: #4D4D4D; font-family: Arial;' textLength='23.02px' lengthAdjust='spacingAndGlyphs'>2e-05</text></g>
<polyline points='45.72,176.13 48.46,176.13 ' style='stroke-width: 1.07; stroke: #333333; stroke-linecap: butt;' clip-path='url(#cpMHwzMDIuNHwyODh8MA==)' />
<polyline points='45.72,87.14 48.46,87.14 ' style='stroke-width: 1.07; stroke: #333333; stroke-linecap: butt;' clip-path='url(#cpMHwzMDIuNHwyODh8MA==)' />
<polyline points='65.28,256.49 65.28,253.75 ' style='stroke-width: 1.07; stroke: #333333; stroke-linecap: butt;' clip-path='url(#cpMHwzMDIuNHwyODh8MA==)' />
<polyline points='113.34,256.49 113.34,253.75 ' style='stroke-width: 1.07; stroke: #333333; stroke-linecap: butt;' clip-path='url(#cpMHwzMDIuNHwyODh8MA==)' />
<polyline points='161.39,256.49 161.39,253.75 ' style='stroke-width: 1.07; stroke: #333333; stroke-linecap: butt;' clip-path='url(#cpMHwzMDIuNHwyODh8MA==)' />
<polyline points='209.45,256.49 209.45,253.75 ' style='stroke-width: 1.07; stroke: #333333; stroke-linecap: butt;' clip-path='url(#cpMHwzMDIuNHwyODh8MA==)' />
<polyline points='257.51,256.49 257.51,253.75 ' style='stroke-width: 1.07; stroke: #333333; stroke-linecap: butt;' clip-path='url(#cpMHwzMDIuNHwyODh8MA==)' />
<g clip-path='url(#cpMHwzMDIuNHwyODh8MA==)'><text x='60.27' y='265.12' style='font-size: 8.80px; fill: #4D4D4D; font-family: Arial;' textLength='10.01px' lengthAdjust='spacingAndGlyphs'>10</text></g>
<g clip-path='url(#cpMHwzMDIuNHwyODh8MA==)'><text x='108.33' y='265.12' style='font-size: 8.80px; fill: #4D4D4D; font-family: Arial;' textLength='10.01px' lengthAdjust='spacingAndGlyphs'>20</text></g>
<g clip-path='url(#cpMHwzMDIuNHwyODh8MA==)'><text x='156.39' y='265.12' style='font-size: 8.80px; fill: #4D4D4D; font-family: Arial;' textLength='10.01px' lengthAdjust='spacingAndGlyphs'>30</text></g>
<g clip-path='url(#cpMHwzMDIuNHwyODh8MA==)'><text x='204.45' y='265.12' style='font-size: 8.80px; fill: #4D4D4D; font-family: Arial;' textLength='10.01px' lengthAdjust='spacingAndGlyphs'>40</text></g>
<g clip-path='url(#cpMHwzMDIuNHwyODh8MA==)'><text x='252.51' y='265.12' style='font-size: 8.80px; fill: #4D4D4D; font-family: Arial;' textLength='10.01px' lengthAdjust='spacingAndGlyphs'>50</text></g>
<g clip-path='url(#cpMHwzMDIuNHwyODh8MA==)'><text x='133.74' y='277.88' style='font-size: 10.00px; font-family: Arial;' textLength='63.35px' lengthAdjust='spacingAndGlyphs'>Temperature (</text></g>
<g clip-path='url(#cpMHwzMDIuNHwyODh8MA==)'><text x='197.09' y='277.88' style='font-size: 10.00px; font-family: Symbol;' textLength='4.00px' lengthAdjust='spacingAndGlyphs'>°</text></g>
<g clip-path='url(#cpMHwzMDIuNHwyODh8MA==)'><text x='201.09' y='277.88' style='font-size: 10.00px; font-family: Arial;' textLength='7.22px' lengthAdjust='spacingAndGlyphs'>C</text></g>
<g clip-path='url(#cpMHwzMDIuNHwyODh8MA==)'><text x='208.31' y='277.88' style='font-size: 10.00px; font-family: Arial;' textLength='3.33px' lengthAdjust='spacingAndGlyphs'>)</text></g>
<g clip-path='url(#cpMHwzMDIuNHwyODh8MA==)'><text transform='translate(12.64,171.81) rotate(-90)' style='font-size: 10.00px; font-family: Arial;' textLength='66.70px' lengthAdjust='spacingAndGlyphs'>respiration rate</text></g>
<g clip-path='url(#cpMHwzMDIuNHwyODh8MA==)'><text x='48.46' y='14.07' style='font-size: 12.00px; font-family: Arial;' textLength='145.42px' lengthAdjust='spacingAndGlyphs'>Calopogonium mucunoides</text></g>
</svg>
