<?xml version='1.0' encoding='UTF-8' ?>
<svg xmlns='http://www.w3.org/2000/svg' xmlns:xlink='http://www.w3.org/1999/xlink' viewBox='0 0 302.40 288.00'>
<defs>
  <style type='text/css'><![CDATA[
    line, polyline, path, rect, circle {
      fill: none;
      stroke: #000000;
      stroke-linecap: round;
      stroke-linejoin: round;
      stroke-miterlimit: 10.00;
    }
  ]]></style>
</defs>
<rect width='100%' height='100%' style='stroke: none; fill: #FFFFFF;'/>
<rect x='0.00' y='0.00' width='302.40' height='288.00' style='stroke-width: 1.07; stroke: #FFFFFF; fill: #FFFFFF;' />
<defs>
  <clipPath id='cpNDguNTk2NXwyOTYuOTIxfDI1My43NXwyMy4xNzk4'>
    <rect x='48.60' y='23.18' width='248.32' height='230.57' />
  </clipPath>
</defs>
<rect x='48.60' y='23.18' width='248.32' height='230.57' style='stroke-width: 1.07; stroke: none; fill: #FFFFFF;' clip-path='url(#cpNDguNTk2NXwyOTYuOTIxfDI1My43NXwyMy4xNzk4)' />
<polyline points='48.60,189.55 296.92,189.55 ' style='stroke-width: 0.53; stroke: #EBEBEB; stroke-linecap: butt;' clip-path='url(#cpNDguNTk2NXwyOTYuOTIxfDI1My43NXwyMy4xNzk4)' />
<polyline points='48.60,124.23 296.92,124.23 ' style='stroke-width: 0.53; stroke: #EBEBEB; stroke-linecap: butt;' clip-path='url(#cpNDguNTk2NXwyOTYuOTIxfDI1My43NXwyMy4xNzk4)' />
<polyline points='48.60,58.90 296.92,58.90 ' style='stroke-width: 0.53; stroke: #EBEBEB; stroke-linecap: butt;' clip-path='url(#cpNDguNTk2NXwyOTYuOTIxfDI1My43NXwyMy4xNzk4)' />
<polyline points='53.49,253.75 53.49,23.18 ' style='stroke-width: 0.53; stroke: #EBEBEB; stroke-linecap: butt;' clip-path='url(#cpNDguNTk2NXwyOTYuOTIxfDI1My43NXwyMy4xNzk4)' />
<polyline points='128.74,253.75 128.74,23.18 ' style='stroke-width: 0.53; stroke: #EBEBEB; stroke-linecap: butt;' clip-path='url(#cpNDguNTk2NXwyOTYuOTIxfDI1My43NXwyMy4xNzk4)' />
<polyline points='203.99,253.75 203.99,23.18 ' style='stroke-width: 0.53; stroke: #EBEBEB; stroke-linecap: butt;' clip-path='url(#cpNDguNTk2NXwyOTYuOTIxfDI1My43NXwyMy4xNzk4)' />
<polyline points='279.24,253.75 279.24,23.18 ' style='stroke-width: 0.53; stroke: #EBEBEB; stroke-linecap: butt;' clip-path='url(#cpNDguNTk2NXwyOTYuOTIxfDI1My43NXwyMy4xNzk4)' />
<polyline points='48.60,222.22 296.92,222.22 ' style='stroke-width: 1.07; stroke: #EBEBEB; stroke-linecap: butt;' clip-path='url(#cpNDguNTk2NXwyOTYuOTIxfDI1My43NXwyMy4xNzk4)' />
<polyline points='48.60,156.89 296.92,156.89 ' style='stroke-width: 1.07; stroke: #EBEBEB; stroke-linecap: butt;' clip-path='url(#cpNDguNTk2NXwyOTYuOTIxfDI1My43NXwyMy4xNzk4)' />
<polyline points='48.60,91.56 296.92,91.56 ' style='stroke-width: 1.07; stroke: #EBEBEB; stroke-linecap: butt;' clip-path='url(#cpNDguNTk2NXwyOTYuOTIxfDI1My43NXwyMy4xNzk4)' />
<polyline points='48.60,26.23 296.92,26.23 ' style='stroke-width: 1.07; stroke: #EBEBEB; stroke-linecap: butt;' clip-path='url(#cpNDguNTk2NXwyOTYuOTIxfDI1My43NXwyMy4xNzk4)' />
<polyline points='91.11,253.75 91.11,23.18 ' style='stroke-width: 1.07; stroke: #EBEBEB; stroke-linecap: butt;' clip-path='url(#cpNDguNTk2NXwyOTYuOTIxfDI1My43NXwyMy4xNzk4)' />
<polyline points='166.36,253.75 166.36,23.18 ' style='stroke-width: 1.07; stroke: #EBEBEB; stroke-linecap: butt;' clip-path='url(#cpNDguNTk2NXwyOTYuOTIxfDI1My43NXwyMy4xNzk4)' />
<polyline points='241.61,253.75 241.61,23.18 ' style='stroke-width: 1.07; stroke: #EBEBEB; stroke-linecap: butt;' clip-path='url(#cpNDguNTk2NXwyOTYuOTIxfDI1My43NXwyMy4xNzk4)' />
<circle cx='61.01' cy='241.84' r='3.56pt' style='stroke-width: 0.71; stroke: #000000; stroke-opacity: 0.70; fill: #D1EEEE; fill-opacity: 0.70;' clip-path='url(#cpNDguNTk2NXwyOTYuOTIxfDI1My43NXwyMy4xNzk4)' />
<circle cx='91.11' cy='193.77' r='3.56pt' style='stroke-width: 0.71; stroke: #000000; stroke-opacity: 0.70; fill: #D1EEEE; fill-opacity: 0.70;' clip-path='url(#cpNDguNTk2NXwyOTYuOTIxfDI1My43NXwyMy4xNzk4)' />
<circle cx='121.21' cy='131.71' r='3.56pt' style='stroke-width: 0.71; stroke: #000000; stroke-opacity: 0.70; fill: #D1EEEE; fill-opacity: 0.70;' clip-path='url(#cpNDguNTk2NXwyOTYuOTIxfDI1My43NXwyMy4xNzk4)' />
<circle cx='136.26' cy='57.96' r='3.56pt' style='stroke-width: 0.71; stroke: #000000; stroke-opacity: 0.70; fill: #D1EEEE; fill-opacity: 0.70;' clip-path='url(#cpNDguNTk2NXwyOTYuOTIxfDI1My43NXwyMy4xNzk4)' />
<circle cx='158.84' cy='63.71' r='3.56pt' style='stroke-width: 0.71; stroke: #000000; stroke-opacity: 0.70; fill: #D1EEEE; fill-opacity: 0.70;' clip-path='url(#cpNDguNTk2NXwyOTYuOTIxfDI1My43NXwyMy4xNzk4)' />
<circle cx='166.36' cy='39.36' r='3.56pt' style='stroke-width: 0.71; stroke: #000000; stroke-opacity: 0.70; fill: #D1EEEE; fill-opacity: 0.70;' clip-path='url(#cpNDguNTk2NXwyOTYuOTIxfDI1My43NXwyMy4xNzk4)' />
<circle cx='203.99' cy='39.84' r='3.56pt' style='stroke-width: 0.71; stroke: #000000; stroke-opacity: 0.70; fill: #D1EEEE; fill-opacity: 0.70;' clip-path='url(#cpNDguNTk2NXwyOTYuOTIxfDI1My43NXwyMy4xNzk4)' />
<circle cx='241.61' cy='86.73' r='3.56pt' style='stroke-width: 0.71; stroke: #000000; stroke-opacity: 0.70; fill: #D1EEEE; fill-opacity: 0.70;' clip-path='url(#cpNDguNTk2NXwyOTYuOTIxfDI1My43NXwyMy4xNzk4)' />
<circle cx='279.24' cy='131.41' r='3.56pt' style='stroke-width: 0.71; stroke: #000000; stroke-opacity: 0.70; fill: #D1EEEE; fill-opacity: 0.70;' clip-path='url(#cpNDguNTk2NXwyOTYuOTIxfDI1My43NXwyMy4xNzk4)' />
<polyline points='59.88,243.27 61.02,241.96 62.15,240.61 63.29,239.23 64.42,237.82 65.56,236.37 66.69,234.88 67.82,233.36 68.96,231.80 70.09,230.21 71.23,228.57 72.36,226.90 73.50,225.19 74.63,223.45 75.77,221.66 76.90,219.84 78.03,217.97 79.17,216.07 80.30,214.12 81.44,212.14 82.57,210.11 83.71,208.05 84.84,205.95 85.98,203.80 87.11,201.62 88.24,199.40 89.38,197.14 90.51,194.84 91.65,192.50 92.78,190.12 93.92,187.71 95.05,185.26 96.19,182.78 97.32,180.26 98.45,177.71 99.59,175.12 100.72,172.50 101.86,169.85 102.99,167.17 104.13,164.47 105.26,161.74 106.40,158.98 107.53,156.20 108.66,153.40 109.80,150.58 110.93,147.74 112.07,144.88 113.20,142.02 114.34,139.14 115.47,136.25 116.60,133.36 117.74,130.46 118.87,127.56 120.01,124.66 121.14,121.76 122.28,118.88 123.41,116.00 124.55,113.13 125.68,110.27 126.81,107.44 127.95,104.62 129.08,101.83 130.22,99.06 131.35,96.32 132.49,93.61 133.62,90.94 134.76,88.30 135.89,85.71 137.02,83.15 138.16,80.65 139.29,78.18 140.43,75.77 141.56,73.41 142.70,71.11 143.83,68.86 144.97,66.67 146.10,64.54 147.23,62.48 148.37,60.48 149.50,58.54 150.64,56.67 151.77,54.88 152.91,53.15 154.04,51.49 155.18,49.91 156.31,48.40 157.44,46.96 158.58,45.59 159.71,44.31 160.85,43.09 161.98,41.95 163.12,40.89 164.25,39.90 165.38,38.99 166.52,38.15 167.65,37.39 168.79,36.70 169.92,36.08 171.06,35.54 172.19,35.06 173.33,34.66 174.46,34.33 175.59,34.06 176.73,33.86 177.86,33.73 179.00,33.66 180.13,33.66 181.27,33.72 182.40,33.84 183.54,34.01 184.67,34.25 185.80,34.54 186.94,34.89 188.07,35.28 189.21,35.73 190.34,36.23 191.48,36.78 192.61,37.38 193.75,38.01 194.88,38.70 196.01,39.42 197.15,40.18 198.28,40.99 199.42,41.83 200.55,42.70 201.69,43.61 202.82,44.55 203.95,45.52 205.09,46.52 206.22,47.55 207.36,48.61 208.49,49.69 209.63,50.80 210.76,51.93 211.90,53.08 213.03,54.25 214.16,55.43 215.30,56.64 216.43,57.87 217.57,59.10 218.70,60.36 219.84,61.63 220.97,62.91 222.11,64.20 223.24,65.50 224.37,66.81 225.51,68.13 226.64,69.46 227.78,70.80 228.91,72.14 230.05,73.49 231.18,74.84 232.32,76.20 233.45,77.56 234.58,78.93 235.72,80.29 236.85,81.66 237.99,83.03 239.12,84.40 240.26,85.77 241.39,87.14 242.53,88.51 243.66,89.88 244.79,91.25 245.93,92.61 247.06,93.97 248.20,95.33 249.33,96.69 250.47,98.04 251.60,99.39 252.73,100.74 253.87,102.08 255.00,103.41 256.14,104.74 257.27,106.07 258.41,107.39 259.54,108.70 260.68,110.01 261.81,111.32 262.94,112.61 264.08,113.90 265.21,115.19 266.35,116.47 267.48,117.74 268.62,119.00 269.75,120.26 270.89,121.51 272.02,122.75 273.15,123.99 274.29,125.21 275.42,126.43 276.56,127.65 277.69,128.85 278.83,130.05 279.96,131.24 281.10,132.42 282.23,133.60 283.36,134.76 284.50,135.92 285.63,137.07 ' style='stroke-width: 2.77; stroke: #1B9E77; stroke-linecap: butt;' clip-path='url(#cpNDguNTk2NXwyOTYuOTIxfDI1My43NXwyMy4xNzk4)' />
<g clip-path='url(#cpNDguNTk2NXwyOTYuOTIxfDI1My43NXwyMy4xNzk4)'><text x='61.01' y='100.52' style='font-size: 8.54px; font-style: italic; font-family: Arial;' textLength='60.01px' lengthAdjust='spacingAndGlyphs'>R^2 sch= 0.97 </text></g>
<g clip-path='url(#cpNDguNTk2NXwyOTYuOTIxfDI1My43NXwyMy4xNzk4)'><text x='61.01' y='112.81' style='font-size: 8.54px; font-style: italic; font-family: Arial;' textLength='50.28px' lengthAdjust='spacingAndGlyphs'>E sch= 1.39 </text></g>
<g clip-path='url(#cpNDguNTk2NXwyOTYuOTIxfDI1My43NXwyMy4xNzk4)'><text x='61.01' y='125.10' style='font-size: 8.54px; font-style: italic; font-family: Arial;' textLength='52.27px' lengthAdjust='spacingAndGlyphs'>AIC sch= -17</text></g>
<rect x='48.60' y='23.18' width='248.32' height='230.57' style='stroke-width: 1.07; stroke: #333333;' clip-path='url(#cpNDguNTk2NXwyOTYuOTIxfDI1My43NXwyMy4xNzk4)' />
<defs>
  <clipPath id='cpMHwzMDIuNHwyODh8MA=='>
    <rect x='0.00' y='0.00' width='302.40' height='288.00' />
  </clipPath>
</defs>
<g clip-path='url(#cpMHwzMDIuNHwyODh8MA==)'><text x='20.65' y='225.44' style='font-size: 8.80px; fill: #4D4D4D; font-family: Arial;' textLength='23.02px' lengthAdjust='spacingAndGlyphs'>1e-06</text></g>
<g clip-path='url(#cpMHwzMDIuNHwyODh8MA==)'><text x='20.65' y='160.11' style='font-size: 8.80px; fill: #4D4D4D; font-family: Arial;' textLength='23.02px' lengthAdjust='spacingAndGlyphs'>2e-06</text></g>
<g clip-path='url(#cpMHwzMDIuNHwyODh8MA==)'><text x='20.65' y='94.78' style='font-size: 8.80px; fill: #4D4D4D; font-family: Arial;' textLength='23.02px' lengthAdjust='spacingAndGlyphs'>3e-06</text></g>
<g clip-path='url(#cpMHwzMDIuNHwyODh8MA==)'><text x='20.65' y='29.45' style='font-size: 8.80px; fill: #4D4D4D; font-family: Arial;' textLength='23.02px' lengthAdjust='spacingAndGlyphs'>4e-06</text></g>
<polyline points='45.86,222.22 48.60,222.22 ' style='stroke-width: 1.07; stroke: #333333; stroke-linecap: butt;' clip-path='url(#cpMHwzMDIuNHwyODh8MA==)' />
<polyline points='45.86,156.89 48.60,156.89 ' style='stroke-width: 1.07; stroke: #333333; stroke-linecap: butt;' clip-path='url(#cpMHwzMDIuNHwyODh8MA==)' />
<polyline points='45.86,91.56 48.60,91.56 ' style='stroke-width: 1.07; stroke: #333333; stroke-linecap: butt;' clip-path='url(#cpMHwzMDIuNHwyODh8MA==)' />
<polyline points='45.86,26.23 48.60,26.23 ' style='stroke-width: 1.07; stroke: #333333; stroke-linecap: butt;' clip-path='url(#cpMHwzMDIuNHwyODh8MA==)' />
<polyline points='91.11,256.49 91.11,253.75 ' style='stroke-width: 1.07; stroke: #333333; stroke-linecap: butt;' clip-path='url(#cpMHwzMDIuNHwyODh8MA==)' />
<polyline points='166.36,256.49 166.36,253.75 ' style='stroke-width: 1.07; stroke: #333333; stroke-linecap: butt;' clip-path='url(#cpMHwzMDIuNHwyODh8MA==)' />
<polyline points='241.61,256.49 241.61,253.75 ' style='stroke-width: 1.07; stroke: #333333; stroke-linecap: butt;' clip-path='url(#cpMHwzMDIuNHwyODh8MA==)' />
<g clip-path='url(#cpMHwzMDIuNHwyODh8MA==)'><text x='86.11' y='265.12' style='font-size: 8.80px; fill: #4D4D4D; font-family: Arial;' textLength='10.01px' lengthAdjust='spacingAndGlyphs'>10</text></g>
<g clip-path='url(#cpMHwzMDIuNHwyODh8MA==)'><text x='161.36' y='265.12' style='font-size: 8.80px; fill: #4D4D4D; font-family: Arial;' textLength='10.01px' lengthAdjust='spacingAndGlyphs'>20</text></g>
<g clip-path='url(#cpMHwzMDIuNHwyODh8MA==)'><text x='236.61' y='265.12' style='font-size: 8.80px; fill: #4D4D4D; font-family: Arial;' textLength='10.01px' lengthAdjust='spacingAndGlyphs'>30</text></g>
<g clip-path='url(#cpMHwzMDIuNHwyODh8MA==)'><text x='133.81' y='277.88' style='font-size: 10.00px; font-family: Arial;' textLength='63.35px' lengthAdjust='spacingAndGlyphs'>Temperature (</text></g>
<g clip-path='url(#cpMHwzMDIuNHwyODh8MA==)'><text x='197.16' y='277.88' style='font-size: 10.00px; font-family: Symbol;' textLength='4.00px' lengthAdjust='spacingAndGlyphs'>°</text></g>
<g clip-path='url(#cpMHwzMDIuNHwyODh8MA==)'><text x='201.16' y='277.88' style='font-size: 10.00px; font-family: Arial;' textLength='7.22px' lengthAdjust='spacingAndGlyphs'>C</text></g>
<g clip-path='url(#cpMHwzMDIuNHwyODh8MA==)'><text x='208.38' y='277.88' style='font-size: 10.00px; font-family: Arial;' textLength='3.33px' lengthAdjust='spacingAndGlyphs'>)</text></g>
<g clip-path='url(#cpMHwzMDIuNHwyODh8MA==)'><text transform='translate(12.64,180.16) rotate(-90)' style='font-size: 10.00px; font-family: Arial;' textLength='83.39px' lengthAdjust='spacingAndGlyphs'>net photosynthesis</text></g>
<g clip-path='url(#cpMHwzMDIuNHwyODh8MA==)'><text x='48.60' y='14.07' style='font-size: 12.00px; font-family: Arial;' textLength='102.71px' lengthAdjust='spacingAndGlyphs'>Aplectrum hyemale</text></g>
</svg>
