<?xml version='1.0' encoding='UTF-8' ?>
<svg xmlns='http://www.w3.org/2000/svg' xmlns:xlink='http://www.w3.org/1999/xlink' viewBox='0 0 302.40 288.00'>
<defs>
  <style type='text/css'><![CDATA[
    line, polyline, path, rect, circle {
      fill: none;
      stroke: #000000;
      stroke-linecap: round;
      stroke-linejoin: round;
      stroke-miterlimit: 10.00;
    }
  ]]></style>
</defs>
<rect width='100%' height='100%' style='stroke: none; fill: #FFFFFF;'/>
<rect x='0.00' y='0.00' width='302.40' height='288.00' style='stroke-width: 1.07; stroke: #FFFFFF; fill: #FFFFFF;' />
<defs>
  <clipPath id='cpNjAuOTY3MXwyOTYuOTIxfDI1My43NXwyMy4xNzk4'>
    <rect x='60.97' y='23.18' width='235.95' height='230.57' />
  </clipPath>
</defs>
<rect x='60.97' y='23.18' width='235.95' height='230.57' style='stroke-width: 1.07; stroke: none; fill: #FFFFFF;' clip-path='url(#cpNjAuOTY3MXwyOTYuOTIxfDI1My43NXwyMy4xNzk4)' />
<polyline points='60.97,239.77 296.92,239.77 ' style='stroke-width: 0.53; stroke: #EBEBEB; stroke-linecap: butt;' clip-path='url(#cpNjAuOTY3MXwyOTYuOTIxfDI1My43NXwyMy4xNzk4)' />
<polyline points='60.97,190.65 296.92,190.65 ' style='stroke-width: 0.53; stroke: #EBEBEB; stroke-linecap: butt;' clip-path='url(#cpNjAuOTY3MXwyOTYuOTIxfDI1My43NXwyMy4xNzk4)' />
<polyline points='60.97,141.52 296.92,141.52 ' style='stroke-width: 0.53; stroke: #EBEBEB; stroke-linecap: butt;' clip-path='url(#cpNjAuOTY3MXwyOTYuOTIxfDI1My43NXwyMy4xNzk4)' />
<polyline points='60.97,92.40 296.92,92.40 ' style='stroke-width: 0.53; stroke: #EBEBEB; stroke-linecap: butt;' clip-path='url(#cpNjAuOTY3MXwyOTYuOTIxfDI1My43NXwyMy4xNzk4)' />
<polyline points='60.97,43.28 296.92,43.28 ' style='stroke-width: 0.53; stroke: #EBEBEB; stroke-linecap: butt;' clip-path='url(#cpNjAuOTY3MXwyOTYuOTIxfDI1My43NXwyMy4xNzk4)' />
<polyline points='98.76,253.75 98.76,23.18 ' style='stroke-width: 0.53; stroke: #EBEBEB; stroke-linecap: butt;' clip-path='url(#cpNjAuOTY3MXwyOTYuOTIxfDI1My43NXwyMy4xNzk4)' />
<polyline points='149.83,253.75 149.83,23.18 ' style='stroke-width: 0.53; stroke: #EBEBEB; stroke-linecap: butt;' clip-path='url(#cpNjAuOTY3MXwyOTYuOTIxfDI1My43NXwyMy4xNzk4)' />
<polyline points='200.90,253.75 200.90,23.18 ' style='stroke-width: 0.53; stroke: #EBEBEB; stroke-linecap: butt;' clip-path='url(#cpNjAuOTY3MXwyOTYuOTIxfDI1My43NXwyMy4xNzk4)' />
<polyline points='251.98,253.75 251.98,23.18 ' style='stroke-width: 0.53; stroke: #EBEBEB; stroke-linecap: butt;' clip-path='url(#cpNjAuOTY3MXwyOTYuOTIxfDI1My43NXwyMy4xNzk4)' />
<polyline points='60.97,215.21 296.92,215.21 ' style='stroke-width: 1.07; stroke: #EBEBEB; stroke-linecap: butt;' clip-path='url(#cpNjAuOTY3MXwyOTYuOTIxfDI1My43NXwyMy4xNzk4)' />
<polyline points='60.97,166.08 296.92,166.08 ' style='stroke-width: 1.07; stroke: #EBEBEB; stroke-linecap: butt;' clip-path='url(#cpNjAuOTY3MXwyOTYuOTIxfDI1My43NXwyMy4xNzk4)' />
<polyline points='60.97,116.96 296.92,116.96 ' style='stroke-width: 1.07; stroke: #EBEBEB; stroke-linecap: butt;' clip-path='url(#cpNjAuOTY3MXwyOTYuOTIxfDI1My43NXwyMy4xNzk4)' />
<polyline points='60.97,67.84 296.92,67.84 ' style='stroke-width: 1.07; stroke: #EBEBEB; stroke-linecap: butt;' clip-path='url(#cpNjAuOTY3MXwyOTYuOTIxfDI1My43NXwyMy4xNzk4)' />
<polyline points='73.22,253.75 73.22,23.18 ' style='stroke-width: 1.07; stroke: #EBEBEB; stroke-linecap: butt;' clip-path='url(#cpNjAuOTY3MXwyOTYuOTIxfDI1My43NXwyMy4xNzk4)' />
<polyline points='124.30,253.75 124.30,23.18 ' style='stroke-width: 1.07; stroke: #EBEBEB; stroke-linecap: butt;' clip-path='url(#cpNjAuOTY3MXwyOTYuOTIxfDI1My43NXwyMy4xNzk4)' />
<polyline points='175.37,253.75 175.37,23.18 ' style='stroke-width: 1.07; stroke: #EBEBEB; stroke-linecap: butt;' clip-path='url(#cpNjAuOTY3MXwyOTYuOTIxfDI1My43NXwyMy4xNzk4)' />
<polyline points='226.44,253.75 226.44,23.18 ' style='stroke-width: 1.07; stroke: #EBEBEB; stroke-linecap: butt;' clip-path='url(#cpNjAuOTY3MXwyOTYuOTIxfDI1My43NXwyMy4xNzk4)' />
<polyline points='277.51,253.75 277.51,23.18 ' style='stroke-width: 1.07; stroke: #EBEBEB; stroke-linecap: butt;' clip-path='url(#cpNjAuOTY3MXwyOTYuOTIxfDI1My43NXwyMy4xNzk4)' />
<circle cx='73.22' cy='237.98' r='3.56pt' style='stroke-width: 0.71; stroke: #000000; stroke-opacity: 0.70; fill: #D1EEEE; fill-opacity: 0.70;' clip-path='url(#cpNjAuOTY3MXwyOTYuOTIxfDI1My43NXwyMy4xNzk4)' />
<circle cx='124.30' cy='212.27' r='3.56pt' style='stroke-width: 0.71; stroke: #000000; stroke-opacity: 0.70; fill: #D1EEEE; fill-opacity: 0.70;' clip-path='url(#cpNjAuOTY3MXwyOTYuOTIxfDI1My43NXwyMy4xNzk4)' />
<circle cx='175.37' cy='167.70' r='3.56pt' style='stroke-width: 0.71; stroke: #000000; stroke-opacity: 0.70; fill: #D1EEEE; fill-opacity: 0.70;' clip-path='url(#cpNjAuOTY3MXwyOTYuOTIxfDI1My43NXwyMy4xNzk4)' />
<circle cx='226.44' cy='115.58' r='3.56pt' style='stroke-width: 0.71; stroke: #000000; stroke-opacity: 0.70; fill: #D1EEEE; fill-opacity: 0.70;' clip-path='url(#cpNjAuOTY3MXwyOTYuOTIxfDI1My43NXwyMy4xNzk4)' />
<circle cx='277.51' cy='36.10' r='3.56pt' style='stroke-width: 0.71; stroke: #000000; stroke-opacity: 0.70; fill: #D1EEEE; fill-opacity: 0.70;' clip-path='url(#cpNjAuOTY3MXwyOTYuOTIxfDI1My43NXwyMy4xNzk4)' />
<polyline points='71.69,243.27 72.77,242.62 73.85,241.96 74.93,241.30 76.00,240.64 77.08,239.97 78.16,239.30 79.24,238.63 80.32,237.95 81.39,237.27 82.47,236.59 83.55,235.90 84.63,235.22 85.70,234.52 86.78,233.83 87.86,233.13 88.94,232.43 90.02,231.72 91.09,231.02 92.17,230.30 93.25,229.59 94.33,228.87 95.41,228.15 96.48,227.42 97.56,226.70 98.64,225.96 99.72,225.23 100.80,224.49 101.87,223.75 102.95,223.00 104.03,222.25 105.11,221.50 106.19,220.75 107.26,219.99 108.34,219.22 109.42,218.46 110.50,217.69 111.57,216.91 112.65,216.14 113.73,215.36 114.81,214.57 115.89,213.78 116.96,212.99 118.04,212.20 119.12,211.40 120.20,210.60 121.28,209.79 122.35,208.98 123.43,208.17 124.51,207.35 125.59,206.53 126.67,205.70 127.74,204.88 128.82,204.04 129.90,203.21 130.98,202.37 132.05,201.52 133.13,200.68 134.21,199.83 135.29,198.97 136.37,198.11 137.44,197.25 138.52,196.38 139.60,195.51 140.68,194.64 141.76,193.76 142.83,192.88 143.91,191.99 144.99,191.10 146.07,190.20 147.15,189.31 148.22,188.40 149.30,187.50 150.38,186.59 151.46,185.67 152.54,184.75 153.61,183.83 154.69,182.90 155.77,181.97 156.85,181.03 157.92,180.10 159.00,179.15 160.08,178.20 161.16,177.25 162.24,176.29 163.31,175.33 164.39,174.37 165.47,173.40 166.55,172.43 167.63,171.45 168.70,170.47 169.78,169.48 170.86,168.49 171.94,167.49 173.02,166.49 174.09,165.49 175.17,164.48 176.25,163.47 177.33,162.45 178.40,161.43 179.48,160.40 180.56,159.37 181.64,158.34 182.72,157.30 183.79,156.25 184.87,155.20 185.95,154.15 187.03,153.09 188.11,152.03 189.18,150.96 190.26,149.89 191.34,148.81 192.42,147.73 193.50,146.64 194.57,145.55 195.65,144.46 196.73,143.36 197.81,142.25 198.89,141.14 199.96,140.03 201.04,138.91 202.12,137.78 203.20,136.65 204.27,135.52 205.35,134.38 206.43,133.23 207.51,132.09 208.59,130.93 209.66,129.77 210.74,128.61 211.82,127.44 212.90,126.27 213.98,125.09 215.05,123.90 216.13,122.71 217.21,121.52 218.29,120.32 219.37,119.12 220.44,117.91 221.52,116.69 222.60,115.47 223.68,114.25 224.75,113.02 225.83,111.78 226.91,110.54 227.99,109.29 229.07,108.04 230.14,106.79 231.22,105.53 232.30,104.26 233.38,102.99 234.46,101.71 235.53,100.42 236.61,99.14 237.69,97.84 238.77,96.54 239.85,95.24 240.92,93.93 242.00,92.61 243.08,91.29 244.16,89.96 245.23,88.63 246.31,87.29 247.39,85.94 248.47,84.60 249.55,83.24 250.62,81.88 251.70,80.51 252.78,79.14 253.86,77.76 254.94,76.38 256.01,74.99 257.09,73.59 258.17,72.19 259.25,70.79 260.33,69.37 261.40,67.95 262.48,66.53 263.56,65.10 264.64,63.66 265.72,62.22 266.79,60.77 267.87,59.32 268.95,57.86 270.03,56.39 271.10,54.92 272.18,53.44 273.26,51.96 274.34,50.47 275.42,48.97 276.49,47.47 277.57,45.96 278.65,44.44 279.73,42.92 280.81,41.39 281.88,39.86 282.96,38.32 284.04,36.77 285.12,35.22 286.20,33.66 ' style='stroke-width: 2.77; stroke: #1B9E77; stroke-linecap: butt;' clip-path='url(#cpNjAuOTY3MXwyOTYuOTIxfDI1My43NXwyMy4xNzk4)' />
<g clip-path='url(#cpNjAuOTY3MXwyOTYuOTIxfDI1My43NXwyMy4xNzk4)'><text x='73.22' y='144.85' style='font-size: 8.54px; font-style: italic; font-family: Arial;' textLength='60.01px' lengthAdjust='spacingAndGlyphs'>R^2 sch= 0.99 </text></g>
<g clip-path='url(#cpNjAuOTY3MXwyOTYuOTIxfDI1My43NXwyMy4xNzk4)'><text x='73.22' y='157.15' style='font-size: 8.54px; font-style: italic; font-family: Arial;' textLength='50.28px' lengthAdjust='spacingAndGlyphs'>E sch= 0.37 </text></g>
<g clip-path='url(#cpNjAuOTY3MXwyOTYuOTIxfDI1My43NXwyMy4xNzk4)'><text x='73.22' y='169.44' style='font-size: 8.54px; font-style: italic; font-family: Arial;' textLength='59.78px' lengthAdjust='spacingAndGlyphs'>AIC sch= -11.7</text></g>
<rect x='60.97' y='23.18' width='235.95' height='230.57' style='stroke-width: 1.07; stroke: #333333;' clip-path='url(#cpNjAuOTY3MXwyOTYuOTIxfDI1My43NXwyMy4xNzk4)' />
<defs>
  <clipPath id='cpMHwzMDIuNHwyODh8MA=='>
    <rect x='0.00' y='0.00' width='302.40' height='288.00' />
  </clipPath>
</defs>
<g clip-path='url(#cpMHwzMDIuNHwyODh8MA==)'><text x='20.51' y='218.43' style='font-size: 8.80px; fill: #4D4D4D; font-family: Arial;' textLength='35.53px' lengthAdjust='spacingAndGlyphs'>7.50e-06</text></g>
<g clip-path='url(#cpMHwzMDIuNHwyODh8MA==)'><text x='20.51' y='169.30' style='font-size: 8.80px; fill: #4D4D4D; font-family: Arial;' textLength='35.53px' lengthAdjust='spacingAndGlyphs'>1.00e-05</text></g>
<g clip-path='url(#cpMHwzMDIuNHwyODh8MA==)'><text x='20.51' y='120.18' style='font-size: 8.80px; fill: #4D4D4D; font-family: Arial;' textLength='35.53px' lengthAdjust='spacingAndGlyphs'>1.25e-05</text></g>
<g clip-path='url(#cpMHwzMDIuNHwyODh8MA==)'><text x='20.51' y='71.06' style='font-size: 8.80px; fill: #4D4D4D; font-family: Arial;' textLength='35.53px' lengthAdjust='spacingAndGlyphs'>1.50e-05</text></g>
<polyline points='58.23,215.21 60.97,215.21 ' style='stroke-width: 1.07; stroke: #333333; stroke-linecap: butt;' clip-path='url(#cpMHwzMDIuNHwyODh8MA==)' />
<polyline points='58.23,166.08 60.97,166.08 ' style='stroke-width: 1.07; stroke: #333333; stroke-linecap: butt;' clip-path='url(#cpMHwzMDIuNHwyODh8MA==)' />
<polyline points='58.23,116.96 60.97,116.96 ' style='stroke-width: 1.07; stroke: #333333; stroke-linecap: butt;' clip-path='url(#cpMHwzMDIuNHwyODh8MA==)' />
<polyline points='58.23,67.84 60.97,67.84 ' style='stroke-width: 1.07; stroke: #333333; stroke-linecap: butt;' clip-path='url(#cpMHwzMDIuNHwyODh8MA==)' />
<polyline points='73.22,256.49 73.22,253.75 ' style='stroke-width: 1.07; stroke: #333333; stroke-linecap: butt;' clip-path='url(#cpMHwzMDIuNHwyODh8MA==)' />
<polyline points='124.30,256.49 124.30,253.75 ' style='stroke-width: 1.07; stroke: #333333; stroke-linecap: butt;' clip-path='url(#cpMHwzMDIuNHwyODh8MA==)' />
<polyline points='175.37,256.49 175.37,253.75 ' style='stroke-width: 1.07; stroke: #333333; stroke-linecap: butt;' clip-path='url(#cpMHwzMDIuNHwyODh8MA==)' />
<polyline points='226.44,256.49 226.44,253.75 ' style='stroke-width: 1.07; stroke: #333333; stroke-linecap: butt;' clip-path='url(#cpMHwzMDIuNHwyODh8MA==)' />
<polyline points='277.51,256.49 277.51,253.75 ' style='stroke-width: 1.07; stroke: #333333; stroke-linecap: butt;' clip-path='url(#cpMHwzMDIuNHwyODh8MA==)' />
<g clip-path='url(#cpMHwzMDIuNHwyODh8MA==)'><text x='68.22' y='265.12' style='font-size: 8.80px; fill: #4D4D4D; font-family: Arial;' textLength='10.01px' lengthAdjust='spacingAndGlyphs'>15</text></g>
<g clip-path='url(#cpMHwzMDIuNHwyODh8MA==)'><text x='119.29' y='265.12' style='font-size: 8.80px; fill: #4D4D4D; font-family: Arial;' textLength='10.01px' lengthAdjust='spacingAndGlyphs'>20</text></g>
<g clip-path='url(#cpMHwzMDIuNHwyODh8MA==)'><text x='170.36' y='265.12' style='font-size: 8.80px; fill: #4D4D4D; font-family: Arial;' textLength='10.01px' lengthAdjust='spacingAndGlyphs'>25</text></g>
<g clip-path='url(#cpMHwzMDIuNHwyODh8MA==)'><text x='221.44' y='265.12' style='font-size: 8.80px; fill: #4D4D4D; font-family: Arial;' textLength='10.01px' lengthAdjust='spacingAndGlyphs'>30</text></g>
<g clip-path='url(#cpMHwzMDIuNHwyODh8MA==)'><text x='272.51' y='265.12' style='font-size: 8.80px; fill: #4D4D4D; font-family: Arial;' textLength='10.01px' lengthAdjust='spacingAndGlyphs'>35</text></g>
<g clip-path='url(#cpMHwzMDIuNHwyODh8MA==)'><text x='139.99' y='277.88' style='font-size: 10.00px; font-family: Arial;' textLength='63.35px' lengthAdjust='spacingAndGlyphs'>Temperature (</text></g>
<g clip-path='url(#cpMHwzMDIuNHwyODh8MA==)'><text x='203.35' y='277.88' style='font-size: 10.00px; font-family: Symbol;' textLength='4.00px' lengthAdjust='spacingAndGlyphs'>°</text></g>
<g clip-path='url(#cpMHwzMDIuNHwyODh8MA==)'><text x='207.35' y='277.88' style='font-size: 10.00px; font-family: Arial;' textLength='7.22px' lengthAdjust='spacingAndGlyphs'>C</text></g>
<g clip-path='url(#cpMHwzMDIuNHwyODh8MA==)'><text x='214.57' y='277.88' style='font-size: 10.00px; font-family: Arial;' textLength='3.33px' lengthAdjust='spacingAndGlyphs'>)</text></g>
<g clip-path='url(#cpMHwzMDIuNHwyODh8MA==)'><text transform='translate(12.64,171.81) rotate(-90)' style='font-size: 10.00px; font-family: Arial;' textLength='66.70px' lengthAdjust='spacingAndGlyphs'>respiration rate</text></g>
<g clip-path='url(#cpMHwzMDIuNHwyODh8MA==)'><text x='60.97' y='14.07' style='font-size: 12.00px; font-family: Arial;' textLength='118.74px' lengthAdjust='spacingAndGlyphs'>Ledum groenlandicum</text></g>
</svg>
