<?xml version='1.0' encoding='UTF-8' ?>
<svg xmlns='http://www.w3.org/2000/svg' xmlns:xlink='http://www.w3.org/1999/xlink' viewBox='0 0 302.40 288.00'>
<defs>
  <style type='text/css'><![CDATA[
    line, polyline, path, rect, circle {
      fill: none;
      stroke: #000000;
      stroke-linecap: round;
      stroke-linejoin: round;
      stroke-miterlimit: 10.00;
    }
  ]]></style>
</defs>
<rect width='100%' height='100%' style='stroke: none; fill: #FFFFFF;'/>
<rect x='0.00' y='0.00' width='302.40' height='288.00' style='stroke-width: 1.07; stroke: #FFFFFF; fill: #FFFFFF;' />
<defs>
  <clipPath id='cpNjMuMTE2fDI5Ni45MjF8MjUzLjc1fDIzLjE3OTg='>
    <rect x='63.12' y='23.18' width='233.80' height='230.57' />
  </clipPath>
</defs>
<rect x='63.12' y='23.18' width='233.80' height='230.57' style='stroke-width: 1.07; stroke: none; fill: #FFFFFF;' clip-path='url(#cpNjMuMTE2fDI5Ni45MjF8MjUzLjc1fDIzLjE3OTg=)' />
<polyline points='63.12,229.78 296.92,229.78 ' style='stroke-width: 0.53; stroke: #EBEBEB; stroke-linecap: butt;' clip-path='url(#cpNjMuMTE2fDI5Ni45MjF8MjUzLjc1fDIzLjE3OTg=)' />
<polyline points='63.12,173.30 296.92,173.30 ' style='stroke-width: 0.53; stroke: #EBEBEB; stroke-linecap: butt;' clip-path='url(#cpNjMuMTE2fDI5Ni45MjF8MjUzLjc1fDIzLjE3OTg=)' />
<polyline points='63.12,116.82 296.92,116.82 ' style='stroke-width: 0.53; stroke: #EBEBEB; stroke-linecap: butt;' clip-path='url(#cpNjMuMTE2fDI5Ni45MjF8MjUzLjc1fDIzLjE3OTg=)' />
<polyline points='63.12,60.34 296.92,60.34 ' style='stroke-width: 0.53; stroke: #EBEBEB; stroke-linecap: butt;' clip-path='url(#cpNjMuMTE2fDI5Ni45MjF8MjUzLjc1fDIzLjE3OTg=)' />
<polyline points='74.52,253.75 74.52,23.18 ' style='stroke-width: 0.53; stroke: #EBEBEB; stroke-linecap: butt;' clip-path='url(#cpNjMuMTE2fDI5Ni45MjF8MjUzLjc1fDIzLjE3OTg=)' />
<polyline points='126.36,253.75 126.36,23.18 ' style='stroke-width: 0.53; stroke: #EBEBEB; stroke-linecap: butt;' clip-path='url(#cpNjMuMTE2fDI5Ni45MjF8MjUzLjc1fDIzLjE3OTg=)' />
<polyline points='178.20,253.75 178.20,23.18 ' style='stroke-width: 0.53; stroke: #EBEBEB; stroke-linecap: butt;' clip-path='url(#cpNjMuMTE2fDI5Ni45MjF8MjUzLjc1fDIzLjE3OTg=)' />
<polyline points='230.05,253.75 230.05,23.18 ' style='stroke-width: 0.53; stroke: #EBEBEB; stroke-linecap: butt;' clip-path='url(#cpNjMuMTE2fDI5Ni45MjF8MjUzLjc1fDIzLjE3OTg=)' />
<polyline points='281.89,253.75 281.89,23.18 ' style='stroke-width: 0.53; stroke: #EBEBEB; stroke-linecap: butt;' clip-path='url(#cpNjMuMTE2fDI5Ni45MjF8MjUzLjc1fDIzLjE3OTg=)' />
<polyline points='63.12,201.54 296.92,201.54 ' style='stroke-width: 1.07; stroke: #EBEBEB; stroke-linecap: butt;' clip-path='url(#cpNjMuMTE2fDI5Ni45MjF8MjUzLjc1fDIzLjE3OTg=)' />
<polyline points='63.12,145.06 296.92,145.06 ' style='stroke-width: 1.07; stroke: #EBEBEB; stroke-linecap: butt;' clip-path='url(#cpNjMuMTE2fDI5Ni45MjF8MjUzLjc1fDIzLjE3OTg=)' />
<polyline points='63.12,88.58 296.92,88.58 ' style='stroke-width: 1.07; stroke: #EBEBEB; stroke-linecap: butt;' clip-path='url(#cpNjMuMTE2fDI5Ni45MjF8MjUzLjc1fDIzLjE3OTg=)' />
<polyline points='63.12,32.10 296.92,32.10 ' style='stroke-width: 1.07; stroke: #EBEBEB; stroke-linecap: butt;' clip-path='url(#cpNjMuMTE2fDI5Ni45MjF8MjUzLjc1fDIzLjE3OTg=)' />
<polyline points='100.44,253.75 100.44,23.18 ' style='stroke-width: 1.07; stroke: #EBEBEB; stroke-linecap: butt;' clip-path='url(#cpNjMuMTE2fDI5Ni45MjF8MjUzLjc1fDIzLjE3OTg=)' />
<polyline points='152.28,253.75 152.28,23.18 ' style='stroke-width: 1.07; stroke: #EBEBEB; stroke-linecap: butt;' clip-path='url(#cpNjMuMTE2fDI5Ni45MjF8MjUzLjc1fDIzLjE3OTg=)' />
<polyline points='204.12,253.75 204.12,23.18 ' style='stroke-width: 1.07; stroke: #EBEBEB; stroke-linecap: butt;' clip-path='url(#cpNjMuMTE2fDI5Ni45MjF8MjUzLjc1fDIzLjE3OTg=)' />
<polyline points='255.97,253.75 255.97,23.18 ' style='stroke-width: 1.07; stroke: #EBEBEB; stroke-linecap: butt;' clip-path='url(#cpNjMuMTE2fDI5Ni45MjF8MjUzLjc1fDIzLjE3OTg=)' />
<circle cx='74.52' cy='243.27' r='3.56pt' style='stroke-width: 0.71; stroke: #000000; stroke-opacity: 0.70; fill: #D1EEEE; fill-opacity: 0.70;' clip-path='url(#cpNjMuMTE2fDI5Ni45MjF8MjUzLjc1fDIzLjE3OTg=)' />
<circle cx='100.44' cy='181.08' r='3.56pt' style='stroke-width: 0.71; stroke: #000000; stroke-opacity: 0.70; fill: #D1EEEE; fill-opacity: 0.70;' clip-path='url(#cpNjMuMTE2fDI5Ni45MjF8MjUzLjc1fDIzLjE3OTg=)' />
<circle cx='126.36' cy='106.61' r='3.56pt' style='stroke-width: 0.71; stroke: #000000; stroke-opacity: 0.70; fill: #D1EEEE; fill-opacity: 0.70;' clip-path='url(#cpNjMuMTE2fDI5Ni45MjF8MjUzLjc1fDIzLjE3OTg=)' />
<circle cx='152.28' cy='74.19' r='3.56pt' style='stroke-width: 0.71; stroke: #000000; stroke-opacity: 0.70; fill: #D1EEEE; fill-opacity: 0.70;' clip-path='url(#cpNjMuMTE2fDI5Ni45MjF8MjUzLjc1fDIzLjE3OTg=)' />
<circle cx='178.20' cy='37.24' r='3.56pt' style='stroke-width: 0.71; stroke: #000000; stroke-opacity: 0.70; fill: #D1EEEE; fill-opacity: 0.70;' clip-path='url(#cpNjMuMTE2fDI5Ni45MjF8MjUzLjc1fDIzLjE3OTg=)' />
<circle cx='204.12' cy='54.63' r='3.56pt' style='stroke-width: 0.71; stroke: #000000; stroke-opacity: 0.70; fill: #D1EEEE; fill-opacity: 0.70;' clip-path='url(#cpNjMuMTE2fDI5Ni45MjF8MjUzLjc1fDIzLjE3OTg=)' />
<circle cx='230.05' cy='61.01' r='3.56pt' style='stroke-width: 0.71; stroke: #000000; stroke-opacity: 0.70; fill: #D1EEEE; fill-opacity: 0.70;' clip-path='url(#cpNjMuMTE2fDI5Ni45MjF8MjUzLjc1fDIzLjE3OTg=)' />
<circle cx='255.97' cy='133.38' r='3.56pt' style='stroke-width: 0.71; stroke: #000000; stroke-opacity: 0.70; fill: #D1EEEE; fill-opacity: 0.70;' clip-path='url(#cpNjMuMTE2fDI5Ni45MjF8MjUzLjc1fDIzLjE3OTg=)' />
<circle cx='281.89' cy='163.06' r='3.56pt' style='stroke-width: 0.71; stroke: #000000; stroke-opacity: 0.70; fill: #D1EEEE; fill-opacity: 0.70;' clip-path='url(#cpNjMuMTE2fDI5Ni45MjF8MjUzLjc1fDIzLjE3OTg=)' />
<polyline points='73.74,242.24 74.81,240.43 75.88,238.59 76.95,236.71 78.02,234.79 79.08,232.83 80.15,230.84 81.22,228.82 82.29,226.75 83.36,224.65 84.42,222.52 85.49,220.34 86.56,218.13 87.63,215.89 88.70,213.60 89.76,211.28 90.83,208.93 91.90,206.54 92.97,204.11 94.04,201.66 95.11,199.16 96.17,196.64 97.24,194.08 98.31,191.49 99.38,188.86 100.45,186.21 101.51,183.53 102.58,180.82 103.65,178.08 104.72,175.32 105.79,172.53 106.85,169.72 107.92,166.89 108.99,164.03 110.06,161.16 111.13,158.27 112.19,155.36 113.26,152.44 114.33,149.51 115.40,146.56 116.47,143.61 117.54,140.65 118.60,137.69 119.67,134.72 120.74,131.76 121.81,128.80 122.88,125.84 123.94,122.89 125.01,119.95 126.08,117.02 127.15,114.11 128.22,111.21 129.28,108.34 130.35,105.48 131.42,102.65 132.49,99.85 133.56,97.08 134.62,94.34 135.69,91.63 136.76,88.97 137.83,86.34 138.90,83.76 139.96,81.22 141.03,78.73 142.10,76.29 143.17,73.90 144.24,71.57 145.31,69.29 146.37,67.07 147.44,64.91 148.51,62.81 149.58,60.78 150.65,58.82 151.71,56.92 152.78,55.09 153.85,53.33 154.92,51.64 155.99,50.03 157.05,48.48 158.12,47.02 159.19,45.63 160.26,44.31 161.33,43.07 162.39,41.91 163.46,40.83 164.53,39.82 165.60,38.89 166.67,38.04 167.74,37.26 168.80,36.57 169.87,35.94 170.94,35.40 172.01,34.93 173.08,34.54 174.14,34.22 175.21,33.97 176.28,33.80 177.35,33.69 178.42,33.66 179.48,33.70 180.55,33.80 181.62,33.97 182.69,34.21 183.76,34.51 184.82,34.87 185.89,35.29 186.96,35.78 188.03,36.32 189.10,36.91 190.17,37.56 191.23,38.27 192.30,39.02 193.37,39.83 194.44,40.68 195.51,41.58 196.57,42.53 197.64,43.52 198.71,44.55 199.78,45.62 200.85,46.73 201.91,47.87 202.98,49.05 204.05,50.27 205.12,51.52 206.19,52.79 207.25,54.10 208.32,55.43 209.39,56.79 210.46,58.18 211.53,59.59 212.59,61.02 213.66,62.47 214.73,63.94 215.80,65.43 216.87,66.93 217.94,68.45 219.00,69.99 220.07,71.54 221.14,73.10 222.21,74.67 223.28,76.26 224.34,77.85 225.41,79.45 226.48,81.06 227.55,82.67 228.62,84.29 229.68,85.92 230.75,87.55 231.82,89.18 232.89,90.82 233.96,92.45 235.02,94.09 236.09,95.73 237.16,97.37 238.23,99.00 239.30,100.64 240.37,102.27 241.43,103.91 242.50,105.53 243.57,107.16 244.64,108.78 245.71,110.40 246.77,112.01 247.84,113.62 248.91,115.22 249.98,116.81 251.05,118.40 252.11,119.98 253.18,121.56 254.25,123.13 255.32,124.69 256.39,126.24 257.45,127.79 258.52,129.32 259.59,130.85 260.66,132.37 261.73,133.89 262.80,135.39 263.86,136.88 264.93,138.37 266.00,139.84 267.07,141.31 268.14,142.76 269.20,144.21 270.27,145.64 271.34,147.07 272.41,148.49 273.48,149.89 274.54,151.29 275.61,152.68 276.68,154.05 277.75,155.42 278.82,156.77 279.88,158.12 280.95,159.45 282.02,160.78 283.09,162.09 284.16,163.40 285.22,164.69 286.29,165.97 ' style='stroke-width: 2.77; stroke: #1B9E77; stroke-linecap: butt;' clip-path='url(#cpNjMuMTE2fDI5Ni45MjF8MjUzLjc1fDIzLjE3OTg=)' />
<g clip-path='url(#cpNjMuMTE2fDI5Ni45MjF8MjUzLjc1fDIzLjE3OTg=)'><text x='74.52' y='108.09' style='font-size: 8.54px; font-style: italic; font-family: Arial;' textLength='60.01px' lengthAdjust='spacingAndGlyphs'>R^2 sch= 0.97 </text></g>
<g clip-path='url(#cpNjMuMTE2fDI5Ni45MjF8MjUzLjc1fDIzLjE3OTg=)'><text x='74.52' y='120.38' style='font-size: 8.54px; font-style: italic; font-family: Arial;' textLength='55.29px' lengthAdjust='spacingAndGlyphs'>E sch= 0.877 </text></g>
<g clip-path='url(#cpNjMuMTE2fDI5Ni45MjF8MjUzLjc1fDIzLjE3OTg=)'><text x='74.52' y='132.67' style='font-size: 8.54px; font-style: italic; font-family: Arial;' textLength='59.78px' lengthAdjust='spacingAndGlyphs'>AIC sch= -17.9</text></g>
<rect x='63.12' y='23.18' width='233.80' height='230.57' style='stroke-width: 1.07; stroke: #333333;' clip-path='url(#cpNjMuMTE2fDI5Ni45MjF8MjUzLjc1fDIzLjE3OTg=)' />
<defs>
  <clipPath id='cpMHwzMDIuNHwyODh8MA=='>
    <rect x='0.00' y='0.00' width='302.40' height='288.00' />
  </clipPath>
</defs>
<g clip-path='url(#cpMHwzMDIuNHwyODh8MA==)'><text x='20.65' y='204.76' style='font-size: 8.80px; fill: #4D4D4D; font-family: Arial;' textLength='37.54px' lengthAdjust='spacingAndGlyphs'>0.000050</text></g>
<g clip-path='url(#cpMHwzMDIuNHwyODh8MA==)'><text x='20.65' y='148.28' style='font-size: 8.80px; fill: #4D4D4D; font-family: Arial;' textLength='37.54px' lengthAdjust='spacingAndGlyphs'>0.000075</text></g>
<g clip-path='url(#cpMHwzMDIuNHwyODh8MA==)'><text x='20.65' y='91.80' style='font-size: 8.80px; fill: #4D4D4D; font-family: Arial;' textLength='37.54px' lengthAdjust='spacingAndGlyphs'>0.000100</text></g>
<g clip-path='url(#cpMHwzMDIuNHwyODh8MA==)'><text x='20.65' y='35.32' style='font-size: 8.80px; fill: #4D4D4D; font-family: Arial;' textLength='37.54px' lengthAdjust='spacingAndGlyphs'>0.000125</text></g>
<polyline points='60.38,201.54 63.12,201.54 ' style='stroke-width: 1.07; stroke: #333333; stroke-linecap: butt;' clip-path='url(#cpMHwzMDIuNHwyODh8MA==)' />
<polyline points='60.38,145.06 63.12,145.06 ' style='stroke-width: 1.07; stroke: #333333; stroke-linecap: butt;' clip-path='url(#cpMHwzMDIuNHwyODh8MA==)' />
<polyline points='60.38,88.58 63.12,88.58 ' style='stroke-width: 1.07; stroke: #333333; stroke-linecap: butt;' clip-path='url(#cpMHwzMDIuNHwyODh8MA==)' />
<polyline points='60.38,32.10 63.12,32.10 ' style='stroke-width: 1.07; stroke: #333333; stroke-linecap: butt;' clip-path='url(#cpMHwzMDIuNHwyODh8MA==)' />
<polyline points='100.44,256.49 100.44,253.75 ' style='stroke-width: 1.07; stroke: #333333; stroke-linecap: butt;' clip-path='url(#cpMHwzMDIuNHwyODh8MA==)' />
<polyline points='152.28,256.49 152.28,253.75 ' style='stroke-width: 1.07; stroke: #333333; stroke-linecap: butt;' clip-path='url(#cpMHwzMDIuNHwyODh8MA==)' />
<polyline points='204.12,256.49 204.12,253.75 ' style='stroke-width: 1.07; stroke: #333333; stroke-linecap: butt;' clip-path='url(#cpMHwzMDIuNHwyODh8MA==)' />
<polyline points='255.97,256.49 255.97,253.75 ' style='stroke-width: 1.07; stroke: #333333; stroke-linecap: butt;' clip-path='url(#cpMHwzMDIuNHwyODh8MA==)' />
<g clip-path='url(#cpMHwzMDIuNHwyODh8MA==)'><text x='95.44' y='265.12' style='font-size: 8.80px; fill: #4D4D4D; font-family: Arial;' textLength='10.01px' lengthAdjust='spacingAndGlyphs'>10</text></g>
<g clip-path='url(#cpMHwzMDIuNHwyODh8MA==)'><text x='147.28' y='265.12' style='font-size: 8.80px; fill: #4D4D4D; font-family: Arial;' textLength='10.01px' lengthAdjust='spacingAndGlyphs'>20</text></g>
<g clip-path='url(#cpMHwzMDIuNHwyODh8MA==)'><text x='199.12' y='265.12' style='font-size: 8.80px; fill: #4D4D4D; font-family: Arial;' textLength='10.01px' lengthAdjust='spacingAndGlyphs'>30</text></g>
<g clip-path='url(#cpMHwzMDIuNHwyODh8MA==)'><text x='250.96' y='265.12' style='font-size: 8.80px; fill: #4D4D4D; font-family: Arial;' textLength='10.01px' lengthAdjust='spacingAndGlyphs'>40</text></g>
<g clip-path='url(#cpMHwzMDIuNHwyODh8MA==)'><text x='141.07' y='277.88' style='font-size: 10.00px; font-family: Arial;' textLength='63.35px' lengthAdjust='spacingAndGlyphs'>Temperature (</text></g>
<g clip-path='url(#cpMHwzMDIuNHwyODh8MA==)'><text x='204.42' y='277.88' style='font-size: 10.00px; font-family: Symbol;' textLength='4.00px' lengthAdjust='spacingAndGlyphs'>°</text></g>
<g clip-path='url(#cpMHwzMDIuNHwyODh8MA==)'><text x='208.42' y='277.88' style='font-size: 10.00px; font-family: Arial;' textLength='7.22px' lengthAdjust='spacingAndGlyphs'>C</text></g>
<g clip-path='url(#cpMHwzMDIuNHwyODh8MA==)'><text x='215.64' y='277.88' style='font-size: 10.00px; font-family: Arial;' textLength='3.33px' lengthAdjust='spacingAndGlyphs'>)</text></g>
<g clip-path='url(#cpMHwzMDIuNHwyODh8MA==)'><text transform='translate(12.64,180.16) rotate(-90)' style='font-size: 10.00px; font-family: Arial;' textLength='83.39px' lengthAdjust='spacingAndGlyphs'>net photosynthesis</text></g>
<g clip-path='url(#cpMHwzMDIuNHwyODh8MA==)'><text x='63.12' y='14.07' style='font-size: 12.00px; font-family: Arial;' textLength='132.71px' lengthAdjust='spacingAndGlyphs'>Carex aquatilis (muskeg)</text></g>
</svg>
