<?xml version='1.0' encoding='UTF-8' ?>
<svg xmlns='http://www.w3.org/2000/svg' xmlns:xlink='http://www.w3.org/1999/xlink' viewBox='0 0 302.40 288.00'>
<defs>
  <style type='text/css'><![CDATA[
    line, polyline, path, rect, circle {
      fill: none;
      stroke: #000000;
      stroke-linecap: round;
      stroke-linejoin: round;
      stroke-miterlimit: 10.00;
    }
  ]]></style>
</defs>
<rect width='100%' height='100%' style='stroke: none; fill: #FFFFFF;'/>
<rect x='0.00' y='0.00' width='302.40' height='288.00' style='stroke-width: 1.07; stroke: #FFFFFF; fill: #FFFFFF;' />
<defs>
  <clipPath id='cpNDguNDU1OHwyOTYuOTIxfDI1My43NXwyMy4wMzky'>
    <rect x='48.46' y='23.04' width='248.46' height='230.71' />
  </clipPath>
</defs>
<rect x='48.46' y='23.04' width='248.46' height='230.71' style='stroke-width: 1.07; stroke: none; fill: #FFFFFF;' clip-path='url(#cpNDguNDU1OHwyOTYuOTIxfDI1My43NXwyMy4wMzky)' />
<polyline points='48.46,243.48 296.92,243.48 ' style='stroke-width: 0.53; stroke: #EBEBEB; stroke-linecap: butt;' clip-path='url(#cpNDguNDU1OHwyOTYuOTIxfDI1My43NXwyMy4wMzky)' />
<polyline points='48.46,197.06 296.92,197.06 ' style='stroke-width: 0.53; stroke: #EBEBEB; stroke-linecap: butt;' clip-path='url(#cpNDguNDU1OHwyOTYuOTIxfDI1My43NXwyMy4wMzky)' />
<polyline points='48.46,150.64 296.92,150.64 ' style='stroke-width: 0.53; stroke: #EBEBEB; stroke-linecap: butt;' clip-path='url(#cpNDguNDU1OHwyOTYuOTIxfDI1My43NXwyMy4wMzky)' />
<polyline points='48.46,104.22 296.92,104.22 ' style='stroke-width: 0.53; stroke: #EBEBEB; stroke-linecap: butt;' clip-path='url(#cpNDguNDU1OHwyOTYuOTIxfDI1My43NXwyMy4wMzky)' />
<polyline points='48.46,57.80 296.92,57.80 ' style='stroke-width: 0.53; stroke: #EBEBEB; stroke-linecap: butt;' clip-path='url(#cpNDguNDU1OHwyOTYuOTIxfDI1My43NXwyMy4wMzky)' />
<polyline points='91.19,253.75 91.19,23.04 ' style='stroke-width: 0.53; stroke: #EBEBEB; stroke-linecap: butt;' clip-path='url(#cpNDguNDU1OHwyOTYuOTIxfDI1My43NXwyMy4wMzky)' />
<polyline points='152.24,253.75 152.24,23.04 ' style='stroke-width: 0.53; stroke: #EBEBEB; stroke-linecap: butt;' clip-path='url(#cpNDguNDU1OHwyOTYuOTIxfDI1My43NXwyMy4wMzky)' />
<polyline points='213.29,253.75 213.29,23.04 ' style='stroke-width: 0.53; stroke: #EBEBEB; stroke-linecap: butt;' clip-path='url(#cpNDguNDU1OHwyOTYuOTIxfDI1My43NXwyMy4wMzky)' />
<polyline points='274.33,253.75 274.33,23.04 ' style='stroke-width: 0.53; stroke: #EBEBEB; stroke-linecap: butt;' clip-path='url(#cpNDguNDU1OHwyOTYuOTIxfDI1My43NXwyMy4wMzky)' />
<polyline points='48.46,220.27 296.92,220.27 ' style='stroke-width: 1.07; stroke: #EBEBEB; stroke-linecap: butt;' clip-path='url(#cpNDguNDU1OHwyOTYuOTIxfDI1My43NXwyMy4wMzky)' />
<polyline points='48.46,173.85 296.92,173.85 ' style='stroke-width: 1.07; stroke: #EBEBEB; stroke-linecap: butt;' clip-path='url(#cpNDguNDU1OHwyOTYuOTIxfDI1My43NXwyMy4wMzky)' />
<polyline points='48.46,127.43 296.92,127.43 ' style='stroke-width: 1.07; stroke: #EBEBEB; stroke-linecap: butt;' clip-path='url(#cpNDguNDU1OHwyOTYuOTIxfDI1My43NXwyMy4wMzky)' />
<polyline points='48.46,81.01 296.92,81.01 ' style='stroke-width: 1.07; stroke: #EBEBEB; stroke-linecap: butt;' clip-path='url(#cpNDguNDU1OHwyOTYuOTIxfDI1My43NXwyMy4wMzky)' />
<polyline points='48.46,34.59 296.92,34.59 ' style='stroke-width: 1.07; stroke: #EBEBEB; stroke-linecap: butt;' clip-path='url(#cpNDguNDU1OHwyOTYuOTIxfDI1My43NXwyMy4wMzky)' />
<polyline points='60.67,253.75 60.67,23.04 ' style='stroke-width: 1.07; stroke: #EBEBEB; stroke-linecap: butt;' clip-path='url(#cpNDguNDU1OHwyOTYuOTIxfDI1My43NXwyMy4wMzky)' />
<polyline points='121.71,253.75 121.71,23.04 ' style='stroke-width: 1.07; stroke: #EBEBEB; stroke-linecap: butt;' clip-path='url(#cpNDguNDU1OHwyOTYuOTIxfDI1My43NXwyMy4wMzky)' />
<polyline points='182.76,253.75 182.76,23.04 ' style='stroke-width: 1.07; stroke: #EBEBEB; stroke-linecap: butt;' clip-path='url(#cpNDguNDU1OHwyOTYuOTIxfDI1My43NXwyMy4wMzky)' />
<polyline points='243.81,253.75 243.81,23.04 ' style='stroke-width: 1.07; stroke: #EBEBEB; stroke-linecap: butt;' clip-path='url(#cpNDguNDU1OHwyOTYuOTIxfDI1My43NXwyMy4wMzky)' />
<circle cx='60.67' cy='243.26' r='3.56pt' style='stroke-width: 0.71; stroke: #000000; stroke-opacity: 0.70; fill: #D1EEEE; fill-opacity: 0.70;' clip-path='url(#cpNDguNDU1OHwyOTYuOTIxfDI1My43NXwyMy4wMzky)' />
<circle cx='72.87' cy='239.00' r='3.56pt' style='stroke-width: 0.71; stroke: #000000; stroke-opacity: 0.70; fill: #D1EEEE; fill-opacity: 0.70;' clip-path='url(#cpNDguNDU1OHwyOTYuOTIxfDI1My43NXwyMy4wMzky)' />
<circle cx='85.08' cy='233.68' r='3.56pt' style='stroke-width: 0.71; stroke: #000000; stroke-opacity: 0.70; fill: #D1EEEE; fill-opacity: 0.70;' clip-path='url(#cpNDguNDU1OHwyOTYuOTIxfDI1My43NXwyMy4wMzky)' />
<circle cx='97.29' cy='227.29' r='3.56pt' style='stroke-width: 0.71; stroke: #000000; stroke-opacity: 0.70; fill: #D1EEEE; fill-opacity: 0.70;' clip-path='url(#cpNDguNDU1OHwyOTYuOTIxfDI1My43NXwyMy4wMzky)' />
<circle cx='109.50' cy='220.91' r='3.56pt' style='stroke-width: 0.71; stroke: #000000; stroke-opacity: 0.70; fill: #D1EEEE; fill-opacity: 0.70;' clip-path='url(#cpNDguNDU1OHwyOTYuOTIxfDI1My43NXwyMy4wMzky)' />
<circle cx='121.71' cy='208.13' r='3.56pt' style='stroke-width: 0.71; stroke: #000000; stroke-opacity: 0.70; fill: #D1EEEE; fill-opacity: 0.70;' clip-path='url(#cpNDguNDU1OHwyOTYuOTIxfDI1My43NXwyMy4wMzky)' />
<circle cx='133.92' cy='200.68' r='3.56pt' style='stroke-width: 0.71; stroke: #000000; stroke-opacity: 0.70; fill: #D1EEEE; fill-opacity: 0.70;' clip-path='url(#cpNDguNDU1OHwyOTYuOTIxfDI1My43NXwyMy4wMzky)' />
<circle cx='146.13' cy='193.22' r='3.56pt' style='stroke-width: 0.71; stroke: #000000; stroke-opacity: 0.70; fill: #D1EEEE; fill-opacity: 0.70;' clip-path='url(#cpNDguNDU1OHwyOTYuOTIxfDI1My43NXwyMy4wMzky)' />
<circle cx='158.34' cy='180.45' r='3.56pt' style='stroke-width: 0.71; stroke: #000000; stroke-opacity: 0.70; fill: #D1EEEE; fill-opacity: 0.70;' clip-path='url(#cpNDguNDU1OHwyOTYuOTIxfDI1My43NXwyMy4wMzky)' />
<circle cx='170.55' cy='168.74' r='3.56pt' style='stroke-width: 0.71; stroke: #000000; stroke-opacity: 0.70; fill: #D1EEEE; fill-opacity: 0.70;' clip-path='url(#cpNDguNDU1OHwyOTYuOTIxfDI1My43NXwyMy4wMzky)' />
<circle cx='182.76' cy='161.28' r='3.56pt' style='stroke-width: 0.71; stroke: #000000; stroke-opacity: 0.70; fill: #D1EEEE; fill-opacity: 0.70;' clip-path='url(#cpNDguNDU1OHwyOTYuOTIxfDI1My43NXwyMy4wMzky)' />
<circle cx='194.97' cy='157.03' r='3.56pt' style='stroke-width: 0.71; stroke: #000000; stroke-opacity: 0.70; fill: #D1EEEE; fill-opacity: 0.70;' clip-path='url(#cpNDguNDU1OHwyOTYuOTIxfDI1My43NXwyMy4wMzky)' />
<circle cx='207.18' cy='148.51' r='3.56pt' style='stroke-width: 0.71; stroke: #000000; stroke-opacity: 0.70; fill: #D1EEEE; fill-opacity: 0.70;' clip-path='url(#cpNDguNDU1OHwyOTYuOTIxfDI1My43NXwyMy4wMzky)' />
<circle cx='219.39' cy='139.99' r='3.56pt' style='stroke-width: 0.71; stroke: #000000; stroke-opacity: 0.70; fill: #D1EEEE; fill-opacity: 0.70;' clip-path='url(#cpNDguNDU1OHwyOTYuOTIxfDI1My43NXwyMy4wMzky)' />
<circle cx='231.60' cy='130.41' r='3.56pt' style='stroke-width: 0.71; stroke: #000000; stroke-opacity: 0.70; fill: #D1EEEE; fill-opacity: 0.70;' clip-path='url(#cpNDguNDU1OHwyOTYuOTIxfDI1My43NXwyMy4wMzky)' />
<circle cx='243.81' cy='117.63' r='3.56pt' style='stroke-width: 0.71; stroke: #000000; stroke-opacity: 0.70; fill: #D1EEEE; fill-opacity: 0.70;' clip-path='url(#cpNDguNDU1OHwyOTYuOTIxfDI1My43NXwyMy4wMzky)' />
<circle cx='256.02' cy='96.34' r='3.56pt' style='stroke-width: 0.71; stroke: #000000; stroke-opacity: 0.70; fill: #D1EEEE; fill-opacity: 0.70;' clip-path='url(#cpNDguNDU1OHwyOTYuOTIxfDI1My43NXwyMy4wMzky)' />
<circle cx='268.23' cy='68.66' r='3.56pt' style='stroke-width: 0.71; stroke: #000000; stroke-opacity: 0.70; fill: #D1EEEE; fill-opacity: 0.70;' clip-path='url(#cpNDguNDU1OHwyOTYuOTIxfDI1My43NXwyMy4wMzky)' />
<circle cx='280.44' cy='33.53' r='3.56pt' style='stroke-width: 0.71; stroke: #000000; stroke-opacity: 0.70; fill: #D1EEEE; fill-opacity: 0.70;' clip-path='url(#cpNDguNDU1OHwyOTYuOTIxfDI1My43NXwyMy4wMzky)' />
<polyline points='59.75,242.79 60.88,242.40 62.02,242.01 63.15,241.61 64.29,241.21 65.42,240.81 66.56,240.39 67.70,239.98 68.83,239.55 69.97,239.12 71.10,238.69 72.24,238.25 73.37,237.80 74.51,237.35 75.64,236.89 76.78,236.43 77.91,235.96 79.05,235.48 80.18,235.00 81.32,234.51 82.45,234.02 83.59,233.52 84.72,233.01 85.86,232.50 86.99,231.98 88.13,231.46 89.26,230.93 90.40,230.39 91.53,229.84 92.67,229.29 93.80,228.74 94.94,228.17 96.07,227.60 97.21,227.02 98.34,226.44 99.48,225.85 100.61,225.25 101.75,224.65 102.88,224.04 104.02,223.42 105.15,222.80 106.29,222.17 107.42,221.53 108.56,220.88 109.69,220.23 110.83,219.57 111.96,218.91 113.10,218.24 114.23,217.56 115.37,216.87 116.50,216.17 117.64,215.47 118.77,214.77 119.91,214.05 121.04,213.33 122.18,212.60 123.31,211.86 124.45,211.12 125.58,210.37 126.72,209.61 127.85,208.84 128.99,208.07 130.12,207.29 131.26,206.51 132.39,205.71 133.53,204.91 134.66,204.10 135.80,203.29 136.93,202.47 138.07,201.64 139.20,200.80 140.34,199.96 141.47,199.11 142.61,198.25 143.74,197.39 144.88,196.52 146.01,195.64 147.15,194.76 148.28,193.87 149.42,192.97 150.55,192.06 151.69,191.15 152.82,190.23 153.96,189.31 155.09,188.38 156.23,187.44 157.36,186.49 158.50,185.54 159.64,184.59 160.77,183.62 161.91,182.65 163.04,181.68 164.18,180.70 165.31,179.71 166.45,178.72 167.58,177.72 168.72,176.71 169.85,175.70 170.99,174.68 172.12,173.66 173.26,172.64 174.39,171.60 175.53,170.56 176.66,169.52 177.80,168.47 178.93,167.42 180.07,166.36 181.20,165.30 182.34,164.23 183.47,163.16 184.61,162.08 185.74,161.00 186.88,159.91 188.01,158.82 189.15,157.73 190.28,156.63 191.42,155.53 192.55,154.43 193.69,153.32 194.82,152.21 195.96,151.09 197.09,149.97 198.23,148.85 199.36,147.73 200.50,146.60 201.63,145.47 202.77,144.34 203.90,143.20 205.04,142.07 206.17,140.93 207.31,139.79 208.44,138.64 209.58,137.50 210.71,136.35 211.85,135.21 212.98,134.06 214.12,132.91 215.25,131.76 216.39,130.60 217.52,129.45 218.66,128.30 219.79,127.14 220.93,125.99 222.06,124.84 223.20,123.68 224.33,122.53 225.47,121.38 226.60,120.22 227.74,119.07 228.87,117.92 230.01,116.77 231.14,115.62 232.28,114.47 233.41,113.33 234.55,112.18 235.68,111.04 236.82,109.90 237.95,108.76 239.09,107.62 240.22,106.48 241.36,105.35 242.49,104.22 243.63,103.09 244.76,101.97 245.90,100.85 247.03,99.73 248.17,98.61 249.30,97.50 250.44,96.39 251.57,95.28 252.71,94.18 253.85,93.08 254.98,91.99 256.12,90.90 257.25,89.81 258.39,88.73 259.52,87.66 260.66,86.58 261.79,85.52 262.93,84.45 264.06,83.40 265.20,82.34 266.33,81.30 267.47,80.25 268.60,79.22 269.74,78.19 270.87,77.16 272.01,76.14 273.14,75.13 274.28,74.12 275.41,73.12 276.55,72.12 277.68,71.13 278.82,70.14 279.95,69.17 281.09,68.19 282.22,67.23 283.36,66.27 284.49,65.32 285.63,64.37 ' style='stroke-width: 2.77; stroke: #1B9E77; stroke-linecap: butt;' clip-path='url(#cpNDguNDU1OHwyOTYuOTIxfDI1My43NXwyMy4wMzky)' />
<g clip-path='url(#cpNDguNDU1OHwyOTYuOTIxfDI1My43NXwyMy4wMzky)'><text x='60.67' y='157.70' style='font-size: 8.54px; font-style: italic; font-family: Arial;' textLength='60.01px' lengthAdjust='spacingAndGlyphs'>R^2 sch= 0.96 </text></g>
<g clip-path='url(#cpNDguNDU1OHwyOTYuOTIxfDI1My43NXwyMy4wMzky)'><text x='60.67' y='169.99' style='font-size: 8.54px; font-style: italic; font-family: Arial;' textLength='55.29px' lengthAdjust='spacingAndGlyphs'>E sch= 0.634 </text></g>
<g clip-path='url(#cpNDguNDU1OHwyOTYuOTIxfDI1My43NXwyMy4wMzky)'><text x='60.67' y='182.29' style='font-size: 8.54px; font-style: italic; font-family: Arial;' textLength='59.78px' lengthAdjust='spacingAndGlyphs'>AIC sch= -37.6</text></g>
<rect x='48.46' y='23.04' width='248.46' height='230.71' style='stroke-width: 1.07; stroke: #333333;' clip-path='url(#cpNDguNDU1OHwyOTYuOTIxfDI1My43NXwyMy4wMzky)' />
<defs>
  <clipPath id='cpMHwzMDIuNHwyODh8MA=='>
    <rect x='0.00' y='0.00' width='302.40' height='288.00' />
  </clipPath>
</defs>
<g clip-path='url(#cpMHwzMDIuNHwyODh8MA==)'><text x='20.51' y='223.49' style='font-size: 8.80px; fill: #4D4D4D; font-family: Arial;' textLength='23.02px' lengthAdjust='spacingAndGlyphs'>1e-06</text></g>
<g clip-path='url(#cpMHwzMDIuNHwyODh8MA==)'><text x='20.51' y='177.07' style='font-size: 8.80px; fill: #4D4D4D; font-family: Arial;' textLength='23.02px' lengthAdjust='spacingAndGlyphs'>2e-06</text></g>
<g clip-path='url(#cpMHwzMDIuNHwyODh8MA==)'><text x='20.51' y='130.65' style='font-size: 8.80px; fill: #4D4D4D; font-family: Arial;' textLength='23.02px' lengthAdjust='spacingAndGlyphs'>3e-06</text></g>
<g clip-path='url(#cpMHwzMDIuNHwyODh8MA==)'><text x='20.51' y='84.23' style='font-size: 8.80px; fill: #4D4D4D; font-family: Arial;' textLength='23.02px' lengthAdjust='spacingAndGlyphs'>4e-06</text></g>
<g clip-path='url(#cpMHwzMDIuNHwyODh8MA==)'><text x='20.51' y='37.81' style='font-size: 8.80px; fill: #4D4D4D; font-family: Arial;' textLength='23.02px' lengthAdjust='spacingAndGlyphs'>5e-06</text></g>
<polyline points='45.72,220.27 48.46,220.27 ' style='stroke-width: 1.07; stroke: #333333; stroke-linecap: butt;' clip-path='url(#cpMHwzMDIuNHwyODh8MA==)' />
<polyline points='45.72,173.85 48.46,173.85 ' style='stroke-width: 1.07; stroke: #333333; stroke-linecap: butt;' clip-path='url(#cpMHwzMDIuNHwyODh8MA==)' />
<polyline points='45.72,127.43 48.46,127.43 ' style='stroke-width: 1.07; stroke: #333333; stroke-linecap: butt;' clip-path='url(#cpMHwzMDIuNHwyODh8MA==)' />
<polyline points='45.72,81.01 48.46,81.01 ' style='stroke-width: 1.07; stroke: #333333; stroke-linecap: butt;' clip-path='url(#cpMHwzMDIuNHwyODh8MA==)' />
<polyline points='45.72,34.59 48.46,34.59 ' style='stroke-width: 1.07; stroke: #333333; stroke-linecap: butt;' clip-path='url(#cpMHwzMDIuNHwyODh8MA==)' />
<polyline points='60.67,256.49 60.67,253.75 ' style='stroke-width: 1.07; stroke: #333333; stroke-linecap: butt;' clip-path='url(#cpMHwzMDIuNHwyODh8MA==)' />
<polyline points='121.71,256.49 121.71,253.75 ' style='stroke-width: 1.07; stroke: #333333; stroke-linecap: butt;' clip-path='url(#cpMHwzMDIuNHwyODh8MA==)' />
<polyline points='182.76,256.49 182.76,253.75 ' style='stroke-width: 1.07; stroke: #333333; stroke-linecap: butt;' clip-path='url(#cpMHwzMDIuNHwyODh8MA==)' />
<polyline points='243.81,256.49 243.81,253.75 ' style='stroke-width: 1.07; stroke: #333333; stroke-linecap: butt;' clip-path='url(#cpMHwzMDIuNHwyODh8MA==)' />
<g clip-path='url(#cpMHwzMDIuNHwyODh8MA==)'><text x='55.66' y='265.12' style='font-size: 8.80px; fill: #4D4D4D; font-family: Arial;' textLength='10.01px' lengthAdjust='spacingAndGlyphs'>10</text></g>
<g clip-path='url(#cpMHwzMDIuNHwyODh8MA==)'><text x='116.71' y='265.12' style='font-size: 8.80px; fill: #4D4D4D; font-family: Arial;' textLength='10.01px' lengthAdjust='spacingAndGlyphs'>20</text></g>
<g clip-path='url(#cpMHwzMDIuNHwyODh8MA==)'><text x='177.76' y='265.12' style='font-size: 8.80px; fill: #4D4D4D; font-family: Arial;' textLength='10.01px' lengthAdjust='spacingAndGlyphs'>30</text></g>
<g clip-path='url(#cpMHwzMDIuNHwyODh8MA==)'><text x='238.80' y='265.12' style='font-size: 8.80px; fill: #4D4D4D; font-family: Arial;' textLength='10.01px' lengthAdjust='spacingAndGlyphs'>40</text></g>
<g clip-path='url(#cpMHwzMDIuNHwyODh8MA==)'><text x='133.74' y='277.88' style='font-size: 10.00px; font-family: Arial;' textLength='63.35px' lengthAdjust='spacingAndGlyphs'>Temperature (</text></g>
<g clip-path='url(#cpMHwzMDIuNHwyODh8MA==)'><text x='197.09' y='277.88' style='font-size: 10.00px; font-family: Symbol;' textLength='4.00px' lengthAdjust='spacingAndGlyphs'>°</text></g>
<g clip-path='url(#cpMHwzMDIuNHwyODh8MA==)'><text x='201.09' y='277.88' style='font-size: 10.00px; font-family: Arial;' textLength='7.22px' lengthAdjust='spacingAndGlyphs'>C</text></g>
<g clip-path='url(#cpMHwzMDIuNHwyODh8MA==)'><text x='208.31' y='277.88' style='font-size: 10.00px; font-family: Arial;' textLength='3.33px' lengthAdjust='spacingAndGlyphs'>)</text></g>
<g clip-path='url(#cpMHwzMDIuNHwyODh8MA==)'><text transform='translate(12.64,171.74) rotate(-90)' style='font-size: 10.00px; font-family: Arial;' textLength='66.70px' lengthAdjust='spacingAndGlyphs'>respiration rate</text></g>
<g clip-path='url(#cpMHwzMDIuNHwyODh8MA==)'><text x='48.46' y='14.07' style='font-size: 12.00px; font-family: Arial;' textLength='98.03px' lengthAdjust='spacingAndGlyphs'>Atriplex lentiformis</text></g>
</svg>
