<?xml version='1.0' encoding='UTF-8' ?>
<svg xmlns='http://www.w3.org/2000/svg' xmlns:xlink='http://www.w3.org/1999/xlink' viewBox='0 0 302.40 288.00'>
<defs>
  <style type='text/css'><![CDATA[
    line, polyline, path, rect, circle {
      fill: none;
      stroke: #000000;
      stroke-linecap: round;
      stroke-linejoin: round;
      stroke-miterlimit: 10.00;
    }
  ]]></style>
</defs>
<rect width='100%' height='100%' style='stroke: none; fill: #FFFFFF;'/>
<rect x='0.00' y='0.00' width='302.40' height='288.00' style='stroke-width: 1.07; stroke: #FFFFFF; fill: #FFFFFF;' />
<defs>
  <clipPath id='cpNTAuODU1M3wyOTYuOTIxfDI1My43NXwyMy4wMzky'>
    <rect x='50.86' y='23.04' width='246.07' height='230.71' />
  </clipPath>
</defs>
<rect x='50.86' y='23.04' width='246.07' height='230.71' style='stroke-width: 1.07; stroke: none; fill: #FFFFFF;' clip-path='url(#cpNTAuODU1M3wyOTYuOTIxfDI1My43NXwyMy4wMzky)' />
<polyline points='50.86,214.67 296.92,214.67 ' style='stroke-width: 0.53; stroke: #EBEBEB; stroke-linecap: butt;' clip-path='url(#cpNTAuODU1M3wyOTYuOTIxfDI1My43NXwyMy4wMzky)' />
<polyline points='50.86,143.80 296.92,143.80 ' style='stroke-width: 0.53; stroke: #EBEBEB; stroke-linecap: butt;' clip-path='url(#cpNTAuODU1M3wyOTYuOTIxfDI1My43NXwyMy4wMzky)' />
<polyline points='50.86,72.93 296.92,72.93 ' style='stroke-width: 0.53; stroke: #EBEBEB; stroke-linecap: butt;' clip-path='url(#cpNTAuODU1M3wyOTYuOTIxfDI1My43NXwyMy4wMzky)' />
<polyline points='63.20,253.75 63.20,23.04 ' style='stroke-width: 0.53; stroke: #EBEBEB; stroke-linecap: butt;' clip-path='url(#cpNTAuODU1M3wyOTYuOTIxfDI1My43NXwyMy4wMzky)' />
<polyline points='140.33,253.75 140.33,23.04 ' style='stroke-width: 0.53; stroke: #EBEBEB; stroke-linecap: butt;' clip-path='url(#cpNTAuODU1M3wyOTYuOTIxfDI1My43NXwyMy4wMzky)' />
<polyline points='217.47,253.75 217.47,23.04 ' style='stroke-width: 0.53; stroke: #EBEBEB; stroke-linecap: butt;' clip-path='url(#cpNTAuODU1M3wyOTYuOTIxfDI1My43NXwyMy4wMzky)' />
<polyline points='294.61,253.75 294.61,23.04 ' style='stroke-width: 0.53; stroke: #EBEBEB; stroke-linecap: butt;' clip-path='url(#cpNTAuODU1M3wyOTYuOTIxfDI1My43NXwyMy4wMzky)' />
<polyline points='50.86,250.11 296.92,250.11 ' style='stroke-width: 1.07; stroke: #EBEBEB; stroke-linecap: butt;' clip-path='url(#cpNTAuODU1M3wyOTYuOTIxfDI1My43NXwyMy4wMzky)' />
<polyline points='50.86,179.24 296.92,179.24 ' style='stroke-width: 1.07; stroke: #EBEBEB; stroke-linecap: butt;' clip-path='url(#cpNTAuODU1M3wyOTYuOTIxfDI1My43NXwyMy4wMzky)' />
<polyline points='50.86,108.37 296.92,108.37 ' style='stroke-width: 1.07; stroke: #EBEBEB; stroke-linecap: butt;' clip-path='url(#cpNTAuODU1M3wyOTYuOTIxfDI1My43NXwyMy4wMzky)' />
<polyline points='50.86,37.50 296.92,37.50 ' style='stroke-width: 1.07; stroke: #EBEBEB; stroke-linecap: butt;' clip-path='url(#cpNTAuODU1M3wyOTYuOTIxfDI1My43NXwyMy4wMzky)' />
<polyline points='101.77,253.75 101.77,23.04 ' style='stroke-width: 1.07; stroke: #EBEBEB; stroke-linecap: butt;' clip-path='url(#cpNTAuODU1M3wyOTYuOTIxfDI1My43NXwyMy4wMzky)' />
<polyline points='178.90,253.75 178.90,23.04 ' style='stroke-width: 1.07; stroke: #EBEBEB; stroke-linecap: butt;' clip-path='url(#cpNTAuODU1M3wyOTYuOTIxfDI1My43NXwyMy4wMzky)' />
<polyline points='256.04,253.75 256.04,23.04 ' style='stroke-width: 1.07; stroke: #EBEBEB; stroke-linecap: butt;' clip-path='url(#cpNTAuODU1M3wyOTYuOTIxfDI1My43NXwyMy4wMzky)' />
<circle cx='64.62' cy='43.45' r='3.56pt' style='stroke-width: 0.71; stroke: #000000; stroke-opacity: 0.70; fill: #D1EEEE; fill-opacity: 0.70;' clip-path='url(#cpNTAuODU1M3wyOTYuOTIxfDI1My43NXwyMy4wMzky)' />
<circle cx='172.57' cy='35.25' r='3.56pt' style='stroke-width: 0.71; stroke: #000000; stroke-opacity: 0.70; fill: #D1EEEE; fill-opacity: 0.70;' clip-path='url(#cpNTAuODU1M3wyOTYuOTIxfDI1My43NXwyMy4wMzky)' />
<circle cx='220.48' cy='33.53' r='3.56pt' style='stroke-width: 0.71; stroke: #000000; stroke-opacity: 0.70; fill: #D1EEEE; fill-opacity: 0.70;' clip-path='url(#cpNTAuODU1M3wyOTYuOTIxfDI1My43NXwyMy4wMzky)' />
<circle cx='236.15' cy='35.43' r='3.56pt' style='stroke-width: 0.71; stroke: #000000; stroke-opacity: 0.70; fill: #D1EEEE; fill-opacity: 0.70;' clip-path='url(#cpNTAuODU1M3wyOTYuOTIxfDI1My43NXwyMy4wMzky)' />
<circle cx='247.71' cy='50.27' r='3.56pt' style='stroke-width: 0.71; stroke: #000000; stroke-opacity: 0.70; fill: #D1EEEE; fill-opacity: 0.70;' clip-path='url(#cpNTAuODU1M3wyOTYuOTIxfDI1My43NXwyMy4wMzky)' />
<circle cx='260.38' cy='65.10' r='3.56pt' style='stroke-width: 0.71; stroke: #000000; stroke-opacity: 0.70; fill: #D1EEEE; fill-opacity: 0.70;' clip-path='url(#cpNTAuODU1M3wyOTYuOTIxfDI1My43NXwyMy4wMzky)' />
<circle cx='280.56' cy='231.39' r='3.56pt' style='stroke-width: 0.71; stroke: #000000; stroke-opacity: 0.70; fill: #D1EEEE; fill-opacity: 0.70;' clip-path='url(#cpNTAuODU1M3wyOTYuOTIxfDI1My43NXwyMy4wMzky)' />
<polyline points='62.04,41.24 63.16,41.22 64.29,41.20 65.41,41.18 66.54,41.16 67.66,41.14 68.78,41.11 69.91,41.09 71.03,41.07 72.16,41.05 73.28,41.03 74.41,41.01 75.53,40.98 76.65,40.96 77.78,40.94 78.90,40.92 80.03,40.90 81.15,40.88 82.27,40.86 83.40,40.83 84.52,40.81 85.65,40.79 86.77,40.77 87.89,40.75 89.02,40.73 90.14,40.71 91.27,40.68 92.39,40.66 93.51,40.64 94.64,40.62 95.76,40.60 96.89,40.58 98.01,40.56 99.14,40.54 100.26,40.51 101.38,40.49 102.51,40.47 103.63,40.45 104.76,40.43 105.88,40.41 107.00,40.39 108.13,40.37 109.25,40.35 110.38,40.33 111.50,40.30 112.62,40.28 113.75,40.26 114.87,40.24 116.00,40.22 117.12,40.20 118.24,40.18 119.37,40.16 120.49,40.14 121.62,40.12 122.74,40.10 123.87,40.08 124.99,40.05 126.11,40.03 127.24,40.01 128.36,39.99 129.49,39.97 130.61,39.95 131.73,39.93 132.86,39.91 133.98,39.89 135.11,39.87 136.23,39.85 137.35,39.83 138.48,39.81 139.60,39.79 140.73,39.77 141.85,39.75 142.98,39.72 144.10,39.70 145.22,39.68 146.35,39.66 147.47,39.64 148.60,39.62 149.72,39.60 150.84,39.58 151.97,39.56 153.09,39.54 154.22,39.52 155.34,39.50 156.46,39.48 157.59,39.46 158.71,39.44 159.84,39.42 160.96,39.40 162.08,39.38 163.21,39.36 164.33,39.34 165.46,39.32 166.58,39.30 167.71,39.28 168.83,39.26 169.95,39.24 171.08,39.22 172.20,39.20 173.33,39.18 174.45,39.16 175.57,39.14 176.70,39.12 177.82,39.10 178.95,39.08 180.07,39.06 181.19,39.04 182.32,39.02 183.44,39.00 184.57,38.98 185.69,38.96 186.82,38.94 187.94,38.92 189.06,38.90 190.19,38.88 191.31,38.86 192.44,38.84 193.56,38.82 194.68,38.80 195.81,38.78 196.93,38.76 198.06,38.74 199.18,38.72 200.30,38.70 201.43,38.68 202.55,38.66 203.68,38.65 204.80,38.63 205.92,38.61 207.05,38.59 208.17,38.57 209.30,38.55 210.42,38.53 211.55,38.51 212.67,38.49 213.79,38.47 214.92,38.45 216.04,38.43 217.17,38.41 218.29,38.40 219.41,38.38 220.54,38.36 221.66,38.34 222.79,38.33 223.91,38.31 225.03,38.29 226.16,38.28 227.28,38.27 228.41,38.26 229.53,38.25 230.65,38.24 231.78,38.24 232.90,38.24 234.03,38.25 235.15,38.26 236.28,38.28 237.40,38.32 238.52,38.37 239.65,38.44 240.77,38.53 241.90,38.65 243.02,38.81 244.14,39.01 245.27,39.28 246.39,39.62 247.52,40.06 248.64,40.61 249.76,41.32 250.89,42.21 252.01,43.33 253.14,44.75 254.26,46.51 255.39,48.70 256.51,51.42 257.63,54.76 258.76,58.83 259.88,63.75 261.01,69.63 262.13,76.55 263.25,84.58 264.38,93.73 265.50,103.94 266.63,115.09 267.75,126.95 268.87,139.25 270.00,151.67 271.12,163.87 272.25,175.53 273.37,186.41 274.49,196.31 275.62,205.12 276.74,212.83 277.87,219.45 278.99,225.06 280.12,229.75 281.24,233.64 282.36,236.83 283.49,239.44 284.61,241.56 285.74,243.26 ' style='stroke-width: 2.77; stroke: #1B9E77; stroke-linecap: butt;' clip-path='url(#cpNTAuODU1M3wyOTYuOTIxfDI1My43NXwyMy4wMzky)' />
<g clip-path='url(#cpNTAuODU1M3wyOTYuOTIxfDI1My43NXwyMy4wMzky)'><text x='64.62' y='61.56' style='font-size: 8.54px; font-style: italic; font-family: Arial;' textLength='60.01px' lengthAdjust='spacingAndGlyphs'>R^2 sch= 0.99 </text></g>
<g clip-path='url(#cpNTAuODU1M3wyOTYuOTIxfDI1My43NXwyMy4wMzky)'><text x='64.62' y='73.85' style='font-size: 8.54px; font-style: italic; font-family: Arial;' textLength='65.30px' lengthAdjust='spacingAndGlyphs'>E sch= 0.00547 </text></g>
<g clip-path='url(#cpNTAuODU1M3wyOTYuOTIxfDI1My43NXwyMy4wMzky)'><text x='64.62' y='86.14' style='font-size: 8.54px; font-style: italic; font-family: Arial;' textLength='59.78px' lengthAdjust='spacingAndGlyphs'>AIC sch= -23.1</text></g>
<rect x='50.86' y='23.04' width='246.07' height='230.71' style='stroke-width: 1.07; stroke: #333333;' clip-path='url(#cpNTAuODU1M3wyOTYuOTIxfDI1My43NXwyMy4wMzky)' />
<defs>
  <clipPath id='cpMHwzMDIuNHwyODh8MA=='>
    <rect x='0.00' y='0.00' width='302.40' height='288.00' />
  </clipPath>
</defs>
<g clip-path='url(#cpMHwzMDIuNHwyODh8MA==)'><text x='20.65' y='253.32' style='font-size: 8.80px; fill: #4D4D4D; font-family: Arial;' textLength='25.28px' lengthAdjust='spacingAndGlyphs'>0e+00</text></g>
<g clip-path='url(#cpMHwzMDIuNHwyODh8MA==)'><text x='22.91' y='182.46' style='font-size: 8.80px; fill: #4D4D4D; font-family: Arial;' textLength='23.02px' lengthAdjust='spacingAndGlyphs'>1e-05</text></g>
<g clip-path='url(#cpMHwzMDIuNHwyODh8MA==)'><text x='22.91' y='111.59' style='font-size: 8.80px; fill: #4D4D4D; font-family: Arial;' textLength='23.02px' lengthAdjust='spacingAndGlyphs'>2e-05</text></g>
<g clip-path='url(#cpMHwzMDIuNHwyODh8MA==)'><text x='22.91' y='40.72' style='font-size: 8.80px; fill: #4D4D4D; font-family: Arial;' textLength='23.02px' lengthAdjust='spacingAndGlyphs'>3e-05</text></g>
<polyline points='48.12,250.11 50.86,250.11 ' style='stroke-width: 1.07; stroke: #333333; stroke-linecap: butt;' clip-path='url(#cpMHwzMDIuNHwyODh8MA==)' />
<polyline points='48.12,179.24 50.86,179.24 ' style='stroke-width: 1.07; stroke: #333333; stroke-linecap: butt;' clip-path='url(#cpMHwzMDIuNHwyODh8MA==)' />
<polyline points='48.12,108.37 50.86,108.37 ' style='stroke-width: 1.07; stroke: #333333; stroke-linecap: butt;' clip-path='url(#cpMHwzMDIuNHwyODh8MA==)' />
<polyline points='48.12,37.50 50.86,37.50 ' style='stroke-width: 1.07; stroke: #333333; stroke-linecap: butt;' clip-path='url(#cpMHwzMDIuNHwyODh8MA==)' />
<polyline points='101.77,256.49 101.77,253.75 ' style='stroke-width: 1.07; stroke: #333333; stroke-linecap: butt;' clip-path='url(#cpMHwzMDIuNHwyODh8MA==)' />
<polyline points='178.90,256.49 178.90,253.75 ' style='stroke-width: 1.07; stroke: #333333; stroke-linecap: butt;' clip-path='url(#cpMHwzMDIuNHwyODh8MA==)' />
<polyline points='256.04,256.49 256.04,253.75 ' style='stroke-width: 1.07; stroke: #333333; stroke-linecap: butt;' clip-path='url(#cpMHwzMDIuNHwyODh8MA==)' />
<g clip-path='url(#cpMHwzMDIuNHwyODh8MA==)'><text x='96.76' y='265.12' style='font-size: 8.80px; fill: #4D4D4D; font-family: Arial;' textLength='10.01px' lengthAdjust='spacingAndGlyphs'>30</text></g>
<g clip-path='url(#cpMHwzMDIuNHwyODh8MA==)'><text x='173.90' y='265.12' style='font-size: 8.80px; fill: #4D4D4D; font-family: Arial;' textLength='10.01px' lengthAdjust='spacingAndGlyphs'>40</text></g>
<g clip-path='url(#cpMHwzMDIuNHwyODh8MA==)'><text x='251.03' y='265.12' style='font-size: 8.80px; fill: #4D4D4D; font-family: Arial;' textLength='10.01px' lengthAdjust='spacingAndGlyphs'>50</text></g>
<g clip-path='url(#cpMHwzMDIuNHwyODh8MA==)'><text x='134.93' y='277.88' style='font-size: 10.00px; font-family: Arial;' textLength='63.35px' lengthAdjust='spacingAndGlyphs'>Temperature (</text></g>
<g clip-path='url(#cpMHwzMDIuNHwyODh8MA==)'><text x='198.29' y='277.88' style='font-size: 10.00px; font-family: Symbol;' textLength='4.00px' lengthAdjust='spacingAndGlyphs'>°</text></g>
<g clip-path='url(#cpMHwzMDIuNHwyODh8MA==)'><text x='202.29' y='277.88' style='font-size: 10.00px; font-family: Arial;' textLength='7.22px' lengthAdjust='spacingAndGlyphs'>C</text></g>
<g clip-path='url(#cpMHwzMDIuNHwyODh8MA==)'><text x='209.51' y='277.88' style='font-size: 10.00px; font-family: Arial;' textLength='3.33px' lengthAdjust='spacingAndGlyphs'>)</text></g>
<g clip-path='url(#cpMHwzMDIuNHwyODh8MA==)'><text transform='translate(12.64,180.09) rotate(-90)' style='font-size: 10.00px; font-family: Arial;' textLength='83.39px' lengthAdjust='spacingAndGlyphs'>net photosynthesis</text></g>
<g clip-path='url(#cpMHwzMDIuNHwyODh8MA==)'><text x='50.86' y='14.07' style='font-size: 12.00px; font-family: Arial;' textLength='87.39px' lengthAdjust='spacingAndGlyphs'>Kochia planifolia</text></g>
</svg>
