<?xml version='1.0' encoding='UTF-8' ?>
<svg xmlns='http://www.w3.org/2000/svg' xmlns:xlink='http://www.w3.org/1999/xlink' viewBox='0 0 302.40 288.00'>
<defs>
  <style type='text/css'><![CDATA[
    line, polyline, path, rect, circle {
      fill: none;
      stroke: #000000;
      stroke-linecap: round;
      stroke-linejoin: round;
      stroke-miterlimit: 10.00;
    }
  ]]></style>
</defs>
<rect width='100%' height='100%' style='stroke: none; fill: #FFFFFF;'/>
<rect x='0.00' y='0.00' width='302.40' height='288.00' style='stroke-width: 1.07; stroke: #FFFFFF; fill: #FFFFFF;' />
<defs>
  <clipPath id='cpNjMuMTE2fDI5Ni45MjF8MjUzLjc1fDIzLjE3OTg='>
    <rect x='63.12' y='23.18' width='233.80' height='230.57' />
  </clipPath>
</defs>
<rect x='63.12' y='23.18' width='233.80' height='230.57' style='stroke-width: 1.07; stroke: none; fill: #FFFFFF;' clip-path='url(#cpNjMuMTE2fDI5Ni45MjF8MjUzLjc1fDIzLjE3OTg=)' />
<polyline points='63.12,215.32 296.92,215.32 ' style='stroke-width: 0.53; stroke: #EBEBEB; stroke-linecap: butt;' clip-path='url(#cpNjMuMTE2fDI5Ni45MjF8MjUzLjc1fDIzLjE3OTg=)' />
<polyline points='63.12,160.44 296.92,160.44 ' style='stroke-width: 0.53; stroke: #EBEBEB; stroke-linecap: butt;' clip-path='url(#cpNjMuMTE2fDI5Ni45MjF8MjUzLjc1fDIzLjE3OTg=)' />
<polyline points='63.12,105.56 296.92,105.56 ' style='stroke-width: 0.53; stroke: #EBEBEB; stroke-linecap: butt;' clip-path='url(#cpNjMuMTE2fDI5Ni45MjF8MjUzLjc1fDIzLjE3OTg=)' />
<polyline points='63.12,50.68 296.92,50.68 ' style='stroke-width: 0.53; stroke: #EBEBEB; stroke-linecap: butt;' clip-path='url(#cpNjMuMTE2fDI5Ni45MjF8MjUzLjc1fDIzLjE3OTg=)' />
<polyline points='74.77,253.75 74.77,23.18 ' style='stroke-width: 0.53; stroke: #EBEBEB; stroke-linecap: butt;' clip-path='url(#cpNjMuMTE2fDI5Ni45MjF8MjUzLjc1fDIzLjE3OTg=)' />
<polyline points='143.34,253.75 143.34,23.18 ' style='stroke-width: 0.53; stroke: #EBEBEB; stroke-linecap: butt;' clip-path='url(#cpNjMuMTE2fDI5Ni45MjF8MjUzLjc1fDIzLjE3OTg=)' />
<polyline points='211.90,253.75 211.90,23.18 ' style='stroke-width: 0.53; stroke: #EBEBEB; stroke-linecap: butt;' clip-path='url(#cpNjMuMTE2fDI5Ni45MjF8MjUzLjc1fDIzLjE3OTg=)' />
<polyline points='280.47,253.75 280.47,23.18 ' style='stroke-width: 0.53; stroke: #EBEBEB; stroke-linecap: butt;' clip-path='url(#cpNjMuMTE2fDI5Ni45MjF8MjUzLjc1fDIzLjE3OTg=)' />
<polyline points='63.12,242.76 296.92,242.76 ' style='stroke-width: 1.07; stroke: #EBEBEB; stroke-linecap: butt;' clip-path='url(#cpNjMuMTE2fDI5Ni45MjF8MjUzLjc1fDIzLjE3OTg=)' />
<polyline points='63.12,187.88 296.92,187.88 ' style='stroke-width: 1.07; stroke: #EBEBEB; stroke-linecap: butt;' clip-path='url(#cpNjMuMTE2fDI5Ni45MjF8MjUzLjc1fDIzLjE3OTg=)' />
<polyline points='63.12,133.00 296.92,133.00 ' style='stroke-width: 1.07; stroke: #EBEBEB; stroke-linecap: butt;' clip-path='url(#cpNjMuMTE2fDI5Ni45MjF8MjUzLjc1fDIzLjE3OTg=)' />
<polyline points='63.12,78.12 296.92,78.12 ' style='stroke-width: 1.07; stroke: #EBEBEB; stroke-linecap: butt;' clip-path='url(#cpNjMuMTE2fDI5Ni45MjF8MjUzLjc1fDIzLjE3OTg=)' />
<polyline points='63.12,23.23 296.92,23.23 ' style='stroke-width: 1.07; stroke: #EBEBEB; stroke-linecap: butt;' clip-path='url(#cpNjMuMTE2fDI5Ni45MjF8MjUzLjc1fDIzLjE3OTg=)' />
<polyline points='109.05,253.75 109.05,23.18 ' style='stroke-width: 1.07; stroke: #EBEBEB; stroke-linecap: butt;' clip-path='url(#cpNjMuMTE2fDI5Ni45MjF8MjUzLjc1fDIzLjE3OTg=)' />
<polyline points='177.62,253.75 177.62,23.18 ' style='stroke-width: 1.07; stroke: #EBEBEB; stroke-linecap: butt;' clip-path='url(#cpNjMuMTE2fDI5Ni45MjF8MjUzLjc1fDIzLjE3OTg=)' />
<polyline points='246.18,253.75 246.18,23.18 ' style='stroke-width: 1.07; stroke: #EBEBEB; stroke-linecap: butt;' clip-path='url(#cpNjMuMTE2fDI5Ni45MjF8MjUzLjc1fDIzLjE3OTg=)' />
<circle cx='74.77' cy='240.20' r='3.56pt' style='stroke-width: 0.71; stroke: #000000; stroke-opacity: 0.70; fill: #D1EEEE; fill-opacity: 0.70;' clip-path='url(#cpNjMuMTE2fDI5Ni45MjF8MjUzLjc1fDIzLjE3OTg=)' />
<circle cx='109.05' cy='167.78' r='3.56pt' style='stroke-width: 0.71; stroke: #000000; stroke-opacity: 0.70; fill: #D1EEEE; fill-opacity: 0.70;' clip-path='url(#cpNjMuMTE2fDI5Ni45MjF8MjUzLjc1fDIzLjE3OTg=)' />
<circle cx='143.34' cy='101.61' r='3.56pt' style='stroke-width: 0.71; stroke: #000000; stroke-opacity: 0.70; fill: #D1EEEE; fill-opacity: 0.70;' clip-path='url(#cpNjMuMTE2fDI5Ni45MjF8MjUzLjc1fDIzLjE3OTg=)' />
<circle cx='177.62' cy='33.66' r='3.56pt' style='stroke-width: 0.71; stroke: #000000; stroke-opacity: 0.70; fill: #D1EEEE; fill-opacity: 0.70;' clip-path='url(#cpNjMuMTE2fDI5Ni45MjF8MjUzLjc1fDIzLjE3OTg=)' />
<circle cx='211.90' cy='63.17' r='3.56pt' style='stroke-width: 0.71; stroke: #000000; stroke-opacity: 0.70; fill: #D1EEEE; fill-opacity: 0.70;' clip-path='url(#cpNjMuMTE2fDI5Ni45MjF8MjUzLjc1fDIzLjE3OTg=)' />
<circle cx='246.18' cy='52.44' r='3.56pt' style='stroke-width: 0.71; stroke: #000000; stroke-opacity: 0.70; fill: #D1EEEE; fill-opacity: 0.70;' clip-path='url(#cpNjMuMTE2fDI5Ni45MjF8MjUzLjc1fDIzLjE3OTg=)' />
<circle cx='280.47' cy='82.84' r='3.56pt' style='stroke-width: 0.71; stroke: #000000; stroke-opacity: 0.70; fill: #D1EEEE; fill-opacity: 0.70;' clip-path='url(#cpNjMuMTE2fDI5Ni45MjF8MjUzLjc1fDIzLjE3OTg=)' />
<polyline points='73.74,243.27 74.81,241.04 75.88,238.80 76.95,236.55 78.02,234.28 79.08,232.01 80.15,229.72 81.22,227.42 82.29,225.11 83.36,222.79 84.42,220.46 85.49,218.12 86.56,215.77 87.63,213.42 88.70,211.06 89.76,208.69 90.83,206.31 91.90,203.93 92.97,201.55 94.04,199.16 95.11,196.77 96.17,194.37 97.24,191.98 98.31,189.58 99.38,187.18 100.45,184.78 101.51,182.38 102.58,179.98 103.65,177.59 104.72,175.19 105.79,172.80 106.85,170.42 107.92,168.04 108.99,165.66 110.06,163.29 111.13,160.93 112.19,158.58 113.26,156.23 114.33,153.90 115.40,151.57 116.47,149.25 117.54,146.95 118.60,144.66 119.67,142.38 120.74,140.11 121.81,137.86 122.88,135.63 123.94,133.41 125.01,131.21 126.08,129.02 127.15,126.85 128.22,124.70 129.28,122.57 130.35,120.46 131.42,118.37 132.49,116.30 133.56,114.26 134.62,112.23 135.69,110.23 136.76,108.25 137.83,106.30 138.90,104.37 139.96,102.47 141.03,100.59 142.10,98.74 143.17,96.91 144.24,95.11 145.31,93.34 146.37,91.60 147.44,89.89 148.51,88.20 149.58,86.55 150.65,84.92 151.71,83.33 152.78,81.76 153.85,80.22 154.92,78.72 155.99,77.25 157.05,75.81 158.12,74.40 159.19,73.02 160.26,71.67 161.33,70.36 162.39,69.08 163.46,67.83 164.53,66.61 165.60,65.42 166.67,64.27 167.74,63.15 168.80,62.07 169.87,61.02 170.94,60.00 172.01,59.01 173.08,58.05 174.14,57.13 175.21,56.24 176.28,55.39 177.35,54.56 178.42,53.77 179.48,53.01 180.55,52.28 181.62,51.59 182.69,50.92 183.76,50.29 184.82,49.69 185.89,49.12 186.96,48.58 188.03,48.07 189.10,47.60 190.17,47.15 191.23,46.73 192.30,46.35 193.37,45.99 194.44,45.66 195.51,45.36 196.57,45.09 197.64,44.85 198.71,44.63 199.78,44.44 200.85,44.28 201.91,44.15 202.98,44.05 204.05,43.96 205.12,43.91 206.19,43.88 207.25,43.88 208.32,43.90 209.39,43.94 210.46,44.01 211.53,44.11 212.59,44.22 213.66,44.36 214.73,44.53 215.80,44.71 216.87,44.92 217.94,45.14 219.00,45.39 220.07,45.66 221.14,45.95 222.21,46.26 223.28,46.59 224.34,46.94 225.41,47.31 226.48,47.69 227.55,48.10 228.62,48.52 229.68,48.96 230.75,49.41 231.82,49.88 232.89,50.37 233.96,50.87 235.02,51.39 236.09,51.93 237.16,52.48 238.23,53.04 239.30,53.62 240.37,54.21 241.43,54.82 242.50,55.43 243.57,56.06 244.64,56.71 245.71,57.36 246.77,58.03 247.84,58.71 248.91,59.40 249.98,60.10 251.05,60.81 252.11,61.53 253.18,62.26 254.25,63.00 255.32,63.75 256.39,64.51 257.45,65.28 258.52,66.06 259.59,66.84 260.66,67.64 261.73,68.44 262.80,69.24 263.86,70.06 264.93,70.88 266.00,71.71 267.07,72.55 268.14,73.39 269.20,74.24 270.27,75.09 271.34,75.95 272.41,76.82 273.48,77.69 274.54,78.56 275.61,79.44 276.68,80.33 277.75,81.22 278.82,82.11 279.88,83.01 280.95,83.91 282.02,84.81 283.09,85.72 284.16,86.63 285.22,87.54 286.29,88.46 ' style='stroke-width: 2.77; stroke: #1B9E77; stroke-linecap: butt;' clip-path='url(#cpNjMuMTE2fDI5Ni45MjF8MjUzLjc1fDIzLjE3OTg=)' />
<g clip-path='url(#cpNjMuMTE2fDI5Ni45MjF8MjUzLjc1fDIzLjE3OTg=)'><text x='74.77' y='96.88' style='font-size: 8.54px; font-style: italic; font-family: Arial;' textLength='60.01px' lengthAdjust='spacingAndGlyphs'>R^2 sch= 0.97 </text></g>
<g clip-path='url(#cpNjMuMTE2fDI5Ni45MjF8MjUzLjc1fDIzLjE3OTg=)'><text x='74.77' y='109.18' style='font-size: 8.54px; font-style: italic; font-family: Arial;' textLength='55.29px' lengthAdjust='spacingAndGlyphs'>E sch= 0.775 </text></g>
<g clip-path='url(#cpNjMuMTE2fDI5Ni45MjF8MjUzLjc1fDIzLjE3OTg=)'><text x='74.77' y='121.47' style='font-size: 8.54px; font-style: italic; font-family: Arial;' textLength='59.78px' lengthAdjust='spacingAndGlyphs'>AIC sch= -18.8</text></g>
<rect x='63.12' y='23.18' width='233.80' height='230.57' style='stroke-width: 1.07; stroke: #333333;' clip-path='url(#cpNjMuMTE2fDI5Ni45MjF8MjUzLjc1fDIzLjE3OTg=)' />
<defs>
  <clipPath id='cpMHwzMDIuNHwyODh8MA=='>
    <rect x='0.00' y='0.00' width='302.40' height='288.00' />
  </clipPath>
</defs>
<g clip-path='url(#cpMHwzMDIuNHwyODh8MA==)'><text x='20.65' y='245.98' style='font-size: 8.80px; fill: #4D4D4D; font-family: Arial;' textLength='37.54px' lengthAdjust='spacingAndGlyphs'>0.000075</text></g>
<g clip-path='url(#cpMHwzMDIuNHwyODh8MA==)'><text x='20.65' y='191.10' style='font-size: 8.80px; fill: #4D4D4D; font-family: Arial;' textLength='37.54px' lengthAdjust='spacingAndGlyphs'>0.000100</text></g>
<g clip-path='url(#cpMHwzMDIuNHwyODh8MA==)'><text x='20.65' y='136.22' style='font-size: 8.80px; fill: #4D4D4D; font-family: Arial;' textLength='37.54px' lengthAdjust='spacingAndGlyphs'>0.000125</text></g>
<g clip-path='url(#cpMHwzMDIuNHwyODh8MA==)'><text x='20.65' y='81.34' style='font-size: 8.80px; fill: #4D4D4D; font-family: Arial;' textLength='37.54px' lengthAdjust='spacingAndGlyphs'>0.000150</text></g>
<g clip-path='url(#cpMHwzMDIuNHwyODh8MA==)'><text x='20.65' y='26.45' style='font-size: 8.80px; fill: #4D4D4D; font-family: Arial;' textLength='37.54px' lengthAdjust='spacingAndGlyphs'>0.000175</text></g>
<polyline points='60.38,242.76 63.12,242.76 ' style='stroke-width: 1.07; stroke: #333333; stroke-linecap: butt;' clip-path='url(#cpMHwzMDIuNHwyODh8MA==)' />
<polyline points='60.38,187.88 63.12,187.88 ' style='stroke-width: 1.07; stroke: #333333; stroke-linecap: butt;' clip-path='url(#cpMHwzMDIuNHwyODh8MA==)' />
<polyline points='60.38,133.00 63.12,133.00 ' style='stroke-width: 1.07; stroke: #333333; stroke-linecap: butt;' clip-path='url(#cpMHwzMDIuNHwyODh8MA==)' />
<polyline points='60.38,78.12 63.12,78.12 ' style='stroke-width: 1.07; stroke: #333333; stroke-linecap: butt;' clip-path='url(#cpMHwzMDIuNHwyODh8MA==)' />
<polyline points='60.38,23.23 63.12,23.23 ' style='stroke-width: 1.07; stroke: #333333; stroke-linecap: butt;' clip-path='url(#cpMHwzMDIuNHwyODh8MA==)' />
<polyline points='109.05,256.49 109.05,253.75 ' style='stroke-width: 1.07; stroke: #333333; stroke-linecap: butt;' clip-path='url(#cpMHwzMDIuNHwyODh8MA==)' />
<polyline points='177.62,256.49 177.62,253.75 ' style='stroke-width: 1.07; stroke: #333333; stroke-linecap: butt;' clip-path='url(#cpMHwzMDIuNHwyODh8MA==)' />
<polyline points='246.18,256.49 246.18,253.75 ' style='stroke-width: 1.07; stroke: #333333; stroke-linecap: butt;' clip-path='url(#cpMHwzMDIuNHwyODh8MA==)' />
<g clip-path='url(#cpMHwzMDIuNHwyODh8MA==)'><text x='104.05' y='265.12' style='font-size: 8.80px; fill: #4D4D4D; font-family: Arial;' textLength='10.01px' lengthAdjust='spacingAndGlyphs'>10</text></g>
<g clip-path='url(#cpMHwzMDIuNHwyODh8MA==)'><text x='172.61' y='265.12' style='font-size: 8.80px; fill: #4D4D4D; font-family: Arial;' textLength='10.01px' lengthAdjust='spacingAndGlyphs'>20</text></g>
<g clip-path='url(#cpMHwzMDIuNHwyODh8MA==)'><text x='241.18' y='265.12' style='font-size: 8.80px; fill: #4D4D4D; font-family: Arial;' textLength='10.01px' lengthAdjust='spacingAndGlyphs'>30</text></g>
<g clip-path='url(#cpMHwzMDIuNHwyODh8MA==)'><text x='141.07' y='277.88' style='font-size: 10.00px; font-family: Arial;' textLength='63.35px' lengthAdjust='spacingAndGlyphs'>Temperature (</text></g>
<g clip-path='url(#cpMHwzMDIuNHwyODh8MA==)'><text x='204.42' y='277.88' style='font-size: 10.00px; font-family: Symbol;' textLength='4.00px' lengthAdjust='spacingAndGlyphs'>°</text></g>
<g clip-path='url(#cpMHwzMDIuNHwyODh8MA==)'><text x='208.42' y='277.88' style='font-size: 10.00px; font-family: Arial;' textLength='7.22px' lengthAdjust='spacingAndGlyphs'>C</text></g>
<g clip-path='url(#cpMHwzMDIuNHwyODh8MA==)'><text x='215.64' y='277.88' style='font-size: 10.00px; font-family: Arial;' textLength='3.33px' lengthAdjust='spacingAndGlyphs'>)</text></g>
<g clip-path='url(#cpMHwzMDIuNHwyODh8MA==)'><text transform='translate(12.64,180.16) rotate(-90)' style='font-size: 10.00px; font-family: Arial;' textLength='83.39px' lengthAdjust='spacingAndGlyphs'>net photosynthesis</text></g>
<g clip-path='url(#cpMHwzMDIuNHwyODh8MA==)'><text x='63.12' y='14.07' style='font-size: 12.00px; font-family: Arial;' textLength='132.71px' lengthAdjust='spacingAndGlyphs'>Carex aquatilis (muskeg)</text></g>
</svg>
