<?xml version='1.0' encoding='UTF-8' ?>
<svg xmlns='http://www.w3.org/2000/svg' xmlns:xlink='http://www.w3.org/1999/xlink' viewBox='0 0 302.40 288.00'>
<defs>
  <style type='text/css'><![CDATA[
    line, polyline, path, rect, circle {
      fill: none;
      stroke: #000000;
      stroke-linecap: round;
      stroke-linejoin: round;
      stroke-miterlimit: 10.00;
    }
  ]]></style>
</defs>
<rect width='100%' height='100%' style='stroke: none; fill: #FFFFFF;'/>
<rect x='0.00' y='0.00' width='302.40' height='288.00' style='stroke-width: 1.07; stroke: #FFFFFF; fill: #FFFFFF;' />
<defs>
  <clipPath id='cpNTUuOTYxN3wyOTYuOTIxfDI1My43NXwyMC43ODky'>
    <rect x='55.96' y='20.79' width='240.96' height='232.96' />
  </clipPath>
</defs>
<rect x='55.96' y='20.79' width='240.96' height='232.96' style='stroke-width: 1.07; stroke: none; fill: #FFFFFF;' clip-path='url(#cpNTUuOTYxN3wyOTYuOTIxfDI1My43NXwyMC43ODky)' />
<polyline points='55.96,229.36 296.92,229.36 ' style='stroke-width: 0.53; stroke: #EBEBEB; stroke-linecap: butt;' clip-path='url(#cpNTUuOTYxN3wyOTYuOTIxfDI1My43NXwyMC43ODky)' />
<polyline points='55.96,170.20 296.92,170.20 ' style='stroke-width: 0.53; stroke: #EBEBEB; stroke-linecap: butt;' clip-path='url(#cpNTUuOTYxN3wyOTYuOTIxfDI1My43NXwyMC43ODky)' />
<polyline points='55.96,111.05 296.92,111.05 ' style='stroke-width: 0.53; stroke: #EBEBEB; stroke-linecap: butt;' clip-path='url(#cpNTUuOTYxN3wyOTYuOTIxfDI1My43NXwyMC43ODky)' />
<polyline points='55.96,51.89 296.92,51.89 ' style='stroke-width: 0.53; stroke: #EBEBEB; stroke-linecap: butt;' clip-path='url(#cpNTUuOTYxN3wyOTYuOTIxfDI1My43NXwyMC43ODky)' />
<polyline points='67.57,253.75 67.57,20.79 ' style='stroke-width: 0.53; stroke: #EBEBEB; stroke-linecap: butt;' clip-path='url(#cpNTUuOTYxN3wyOTYuOTIxfDI1My43NXwyMC43ODky)' />
<polyline points='155.19,253.75 155.19,20.79 ' style='stroke-width: 0.53; stroke: #EBEBEB; stroke-linecap: butt;' clip-path='url(#cpNTUuOTYxN3wyOTYuOTIxfDI1My43NXwyMC43ODky)' />
<polyline points='242.81,253.75 242.81,20.79 ' style='stroke-width: 0.53; stroke: #EBEBEB; stroke-linecap: butt;' clip-path='url(#cpNTUuOTYxN3wyOTYuOTIxfDI1My43NXwyMC43ODky)' />
<polyline points='55.96,199.78 296.92,199.78 ' style='stroke-width: 1.07; stroke: #EBEBEB; stroke-linecap: butt;' clip-path='url(#cpNTUuOTYxN3wyOTYuOTIxfDI1My43NXwyMC43ODky)' />
<polyline points='55.96,140.62 296.92,140.62 ' style='stroke-width: 1.07; stroke: #EBEBEB; stroke-linecap: butt;' clip-path='url(#cpNTUuOTYxN3wyOTYuOTIxfDI1My43NXwyMC43ODky)' />
<polyline points='55.96,81.47 296.92,81.47 ' style='stroke-width: 1.07; stroke: #EBEBEB; stroke-linecap: butt;' clip-path='url(#cpNTUuOTYxN3wyOTYuOTIxfDI1My43NXwyMC43ODky)' />
<polyline points='55.96,22.31 296.92,22.31 ' style='stroke-width: 1.07; stroke: #EBEBEB; stroke-linecap: butt;' clip-path='url(#cpNTUuOTYxN3wyOTYuOTIxfDI1My43NXwyMC43ODky)' />
<polyline points='111.38,253.75 111.38,20.79 ' style='stroke-width: 1.07; stroke: #EBEBEB; stroke-linecap: butt;' clip-path='url(#cpNTUuOTYxN3wyOTYuOTIxfDI1My43NXwyMC43ODky)' />
<polyline points='199.00,253.75 199.00,20.79 ' style='stroke-width: 1.07; stroke: #EBEBEB; stroke-linecap: butt;' clip-path='url(#cpNTUuOTYxN3wyOTYuOTIxfDI1My43NXwyMC43ODky)' />
<polyline points='286.63,253.75 286.63,20.79 ' style='stroke-width: 1.07; stroke: #EBEBEB; stroke-linecap: butt;' clip-path='url(#cpNTUuOTYxN3wyOTYuOTIxfDI1My43NXwyMC43ODky)' />
<circle cx='67.18' cy='241.01' r='3.56pt' style='stroke-width: 0.71; stroke: #000000; stroke-opacity: 0.70; fill: #D1EEEE; fill-opacity: 0.70;' clip-path='url(#cpNTUuOTYxN3wyOTYuOTIxfDI1My43NXwyMC43ODky)' />
<circle cx='70.12' cy='243.16' r='3.56pt' style='stroke-width: 0.71; stroke: #000000; stroke-opacity: 0.70; fill: #D1EEEE; fill-opacity: 0.70;' clip-path='url(#cpNTUuOTYxN3wyOTYuOTIxfDI1My43NXwyMC43ODky)' />
<circle cx='89.91' cy='229.54' r='3.56pt' style='stroke-width: 0.71; stroke: #000000; stroke-opacity: 0.70; fill: #D1EEEE; fill-opacity: 0.70;' clip-path='url(#cpNTUuOTYxN3wyOTYuOTIxfDI1My43NXwyMC43ODky)' />
<circle cx='111.26' cy='225.95' r='3.56pt' style='stroke-width: 0.71; stroke: #000000; stroke-opacity: 0.70; fill: #D1EEEE; fill-opacity: 0.70;' clip-path='url(#cpNTUuOTYxN3wyOTYuOTIxfDI1My43NXwyMC43ODky)' />
<circle cx='112.64' cy='220.22' r='3.56pt' style='stroke-width: 0.71; stroke: #000000; stroke-opacity: 0.70; fill: #D1EEEE; fill-opacity: 0.70;' clip-path='url(#cpNTUuOTYxN3wyOTYuOTIxfDI1My43NXwyMC43ODky)' />
<circle cx='155.15' cy='160.70' r='3.56pt' style='stroke-width: 0.71; stroke: #000000; stroke-opacity: 0.70; fill: #D1EEEE; fill-opacity: 0.70;' clip-path='url(#cpNTUuOTYxN3wyOTYuOTIxfDI1My43NXwyMC43ODky)' />
<circle cx='155.94' cy='168.59' r='3.56pt' style='stroke-width: 0.71; stroke: #000000; stroke-opacity: 0.70; fill: #D1EEEE; fill-opacity: 0.70;' clip-path='url(#cpNTUuOTYxN3wyOTYuOTIxfDI1My43NXwyMC43ODky)' />
<circle cx='198.06' cy='88.28' r='3.56pt' style='stroke-width: 0.71; stroke: #000000; stroke-opacity: 0.70; fill: #D1EEEE; fill-opacity: 0.70;' clip-path='url(#cpNTUuOTYxN3wyOTYuOTIxfDI1My43NXwyMC43ODky)' />
<circle cx='199.63' cy='71.79' r='3.56pt' style='stroke-width: 0.71; stroke: #000000; stroke-opacity: 0.70; fill: #D1EEEE; fill-opacity: 0.70;' clip-path='url(#cpNTUuOTYxN3wyOTYuOTIxfDI1My43NXwyMC43ODky)' />
<circle cx='241.17' cy='38.81' r='3.56pt' style='stroke-width: 0.71; stroke: #000000; stroke-opacity: 0.70; fill: #D1EEEE; fill-opacity: 0.70;' clip-path='url(#cpNTUuOTYxN3wyOTYuOTIxfDI1My43NXwyMC43ODky)' />
<circle cx='243.72' cy='35.22' r='3.56pt' style='stroke-width: 0.71; stroke: #000000; stroke-opacity: 0.70; fill: #D1EEEE; fill-opacity: 0.70;' clip-path='url(#cpNTUuOTYxN3wyOTYuOTIxfDI1My43NXwyMC43ODky)' />
<circle cx='285.65' cy='137.76' r='3.56pt' style='stroke-width: 0.71; stroke: #000000; stroke-opacity: 0.70; fill: #D1EEEE; fill-opacity: 0.70;' clip-path='url(#cpNTUuOTYxN3wyOTYuOTIxfDI1My43NXwyMC43ODky)' />
<polyline points='66.91,242.82 68.02,242.44 69.12,242.06 70.22,241.67 71.32,241.26 72.42,240.86 73.52,240.44 74.62,240.01 75.72,239.58 76.82,239.13 77.92,238.68 79.02,238.21 80.12,237.74 81.22,237.25 82.33,236.76 83.43,236.26 84.53,235.74 85.63,235.22 86.73,234.68 87.83,234.13 88.93,233.57 90.03,233.00 91.13,232.42 92.23,231.83 93.33,231.22 94.43,230.60 95.53,229.97 96.64,229.33 97.74,228.67 98.84,228.00 99.94,227.31 101.04,226.62 102.14,225.90 103.24,225.18 104.34,224.44 105.44,223.68 106.54,222.91 107.64,222.12 108.74,221.32 109.84,220.50 110.95,219.67 112.05,218.82 113.15,217.95 114.25,217.06 115.35,216.16 116.45,215.24 117.55,214.30 118.65,213.35 119.75,212.37 120.85,211.38 121.95,210.37 123.05,209.34 124.15,208.29 125.26,207.22 126.36,206.12 127.46,205.01 128.56,203.88 129.66,202.72 130.76,201.55 131.86,200.35 132.96,199.13 134.06,197.89 135.16,196.62 136.26,195.33 137.36,194.02 138.46,192.68 139.57,191.32 140.67,189.94 141.77,188.53 142.87,187.09 143.97,185.63 145.07,184.15 146.17,182.64 147.27,181.10 148.37,179.54 149.47,177.95 150.57,176.33 151.67,174.68 152.77,173.01 153.88,171.32 154.98,169.59 156.08,167.83 157.18,166.05 158.28,164.24 159.38,162.41 160.48,160.54 161.58,158.65 162.68,156.72 163.78,154.77 164.88,152.79 165.98,150.79 167.08,148.75 168.19,146.69 169.29,144.60 170.39,142.49 171.49,140.34 172.59,138.17 173.69,135.98 174.79,133.76 175.89,131.51 176.99,129.24 178.09,126.95 179.19,124.63 180.29,122.30 181.39,119.94 182.50,117.56 183.60,115.17 184.70,112.75 185.80,110.33 186.90,107.88 188.00,105.43 189.10,102.96 190.20,100.49 191.30,98.01 192.40,95.52 193.50,93.03 194.60,90.55 195.70,88.06 196.81,85.58 197.91,83.11 199.01,80.64 200.11,78.20 201.21,75.77 202.31,73.36 203.41,70.97 204.51,68.62 205.61,66.29 206.71,64.01 207.81,61.76 208.91,59.55 210.01,57.40 211.12,55.30 212.22,53.25 213.32,51.27 214.42,49.36 215.52,47.51 216.62,45.75 217.72,44.06 218.82,42.46 219.92,40.95 221.02,39.53 222.12,38.22 223.22,37.00 224.32,35.90 225.43,34.91 226.53,34.03 227.63,33.27 228.73,32.64 229.83,32.13 230.93,31.75 232.03,31.50 233.13,31.38 234.23,31.40 235.33,31.55 236.43,31.84 237.53,32.27 238.63,32.84 239.74,33.54 240.84,34.39 241.94,35.36 243.04,36.48 244.14,37.72 245.24,39.09 246.34,40.60 247.44,42.22 248.54,43.97 249.64,45.83 250.74,47.80 251.84,49.89 252.94,52.07 254.05,54.35 255.15,56.73 256.25,59.19 257.35,61.74 258.45,64.36 259.55,67.05 260.65,69.81 261.75,72.63 262.85,75.49 263.95,78.41 265.05,81.37 266.15,84.36 267.25,87.38 268.36,90.43 269.46,93.50 270.56,96.58 271.66,99.68 272.76,102.77 273.86,105.87 274.96,108.96 276.06,112.05 277.16,115.12 278.26,118.18 279.36,121.22 280.46,124.24 281.56,127.23 282.67,130.19 283.77,133.13 284.87,136.03 285.97,138.89 ' style='stroke-width: 2.77; stroke: #1B9E77; stroke-linecap: butt;' clip-path='url(#cpNTUuOTYxN3wyOTYuOTIxfDI1My43NXwyMC43ODky)' />
<g clip-path='url(#cpNTUuOTYxN3wyOTYuOTIxfDI1My43NXwyMC43ODky)'><text x='67.18' y='146.01' style='font-size: 8.54px; font-style: italic; font-family: Arial;' textLength='60.01px' lengthAdjust='spacingAndGlyphs'>R^2 sch= 1.00 </text></g>
<g clip-path='url(#cpNTUuOTYxN3wyOTYuOTIxfDI1My43NXwyMC43ODky)'><text x='67.18' y='158.30' style='font-size: 8.54px; font-style: italic; font-family: Arial;' textLength='55.29px' lengthAdjust='spacingAndGlyphs'>E sch= 0.634 </text></g>
<g clip-path='url(#cpNTUuOTYxN3wyOTYuOTIxfDI1My43NXwyMC43ODky)'><text x='67.18' y='170.60' style='font-size: 8.54px; font-style: italic; font-family: Arial;' textLength='52.27px' lengthAdjust='spacingAndGlyphs'>AIC sch= -16</text></g>
<rect x='55.96' y='20.79' width='240.96' height='232.96' style='stroke-width: 1.07; stroke: #333333;' clip-path='url(#cpNTUuOTYxN3wyOTYuOTIxfDI1My43NXwyMC43ODky)' />
<defs>
  <clipPath id='cpMHwzMDIuNHwyODh8MA=='>
    <rect x='0.00' y='0.00' width='302.40' height='288.00' />
  </clipPath>
</defs>
<g clip-path='url(#cpMHwzMDIuNHwyODh8MA==)'><text x='20.51' y='203.00' style='font-size: 8.80px; fill: #4D4D4D; font-family: Arial;' textLength='30.52px' lengthAdjust='spacingAndGlyphs'>3.0e-06</text></g>
<g clip-path='url(#cpMHwzMDIuNHwyODh8MA==)'><text x='20.51' y='143.84' style='font-size: 8.80px; fill: #4D4D4D; font-family: Arial;' textLength='30.52px' lengthAdjust='spacingAndGlyphs'>6.0e-06</text></g>
<g clip-path='url(#cpMHwzMDIuNHwyODh8MA==)'><text x='20.51' y='84.69' style='font-size: 8.80px; fill: #4D4D4D; font-family: Arial;' textLength='30.52px' lengthAdjust='spacingAndGlyphs'>9.0e-06</text></g>
<g clip-path='url(#cpMHwzMDIuNHwyODh8MA==)'><text x='20.51' y='25.53' style='font-size: 8.80px; fill: #4D4D4D; font-family: Arial;' textLength='30.52px' lengthAdjust='spacingAndGlyphs'>1.2e-05</text></g>
<polyline points='53.22,199.78 55.96,199.78 ' style='stroke-width: 1.07; stroke: #333333; stroke-linecap: butt;' clip-path='url(#cpMHwzMDIuNHwyODh8MA==)' />
<polyline points='53.22,140.62 55.96,140.62 ' style='stroke-width: 1.07; stroke: #333333; stroke-linecap: butt;' clip-path='url(#cpMHwzMDIuNHwyODh8MA==)' />
<polyline points='53.22,81.47 55.96,81.47 ' style='stroke-width: 1.07; stroke: #333333; stroke-linecap: butt;' clip-path='url(#cpMHwzMDIuNHwyODh8MA==)' />
<polyline points='53.22,22.31 55.96,22.31 ' style='stroke-width: 1.07; stroke: #333333; stroke-linecap: butt;' clip-path='url(#cpMHwzMDIuNHwyODh8MA==)' />
<polyline points='111.38,256.49 111.38,253.75 ' style='stroke-width: 1.07; stroke: #333333; stroke-linecap: butt;' clip-path='url(#cpMHwzMDIuNHwyODh8MA==)' />
<polyline points='199.00,256.49 199.00,253.75 ' style='stroke-width: 1.07; stroke: #333333; stroke-linecap: butt;' clip-path='url(#cpMHwzMDIuNHwyODh8MA==)' />
<polyline points='286.63,256.49 286.63,253.75 ' style='stroke-width: 1.07; stroke: #333333; stroke-linecap: butt;' clip-path='url(#cpMHwzMDIuNHwyODh8MA==)' />
<g clip-path='url(#cpMHwzMDIuNHwyODh8MA==)'><text x='106.38' y='265.12' style='font-size: 8.80px; fill: #4D4D4D; font-family: Arial;' textLength='10.01px' lengthAdjust='spacingAndGlyphs'>20</text></g>
<g clip-path='url(#cpMHwzMDIuNHwyODh8MA==)'><text x='194.00' y='265.12' style='font-size: 8.80px; fill: #4D4D4D; font-family: Arial;' textLength='10.01px' lengthAdjust='spacingAndGlyphs'>40</text></g>
<g clip-path='url(#cpMHwzMDIuNHwyODh8MA==)'><text x='281.62' y='265.12' style='font-size: 8.80px; fill: #4D4D4D; font-family: Arial;' textLength='10.01px' lengthAdjust='spacingAndGlyphs'>60</text></g>
<g clip-path='url(#cpMHwzMDIuNHwyODh8MA==)'><text x='137.49' y='277.88' style='font-size: 10.00px; font-family: Arial;' textLength='63.35px' lengthAdjust='spacingAndGlyphs'>Temperature (</text></g>
<g clip-path='url(#cpMHwzMDIuNHwyODh8MA==)'><text x='200.84' y='277.88' style='font-size: 10.00px; font-family: Symbol;' textLength='4.00px' lengthAdjust='spacingAndGlyphs'>°</text></g>
<g clip-path='url(#cpMHwzMDIuNHwyODh8MA==)'><text x='204.84' y='277.88' style='font-size: 10.00px; font-family: Arial;' textLength='7.22px' lengthAdjust='spacingAndGlyphs'>C</text></g>
<g clip-path='url(#cpMHwzMDIuNHwyODh8MA==)'><text x='212.06' y='277.88' style='font-size: 10.00px; font-family: Arial;' textLength='3.33px' lengthAdjust='spacingAndGlyphs'>)</text></g>
<g clip-path='url(#cpMHwzMDIuNHwyODh8MA==)'><text transform='translate(12.64,170.62) rotate(-90)' style='font-size: 10.00px; font-family: Arial;' textLength='66.70px' lengthAdjust='spacingAndGlyphs'>respiration rate</text></g>
<g clip-path='url(#cpMHwzMDIuNHwyODh8MA==)'><text x='55.96' y='14.07' style='font-size: 12.00px; font-family: Arial;' textLength='124.74px' lengthAdjust='spacingAndGlyphs'>Ferocactus acanthodes</text></g>
</svg>
