<?xml version='1.0' encoding='UTF-8' ?>
<svg xmlns='http://www.w3.org/2000/svg' xmlns:xlink='http://www.w3.org/1999/xlink' viewBox='0 0 302.40 288.00'>
<defs>
  <style type='text/css'><![CDATA[
    line, polyline, path, rect, circle {
      fill: none;
      stroke: #000000;
      stroke-linecap: round;
      stroke-linejoin: round;
      stroke-miterlimit: 10.00;
    }
  ]]></style>
</defs>
<rect width='100%' height='100%' style='stroke: none; fill: #FFFFFF;'/>
<rect x='0.00' y='0.00' width='302.40' height='288.00' style='stroke-width: 1.07; stroke: #FFFFFF; fill: #FFFFFF;' />
<defs>
  <clipPath id='cpNTYuMTAyM3wyOTYuOTIxfDI1My43NXwyMC43ODky'>
    <rect x='56.10' y='20.79' width='240.82' height='232.96' />
  </clipPath>
</defs>
<rect x='56.10' y='20.79' width='240.82' height='232.96' style='stroke-width: 1.07; stroke: none; fill: #FFFFFF;' clip-path='url(#cpNTYuMTAyM3wyOTYuOTIxfDI1My43NXwyMC43ODky)' />
<polyline points='56.10,221.13 296.92,221.13 ' style='stroke-width: 0.53; stroke: #EBEBEB; stroke-linecap: butt;' clip-path='url(#cpNTYuMTAyM3wyOTYuOTIxfDI1My43NXwyMC43ODky)' />
<polyline points='56.10,160.18 296.92,160.18 ' style='stroke-width: 0.53; stroke: #EBEBEB; stroke-linecap: butt;' clip-path='url(#cpNTYuMTAyM3wyOTYuOTIxfDI1My43NXwyMC43ODky)' />
<polyline points='56.10,99.22 296.92,99.22 ' style='stroke-width: 0.53; stroke: #EBEBEB; stroke-linecap: butt;' clip-path='url(#cpNTYuMTAyM3wyOTYuOTIxfDI1My43NXwyMC43ODky)' />
<polyline points='56.10,38.26 296.92,38.26 ' style='stroke-width: 0.53; stroke: #EBEBEB; stroke-linecap: butt;' clip-path='url(#cpNTYuMTAyM3wyOTYuOTIxfDI1My43NXwyMC43ODky)' />
<polyline points='94.67,253.75 94.67,20.79 ' style='stroke-width: 0.53; stroke: #EBEBEB; stroke-linecap: butt;' clip-path='url(#cpNTYuMTAyM3wyOTYuOTIxfDI1My43NXwyMC43ODky)' />
<polyline points='146.80,253.75 146.80,20.79 ' style='stroke-width: 0.53; stroke: #EBEBEB; stroke-linecap: butt;' clip-path='url(#cpNTYuMTAyM3wyOTYuOTIxfDI1My43NXwyMC43ODky)' />
<polyline points='198.93,253.75 198.93,20.79 ' style='stroke-width: 0.53; stroke: #EBEBEB; stroke-linecap: butt;' clip-path='url(#cpNTYuMTAyM3wyOTYuOTIxfDI1My43NXwyMC43ODky)' />
<polyline points='251.05,253.75 251.05,20.79 ' style='stroke-width: 0.53; stroke: #EBEBEB; stroke-linecap: butt;' clip-path='url(#cpNTYuMTAyM3wyOTYuOTIxfDI1My43NXwyMC43ODky)' />
<polyline points='56.10,251.61 296.92,251.61 ' style='stroke-width: 1.07; stroke: #EBEBEB; stroke-linecap: butt;' clip-path='url(#cpNTYuMTAyM3wyOTYuOTIxfDI1My43NXwyMC43ODky)' />
<polyline points='56.10,190.65 296.92,190.65 ' style='stroke-width: 1.07; stroke: #EBEBEB; stroke-linecap: butt;' clip-path='url(#cpNTYuMTAyM3wyOTYuOTIxfDI1My43NXwyMC43ODky)' />
<polyline points='56.10,129.70 296.92,129.70 ' style='stroke-width: 1.07; stroke: #EBEBEB; stroke-linecap: butt;' clip-path='url(#cpNTYuMTAyM3wyOTYuOTIxfDI1My43NXwyMC43ODky)' />
<polyline points='56.10,68.74 296.92,68.74 ' style='stroke-width: 1.07; stroke: #EBEBEB; stroke-linecap: butt;' clip-path='url(#cpNTYuMTAyM3wyOTYuOTIxfDI1My43NXwyMC43ODky)' />
<polyline points='68.61,253.75 68.61,20.79 ' style='stroke-width: 1.07; stroke: #EBEBEB; stroke-linecap: butt;' clip-path='url(#cpNTYuMTAyM3wyOTYuOTIxfDI1My43NXwyMC43ODky)' />
<polyline points='120.74,253.75 120.74,20.79 ' style='stroke-width: 1.07; stroke: #EBEBEB; stroke-linecap: butt;' clip-path='url(#cpNTYuMTAyM3wyOTYuOTIxfDI1My43NXwyMC43ODky)' />
<polyline points='172.86,253.75 172.86,20.79 ' style='stroke-width: 1.07; stroke: #EBEBEB; stroke-linecap: butt;' clip-path='url(#cpNTYuMTAyM3wyOTYuOTIxfDI1My43NXwyMC43ODky)' />
<polyline points='224.99,253.75 224.99,20.79 ' style='stroke-width: 1.07; stroke: #EBEBEB; stroke-linecap: butt;' clip-path='url(#cpNTYuMTAyM3wyOTYuOTIxfDI1My43NXwyMC43ODky)' />
<polyline points='277.11,253.75 277.11,20.79 ' style='stroke-width: 1.07; stroke: #EBEBEB; stroke-linecap: butt;' clip-path='url(#cpNTYuMTAyM3wyOTYuOTIxfDI1My43NXwyMC43ODky)' />
<circle cx='68.61' cy='91.98' r='3.56pt' style='stroke-width: 0.71; stroke: #000000; stroke-opacity: 0.70; fill: #D1EEEE; fill-opacity: 0.70;' clip-path='url(#cpNTYuMTAyM3wyOTYuOTIxfDI1My43NXwyMC43ODky)' />
<circle cx='120.74' cy='96.55' r='3.56pt' style='stroke-width: 0.71; stroke: #000000; stroke-opacity: 0.70; fill: #D1EEEE; fill-opacity: 0.70;' clip-path='url(#cpNTYuMTAyM3wyOTYuOTIxfDI1My43NXwyMC43ODky)' />
<circle cx='172.86' cy='167.03' r='3.56pt' style='stroke-width: 0.71; stroke: #000000; stroke-opacity: 0.70; fill: #D1EEEE; fill-opacity: 0.70;' clip-path='url(#cpNTYuMTAyM3wyOTYuOTIxfDI1My43NXwyMC43ODky)' />
<circle cx='224.99' cy='205.89' r='3.56pt' style='stroke-width: 0.71; stroke: #000000; stroke-opacity: 0.70; fill: #D1EEEE; fill-opacity: 0.70;' clip-path='url(#cpNTYuMTAyM3wyOTYuOTIxfDI1My43NXwyMC43ODky)' />
<circle cx='277.11' cy='239.80' r='3.56pt' style='stroke-width: 0.71; stroke: #000000; stroke-opacity: 0.70; fill: #D1EEEE; fill-opacity: 0.70;' clip-path='url(#cpNTYuMTAyM3wyOTYuOTIxfDI1My43NXwyMC43ODky)' />
<polyline points='67.05,115.92 68.15,98.68 69.25,83.39 70.35,70.30 71.45,59.45 72.55,50.76 73.65,44.05 74.75,39.06 75.85,35.53 76.95,33.22 78.05,31.91 79.15,31.38 80.25,31.48 81.35,32.06 82.45,33.02 83.55,34.27 84.65,35.75 85.75,37.38 86.85,39.14 87.95,40.99 89.05,42.91 90.15,44.87 91.25,46.87 92.35,48.88 93.45,50.90 94.55,52.93 95.65,54.96 96.75,56.98 97.85,58.99 98.95,61.00 100.05,62.99 101.15,64.97 102.25,66.93 103.35,68.88 104.45,70.82 105.55,72.74 106.65,74.65 107.75,76.54 108.85,78.41 109.95,80.27 111.05,82.11 112.15,83.94 113.25,85.75 114.35,87.54 115.45,89.33 116.55,91.09 117.65,92.84 118.75,94.58 119.85,96.30 120.95,98.00 122.06,99.69 123.16,101.37 124.26,103.03 125.36,104.68 126.46,106.32 127.56,107.94 128.66,109.54 129.76,111.14 130.86,112.72 131.96,114.28 133.06,115.83 134.16,117.37 135.26,118.90 136.36,120.41 137.46,121.91 138.56,123.40 139.66,124.87 140.76,126.34 141.86,127.79 142.96,129.22 144.06,130.65 145.16,132.06 146.26,133.46 147.36,134.85 148.46,136.23 149.56,137.60 150.66,138.95 151.76,140.30 152.86,141.63 153.96,142.95 155.06,144.26 156.16,145.56 157.26,146.84 158.36,148.12 159.46,149.39 160.56,150.64 161.66,151.89 162.76,153.12 163.86,154.35 164.96,155.56 166.06,156.77 167.16,157.96 168.26,159.14 169.36,160.32 170.46,161.48 171.56,162.64 172.66,163.78 173.76,164.92 174.86,166.04 175.96,167.16 177.06,168.27 178.16,169.37 179.26,170.46 180.36,171.54 181.46,172.61 182.56,173.67 183.66,174.72 184.76,175.77 185.86,176.81 186.96,177.83 188.06,178.85 189.16,179.86 190.26,180.87 191.36,181.86 192.46,182.85 193.56,183.82 194.66,184.79 195.76,185.76 196.86,186.71 197.96,187.66 199.06,188.60 200.16,189.53 201.26,190.45 202.36,191.37 203.46,192.27 204.56,193.17 205.66,194.07 206.76,194.95 207.87,195.83 208.97,196.70 210.07,197.57 211.17,198.43 212.27,199.28 213.37,200.12 214.47,200.96 215.57,201.79 216.67,202.61 217.77,203.43 218.87,204.24 219.97,205.04 221.07,205.84 222.17,206.63 223.27,207.41 224.37,208.19 225.47,208.96 226.57,209.73 227.67,210.49 228.77,211.24 229.87,211.99 230.97,212.73 232.07,213.47 233.17,214.20 234.27,214.92 235.37,215.64 236.47,216.35 237.57,217.05 238.67,217.75 239.77,218.45 240.87,219.14 241.97,219.82 243.07,220.50 244.17,221.17 245.27,221.84 246.37,222.50 247.47,223.16 248.57,223.81 249.67,224.46 250.77,225.10 251.87,225.74 252.97,226.37 254.07,227.00 255.17,227.62 256.27,228.23 257.37,228.84 258.47,229.45 259.57,230.05 260.67,230.65 261.77,231.24 262.87,231.83 263.97,232.41 265.07,232.99 266.17,233.57 267.27,234.14 268.37,234.70 269.47,235.26 270.57,235.82 271.67,236.37 272.77,236.92 273.87,237.46 274.97,238.00 276.07,238.53 277.17,239.06 278.27,239.59 279.37,240.11 280.47,240.63 281.57,241.14 282.67,241.65 283.77,242.16 284.87,242.66 285.97,243.16 ' style='stroke-width: 2.77; stroke: #1B9E77; stroke-linecap: butt;' clip-path='url(#cpNTYuMTAyM3wyOTYuOTIxfDI1My43NXwyMC43ODky)' />
<g clip-path='url(#cpNTYuMTAyM3wyOTYuOTIxfDI1My43NXwyMC43ODky)'><text x='68.61' y='151.18' style='font-size: 8.54px; font-style: italic; font-family: Arial;' textLength='60.01px' lengthAdjust='spacingAndGlyphs'>R^2 sch= 1.00 </text></g>
<g clip-path='url(#cpNTYuMTAyM3wyOTYuOTIxfDI1My43NXwyMC43ODky)'><text x='68.61' y='163.47' style='font-size: 8.54px; font-style: italic; font-family: Arial;' textLength='50.28px' lengthAdjust='spacingAndGlyphs'>E sch= 18.4 </text></g>
<g clip-path='url(#cpNTYuMTAyM3wyOTYuOTIxfDI1My43NXwyMC43ODky)'><text x='68.61' y='175.76' style='font-size: 8.54px; font-style: italic; font-family: Arial;' textLength='59.78px' lengthAdjust='spacingAndGlyphs'>AIC sch= -17.3</text></g>
<rect x='56.10' y='20.79' width='240.82' height='232.96' style='stroke-width: 1.07; stroke: #333333;' clip-path='url(#cpNTYuMTAyM3wyOTYuOTIxfDI1My43NXwyMC43ODky)' />
<defs>
  <clipPath id='cpMHwzMDIuNHwyODh8MA=='>
    <rect x='0.00' y='0.00' width='302.40' height='288.00' />
  </clipPath>
</defs>
<g clip-path='url(#cpMHwzMDIuNHwyODh8MA==)'><text x='20.65' y='254.83' style='font-size: 8.80px; fill: #4D4D4D; font-family: Arial;' textLength='30.52px' lengthAdjust='spacingAndGlyphs'>4.0e-06</text></g>
<g clip-path='url(#cpMHwzMDIuNHwyODh8MA==)'><text x='20.65' y='193.87' style='font-size: 8.80px; fill: #4D4D4D; font-family: Arial;' textLength='30.52px' lengthAdjust='spacingAndGlyphs'>8.0e-06</text></g>
<g clip-path='url(#cpMHwzMDIuNHwyODh8MA==)'><text x='20.65' y='132.92' style='font-size: 8.80px; fill: #4D4D4D; font-family: Arial;' textLength='30.52px' lengthAdjust='spacingAndGlyphs'>1.2e-05</text></g>
<g clip-path='url(#cpMHwzMDIuNHwyODh8MA==)'><text x='20.65' y='71.96' style='font-size: 8.80px; fill: #4D4D4D; font-family: Arial;' textLength='30.52px' lengthAdjust='spacingAndGlyphs'>1.6e-05</text></g>
<polyline points='53.36,251.61 56.10,251.61 ' style='stroke-width: 1.07; stroke: #333333; stroke-linecap: butt;' clip-path='url(#cpMHwzMDIuNHwyODh8MA==)' />
<polyline points='53.36,190.65 56.10,190.65 ' style='stroke-width: 1.07; stroke: #333333; stroke-linecap: butt;' clip-path='url(#cpMHwzMDIuNHwyODh8MA==)' />
<polyline points='53.36,129.70 56.10,129.70 ' style='stroke-width: 1.07; stroke: #333333; stroke-linecap: butt;' clip-path='url(#cpMHwzMDIuNHwyODh8MA==)' />
<polyline points='53.36,68.74 56.10,68.74 ' style='stroke-width: 1.07; stroke: #333333; stroke-linecap: butt;' clip-path='url(#cpMHwzMDIuNHwyODh8MA==)' />
<polyline points='68.61,256.49 68.61,253.75 ' style='stroke-width: 1.07; stroke: #333333; stroke-linecap: butt;' clip-path='url(#cpMHwzMDIuNHwyODh8MA==)' />
<polyline points='120.74,256.49 120.74,253.75 ' style='stroke-width: 1.07; stroke: #333333; stroke-linecap: butt;' clip-path='url(#cpMHwzMDIuNHwyODh8MA==)' />
<polyline points='172.86,256.49 172.86,253.75 ' style='stroke-width: 1.07; stroke: #333333; stroke-linecap: butt;' clip-path='url(#cpMHwzMDIuNHwyODh8MA==)' />
<polyline points='224.99,256.49 224.99,253.75 ' style='stroke-width: 1.07; stroke: #333333; stroke-linecap: butt;' clip-path='url(#cpMHwzMDIuNHwyODh8MA==)' />
<polyline points='277.11,256.49 277.11,253.75 ' style='stroke-width: 1.07; stroke: #333333; stroke-linecap: butt;' clip-path='url(#cpMHwzMDIuNHwyODh8MA==)' />
<g clip-path='url(#cpMHwzMDIuNHwyODh8MA==)'><text x='63.61' y='265.12' style='font-size: 8.80px; fill: #4D4D4D; font-family: Arial;' textLength='10.01px' lengthAdjust='spacingAndGlyphs'>25</text></g>
<g clip-path='url(#cpMHwzMDIuNHwyODh8MA==)'><text x='115.73' y='265.12' style='font-size: 8.80px; fill: #4D4D4D; font-family: Arial;' textLength='10.01px' lengthAdjust='spacingAndGlyphs'>30</text></g>
<g clip-path='url(#cpMHwzMDIuNHwyODh8MA==)'><text x='167.86' y='265.12' style='font-size: 8.80px; fill: #4D4D4D; font-family: Arial;' textLength='10.01px' lengthAdjust='spacingAndGlyphs'>35</text></g>
<g clip-path='url(#cpMHwzMDIuNHwyODh8MA==)'><text x='219.98' y='265.12' style='font-size: 8.80px; fill: #4D4D4D; font-family: Arial;' textLength='10.01px' lengthAdjust='spacingAndGlyphs'>40</text></g>
<g clip-path='url(#cpMHwzMDIuNHwyODh8MA==)'><text x='272.11' y='265.12' style='font-size: 8.80px; fill: #4D4D4D; font-family: Arial;' textLength='10.01px' lengthAdjust='spacingAndGlyphs'>45</text></g>
<g clip-path='url(#cpMHwzMDIuNHwyODh8MA==)'><text x='137.56' y='277.88' style='font-size: 10.00px; font-family: Arial;' textLength='63.35px' lengthAdjust='spacingAndGlyphs'>Temperature (</text></g>
<g clip-path='url(#cpMHwzMDIuNHwyODh8MA==)'><text x='200.91' y='277.88' style='font-size: 10.00px; font-family: Symbol;' textLength='4.00px' lengthAdjust='spacingAndGlyphs'>°</text></g>
<g clip-path='url(#cpMHwzMDIuNHwyODh8MA==)'><text x='204.91' y='277.88' style='font-size: 10.00px; font-family: Arial;' textLength='7.22px' lengthAdjust='spacingAndGlyphs'>C</text></g>
<g clip-path='url(#cpMHwzMDIuNHwyODh8MA==)'><text x='212.13' y='277.88' style='font-size: 10.00px; font-family: Arial;' textLength='3.33px' lengthAdjust='spacingAndGlyphs'>)</text></g>
<g clip-path='url(#cpMHwzMDIuNHwyODh8MA==)'><text transform='translate(12.64,178.96) rotate(-90)' style='font-size: 10.00px; font-family: Arial;' textLength='83.39px' lengthAdjust='spacingAndGlyphs'>net photosynthesis</text></g>
<g clip-path='url(#cpMHwzMDIuNHwyODh8MA==)'><text x='56.10' y='14.07' style='font-size: 12.00px; font-family: Arial;' textLength='99.39px' lengthAdjust='spacingAndGlyphs'>Nicotiana tabacum</text></g>
</svg>
