<?xml version='1.0' encoding='UTF-8' ?>
<svg xmlns='http://www.w3.org/2000/svg' xmlns:xlink='http://www.w3.org/1999/xlink' viewBox='0 0 302.40 288.00'>
<defs>
  <style type='text/css'><![CDATA[
    line, polyline, path, rect, circle {
      fill: none;
      stroke: #000000;
      stroke-linecap: round;
      stroke-linejoin: round;
      stroke-miterlimit: 10.00;
    }
  ]]></style>
</defs>
<rect width='100%' height='100%' style='stroke: none; fill: #FFFFFF;'/>
<rect x='0.00' y='0.00' width='302.40' height='288.00' style='stroke-width: 1.07; stroke: #FFFFFF; fill: #FFFFFF;' />
<defs>
  <clipPath id='cpNDguNTk2NXwyOTYuOTIxfDI1My43NXwyMC43ODky'>
    <rect x='48.60' y='20.79' width='248.32' height='232.96' />
  </clipPath>
</defs>
<rect x='48.60' y='20.79' width='248.32' height='232.96' style='stroke-width: 1.07; stroke: none; fill: #FFFFFF;' clip-path='url(#cpNDguNTk2NXwyOTYuOTIxfDI1My43NXwyMC43ODky)' />
<polyline points='48.60,252.03 296.92,252.03 ' style='stroke-width: 0.53; stroke: #EBEBEB; stroke-linecap: butt;' clip-path='url(#cpNDguNTk2NXwyOTYuOTIxfDI1My43NXwyMC43ODky)' />
<polyline points='48.60,210.43 296.92,210.43 ' style='stroke-width: 0.53; stroke: #EBEBEB; stroke-linecap: butt;' clip-path='url(#cpNDguNTk2NXwyOTYuOTIxfDI1My43NXwyMC43ODky)' />
<polyline points='48.60,168.83 296.92,168.83 ' style='stroke-width: 0.53; stroke: #EBEBEB; stroke-linecap: butt;' clip-path='url(#cpNDguNTk2NXwyOTYuOTIxfDI1My43NXwyMC43ODky)' />
<polyline points='48.60,127.23 296.92,127.23 ' style='stroke-width: 0.53; stroke: #EBEBEB; stroke-linecap: butt;' clip-path='url(#cpNDguNTk2NXwyOTYuOTIxfDI1My43NXwyMC43ODky)' />
<polyline points='48.60,85.63 296.92,85.63 ' style='stroke-width: 0.53; stroke: #EBEBEB; stroke-linecap: butt;' clip-path='url(#cpNDguNTk2NXwyOTYuOTIxfDI1My43NXwyMC43ODky)' />
<polyline points='48.60,44.03 296.92,44.03 ' style='stroke-width: 0.53; stroke: #EBEBEB; stroke-linecap: butt;' clip-path='url(#cpNDguNTk2NXwyOTYuOTIxfDI1My43NXwyMC43ODky)' />
<polyline points='60.71,253.75 60.71,20.79 ' style='stroke-width: 0.53; stroke: #EBEBEB; stroke-linecap: butt;' clip-path='url(#cpNDguNTk2NXwyOTYuOTIxfDI1My43NXwyMC43ODky)' />
<polyline points='115.77,253.75 115.77,20.79 ' style='stroke-width: 0.53; stroke: #EBEBEB; stroke-linecap: butt;' clip-path='url(#cpNDguNTk2NXwyOTYuOTIxfDI1My43NXwyMC43ODky)' />
<polyline points='170.83,253.75 170.83,20.79 ' style='stroke-width: 0.53; stroke: #EBEBEB; stroke-linecap: butt;' clip-path='url(#cpNDguNTk2NXwyOTYuOTIxfDI1My43NXwyMC43ODky)' />
<polyline points='225.89,253.75 225.89,20.79 ' style='stroke-width: 0.53; stroke: #EBEBEB; stroke-linecap: butt;' clip-path='url(#cpNDguNTk2NXwyOTYuOTIxfDI1My43NXwyMC43ODky)' />
<polyline points='280.95,253.75 280.95,20.79 ' style='stroke-width: 0.53; stroke: #EBEBEB; stroke-linecap: butt;' clip-path='url(#cpNDguNTk2NXwyOTYuOTIxfDI1My43NXwyMC43ODky)' />
<polyline points='48.60,231.23 296.92,231.23 ' style='stroke-width: 1.07; stroke: #EBEBEB; stroke-linecap: butt;' clip-path='url(#cpNDguNTk2NXwyOTYuOTIxfDI1My43NXwyMC43ODky)' />
<polyline points='48.60,189.63 296.92,189.63 ' style='stroke-width: 1.07; stroke: #EBEBEB; stroke-linecap: butt;' clip-path='url(#cpNDguNTk2NXwyOTYuOTIxfDI1My43NXwyMC43ODky)' />
<polyline points='48.60,148.03 296.92,148.03 ' style='stroke-width: 1.07; stroke: #EBEBEB; stroke-linecap: butt;' clip-path='url(#cpNDguNTk2NXwyOTYuOTIxfDI1My43NXwyMC43ODky)' />
<polyline points='48.60,106.43 296.92,106.43 ' style='stroke-width: 1.07; stroke: #EBEBEB; stroke-linecap: butt;' clip-path='url(#cpNDguNTk2NXwyOTYuOTIxfDI1My43NXwyMC43ODky)' />
<polyline points='48.60,64.83 296.92,64.83 ' style='stroke-width: 1.07; stroke: #EBEBEB; stroke-linecap: butt;' clip-path='url(#cpNDguNTk2NXwyOTYuOTIxfDI1My43NXwyMC43ODky)' />
<polyline points='48.60,23.23 296.92,23.23 ' style='stroke-width: 1.07; stroke: #EBEBEB; stroke-linecap: butt;' clip-path='url(#cpNDguNTk2NXwyOTYuOTIxfDI1My43NXwyMC43ODky)' />
<polyline points='88.24,253.75 88.24,20.79 ' style='stroke-width: 1.07; stroke: #EBEBEB; stroke-linecap: butt;' clip-path='url(#cpNDguNTk2NXwyOTYuOTIxfDI1My43NXwyMC43ODky)' />
<polyline points='143.30,253.75 143.30,20.79 ' style='stroke-width: 1.07; stroke: #EBEBEB; stroke-linecap: butt;' clip-path='url(#cpNDguNTk2NXwyOTYuOTIxfDI1My43NXwyMC43ODky)' />
<polyline points='198.36,253.75 198.36,20.79 ' style='stroke-width: 1.07; stroke: #EBEBEB; stroke-linecap: butt;' clip-path='url(#cpNDguNTk2NXwyOTYuOTIxfDI1My43NXwyMC43ODky)' />
<polyline points='253.42,253.75 253.42,20.79 ' style='stroke-width: 1.07; stroke: #EBEBEB; stroke-linecap: butt;' clip-path='url(#cpNDguNTk2NXwyOTYuOTIxfDI1My43NXwyMC43ODky)' />
<circle cx='60.71' cy='210.78' r='3.56pt' style='stroke-width: 0.71; stroke: #000000; stroke-opacity: 0.70; fill: #D1EEEE; fill-opacity: 0.70;' clip-path='url(#cpNDguNTk2NXwyOTYuOTIxfDI1My43NXwyMC43ODky)' />
<circle cx='88.24' cy='166.48' r='3.56pt' style='stroke-width: 0.71; stroke: #000000; stroke-opacity: 0.70; fill: #D1EEEE; fill-opacity: 0.70;' clip-path='url(#cpNDguNTk2NXwyOTYuOTIxfDI1My43NXwyMC43ODky)' />
<circle cx='115.77' cy='97.22' r='3.56pt' style='stroke-width: 0.71; stroke: #000000; stroke-opacity: 0.70; fill: #D1EEEE; fill-opacity: 0.70;' clip-path='url(#cpNDguNTk2NXwyOTYuOTIxfDI1My43NXwyMC43ODky)' />
<circle cx='143.30' cy='75.50' r='3.56pt' style='stroke-width: 0.71; stroke: #000000; stroke-opacity: 0.70; fill: #D1EEEE; fill-opacity: 0.70;' clip-path='url(#cpNDguNTk2NXwyOTYuOTIxfDI1My43NXwyMC43ODky)' />
<circle cx='170.83' cy='64.59' r='3.56pt' style='stroke-width: 0.71; stroke: #000000; stroke-opacity: 0.70; fill: #D1EEEE; fill-opacity: 0.70;' clip-path='url(#cpNDguNTk2NXwyOTYuOTIxfDI1My43NXwyMC43ODky)' />
<circle cx='198.36' cy='70.53' r='3.56pt' style='stroke-width: 0.71; stroke: #000000; stroke-opacity: 0.70; fill: #D1EEEE; fill-opacity: 0.70;' clip-path='url(#cpNDguNTk2NXwyOTYuOTIxfDI1My43NXwyMC43ODky)' />
<circle cx='225.89' cy='102.11' r='3.56pt' style='stroke-width: 0.71; stroke: #000000; stroke-opacity: 0.70; fill: #D1EEEE; fill-opacity: 0.70;' clip-path='url(#cpNDguNTk2NXwyOTYuOTIxfDI1My43NXwyMC43ODky)' />
<circle cx='253.42' cy='142.11' r='3.56pt' style='stroke-width: 0.71; stroke: #000000; stroke-opacity: 0.70; fill: #D1EEEE; fill-opacity: 0.70;' clip-path='url(#cpNDguNTk2NXwyOTYuOTIxfDI1My43NXwyMC43ODky)' />
<circle cx='280.95' cy='241.47' r='3.56pt' style='stroke-width: 0.71; stroke: #000000; stroke-opacity: 0.70; fill: #D1EEEE; fill-opacity: 0.70;' clip-path='url(#cpNDguNTk2NXwyOTYuOTIxfDI1My43NXwyMC43ODky)' />
<polyline points='59.88,195.78 61.02,194.87 62.15,193.96 63.29,193.04 64.42,192.10 65.56,191.16 66.69,190.21 67.82,189.25 68.96,188.28 70.09,187.29 71.23,186.30 72.36,185.30 73.50,184.29 74.63,183.27 75.77,182.24 76.90,181.20 78.03,180.14 79.17,179.08 80.30,178.01 81.44,176.92 82.57,175.83 83.71,174.73 84.84,173.61 85.98,172.48 87.11,171.34 88.24,170.20 89.38,169.03 90.51,167.86 91.65,166.68 92.78,165.49 93.92,164.28 95.05,163.06 96.19,161.83 97.32,160.59 98.45,159.34 99.59,158.08 100.72,156.80 101.86,155.51 102.99,154.21 104.13,152.90 105.26,151.58 106.40,150.24 107.53,148.89 108.66,147.53 109.80,146.15 110.93,144.77 112.07,143.37 113.20,141.96 114.34,140.53 115.47,139.10 116.60,137.65 117.74,136.19 118.87,134.71 120.01,133.23 121.14,131.73 122.28,130.21 123.41,128.69 124.55,127.15 125.68,125.60 126.81,124.04 127.95,122.47 129.08,120.88 130.22,119.28 131.35,117.67 132.49,116.05 133.62,114.41 134.76,112.77 135.89,111.11 137.02,109.44 138.16,107.76 139.29,106.07 140.43,104.37 141.56,102.66 142.70,100.94 143.83,99.21 144.97,97.48 146.10,95.73 147.23,93.98 148.37,92.21 149.50,90.45 150.64,88.67 151.77,86.89 152.91,85.11 154.04,83.32 155.18,81.53 156.31,79.74 157.44,77.95 158.58,76.16 159.71,74.37 160.85,72.58 161.98,70.80 163.12,69.02 164.25,67.26 165.38,65.50 166.52,63.75 167.65,62.01 168.79,60.30 169.92,58.59 171.06,56.91 172.19,55.25 173.33,53.62 174.46,52.01 175.59,50.44 176.73,48.89 177.86,47.39 179.00,45.92 180.13,44.51 181.27,43.13 182.40,41.81 183.54,40.55 184.67,39.35 185.80,38.21 186.94,37.14 188.07,36.15 189.21,35.23 190.34,34.40 191.48,33.66 192.61,33.01 193.75,32.47 194.88,32.02 196.01,31.69 197.15,31.47 198.28,31.38 199.42,31.41 200.55,31.57 201.69,31.86 202.82,32.30 203.95,32.88 205.09,33.61 206.22,34.49 207.36,35.53 208.49,36.73 209.63,38.09 210.76,39.61 211.90,41.29 213.03,43.14 214.16,45.16 215.30,47.34 216.43,49.68 217.57,52.18 218.70,54.84 219.84,57.66 220.97,60.62 222.11,63.73 223.24,66.98 224.37,70.36 225.51,73.86 226.64,77.48 227.78,81.21 228.91,85.04 230.05,88.96 231.18,92.96 232.32,97.03 233.45,101.16 234.58,105.34 235.72,109.57 236.85,113.82 237.99,118.10 239.12,122.38 240.26,126.67 241.39,130.95 242.53,135.21 243.66,139.44 244.79,143.64 245.93,147.80 247.06,151.91 248.20,155.96 249.33,159.96 250.47,163.88 251.60,167.74 252.73,171.51 253.87,175.21 255.00,178.82 256.14,182.35 257.27,185.79 258.41,189.14 259.54,192.40 260.68,195.56 261.81,198.63 262.94,201.61 264.08,204.49 265.21,207.28 266.35,209.97 267.48,212.58 268.62,215.09 269.75,217.52 270.89,219.86 272.02,222.11 273.15,224.28 274.29,226.36 275.42,228.37 276.56,230.30 277.69,232.15 278.83,233.93 279.96,235.63 281.10,237.27 282.23,238.84 283.36,240.34 284.50,241.78 285.63,243.16 ' style='stroke-width: 2.77; stroke: #1B9E77; stroke-linecap: butt;' clip-path='url(#cpNDguNTk2NXwyOTYuOTIxfDI1My43NXwyMC43ODky)' />
<g clip-path='url(#cpNDguNTk2NXwyOTYuOTIxfDI1My43NXwyMC43ODky)'><text x='60.71' y='121.02' style='font-size: 8.54px; font-style: italic; font-family: Arial;' textLength='60.01px' lengthAdjust='spacingAndGlyphs'>R^2 sch= 0.82 </text></g>
<g clip-path='url(#cpNDguNTk2NXwyOTYuOTIxfDI1My43NXwyMC43ODky)'><text x='60.71' y='133.31' style='font-size: 8.54px; font-style: italic; font-family: Arial;' textLength='55.29px' lengthAdjust='spacingAndGlyphs'>E sch= 0.378 </text></g>
<g clip-path='url(#cpNDguNTk2NXwyOTYuOTIxfDI1My43NXwyMC43ODky)'><text x='60.71' y='145.60' style='font-size: 8.54px; font-style: italic; font-family: Arial;' textLength='56.78px' lengthAdjust='spacingAndGlyphs'>AIC sch= 4.64</text></g>
<rect x='48.60' y='20.79' width='248.32' height='232.96' style='stroke-width: 1.07; stroke: #333333;' clip-path='url(#cpNDguNTk2NXwyOTYuOTIxfDI1My43NXwyMC43ODky)' />
<defs>
  <clipPath id='cpMHwzMDIuNHwyODh8MA=='>
    <rect x='0.00' y='0.00' width='302.40' height='288.00' />
  </clipPath>
</defs>
<g clip-path='url(#cpMHwzMDIuNHwyODh8MA==)'><text x='20.65' y='234.45' style='font-size: 8.80px; fill: #4D4D4D; font-family: Arial;' textLength='23.02px' lengthAdjust='spacingAndGlyphs'>1e-06</text></g>
<g clip-path='url(#cpMHwzMDIuNHwyODh8MA==)'><text x='20.65' y='192.85' style='font-size: 8.80px; fill: #4D4D4D; font-family: Arial;' textLength='23.02px' lengthAdjust='spacingAndGlyphs'>2e-06</text></g>
<g clip-path='url(#cpMHwzMDIuNHwyODh8MA==)'><text x='20.65' y='151.25' style='font-size: 8.80px; fill: #4D4D4D; font-family: Arial;' textLength='23.02px' lengthAdjust='spacingAndGlyphs'>3e-06</text></g>
<g clip-path='url(#cpMHwzMDIuNHwyODh8MA==)'><text x='20.65' y='109.65' style='font-size: 8.80px; fill: #4D4D4D; font-family: Arial;' textLength='23.02px' lengthAdjust='spacingAndGlyphs'>4e-06</text></g>
<g clip-path='url(#cpMHwzMDIuNHwyODh8MA==)'><text x='20.65' y='68.05' style='font-size: 8.80px; fill: #4D4D4D; font-family: Arial;' textLength='23.02px' lengthAdjust='spacingAndGlyphs'>5e-06</text></g>
<g clip-path='url(#cpMHwzMDIuNHwyODh8MA==)'><text x='20.65' y='26.45' style='font-size: 8.80px; fill: #4D4D4D; font-family: Arial;' textLength='23.02px' lengthAdjust='spacingAndGlyphs'>6e-06</text></g>
<polyline points='45.86,231.23 48.60,231.23 ' style='stroke-width: 1.07; stroke: #333333; stroke-linecap: butt;' clip-path='url(#cpMHwzMDIuNHwyODh8MA==)' />
<polyline points='45.86,189.63 48.60,189.63 ' style='stroke-width: 1.07; stroke: #333333; stroke-linecap: butt;' clip-path='url(#cpMHwzMDIuNHwyODh8MA==)' />
<polyline points='45.86,148.03 48.60,148.03 ' style='stroke-width: 1.07; stroke: #333333; stroke-linecap: butt;' clip-path='url(#cpMHwzMDIuNHwyODh8MA==)' />
<polyline points='45.86,106.43 48.60,106.43 ' style='stroke-width: 1.07; stroke: #333333; stroke-linecap: butt;' clip-path='url(#cpMHwzMDIuNHwyODh8MA==)' />
<polyline points='45.86,64.83 48.60,64.83 ' style='stroke-width: 1.07; stroke: #333333; stroke-linecap: butt;' clip-path='url(#cpMHwzMDIuNHwyODh8MA==)' />
<polyline points='45.86,23.23 48.60,23.23 ' style='stroke-width: 1.07; stroke: #333333; stroke-linecap: butt;' clip-path='url(#cpMHwzMDIuNHwyODh8MA==)' />
<polyline points='88.24,256.49 88.24,253.75 ' style='stroke-width: 1.07; stroke: #333333; stroke-linecap: butt;' clip-path='url(#cpMHwzMDIuNHwyODh8MA==)' />
<polyline points='143.30,256.49 143.30,253.75 ' style='stroke-width: 1.07; stroke: #333333; stroke-linecap: butt;' clip-path='url(#cpMHwzMDIuNHwyODh8MA==)' />
<polyline points='198.36,256.49 198.36,253.75 ' style='stroke-width: 1.07; stroke: #333333; stroke-linecap: butt;' clip-path='url(#cpMHwzMDIuNHwyODh8MA==)' />
<polyline points='253.42,256.49 253.42,253.75 ' style='stroke-width: 1.07; stroke: #333333; stroke-linecap: butt;' clip-path='url(#cpMHwzMDIuNHwyODh8MA==)' />
<g clip-path='url(#cpMHwzMDIuNHwyODh8MA==)'><text x='83.23' y='265.12' style='font-size: 8.80px; fill: #4D4D4D; font-family: Arial;' textLength='10.01px' lengthAdjust='spacingAndGlyphs'>10</text></g>
<g clip-path='url(#cpMHwzMDIuNHwyODh8MA==)'><text x='138.30' y='265.12' style='font-size: 8.80px; fill: #4D4D4D; font-family: Arial;' textLength='10.01px' lengthAdjust='spacingAndGlyphs'>20</text></g>
<g clip-path='url(#cpMHwzMDIuNHwyODh8MA==)'><text x='193.36' y='265.12' style='font-size: 8.80px; fill: #4D4D4D; font-family: Arial;' textLength='10.01px' lengthAdjust='spacingAndGlyphs'>30</text></g>
<g clip-path='url(#cpMHwzMDIuNHwyODh8MA==)'><text x='248.42' y='265.12' style='font-size: 8.80px; fill: #4D4D4D; font-family: Arial;' textLength='10.01px' lengthAdjust='spacingAndGlyphs'>40</text></g>
<g clip-path='url(#cpMHwzMDIuNHwyODh8MA==)'><text x='133.81' y='277.88' style='font-size: 10.00px; font-family: Arial;' textLength='63.35px' lengthAdjust='spacingAndGlyphs'>Temperature (</text></g>
<g clip-path='url(#cpMHwzMDIuNHwyODh8MA==)'><text x='197.16' y='277.88' style='font-size: 10.00px; font-family: Symbol;' textLength='4.00px' lengthAdjust='spacingAndGlyphs'>°</text></g>
<g clip-path='url(#cpMHwzMDIuNHwyODh8MA==)'><text x='201.16' y='277.88' style='font-size: 10.00px; font-family: Arial;' textLength='7.22px' lengthAdjust='spacingAndGlyphs'>C</text></g>
<g clip-path='url(#cpMHwzMDIuNHwyODh8MA==)'><text x='208.38' y='277.88' style='font-size: 10.00px; font-family: Arial;' textLength='3.33px' lengthAdjust='spacingAndGlyphs'>)</text></g>
<g clip-path='url(#cpMHwzMDIuNHwyODh8MA==)'><text transform='translate(12.64,178.96) rotate(-90)' style='font-size: 10.00px; font-family: Arial;' textLength='83.39px' lengthAdjust='spacingAndGlyphs'>net photosynthesis</text></g>
<g clip-path='url(#cpMHwzMDIuNHwyODh8MA==)'><text x='48.60' y='14.07' style='font-size: 12.00px; font-family: Arial;' textLength='64.69px' lengthAdjust='spacingAndGlyphs'>Vitis vinifera</text></g>
</svg>
