<?xml version='1.0' encoding='UTF-8' ?>
<svg xmlns='http://www.w3.org/2000/svg' xmlns:xlink='http://www.w3.org/1999/xlink' viewBox='0 0 302.40 288.00'>
<defs>
  <style type='text/css'><![CDATA[
    line, polyline, path, rect, circle {
      fill: none;
      stroke: #000000;
      stroke-linecap: round;
      stroke-linejoin: round;
      stroke-miterlimit: 10.00;
    }
  ]]></style>
</defs>
<rect width='100%' height='100%' style='stroke: none; fill: #FFFFFF;'/>
<rect x='0.00' y='0.00' width='302.40' height='288.00' style='stroke-width: 1.07; stroke: #FFFFFF; fill: #FFFFFF;' />
<defs>
  <clipPath id='cpNTUuOTYxN3wyOTYuOTIxfDI1My43NXwyMy4wMzky'>
    <rect x='55.96' y='23.04' width='240.96' height='230.71' />
  </clipPath>
</defs>
<rect x='55.96' y='23.04' width='240.96' height='230.71' style='stroke-width: 1.07; stroke: none; fill: #FFFFFF;' clip-path='url(#cpNTUuOTYxN3wyOTYuOTIxfDI1My43NXwyMy4wMzky)' />
<polyline points='55.96,250.63 296.92,250.63 ' style='stroke-width: 0.53; stroke: #EBEBEB; stroke-linecap: butt;' clip-path='url(#cpNTUuOTYxN3wyOTYuOTIxfDI1My43NXwyMy4wMzky)' />
<polyline points='55.96,203.79 296.92,203.79 ' style='stroke-width: 0.53; stroke: #EBEBEB; stroke-linecap: butt;' clip-path='url(#cpNTUuOTYxN3wyOTYuOTIxfDI1My43NXwyMy4wMzky)' />
<polyline points='55.96,156.96 296.92,156.96 ' style='stroke-width: 0.53; stroke: #EBEBEB; stroke-linecap: butt;' clip-path='url(#cpNTUuOTYxN3wyOTYuOTIxfDI1My43NXwyMy4wMzky)' />
<polyline points='55.96,110.13 296.92,110.13 ' style='stroke-width: 0.53; stroke: #EBEBEB; stroke-linecap: butt;' clip-path='url(#cpNTUuOTYxN3wyOTYuOTIxfDI1My43NXwyMy4wMzky)' />
<polyline points='55.96,63.30 296.92,63.30 ' style='stroke-width: 0.53; stroke: #EBEBEB; stroke-linecap: butt;' clip-path='url(#cpNTUuOTYxN3wyOTYuOTIxfDI1My43NXwyMy4wMzky)' />
<polyline points='110.30,253.75 110.30,23.04 ' style='stroke-width: 0.53; stroke: #EBEBEB; stroke-linecap: butt;' clip-path='url(#cpNTUuOTYxN3wyOTYuOTIxfDI1My43NXwyMy4wMzky)' />
<polyline points='194.56,253.75 194.56,23.04 ' style='stroke-width: 0.53; stroke: #EBEBEB; stroke-linecap: butt;' clip-path='url(#cpNTUuOTYxN3wyOTYuOTIxfDI1My43NXwyMy4wMzky)' />
<polyline points='278.81,253.75 278.81,23.04 ' style='stroke-width: 0.53; stroke: #EBEBEB; stroke-linecap: butt;' clip-path='url(#cpNTUuOTYxN3wyOTYuOTIxfDI1My43NXwyMy4wMzky)' />
<polyline points='55.96,227.21 296.92,227.21 ' style='stroke-width: 1.07; stroke: #EBEBEB; stroke-linecap: butt;' clip-path='url(#cpNTUuOTYxN3wyOTYuOTIxfDI1My43NXwyMy4wMzky)' />
<polyline points='55.96,180.38 296.92,180.38 ' style='stroke-width: 1.07; stroke: #EBEBEB; stroke-linecap: butt;' clip-path='url(#cpNTUuOTYxN3wyOTYuOTIxfDI1My43NXwyMy4wMzky)' />
<polyline points='55.96,133.54 296.92,133.54 ' style='stroke-width: 1.07; stroke: #EBEBEB; stroke-linecap: butt;' clip-path='url(#cpNTUuOTYxN3wyOTYuOTIxfDI1My43NXwyMy4wMzky)' />
<polyline points='55.96,86.71 296.92,86.71 ' style='stroke-width: 1.07; stroke: #EBEBEB; stroke-linecap: butt;' clip-path='url(#cpNTUuOTYxN3wyOTYuOTIxfDI1My43NXwyMy4wMzky)' />
<polyline points='55.96,39.88 296.92,39.88 ' style='stroke-width: 1.07; stroke: #EBEBEB; stroke-linecap: butt;' clip-path='url(#cpNTUuOTYxN3wyOTYuOTIxfDI1My43NXwyMy4wMzky)' />
<polyline points='68.18,253.75 68.18,23.04 ' style='stroke-width: 1.07; stroke: #EBEBEB; stroke-linecap: butt;' clip-path='url(#cpNTUuOTYxN3wyOTYuOTIxfDI1My43NXwyMy4wMzky)' />
<polyline points='152.43,253.75 152.43,23.04 ' style='stroke-width: 1.07; stroke: #EBEBEB; stroke-linecap: butt;' clip-path='url(#cpNTUuOTYxN3wyOTYuOTIxfDI1My43NXwyMy4wMzky)' />
<polyline points='236.68,253.75 236.68,23.04 ' style='stroke-width: 1.07; stroke: #EBEBEB; stroke-linecap: butt;' clip-path='url(#cpNTUuOTYxN3wyOTYuOTIxfDI1My43NXwyMy4wMzky)' />
<circle cx='67.11' cy='234.33' r='3.56pt' style='stroke-width: 0.71; stroke: #000000; stroke-opacity: 0.70; fill: #D1EEEE; fill-opacity: 0.70;' clip-path='url(#cpNTUuOTYxN3wyOTYuOTIxfDI1My43NXwyMy4wMzky)' />
<circle cx='84.34' cy='232.42' r='3.56pt' style='stroke-width: 0.71; stroke: #000000; stroke-opacity: 0.70; fill: #D1EEEE; fill-opacity: 0.70;' clip-path='url(#cpNTUuOTYxN3wyOTYuOTIxfDI1My43NXwyMy4wMzky)' />
<circle cx='101.04' cy='225.73' r='3.56pt' style='stroke-width: 0.71; stroke: #000000; stroke-opacity: 0.70; fill: #D1EEEE; fill-opacity: 0.70;' clip-path='url(#cpNTUuOTYxN3wyOTYuOTIxfDI1My43NXwyMy4wMzky)' />
<circle cx='134.74' cy='216.82' r='3.56pt' style='stroke-width: 0.71; stroke: #000000; stroke-opacity: 0.70; fill: #D1EEEE; fill-opacity: 0.70;' clip-path='url(#cpNTUuOTYxN3wyOTYuOTIxfDI1My43NXwyMy4wMzky)' />
<circle cx='171.47' cy='197.50' r='3.56pt' style='stroke-width: 0.71; stroke: #000000; stroke-opacity: 0.70; fill: #D1EEEE; fill-opacity: 0.70;' clip-path='url(#cpNTUuOTYxN3wyOTYuOTIxfDI1My43NXwyMy4wMzky)' />
<circle cx='194.39' cy='179.88' r='3.56pt' style='stroke-width: 0.71; stroke: #000000; stroke-opacity: 0.70; fill: #D1EEEE; fill-opacity: 0.70;' clip-path='url(#cpNTUuOTYxN3wyOTYuOTIxfDI1My43NXwyMy4wMzky)' />
<circle cx='212.19' cy='167.79' r='3.56pt' style='stroke-width: 0.71; stroke: #000000; stroke-opacity: 0.70; fill: #D1EEEE; fill-opacity: 0.70;' clip-path='url(#cpNTUuOTYxN3wyOTYuOTIxfDI1My43NXwyMy4wMzky)' />
<circle cx='237.00' cy='150.92' r='3.56pt' style='stroke-width: 0.71; stroke: #000000; stroke-opacity: 0.70; fill: #D1EEEE; fill-opacity: 0.70;' clip-path='url(#cpNTUuOTYxN3wyOTYuOTIxfDI1My43NXwyMy4wMzky)' />
<circle cx='253.14' cy='134.41' r='3.56pt' style='stroke-width: 0.71; stroke: #000000; stroke-opacity: 0.70; fill: #D1EEEE; fill-opacity: 0.70;' clip-path='url(#cpNTUuOTYxN3wyOTYuOTIxfDI1My43NXwyMy4wMzky)' />
<circle cx='279.25' cy='106.08' r='3.56pt' style='stroke-width: 0.71; stroke: #000000; stroke-opacity: 0.70; fill: #D1EEEE; fill-opacity: 0.70;' clip-path='url(#cpNTUuOTYxN3wyOTYuOTIxfDI1My43NXwyMy4wMzky)' />
<polyline points='66.91,243.26 68.02,242.98 69.12,242.69 70.22,242.40 71.32,242.11 72.42,241.82 73.52,241.52 74.62,241.22 75.72,240.91 76.82,240.61 77.92,240.30 79.02,239.98 80.12,239.67 81.22,239.35 82.33,239.03 83.43,238.70 84.53,238.37 85.63,238.04 86.73,237.71 87.83,237.37 88.93,237.03 90.03,236.68 91.13,236.33 92.23,235.98 93.33,235.63 94.43,235.27 95.53,234.91 96.64,234.54 97.74,234.17 98.84,233.80 99.94,233.42 101.04,233.04 102.14,232.65 103.24,232.27 104.34,231.87 105.44,231.48 106.54,231.08 107.64,230.67 108.74,230.26 109.84,229.85 110.95,229.44 112.05,229.01 113.15,228.59 114.25,228.16 115.35,227.72 116.45,227.29 117.55,226.84 118.65,226.40 119.75,225.94 120.85,225.49 121.95,225.03 123.05,224.56 124.15,224.09 125.26,223.61 126.36,223.13 127.46,222.64 128.56,222.15 129.66,221.66 130.76,221.16 131.86,220.65 132.96,220.14 134.06,219.62 135.16,219.10 136.26,218.57 137.36,218.04 138.46,217.50 139.57,216.95 140.67,216.40 141.77,215.84 142.87,215.28 143.97,214.71 145.07,214.13 146.17,213.55 147.27,212.97 148.37,212.37 149.47,211.77 150.57,211.16 151.67,210.55 152.77,209.93 153.88,209.30 154.98,208.67 156.08,208.03 157.18,207.38 158.28,206.73 159.38,206.06 160.48,205.39 161.58,204.72 162.68,204.03 163.78,203.34 164.88,202.64 165.98,201.93 167.08,201.22 168.19,200.49 169.29,199.76 170.39,199.02 171.49,198.27 172.59,197.51 173.69,196.75 174.79,195.97 175.89,195.19 176.99,194.40 178.09,193.59 179.19,192.78 180.29,191.96 181.39,191.13 182.50,190.29 183.60,189.44 184.70,188.59 185.80,187.72 186.90,186.84 188.00,185.95 189.10,185.05 190.20,184.13 191.30,183.21 192.40,182.28 193.50,181.33 194.60,180.38 195.70,179.41 196.81,178.43 197.91,177.44 199.01,176.44 200.11,175.42 201.21,174.39 202.31,173.35 203.41,172.30 204.51,171.23 205.61,170.16 206.71,169.06 207.81,167.96 208.91,166.84 210.01,165.70 211.12,164.55 212.22,163.39 213.32,162.21 214.42,161.02 215.52,159.81 216.62,158.58 217.72,157.35 218.82,156.09 219.92,154.82 221.02,153.53 222.12,152.22 223.22,150.90 224.32,149.56 225.43,148.20 226.53,146.83 227.63,145.43 228.73,144.02 229.83,142.59 230.93,141.14 232.03,139.66 233.13,138.17 234.23,136.66 235.33,135.13 236.43,133.58 237.53,132.00 238.63,130.41 239.74,128.79 240.84,127.15 241.94,125.48 243.04,123.79 244.14,122.08 245.24,120.34 246.34,118.58 247.44,116.80 248.54,114.98 249.64,113.14 250.74,111.28 251.84,109.39 252.94,107.46 254.05,105.51 255.15,103.54 256.25,101.53 257.35,99.49 258.45,97.42 259.55,95.32 260.65,93.19 261.75,91.02 262.85,88.82 263.95,86.59 265.05,84.32 266.15,82.02 267.25,79.68 268.36,77.31 269.46,74.89 270.56,72.44 271.66,69.95 272.76,67.42 273.86,64.84 274.96,62.23 276.06,59.57 277.16,56.86 278.26,54.12 279.36,51.32 280.46,48.48 281.56,45.59 282.67,42.65 283.77,39.66 284.87,36.62 285.97,33.53 ' style='stroke-width: 2.77; stroke: #1B9E77; stroke-linecap: butt;' clip-path='url(#cpNTUuOTYxN3wyOTYuOTIxfDI1My43NXwyMy4wMzky)' />
<g clip-path='url(#cpNTUuOTYxN3wyOTYuOTIxfDI1My43NXwyMy4wMzky)'><text x='67.11' y='175.51' style='font-size: 8.54px; font-style: italic; font-family: Arial;' textLength='60.01px' lengthAdjust='spacingAndGlyphs'>R^2 sch= 0.76 </text></g>
<g clip-path='url(#cpNTUuOTYxN3wyOTYuOTIxfDI1My43NXwyMy4wMzky)'><text x='67.11' y='187.81' style='font-size: 8.54px; font-style: italic; font-family: Arial;' textLength='50.28px' lengthAdjust='spacingAndGlyphs'>E sch= 0.28 </text></g>
<g clip-path='url(#cpNTUuOTYxN3wyOTYuOTIxfDI1My43NXwyMy4wMzky)'><text x='67.11' y='200.10' style='font-size: 8.54px; font-style: italic; font-family: Arial;' textLength='56.78px' lengthAdjust='spacingAndGlyphs'>AIC sch= 1.44</text></g>
<rect x='55.96' y='23.04' width='240.96' height='230.71' style='stroke-width: 1.07; stroke: #333333;' clip-path='url(#cpNTUuOTYxN3wyOTYuOTIxfDI1My43NXwyMy4wMzky)' />
<defs>
  <clipPath id='cpMHwzMDIuNHwyODh8MA=='>
    <rect x='0.00' y='0.00' width='302.40' height='288.00' />
  </clipPath>
</defs>
<g clip-path='url(#cpMHwzMDIuNHwyODh8MA==)'><text x='20.51' y='230.43' style='font-size: 8.80px; fill: #4D4D4D; font-family: Arial;' textLength='30.52px' lengthAdjust='spacingAndGlyphs'>5.0e-06</text></g>
<g clip-path='url(#cpMHwzMDIuNHwyODh8MA==)'><text x='20.51' y='183.60' style='font-size: 8.80px; fill: #4D4D4D; font-family: Arial;' textLength='30.52px' lengthAdjust='spacingAndGlyphs'>1.0e-05</text></g>
<g clip-path='url(#cpMHwzMDIuNHwyODh8MA==)'><text x='20.51' y='136.76' style='font-size: 8.80px; fill: #4D4D4D; font-family: Arial;' textLength='30.52px' lengthAdjust='spacingAndGlyphs'>1.5e-05</text></g>
<g clip-path='url(#cpMHwzMDIuNHwyODh8MA==)'><text x='20.51' y='89.93' style='font-size: 8.80px; fill: #4D4D4D; font-family: Arial;' textLength='30.52px' lengthAdjust='spacingAndGlyphs'>2.0e-05</text></g>
<g clip-path='url(#cpMHwzMDIuNHwyODh8MA==)'><text x='20.51' y='43.10' style='font-size: 8.80px; fill: #4D4D4D; font-family: Arial;' textLength='30.52px' lengthAdjust='spacingAndGlyphs'>2.5e-05</text></g>
<polyline points='53.22,227.21 55.96,227.21 ' style='stroke-width: 1.07; stroke: #333333; stroke-linecap: butt;' clip-path='url(#cpMHwzMDIuNHwyODh8MA==)' />
<polyline points='53.22,180.38 55.96,180.38 ' style='stroke-width: 1.07; stroke: #333333; stroke-linecap: butt;' clip-path='url(#cpMHwzMDIuNHwyODh8MA==)' />
<polyline points='53.22,133.54 55.96,133.54 ' style='stroke-width: 1.07; stroke: #333333; stroke-linecap: butt;' clip-path='url(#cpMHwzMDIuNHwyODh8MA==)' />
<polyline points='53.22,86.71 55.96,86.71 ' style='stroke-width: 1.07; stroke: #333333; stroke-linecap: butt;' clip-path='url(#cpMHwzMDIuNHwyODh8MA==)' />
<polyline points='53.22,39.88 55.96,39.88 ' style='stroke-width: 1.07; stroke: #333333; stroke-linecap: butt;' clip-path='url(#cpMHwzMDIuNHwyODh8MA==)' />
<polyline points='68.18,256.49 68.18,253.75 ' style='stroke-width: 1.07; stroke: #333333; stroke-linecap: butt;' clip-path='url(#cpMHwzMDIuNHwyODh8MA==)' />
<polyline points='152.43,256.49 152.43,253.75 ' style='stroke-width: 1.07; stroke: #333333; stroke-linecap: butt;' clip-path='url(#cpMHwzMDIuNHwyODh8MA==)' />
<polyline points='236.68,256.49 236.68,253.75 ' style='stroke-width: 1.07; stroke: #333333; stroke-linecap: butt;' clip-path='url(#cpMHwzMDIuNHwyODh8MA==)' />
<g clip-path='url(#cpMHwzMDIuNHwyODh8MA==)'><text x='65.68' y='265.12' style='font-size: 8.80px; fill: #4D4D4D; font-family: Arial;' textLength='5.01px' lengthAdjust='spacingAndGlyphs'>0</text></g>
<g clip-path='url(#cpMHwzMDIuNHwyODh8MA==)'><text x='147.42' y='265.12' style='font-size: 8.80px; fill: #4D4D4D; font-family: Arial;' textLength='10.01px' lengthAdjust='spacingAndGlyphs'>10</text></g>
<g clip-path='url(#cpMHwzMDIuNHwyODh8MA==)'><text x='231.68' y='265.12' style='font-size: 8.80px; fill: #4D4D4D; font-family: Arial;' textLength='10.01px' lengthAdjust='spacingAndGlyphs'>20</text></g>
<g clip-path='url(#cpMHwzMDIuNHwyODh8MA==)'><text x='137.49' y='277.88' style='font-size: 10.00px; font-family: Arial;' textLength='63.35px' lengthAdjust='spacingAndGlyphs'>Temperature (</text></g>
<g clip-path='url(#cpMHwzMDIuNHwyODh8MA==)'><text x='200.84' y='277.88' style='font-size: 10.00px; font-family: Symbol;' textLength='4.00px' lengthAdjust='spacingAndGlyphs'>°</text></g>
<g clip-path='url(#cpMHwzMDIuNHwyODh8MA==)'><text x='204.84' y='277.88' style='font-size: 10.00px; font-family: Arial;' textLength='7.22px' lengthAdjust='spacingAndGlyphs'>C</text></g>
<g clip-path='url(#cpMHwzMDIuNHwyODh8MA==)'><text x='212.06' y='277.88' style='font-size: 10.00px; font-family: Arial;' textLength='3.33px' lengthAdjust='spacingAndGlyphs'>)</text></g>
<g clip-path='url(#cpMHwzMDIuNHwyODh8MA==)'><text transform='translate(12.64,171.74) rotate(-90)' style='font-size: 10.00px; font-family: Arial;' textLength='66.70px' lengthAdjust='spacingAndGlyphs'>respiration rate</text></g>
<g clip-path='url(#cpMHwzMDIuNHwyODh8MA==)'><text x='55.96' y='14.07' style='font-size: 12.00px; font-family: Arial;' textLength='121.41px' lengthAdjust='spacingAndGlyphs'>Colobanthus quitensis </text></g>
</svg>
