<?xml version='1.0' encoding='UTF-8' ?>
<svg xmlns='http://www.w3.org/2000/svg' xmlns:xlink='http://www.w3.org/1999/xlink' viewBox='0 0 302.40 288.00'>
<defs>
  <style type='text/css'><![CDATA[
    line, polyline, path, rect, circle {
      fill: none;
      stroke: #000000;
      stroke-linecap: round;
      stroke-linejoin: round;
      stroke-miterlimit: 10.00;
    }
  ]]></style>
</defs>
<rect width='100%' height='100%' style='stroke: none; fill: #FFFFFF;'/>
<rect x='-0.00' y='0.00' width='302.40' height='288.00' style='stroke-width: 1.07; stroke: #FFFFFF; fill: #FFFFFF;' />
<defs>
  <clipPath id='cpNTguMzYxMXwyOTYuOTIxfDI1My43NXwyMC43ODky'>
    <rect x='58.36' y='20.79' width='238.56' height='232.96' />
  </clipPath>
</defs>
<rect x='58.36' y='20.79' width='238.56' height='232.96' style='stroke-width: 1.07; stroke: none; fill: #FFFFFF;' clip-path='url(#cpNTguMzYxMXwyOTYuOTIxfDI1My43NXwyMC43ODky)' />
<polyline points='58.36,217.00 296.92,217.00 ' style='stroke-width: 0.53; stroke: #EBEBEB; stroke-linecap: butt;' clip-path='url(#cpNTguMzYxMXwyOTYuOTIxfDI1My43NXwyMC43ODky)' />
<polyline points='58.36,155.15 296.92,155.15 ' style='stroke-width: 0.53; stroke: #EBEBEB; stroke-linecap: butt;' clip-path='url(#cpNTguMzYxMXwyOTYuOTIxfDI1My43NXwyMC43ODky)' />
<polyline points='58.36,93.30 296.92,93.30 ' style='stroke-width: 0.53; stroke: #EBEBEB; stroke-linecap: butt;' clip-path='url(#cpNTguMzYxMXwyOTYuOTIxfDI1My43NXwyMC43ODky)' />
<polyline points='58.36,31.45 296.92,31.45 ' style='stroke-width: 0.53; stroke: #EBEBEB; stroke-linecap: butt;' clip-path='url(#cpNTguMzYxMXwyOTYuOTIxfDI1My43NXwyMC43ODky)' />
<polyline points='84.75,253.75 84.75,20.79 ' style='stroke-width: 0.53; stroke: #EBEBEB; stroke-linecap: butt;' clip-path='url(#cpNTguMzYxMXwyOTYuOTIxfDI1My43NXwyMC43ODky)' />
<polyline points='157.04,253.75 157.04,20.79 ' style='stroke-width: 0.53; stroke: #EBEBEB; stroke-linecap: butt;' clip-path='url(#cpNTguMzYxMXwyOTYuOTIxfDI1My43NXwyMC43ODky)' />
<polyline points='229.33,253.75 229.33,20.79 ' style='stroke-width: 0.53; stroke: #EBEBEB; stroke-linecap: butt;' clip-path='url(#cpNTguMzYxMXwyOTYuOTIxfDI1My43NXwyMC43ODky)' />
<polyline points='58.36,247.92 296.92,247.92 ' style='stroke-width: 1.07; stroke: #EBEBEB; stroke-linecap: butt;' clip-path='url(#cpNTguMzYxMXwyOTYuOTIxfDI1My43NXwyMC43ODky)' />
<polyline points='58.36,186.07 296.92,186.07 ' style='stroke-width: 1.07; stroke: #EBEBEB; stroke-linecap: butt;' clip-path='url(#cpNTguMzYxMXwyOTYuOTIxfDI1My43NXwyMC43ODky)' />
<polyline points='58.36,124.22 296.92,124.22 ' style='stroke-width: 1.07; stroke: #EBEBEB; stroke-linecap: butt;' clip-path='url(#cpNTguMzYxMXwyOTYuOTIxfDI1My43NXwyMC43ODky)' />
<polyline points='58.36,62.37 296.92,62.37 ' style='stroke-width: 1.07; stroke: #EBEBEB; stroke-linecap: butt;' clip-path='url(#cpNTguMzYxMXwyOTYuOTIxfDI1My43NXwyMC43ODky)' />
<polyline points='120.89,253.75 120.89,20.79 ' style='stroke-width: 1.07; stroke: #EBEBEB; stroke-linecap: butt;' clip-path='url(#cpNTguMzYxMXwyOTYuOTIxfDI1My43NXwyMC43ODky)' />
<polyline points='193.18,253.75 193.18,20.79 ' style='stroke-width: 1.07; stroke: #EBEBEB; stroke-linecap: butt;' clip-path='url(#cpNTguMzYxMXwyOTYuOTIxfDI1My43NXwyMC43ODky)' />
<polyline points='265.47,253.75 265.47,20.79 ' style='stroke-width: 1.07; stroke: #EBEBEB; stroke-linecap: butt;' clip-path='url(#cpNTguMzYxMXwyOTYuOTIxfDI1My43NXwyMC43ODky)' />
<circle cx='72.64' cy='81.42' r='3.56pt' style='stroke-width: 0.71; stroke: #000000; stroke-opacity: 0.70; fill: #D1EEEE; fill-opacity: 0.70;' clip-path='url(#cpNTguMzYxMXwyOTYuOTIxfDI1My43NXwyMC43ODky)' />
<circle cx='78.80' cy='84.31' r='3.56pt' style='stroke-width: 0.71; stroke: #000000; stroke-opacity: 0.70; fill: #D1EEEE; fill-opacity: 0.70;' clip-path='url(#cpNTguMzYxMXwyOTYuOTIxfDI1My43NXwyMC43ODky)' />
<circle cx='80.93' cy='133.72' r='3.56pt' style='stroke-width: 0.71; stroke: #000000; stroke-opacity: 0.70; fill: #D1EEEE; fill-opacity: 0.70;' clip-path='url(#cpNTguMzYxMXwyOTYuOTIxfDI1My43NXwyMC43ODky)' />
<circle cx='84.06' cy='63.44' r='3.56pt' style='stroke-width: 0.71; stroke: #000000; stroke-opacity: 0.70; fill: #D1EEEE; fill-opacity: 0.70;' clip-path='url(#cpNTguMzYxMXwyOTYuOTIxfDI1My43NXwyMC43ODky)' />
<circle cx='88.99' cy='71.06' r='3.56pt' style='stroke-width: 0.71; stroke: #000000; stroke-opacity: 0.70; fill: #D1EEEE; fill-opacity: 0.70;' clip-path='url(#cpNTguMzYxMXwyOTYuOTIxfDI1My43NXwyMC43ODky)' />
<circle cx='90.81' cy='110.98' r='3.56pt' style='stroke-width: 0.71; stroke: #000000; stroke-opacity: 0.70; fill: #D1EEEE; fill-opacity: 0.70;' clip-path='url(#cpNTguMzYxMXwyOTYuOTIxfDI1My43NXwyMC43ODky)' />
<circle cx='127.56' cy='31.38' r='3.56pt' style='stroke-width: 0.71; stroke: #000000; stroke-opacity: 0.70; fill: #D1EEEE; fill-opacity: 0.70;' clip-path='url(#cpNTguMzYxMXwyOTYuOTIxfDI1My43NXwyMC43ODky)' />
<circle cx='128.76' cy='81.74' r='3.56pt' style='stroke-width: 0.71; stroke: #000000; stroke-opacity: 0.70; fill: #D1EEEE; fill-opacity: 0.70;' clip-path='url(#cpNTguMzYxMXwyOTYuOTIxfDI1My43NXwyMC43ODky)' />
<circle cx='128.75' cy='98.84' r='3.56pt' style='stroke-width: 0.71; stroke: #000000; stroke-opacity: 0.70; fill: #D1EEEE; fill-opacity: 0.70;' clip-path='url(#cpNTguMzYxMXwyOTYuOTIxfDI1My43NXwyMC43ODky)' />
<circle cx='132.79' cy='49.46' r='3.56pt' style='stroke-width: 0.71; stroke: #000000; stroke-opacity: 0.70; fill: #D1EEEE; fill-opacity: 0.70;' clip-path='url(#cpNTguMzYxMXwyOTYuOTIxfDI1My43NXwyMC43ODky)' />
<circle cx='137.11' cy='47.58' r='3.56pt' style='stroke-width: 0.71; stroke: #000000; stroke-opacity: 0.70; fill: #D1EEEE; fill-opacity: 0.70;' clip-path='url(#cpNTguMzYxMXwyOTYuOTIxfDI1My43NXwyMC43ODky)' />
<circle cx='179.34' cy='62.07' r='3.56pt' style='stroke-width: 0.71; stroke: #000000; stroke-opacity: 0.70; fill: #D1EEEE; fill-opacity: 0.70;' clip-path='url(#cpNTguMzYxMXwyOTYuOTIxfDI1My43NXwyMC43ODky)' />
<circle cx='180.24' cy='118.13' r='3.56pt' style='stroke-width: 0.71; stroke: #000000; stroke-opacity: 0.70; fill: #D1EEEE; fill-opacity: 0.70;' clip-path='url(#cpNTguMzYxMXwyOTYuOTIxfDI1My43NXwyMC43ODky)' />
<circle cx='181.20' cy='59.23' r='3.56pt' style='stroke-width: 0.71; stroke: #000000; stroke-opacity: 0.70; fill: #D1EEEE; fill-opacity: 0.70;' clip-path='url(#cpNTguMzYxMXwyOTYuOTIxfDI1My43NXwyMC43ODky)' />
<circle cx='183.60' cy='159.00' r='3.56pt' style='stroke-width: 0.71; stroke: #000000; stroke-opacity: 0.70; fill: #D1EEEE; fill-opacity: 0.70;' clip-path='url(#cpNTguMzYxMXwyOTYuOTIxfDI1My43NXwyMC43ODky)' />
<circle cx='230.44' cy='224.82' r='3.56pt' style='stroke-width: 0.71; stroke: #000000; stroke-opacity: 0.70; fill: #D1EEEE; fill-opacity: 0.70;' clip-path='url(#cpNTguMzYxMXwyOTYuOTIxfDI1My43NXwyMC43ODky)' />
<circle cx='230.17' cy='153.56' r='3.56pt' style='stroke-width: 0.71; stroke: #000000; stroke-opacity: 0.70; fill: #D1EEEE; fill-opacity: 0.70;' clip-path='url(#cpNTguMzYxMXwyOTYuOTIxfDI1My43NXwyMC43ODky)' />
<circle cx='231.70' cy='175.42' r='3.56pt' style='stroke-width: 0.71; stroke: #000000; stroke-opacity: 0.70; fill: #D1EEEE; fill-opacity: 0.70;' clip-path='url(#cpNTguMzYxMXwyOTYuOTIxfDI1My43NXwyMC43ODky)' />
<circle cx='236.03' cy='151.70' r='3.56pt' style='stroke-width: 0.71; stroke: #000000; stroke-opacity: 0.70; fill: #D1EEEE; fill-opacity: 0.70;' clip-path='url(#cpNTguMzYxMXwyOTYuOTIxfDI1My43NXwyMC43ODky)' />
<circle cx='280.70' cy='231.75' r='3.56pt' style='stroke-width: 0.71; stroke: #000000; stroke-opacity: 0.70; fill: #D1EEEE; fill-opacity: 0.70;' clip-path='url(#cpNTguMzYxMXwyOTYuOTIxfDI1My43NXwyMC43ODky)' />
<circle cx='282.23' cy='243.16' r='3.56pt' style='stroke-width: 0.71; stroke: #000000; stroke-opacity: 0.70; fill: #D1EEEE; fill-opacity: 0.70;' clip-path='url(#cpNTguMzYxMXwyOTYuOTIxfDI1My43NXwyMC43ODky)' />
<circle cx='283.48' cy='216.57' r='3.56pt' style='stroke-width: 0.71; stroke: #000000; stroke-opacity: 0.70; fill: #D1EEEE; fill-opacity: 0.70;' clip-path='url(#cpNTguMzYxMXwyOTYuOTIxfDI1My43NXwyMC43ODky)' />
<polyline points='69.20,96.98 70.29,96.42 71.38,95.86 72.47,95.31 73.56,94.75 74.65,94.19 75.74,93.63 76.83,93.08 77.92,92.52 79.01,91.97 80.10,91.41 81.19,90.86 82.28,90.31 83.37,89.76 84.46,89.22 85.55,88.67 86.64,88.13 87.73,87.59 88.82,87.05 89.91,86.52 91.00,85.98 92.09,85.45 93.18,84.93 94.27,84.41 95.36,83.89 96.45,83.37 97.54,82.86 98.63,82.36 99.72,81.86 100.81,81.36 101.90,80.87 102.99,80.39 104.08,79.91 105.17,79.44 106.26,78.97 107.35,78.52 108.44,78.07 109.53,77.63 110.62,77.20 111.71,76.77 112.80,76.36 113.89,75.95 114.98,75.56 116.07,75.18 117.16,74.81 118.25,74.45 119.34,74.10 120.43,73.77 121.52,73.45 122.61,73.14 123.70,72.85 124.79,72.57 125.87,72.32 126.96,72.07 128.05,71.85 129.14,71.65 130.23,71.46 131.32,71.29 132.41,71.15 133.50,71.02 134.59,70.92 135.68,70.85 136.77,70.79 137.86,70.76 138.95,70.76 140.04,70.78 141.13,70.83 142.22,70.91 143.31,71.02 144.40,71.16 145.49,71.33 146.58,71.53 147.67,71.77 148.76,72.04 149.85,72.34 150.94,72.68 152.03,73.06 153.12,73.47 154.21,73.93 155.30,74.42 156.39,74.95 157.48,75.52 158.57,76.13 159.66,76.79 160.75,77.49 161.84,78.23 162.93,79.01 164.02,79.84 165.11,80.72 166.20,81.64 167.29,82.60 168.38,83.61 169.47,84.67 170.56,85.77 171.65,86.92 172.74,88.11 173.83,89.35 174.92,90.64 176.01,91.97 177.10,93.34 178.19,94.76 179.28,96.23 180.37,97.73 181.46,99.28 182.54,100.87 183.63,102.49 184.72,104.16 185.81,105.86 186.90,107.60 187.99,109.38 189.08,111.19 190.17,113.03 191.26,114.90 192.35,116.79 193.44,118.72 194.53,120.67 195.62,122.64 196.71,124.63 197.80,126.64 198.89,128.67 199.98,130.72 201.07,132.77 202.16,134.84 203.25,136.91 204.34,139.00 205.43,141.08 206.52,143.17 207.61,145.26 208.70,147.34 209.79,149.43 210.88,151.50 211.97,153.57 213.06,155.63 214.15,157.68 215.24,159.71 216.33,161.74 217.42,163.74 218.51,165.73 219.60,167.69 220.69,169.64 221.78,171.56 222.87,173.46 223.96,175.34 225.05,177.19 226.14,179.02 227.23,180.82 228.32,182.59 229.41,184.33 230.50,186.04 231.59,187.72 232.68,189.37 233.77,190.99 234.86,192.58 235.95,194.14 237.04,195.67 238.13,197.16 239.22,198.63 240.30,200.06 241.39,201.46 242.48,202.82 243.57,204.16 244.66,205.46 245.75,206.73 246.84,207.98 247.93,209.19 249.02,210.37 250.11,211.51 251.20,212.63 252.29,213.72 253.38,214.78 254.47,215.82 255.56,216.82 256.65,217.80 257.74,218.75 258.83,219.67 259.92,220.56 261.01,221.43 262.10,222.28 263.19,223.10 264.28,223.90 265.37,224.67 266.46,225.42 267.55,226.15 268.64,226.85 269.73,227.54 270.82,228.20 271.91,228.84 273.00,229.47 274.09,230.07 275.18,230.65 276.27,231.22 277.36,231.77 278.45,232.30 279.54,232.81 280.63,233.31 281.72,233.80 282.81,234.26 283.90,234.71 284.99,235.15 286.08,235.57 ' style='stroke-width: 2.77; stroke: #1B9E77; stroke-linecap: butt;' clip-path='url(#cpNTguMzYxMXwyOTYuOTIxfDI1My43NXwyMC43ODky)' />
<g clip-path='url(#cpNTguMzYxMXwyOTYuOTIxfDI1My43NXwyMC43ODky)'><text x='72.64' y='111.35' style='font-size: 8.54px; font-style: italic; font-family: Arial;' textLength='60.01px' lengthAdjust='spacingAndGlyphs'>R^2 sch= 0.80 </text></g>
<g clip-path='url(#cpNTguMzYxMXwyOTYuOTIxfDI1My43NXwyMC43ODky)'><text x='72.64' y='123.64' style='font-size: 8.54px; font-style: italic; font-family: Arial;' textLength='55.29px' lengthAdjust='spacingAndGlyphs'>E sch= 0.185 </text></g>
<g clip-path='url(#cpNTguMzYxMXwyOTYuOTIxfDI1My43NXwyMC43ODky)'><text x='72.64' y='135.93' style='font-size: 8.54px; font-style: italic; font-family: Arial;' textLength='56.78px' lengthAdjust='spacingAndGlyphs'>AIC sch= 35.2</text></g>
<rect x='58.36' y='20.79' width='238.56' height='232.96' style='stroke-width: 1.07; stroke: #333333;' clip-path='url(#cpNTguMzYxMXwyOTYuOTIxfDI1My43NXwyMC43ODky)' />
<defs>
  <clipPath id='cpMHwzMDIuNHwyODh8MA=='>
    <rect x='0.00' y='0.00' width='302.40' height='288.00' />
  </clipPath>
</defs>
<g clip-path='url(#cpMHwzMDIuNHwyODh8MA==)'><text x='20.65' y='251.14' style='font-size: 8.80px; fill: #4D4D4D; font-family: Arial;' textLength='32.78px' lengthAdjust='spacingAndGlyphs'>0.0e+00</text></g>
<g clip-path='url(#cpMHwzMDIuNHwyODh8MA==)'><text x='22.91' y='189.29' style='font-size: 8.80px; fill: #4D4D4D; font-family: Arial;' textLength='30.52px' lengthAdjust='spacingAndGlyphs'>2.5e-06</text></g>
<g clip-path='url(#cpMHwzMDIuNHwyODh8MA==)'><text x='22.91' y='127.44' style='font-size: 8.80px; fill: #4D4D4D; font-family: Arial;' textLength='30.52px' lengthAdjust='spacingAndGlyphs'>5.0e-06</text></g>
<g clip-path='url(#cpMHwzMDIuNHwyODh8MA==)'><text x='22.91' y='65.59' style='font-size: 8.80px; fill: #4D4D4D; font-family: Arial;' textLength='30.52px' lengthAdjust='spacingAndGlyphs'>7.5e-06</text></g>
<polyline points='55.62,247.92 58.36,247.92 ' style='stroke-width: 1.07; stroke: #333333; stroke-linecap: butt;' clip-path='url(#cpMHwzMDIuNHwyODh8MA==)' />
<polyline points='55.62,186.07 58.36,186.07 ' style='stroke-width: 1.07; stroke: #333333; stroke-linecap: butt;' clip-path='url(#cpMHwzMDIuNHwyODh8MA==)' />
<polyline points='55.62,124.22 58.36,124.22 ' style='stroke-width: 1.07; stroke: #333333; stroke-linecap: butt;' clip-path='url(#cpMHwzMDIuNHwyODh8MA==)' />
<polyline points='55.62,62.37 58.36,62.37 ' style='stroke-width: 1.07; stroke: #333333; stroke-linecap: butt;' clip-path='url(#cpMHwzMDIuNHwyODh8MA==)' />
<polyline points='120.89,256.49 120.89,253.75 ' style='stroke-width: 1.07; stroke: #333333; stroke-linecap: butt;' clip-path='url(#cpMHwzMDIuNHwyODh8MA==)' />
<polyline points='193.18,256.49 193.18,253.75 ' style='stroke-width: 1.07; stroke: #333333; stroke-linecap: butt;' clip-path='url(#cpMHwzMDIuNHwyODh8MA==)' />
<polyline points='265.47,256.49 265.47,253.75 ' style='stroke-width: 1.07; stroke: #333333; stroke-linecap: butt;' clip-path='url(#cpMHwzMDIuNHwyODh8MA==)' />
<g clip-path='url(#cpMHwzMDIuNHwyODh8MA==)'><text x='115.89' y='265.12' style='font-size: 8.80px; fill: #4D4D4D; font-family: Arial;' textLength='10.01px' lengthAdjust='spacingAndGlyphs'>20</text></g>
<g clip-path='url(#cpMHwzMDIuNHwyODh8MA==)'><text x='188.18' y='265.12' style='font-size: 8.80px; fill: #4D4D4D; font-family: Arial;' textLength='10.01px' lengthAdjust='spacingAndGlyphs'>30</text></g>
<g clip-path='url(#cpMHwzMDIuNHwyODh8MA==)'><text x='260.47' y='265.12' style='font-size: 8.80px; fill: #4D4D4D; font-family: Arial;' textLength='10.01px' lengthAdjust='spacingAndGlyphs'>40</text></g>
<g clip-path='url(#cpMHwzMDIuNHwyODh8MA==)'><text x='138.69' y='277.88' style='font-size: 10.00px; font-family: Arial;' textLength='63.35px' lengthAdjust='spacingAndGlyphs'>Temperature (</text></g>
<g clip-path='url(#cpMHwzMDIuNHwyODh8MA==)'><text x='202.04' y='277.88' style='font-size: 10.00px; font-family: Symbol;' textLength='4.00px' lengthAdjust='spacingAndGlyphs'>°</text></g>
<g clip-path='url(#cpMHwzMDIuNHwyODh8MA==)'><text x='206.04' y='277.88' style='font-size: 10.00px; font-family: Arial;' textLength='7.22px' lengthAdjust='spacingAndGlyphs'>C</text></g>
<g clip-path='url(#cpMHwzMDIuNHwyODh8MA==)'><text x='213.26' y='277.88' style='font-size: 10.00px; font-family: Arial;' textLength='3.33px' lengthAdjust='spacingAndGlyphs'>)</text></g>
<g clip-path='url(#cpMHwzMDIuNHwyODh8MA==)'><text transform='translate(12.64,178.96) rotate(-90)' style='font-size: 10.00px; font-family: Arial;' textLength='83.39px' lengthAdjust='spacingAndGlyphs'>net photosynthesis</text></g>
<g clip-path='url(#cpMHwzMDIuNHwyODh8MA==)'><text x='58.36' y='14.07' style='font-size: 12.00px; font-family: Arial;' textLength='62.04px' lengthAdjust='spacingAndGlyphs'>Picea abies</text></g>
</svg>
