<?xml version='1.0' encoding='UTF-8' ?>
<svg xmlns='http://www.w3.org/2000/svg' xmlns:xlink='http://www.w3.org/1999/xlink' viewBox='0 0 302.40 288.00'>
<defs>
  <style type='text/css'><![CDATA[
    line, polyline, path, rect, circle {
      fill: none;
      stroke: #000000;
      stroke-linecap: round;
      stroke-linejoin: round;
      stroke-miterlimit: 10.00;
    }
  ]]></style>
</defs>
<rect width='100%' height='100%' style='stroke: none; fill: #FFFFFF;'/>
<rect x='0.00' y='0.00' width='302.40' height='288.00' style='stroke-width: 1.07; stroke: #FFFFFF; fill: #FFFFFF;' />
<defs>
  <clipPath id='cpNTYuMTAyM3wyOTYuOTIxfDI1My43NXwyMy4xNzk4'>
    <rect x='56.10' y='23.18' width='240.82' height='230.57' />
  </clipPath>
</defs>
<rect x='56.10' y='23.18' width='240.82' height='230.57' style='stroke-width: 1.07; stroke: none; fill: #FFFFFF;' clip-path='url(#cpNTYuMTAyM3wyOTYuOTIxfDI1My43NXwyMy4xNzk4)' />
<polyline points='56.10,236.71 296.92,236.71 ' style='stroke-width: 0.53; stroke: #EBEBEB; stroke-linecap: butt;' clip-path='url(#cpNTYuMTAyM3wyOTYuOTIxfDI1My43NXwyMy4xNzk4)' />
<polyline points='56.10,200.82 296.92,200.82 ' style='stroke-width: 0.53; stroke: #EBEBEB; stroke-linecap: butt;' clip-path='url(#cpNTYuMTAyM3wyOTYuOTIxfDI1My43NXwyMy4xNzk4)' />
<polyline points='56.10,164.94 296.92,164.94 ' style='stroke-width: 0.53; stroke: #EBEBEB; stroke-linecap: butt;' clip-path='url(#cpNTYuMTAyM3wyOTYuOTIxfDI1My43NXwyMy4xNzk4)' />
<polyline points='56.10,129.05 296.92,129.05 ' style='stroke-width: 0.53; stroke: #EBEBEB; stroke-linecap: butt;' clip-path='url(#cpNTYuMTAyM3wyOTYuOTIxfDI1My43NXwyMy4xNzk4)' />
<polyline points='56.10,93.16 296.92,93.16 ' style='stroke-width: 0.53; stroke: #EBEBEB; stroke-linecap: butt;' clip-path='url(#cpNTYuMTAyM3wyOTYuOTIxfDI1My43NXwyMy4xNzk4)' />
<polyline points='56.10,57.28 296.92,57.28 ' style='stroke-width: 0.53; stroke: #EBEBEB; stroke-linecap: butt;' clip-path='url(#cpNTYuMTAyM3wyOTYuOTIxfDI1My43NXwyMy4xNzk4)' />
<polyline points='122.95,253.75 122.95,23.18 ' style='stroke-width: 0.53; stroke: #EBEBEB; stroke-linecap: butt;' clip-path='url(#cpNTYuMTAyM3wyOTYuOTIxfDI1My43NXwyMy4xNzk4)' />
<polyline points='201.14,253.75 201.14,23.18 ' style='stroke-width: 0.53; stroke: #EBEBEB; stroke-linecap: butt;' clip-path='url(#cpNTYuMTAyM3wyOTYuOTIxfDI1My43NXwyMy4xNzk4)' />
<polyline points='279.33,253.75 279.33,23.18 ' style='stroke-width: 0.53; stroke: #EBEBEB; stroke-linecap: butt;' clip-path='url(#cpNTYuMTAyM3wyOTYuOTIxfDI1My43NXwyMy4xNzk4)' />
<polyline points='56.10,218.76 296.92,218.76 ' style='stroke-width: 1.07; stroke: #EBEBEB; stroke-linecap: butt;' clip-path='url(#cpNTYuMTAyM3wyOTYuOTIxfDI1My43NXwyMy4xNzk4)' />
<polyline points='56.10,182.88 296.92,182.88 ' style='stroke-width: 1.07; stroke: #EBEBEB; stroke-linecap: butt;' clip-path='url(#cpNTYuMTAyM3wyOTYuOTIxfDI1My43NXwyMy4xNzk4)' />
<polyline points='56.10,146.99 296.92,146.99 ' style='stroke-width: 1.07; stroke: #EBEBEB; stroke-linecap: butt;' clip-path='url(#cpNTYuMTAyM3wyOTYuOTIxfDI1My43NXwyMy4xNzk4)' />
<polyline points='56.10,111.11 296.92,111.11 ' style='stroke-width: 1.07; stroke: #EBEBEB; stroke-linecap: butt;' clip-path='url(#cpNTYuMTAyM3wyOTYuOTIxfDI1My43NXwyMy4xNzk4)' />
<polyline points='56.10,75.22 296.92,75.22 ' style='stroke-width: 1.07; stroke: #EBEBEB; stroke-linecap: butt;' clip-path='url(#cpNTYuMTAyM3wyOTYuOTIxfDI1My43NXwyMy4xNzk4)' />
<polyline points='56.10,39.34 296.92,39.34 ' style='stroke-width: 1.07; stroke: #EBEBEB; stroke-linecap: butt;' clip-path='url(#cpNTYuMTAyM3wyOTYuOTIxfDI1My43NXwyMy4xNzk4)' />
<polyline points='83.86,253.75 83.86,23.18 ' style='stroke-width: 1.07; stroke: #EBEBEB; stroke-linecap: butt;' clip-path='url(#cpNTYuMTAyM3wyOTYuOTIxfDI1My43NXwyMy4xNzk4)' />
<polyline points='162.05,253.75 162.05,23.18 ' style='stroke-width: 1.07; stroke: #EBEBEB; stroke-linecap: butt;' clip-path='url(#cpNTYuMTAyM3wyOTYuOTIxfDI1My43NXwyMy4xNzk4)' />
<polyline points='240.23,253.75 240.23,23.18 ' style='stroke-width: 1.07; stroke: #EBEBEB; stroke-linecap: butt;' clip-path='url(#cpNTYuMTAyM3wyOTYuOTIxfDI1My43NXwyMy4xNzk4)' />
<circle cx='68.32' cy='243.27' r='3.56pt' style='stroke-width: 0.71; stroke: #000000; stroke-opacity: 0.70; fill: #D1EEEE; fill-opacity: 0.70;' clip-path='url(#cpNTYuMTAyM3wyOTYuOTIxfDI1My43NXwyMy4xNzk4)' />
<circle cx='84.88' cy='164.95' r='3.56pt' style='stroke-width: 0.71; stroke: #000000; stroke-opacity: 0.70; fill: #D1EEEE; fill-opacity: 0.70;' clip-path='url(#cpNTYuMTAyM3wyOTYuOTIxfDI1My43NXwyMy4xNzk4)' />
<circle cx='121.91' cy='84.64' r='3.56pt' style='stroke-width: 0.71; stroke: #000000; stroke-opacity: 0.70; fill: #D1EEEE; fill-opacity: 0.70;' clip-path='url(#cpNTYuMTAyM3wyOTYuOTIxfDI1My43NXwyMy4xNzk4)' />
<circle cx='160.04' cy='47.55' r='3.56pt' style='stroke-width: 0.71; stroke: #000000; stroke-opacity: 0.70; fill: #D1EEEE; fill-opacity: 0.70;' clip-path='url(#cpNTYuMTAyM3wyOTYuOTIxfDI1My43NXwyMy4xNzk4)' />
<circle cx='201.16' cy='53.05' r='3.56pt' style='stroke-width: 0.71; stroke: #000000; stroke-opacity: 0.70; fill: #D1EEEE; fill-opacity: 0.70;' clip-path='url(#cpNTYuMTAyM3wyOTYuOTIxfDI1My43NXwyMy4xNzk4)' />
<circle cx='240.43' cy='91.45' r='3.56pt' style='stroke-width: 0.71; stroke: #000000; stroke-opacity: 0.70; fill: #D1EEEE; fill-opacity: 0.70;' clip-path='url(#cpNTYuMTAyM3wyOTYuOTIxfDI1My43NXwyMy4xNzk4)' />
<circle cx='280.36' cy='176.29' r='3.56pt' style='stroke-width: 0.71; stroke: #000000; stroke-opacity: 0.70; fill: #D1EEEE; fill-opacity: 0.70;' clip-path='url(#cpNTYuMTAyM3wyOTYuOTIxfDI1My43NXwyMy4xNzk4)' />
<polyline points='67.05,238.11 68.15,234.68 69.25,231.24 70.35,227.80 71.45,224.35 72.55,220.89 73.65,217.44 74.75,213.97 75.85,210.51 76.95,207.04 78.05,203.58 79.15,200.12 80.25,196.66 81.35,193.20 82.45,189.75 83.55,186.31 84.65,182.88 85.75,179.46 86.85,176.05 87.95,172.65 89.05,169.26 90.15,165.89 91.25,162.54 92.35,159.21 93.45,155.90 94.55,152.60 95.65,149.33 96.75,146.09 97.85,142.87 98.95,139.67 100.05,136.51 101.15,133.37 102.25,130.27 103.35,127.19 104.45,124.16 105.55,121.15 106.65,118.18 107.75,115.25 108.85,112.36 109.95,109.50 111.05,106.69 112.15,103.92 113.25,101.20 114.35,98.51 115.45,95.88 116.55,93.29 117.65,90.74 118.75,88.25 119.85,85.80 120.95,83.41 122.06,81.06 123.16,78.77 124.26,76.53 125.36,74.35 126.46,72.21 127.56,70.13 128.66,68.11 129.76,66.15 130.86,64.23 131.96,62.38 133.06,60.58 134.16,58.85 135.26,57.16 136.36,55.54 137.46,53.98 138.56,52.47 139.66,51.02 140.76,49.64 141.86,48.31 142.96,47.04 144.06,45.83 145.16,44.68 146.26,43.58 147.36,42.55 148.46,41.57 149.56,40.66 150.66,39.80 151.76,39.00 152.86,38.26 153.96,37.57 155.06,36.94 156.16,36.37 157.26,35.86 158.36,35.40 159.46,34.99 160.56,34.64 161.66,34.35 162.76,34.10 163.86,33.92 164.96,33.78 166.06,33.69 167.16,33.66 168.26,33.68 169.36,33.74 170.46,33.86 171.56,34.02 172.66,34.23 173.76,34.49 174.86,34.80 175.96,35.15 177.06,35.54 178.16,35.98 179.26,36.46 180.36,36.98 181.46,37.54 182.56,38.15 183.66,38.79 184.76,39.48 185.86,40.20 186.96,40.96 188.06,41.75 189.16,42.58 190.26,43.45 191.36,44.35 192.46,45.28 193.56,46.24 194.66,47.24 195.76,48.26 196.86,49.32 197.96,50.40 199.06,51.52 200.16,52.66 201.26,53.83 202.36,55.02 203.46,56.24 204.56,57.48 205.66,58.75 206.76,60.04 207.87,61.35 208.97,62.68 210.07,64.03 211.17,65.41 212.27,66.80 213.37,68.21 214.47,69.64 215.57,71.09 216.67,72.55 217.77,74.03 218.87,75.52 219.97,77.03 221.07,78.55 222.17,80.09 223.27,81.64 224.37,83.20 225.47,84.77 226.57,86.36 227.67,87.95 228.77,89.56 229.87,91.17 230.97,92.80 232.07,94.43 233.17,96.07 234.27,97.72 235.37,99.37 236.47,101.04 237.57,102.71 238.67,104.38 239.77,106.06 240.87,107.74 241.97,109.43 243.07,111.13 244.17,112.82 245.27,114.52 246.37,116.23 247.47,117.93 248.57,119.64 249.67,121.35 250.77,123.07 251.87,124.78 252.97,126.49 254.07,128.21 255.17,129.93 256.27,131.64 257.37,133.36 258.47,135.07 259.57,136.79 260.67,138.50 261.77,140.22 262.87,141.93 263.97,143.64 265.07,145.35 266.17,147.05 267.27,148.76 268.37,150.46 269.47,152.16 270.57,153.85 271.67,155.55 272.77,157.24 273.87,158.92 274.97,160.60 276.07,162.28 277.17,163.96 278.27,165.63 279.37,167.30 280.47,168.96 281.57,170.62 282.67,172.27 283.77,173.92 284.87,175.57 285.97,177.20 ' style='stroke-width: 2.77; stroke: #1B9E77; stroke-linecap: butt;' clip-path='url(#cpNTYuMTAyM3wyOTYuOTIxfDI1My43NXwyMy4xNzk4)' />
<g clip-path='url(#cpNTYuMTAyM3wyOTYuOTIxfDI1My43NXwyMy4xNzk4)'><text x='68.32' y='113.96' style='font-size: 8.54px; font-style: italic; font-family: Arial;' textLength='60.01px' lengthAdjust='spacingAndGlyphs'>R^2 sch= 0.97 </text></g>
<g clip-path='url(#cpNTYuMTAyM3wyOTYuOTIxfDI1My43NXwyMy4xNzk4)'><text x='68.32' y='126.25' style='font-size: 8.54px; font-style: italic; font-family: Arial;' textLength='55.29px' lengthAdjust='spacingAndGlyphs'>E sch= 0.898 </text></g>
<g clip-path='url(#cpNTYuMTAyM3wyOTYuOTIxfDI1My43NXwyMy4xNzk4)'><text x='68.32' y='138.54' style='font-size: 8.54px; font-style: italic; font-family: Arial;' textLength='59.78px' lengthAdjust='spacingAndGlyphs'>AIC sch= -18.8</text></g>
<rect x='56.10' y='23.18' width='240.82' height='230.57' style='stroke-width: 1.07; stroke: #333333;' clip-path='url(#cpNTYuMTAyM3wyOTYuOTIxfDI1My43NXwyMy4xNzk4)' />
<defs>
  <clipPath id='cpMHwzMDIuNHwyODh8MA=='>
    <rect x='0.00' y='0.00' width='302.40' height='288.00' />
  </clipPath>
</defs>
<g clip-path='url(#cpMHwzMDIuNHwyODh8MA==)'><text x='20.65' y='221.98' style='font-size: 8.80px; fill: #4D4D4D; font-family: Arial;' textLength='30.52px' lengthAdjust='spacingAndGlyphs'>8.0e-07</text></g>
<g clip-path='url(#cpMHwzMDIuNHwyODh8MA==)'><text x='20.65' y='186.10' style='font-size: 8.80px; fill: #4D4D4D; font-family: Arial;' textLength='30.52px' lengthAdjust='spacingAndGlyphs'>9.0e-07</text></g>
<g clip-path='url(#cpMHwzMDIuNHwyODh8MA==)'><text x='20.65' y='150.21' style='font-size: 8.80px; fill: #4D4D4D; font-family: Arial;' textLength='30.52px' lengthAdjust='spacingAndGlyphs'>1.0e-06</text></g>
<g clip-path='url(#cpMHwzMDIuNHwyODh8MA==)'><text x='20.65' y='114.33' style='font-size: 8.80px; fill: #4D4D4D; font-family: Arial;' textLength='30.52px' lengthAdjust='spacingAndGlyphs'>1.1e-06</text></g>
<g clip-path='url(#cpMHwzMDIuNHwyODh8MA==)'><text x='20.65' y='78.44' style='font-size: 8.80px; fill: #4D4D4D; font-family: Arial;' textLength='30.52px' lengthAdjust='spacingAndGlyphs'>1.2e-06</text></g>
<g clip-path='url(#cpMHwzMDIuNHwyODh8MA==)'><text x='20.65' y='42.55' style='font-size: 8.80px; fill: #4D4D4D; font-family: Arial;' textLength='30.52px' lengthAdjust='spacingAndGlyphs'>1.3e-06</text></g>
<polyline points='53.36,218.76 56.10,218.76 ' style='stroke-width: 1.07; stroke: #333333; stroke-linecap: butt;' clip-path='url(#cpMHwzMDIuNHwyODh8MA==)' />
<polyline points='53.36,182.88 56.10,182.88 ' style='stroke-width: 1.07; stroke: #333333; stroke-linecap: butt;' clip-path='url(#cpMHwzMDIuNHwyODh8MA==)' />
<polyline points='53.36,146.99 56.10,146.99 ' style='stroke-width: 1.07; stroke: #333333; stroke-linecap: butt;' clip-path='url(#cpMHwzMDIuNHwyODh8MA==)' />
<polyline points='53.36,111.11 56.10,111.11 ' style='stroke-width: 1.07; stroke: #333333; stroke-linecap: butt;' clip-path='url(#cpMHwzMDIuNHwyODh8MA==)' />
<polyline points='53.36,75.22 56.10,75.22 ' style='stroke-width: 1.07; stroke: #333333; stroke-linecap: butt;' clip-path='url(#cpMHwzMDIuNHwyODh8MA==)' />
<polyline points='53.36,39.34 56.10,39.34 ' style='stroke-width: 1.07; stroke: #333333; stroke-linecap: butt;' clip-path='url(#cpMHwzMDIuNHwyODh8MA==)' />
<polyline points='83.86,256.49 83.86,253.75 ' style='stroke-width: 1.07; stroke: #333333; stroke-linecap: butt;' clip-path='url(#cpMHwzMDIuNHwyODh8MA==)' />
<polyline points='162.05,256.49 162.05,253.75 ' style='stroke-width: 1.07; stroke: #333333; stroke-linecap: butt;' clip-path='url(#cpMHwzMDIuNHwyODh8MA==)' />
<polyline points='240.23,256.49 240.23,253.75 ' style='stroke-width: 1.07; stroke: #333333; stroke-linecap: butt;' clip-path='url(#cpMHwzMDIuNHwyODh8MA==)' />
<g clip-path='url(#cpMHwzMDIuNHwyODh8MA==)'><text x='78.85' y='265.12' style='font-size: 8.80px; fill: #4D4D4D; font-family: Arial;' textLength='10.01px' lengthAdjust='spacingAndGlyphs'>10</text></g>
<g clip-path='url(#cpMHwzMDIuNHwyODh8MA==)'><text x='157.04' y='265.12' style='font-size: 8.80px; fill: #4D4D4D; font-family: Arial;' textLength='10.01px' lengthAdjust='spacingAndGlyphs'>20</text></g>
<g clip-path='url(#cpMHwzMDIuNHwyODh8MA==)'><text x='235.23' y='265.12' style='font-size: 8.80px; fill: #4D4D4D; font-family: Arial;' textLength='10.01px' lengthAdjust='spacingAndGlyphs'>30</text></g>
<g clip-path='url(#cpMHwzMDIuNHwyODh8MA==)'><text x='137.56' y='277.88' style='font-size: 10.00px; font-family: Arial;' textLength='63.35px' lengthAdjust='spacingAndGlyphs'>Temperature (</text></g>
<g clip-path='url(#cpMHwzMDIuNHwyODh8MA==)'><text x='200.91' y='277.88' style='font-size: 10.00px; font-family: Symbol;' textLength='4.00px' lengthAdjust='spacingAndGlyphs'>°</text></g>
<g clip-path='url(#cpMHwzMDIuNHwyODh8MA==)'><text x='204.91' y='277.88' style='font-size: 10.00px; font-family: Arial;' textLength='7.22px' lengthAdjust='spacingAndGlyphs'>C</text></g>
<g clip-path='url(#cpMHwzMDIuNHwyODh8MA==)'><text x='212.13' y='277.88' style='font-size: 10.00px; font-family: Arial;' textLength='3.33px' lengthAdjust='spacingAndGlyphs'>)</text></g>
<g clip-path='url(#cpMHwzMDIuNHwyODh8MA==)'><text transform='translate(12.64,180.16) rotate(-90)' style='font-size: 10.00px; font-family: Arial;' textLength='83.39px' lengthAdjust='spacingAndGlyphs'>net photosynthesis</text></g>
<g clip-path='url(#cpMHwzMDIuNHwyODh8MA==)'><text x='56.10' y='14.07' style='font-size: 12.00px; font-family: Arial;' textLength='138.76px' lengthAdjust='spacingAndGlyphs'>Nothofagus cunninghamii </text></g>
</svg>
