<?xml version='1.0' encoding='UTF-8' ?>
<svg xmlns='http://www.w3.org/2000/svg' xmlns:xlink='http://www.w3.org/1999/xlink' viewBox='0 0 302.40 288.00'>
<defs>
  <style type='text/css'><![CDATA[
    line, polyline, path, rect, circle {
      fill: none;
      stroke: #000000;
      stroke-linecap: round;
      stroke-linejoin: round;
      stroke-miterlimit: 10.00;
    }
  ]]></style>
</defs>
<rect width='100%' height='100%' style='stroke: none; fill: #FFFFFF;'/>
<rect x='0.00' y='0.00' width='302.40' height='288.00' style='stroke-width: 1.07; stroke: #FFFFFF; fill: #FFFFFF;' />
<defs>
  <clipPath id='cpNTYuMTAyM3wyOTYuOTIxfDI1My43NXwyMC43ODky'>
    <rect x='56.10' y='20.79' width='240.82' height='232.96' />
  </clipPath>
</defs>
<rect x='56.10' y='20.79' width='240.82' height='232.96' style='stroke-width: 1.07; stroke: none; fill: #FFFFFF;' clip-path='url(#cpNTYuMTAyM3wyOTYuOTIxfDI1My43NXwyMC43ODky)' />
<polyline points='56.10,223.28 296.92,223.28 ' style='stroke-width: 0.53; stroke: #EBEBEB; stroke-linecap: butt;' clip-path='url(#cpNTYuMTAyM3wyOTYuOTIxfDI1My43NXwyMC43ODky)' />
<polyline points='56.10,155.66 296.92,155.66 ' style='stroke-width: 0.53; stroke: #EBEBEB; stroke-linecap: butt;' clip-path='url(#cpNTYuMTAyM3wyOTYuOTIxfDI1My43NXwyMC43ODky)' />
<polyline points='56.10,88.04 296.92,88.04 ' style='stroke-width: 0.53; stroke: #EBEBEB; stroke-linecap: butt;' clip-path='url(#cpNTYuMTAyM3wyOTYuOTIxfDI1My43NXwyMC43ODky)' />
<polyline points='68.31,253.75 68.31,20.79 ' style='stroke-width: 0.53; stroke: #EBEBEB; stroke-linecap: butt;' clip-path='url(#cpNTYuMTAyM3wyOTYuOTIxfDI1My43NXwyMC43ODky)' />
<polyline points='152.51,253.75 152.51,20.79 ' style='stroke-width: 0.53; stroke: #EBEBEB; stroke-linecap: butt;' clip-path='url(#cpNTYuMTAyM3wyOTYuOTIxfDI1My43NXwyMC43ODky)' />
<polyline points='236.72,253.75 236.72,20.79 ' style='stroke-width: 0.53; stroke: #EBEBEB; stroke-linecap: butt;' clip-path='url(#cpNTYuMTAyM3wyOTYuOTIxfDI1My43NXwyMC43ODky)' />
<polyline points='56.10,189.47 296.92,189.47 ' style='stroke-width: 1.07; stroke: #EBEBEB; stroke-linecap: butt;' clip-path='url(#cpNTYuMTAyM3wyOTYuOTIxfDI1My43NXwyMC43ODky)' />
<polyline points='56.10,121.85 296.92,121.85 ' style='stroke-width: 1.07; stroke: #EBEBEB; stroke-linecap: butt;' clip-path='url(#cpNTYuMTAyM3wyOTYuOTIxfDI1My43NXwyMC43ODky)' />
<polyline points='56.10,54.23 296.92,54.23 ' style='stroke-width: 1.07; stroke: #EBEBEB; stroke-linecap: butt;' clip-path='url(#cpNTYuMTAyM3wyOTYuOTIxfDI1My43NXwyMC43ODky)' />
<polyline points='110.41,253.75 110.41,20.79 ' style='stroke-width: 1.07; stroke: #EBEBEB; stroke-linecap: butt;' clip-path='url(#cpNTYuMTAyM3wyOTYuOTIxfDI1My43NXwyMC43ODky)' />
<polyline points='194.61,253.75 194.61,20.79 ' style='stroke-width: 1.07; stroke: #EBEBEB; stroke-linecap: butt;' clip-path='url(#cpNTYuMTAyM3wyOTYuOTIxfDI1My43NXwyMC43ODky)' />
<polyline points='278.82,253.75 278.82,20.79 ' style='stroke-width: 1.07; stroke: #EBEBEB; stroke-linecap: butt;' clip-path='url(#cpNTYuMTAyM3wyOTYuOTIxfDI1My43NXwyMC43ODky)' />
<circle cx='67.15' cy='230.18' r='3.56pt' style='stroke-width: 0.71; stroke: #000000; stroke-opacity: 0.70; fill: #D1EEEE; fill-opacity: 0.70;' clip-path='url(#cpNTYuMTAyM3wyOTYuOTIxfDI1My43NXwyMC43ODky)' />
<circle cx='67.98' cy='216.92' r='3.56pt' style='stroke-width: 0.71; stroke: #000000; stroke-opacity: 0.70; fill: #D1EEEE; fill-opacity: 0.70;' clip-path='url(#cpNTYuMTAyM3wyOTYuOTIxfDI1My43NXwyMC43ODky)' />
<circle cx='68.82' cy='243.16' r='3.56pt' style='stroke-width: 0.71; stroke: #000000; stroke-opacity: 0.70; fill: #D1EEEE; fill-opacity: 0.70;' clip-path='url(#cpNTYuMTAyM3wyOTYuOTIxfDI1My43NXwyMC43ODky)' />
<circle cx='109.25' cy='160.26' r='3.56pt' style='stroke-width: 0.71; stroke: #000000; stroke-opacity: 0.70; fill: #D1EEEE; fill-opacity: 0.70;' clip-path='url(#cpNTYuMTAyM3wyOTYuOTIxfDI1My43NXwyMC43ODky)' />
<circle cx='110.08' cy='184.47' r='3.56pt' style='stroke-width: 0.71; stroke: #000000; stroke-opacity: 0.70; fill: #D1EEEE; fill-opacity: 0.70;' clip-path='url(#cpNTYuMTAyM3wyOTYuOTIxfDI1My43NXwyMC43ODky)' />
<circle cx='110.08' cy='174.60' r='3.56pt' style='stroke-width: 0.71; stroke: #000000; stroke-opacity: 0.70; fill: #D1EEEE; fill-opacity: 0.70;' clip-path='url(#cpNTYuMTAyM3wyOTYuOTIxfDI1My43NXwyMC43ODky)' />
<circle cx='151.76' cy='101.16' r='3.56pt' style='stroke-width: 0.71; stroke: #000000; stroke-opacity: 0.70; fill: #D1EEEE; fill-opacity: 0.70;' clip-path='url(#cpNTYuMTAyM3wyOTYuOTIxfDI1My43NXwyMC43ODky)' />
<circle cx='152.19' cy='114.96' r='3.56pt' style='stroke-width: 0.71; stroke: #000000; stroke-opacity: 0.70; fill: #D1EEEE; fill-opacity: 0.70;' clip-path='url(#cpNTYuMTAyM3wyOTYuOTIxfDI1My43NXwyMC43ODky)' />
<circle cx='152.33' cy='90.48' r='3.56pt' style='stroke-width: 0.71; stroke: #000000; stroke-opacity: 0.70; fill: #D1EEEE; fill-opacity: 0.70;' clip-path='url(#cpNTYuMTAyM3wyOTYuOTIxfDI1My43NXwyMC43ODky)' />
<circle cx='193.48' cy='43.41' r='3.56pt' style='stroke-width: 0.71; stroke: #000000; stroke-opacity: 0.70; fill: #D1EEEE; fill-opacity: 0.70;' clip-path='url(#cpNTYuMTAyM3wyOTYuOTIxfDI1My43NXwyMC43ODky)' />
<circle cx='193.75' cy='66.54' r='3.56pt' style='stroke-width: 0.71; stroke: #000000; stroke-opacity: 0.70; fill: #D1EEEE; fill-opacity: 0.70;' clip-path='url(#cpNTYuMTAyM3wyOTYuOTIxfDI1My43NXwyMC43ODky)' />
<circle cx='193.75' cy='51.39' r='3.56pt' style='stroke-width: 0.71; stroke: #000000; stroke-opacity: 0.70; fill: #D1EEEE; fill-opacity: 0.70;' clip-path='url(#cpNTYuMTAyM3wyOTYuOTIxfDI1My43NXwyMC43ODky)' />
<circle cx='236.27' cy='31.38' r='3.56pt' style='stroke-width: 0.71; stroke: #000000; stroke-opacity: 0.70; fill: #D1EEEE; fill-opacity: 0.70;' clip-path='url(#cpNTYuMTAyM3wyOTYuOTIxfDI1My43NXwyMC43ODky)' />
<circle cx='236.53' cy='44.63' r='3.56pt' style='stroke-width: 0.71; stroke: #000000; stroke-opacity: 0.70; fill: #D1EEEE; fill-opacity: 0.70;' clip-path='url(#cpNTYuMTAyM3wyOTYuOTIxfDI1My43NXwyMC43ODky)' />
<circle cx='236.53' cy='59.78' r='3.56pt' style='stroke-width: 0.71; stroke: #000000; stroke-opacity: 0.70; fill: #D1EEEE; fill-opacity: 0.70;' clip-path='url(#cpNTYuMTAyM3wyOTYuOTIxfDI1My43NXwyMC43ODky)' />
<circle cx='279.20' cy='47.88' r='3.56pt' style='stroke-width: 0.71; stroke: #000000; stroke-opacity: 0.70; fill: #D1EEEE; fill-opacity: 0.70;' clip-path='url(#cpNTYuMTAyM3wyOTYuOTIxfDI1My43NXwyMC43ODky)' />
<circle cx='279.20' cy='56.80' r='3.56pt' style='stroke-width: 0.71; stroke: #000000; stroke-opacity: 0.70; fill: #D1EEEE; fill-opacity: 0.70;' clip-path='url(#cpNTYuMTAyM3wyOTYuOTIxfDI1My43NXwyMC43ODky)' />
<circle cx='279.20' cy='71.00' r='3.56pt' style='stroke-width: 0.71; stroke: #000000; stroke-opacity: 0.70; fill: #D1EEEE; fill-opacity: 0.70;' clip-path='url(#cpNTYuMTAyM3wyOTYuOTIxfDI1My43NXwyMC43ODky)' />
<polyline points='67.05,232.12 68.15,230.79 69.25,229.45 70.35,228.10 71.45,226.73 72.55,225.35 73.65,223.96 74.75,222.55 75.85,221.14 76.95,219.70 78.05,218.26 79.15,216.80 80.25,215.33 81.35,213.85 82.45,212.36 83.55,210.85 84.65,209.33 85.75,207.80 86.85,206.26 87.95,204.71 89.05,203.14 90.15,201.56 91.25,199.97 92.35,198.38 93.45,196.77 94.55,195.15 95.65,193.51 96.75,191.87 97.85,190.22 98.95,188.56 100.05,186.89 101.15,185.22 102.25,183.53 103.35,181.83 104.45,180.13 105.55,178.42 106.65,176.70 107.75,174.97 108.85,173.24 109.95,171.50 111.05,169.75 112.15,168.00 113.25,166.25 114.35,164.48 115.45,162.72 116.55,160.95 117.65,159.17 118.75,157.39 119.85,155.61 120.95,153.83 122.06,152.05 123.16,150.26 124.26,148.47 125.36,146.68 126.46,144.89 127.56,143.11 128.66,141.32 129.76,139.53 130.86,137.75 131.96,135.97 133.06,134.19 134.16,132.41 135.26,130.64 136.36,128.87 137.46,127.11 138.56,125.35 139.66,123.60 140.76,121.86 141.86,120.12 142.96,118.39 144.06,116.67 145.16,114.96 146.26,113.25 147.36,111.56 148.46,109.88 149.56,108.20 150.66,106.54 151.76,104.89 152.86,103.26 153.96,101.63 155.06,100.02 156.16,98.43 157.26,96.85 158.36,95.28 159.46,93.73 160.56,92.19 161.66,90.68 162.76,89.18 163.86,87.69 164.96,86.23 166.06,84.78 167.16,83.35 168.26,81.94 169.36,80.55 170.46,79.18 171.56,77.84 172.66,76.51 173.76,75.20 174.86,73.92 175.96,72.66 177.06,71.42 178.16,70.20 179.26,69.01 180.36,67.83 181.46,66.69 182.56,65.57 183.66,64.47 184.76,63.39 185.86,62.34 186.96,61.32 188.06,60.32 189.16,59.35 190.26,58.40 191.36,57.48 192.46,56.58 193.56,55.71 194.66,54.87 195.76,54.05 196.86,53.26 197.96,52.50 199.06,51.76 200.16,51.05 201.26,50.36 202.36,49.70 203.46,49.07 204.56,48.47 205.66,47.89 206.76,47.34 207.87,46.81 208.97,46.32 210.07,45.84 211.17,45.40 212.27,44.98 213.37,44.59 214.47,44.22 215.57,43.88 216.67,43.56 217.77,43.27 218.87,43.01 219.97,42.77 221.07,42.56 222.17,42.37 223.27,42.21 224.37,42.07 225.47,41.95 226.57,41.86 227.67,41.79 228.77,41.75 229.87,41.73 230.97,41.73 232.07,41.76 233.17,41.81 234.27,41.88 235.37,41.97 236.47,42.09 237.57,42.22 238.67,42.38 239.77,42.56 240.87,42.76 241.97,42.97 243.07,43.21 244.17,43.47 245.27,43.75 246.37,44.05 247.47,44.36 248.57,44.70 249.67,45.05 250.77,45.42 251.87,45.80 252.97,46.21 254.07,46.63 255.17,47.07 256.27,47.52 257.37,47.99 258.47,48.47 259.57,48.97 260.67,49.49 261.77,50.01 262.87,50.56 263.97,51.11 265.07,51.68 266.17,52.27 267.27,52.86 268.37,53.47 269.47,54.09 270.57,54.73 271.67,55.37 272.77,56.03 273.87,56.70 274.97,57.37 276.07,58.06 277.17,58.76 278.27,59.47 279.37,60.19 280.47,60.91 281.57,61.65 282.67,62.39 283.77,63.15 284.87,63.91 285.97,64.68 ' style='stroke-width: 2.77; stroke: #1B9E77; stroke-linecap: butt;' clip-path='url(#cpNTYuMTAyM3wyOTYuOTIxfDI1My43NXwyMC43ODky)' />
<g clip-path='url(#cpNTYuMTAyM3wyOTYuOTIxfDI1My43NXwyMC43ODky)'><text x='67.15' y='101.43' style='font-size: 8.54px; font-style: italic; font-family: Arial;' textLength='60.01px' lengthAdjust='spacingAndGlyphs'>R^2 sch= 0.98 </text></g>
<g clip-path='url(#cpNTYuMTAyM3wyOTYuOTIxfDI1My43NXwyMC43ODky)'><text x='67.15' y='113.72' style='font-size: 8.54px; font-style: italic; font-family: Arial;' textLength='55.29px' lengthAdjust='spacingAndGlyphs'>E sch= 0.838 </text></g>
<g clip-path='url(#cpNTYuMTAyM3wyOTYuOTIxfDI1My43NXwyMC43ODky)'><text x='67.15' y='126.01' style='font-size: 8.54px; font-style: italic; font-family: Arial;' textLength='59.78px' lengthAdjust='spacingAndGlyphs'>AIC sch= -37.1</text></g>
<rect x='56.10' y='20.79' width='240.82' height='232.96' style='stroke-width: 1.07; stroke: #333333;' clip-path='url(#cpNTYuMTAyM3wyOTYuOTIxfDI1My43NXwyMC43ODky)' />
<defs>
  <clipPath id='cpMHwzMDIuNHwyODh8MA=='>
    <rect x='0.00' y='0.00' width='302.40' height='288.00' />
  </clipPath>
</defs>
<g clip-path='url(#cpMHwzMDIuNHwyODh8MA==)'><text x='20.65' y='192.69' style='font-size: 8.80px; fill: #4D4D4D; font-family: Arial;' textLength='30.52px' lengthAdjust='spacingAndGlyphs'>1.0e-06</text></g>
<g clip-path='url(#cpMHwzMDIuNHwyODh8MA==)'><text x='20.65' y='125.07' style='font-size: 8.80px; fill: #4D4D4D; font-family: Arial;' textLength='30.52px' lengthAdjust='spacingAndGlyphs'>1.5e-06</text></g>
<g clip-path='url(#cpMHwzMDIuNHwyODh8MA==)'><text x='20.65' y='57.45' style='font-size: 8.80px; fill: #4D4D4D; font-family: Arial;' textLength='30.52px' lengthAdjust='spacingAndGlyphs'>2.0e-06</text></g>
<polyline points='53.36,189.47 56.10,189.47 ' style='stroke-width: 1.07; stroke: #333333; stroke-linecap: butt;' clip-path='url(#cpMHwzMDIuNHwyODh8MA==)' />
<polyline points='53.36,121.85 56.10,121.85 ' style='stroke-width: 1.07; stroke: #333333; stroke-linecap: butt;' clip-path='url(#cpMHwzMDIuNHwyODh8MA==)' />
<polyline points='53.36,54.23 56.10,54.23 ' style='stroke-width: 1.07; stroke: #333333; stroke-linecap: butt;' clip-path='url(#cpMHwzMDIuNHwyODh8MA==)' />
<polyline points='110.41,256.49 110.41,253.75 ' style='stroke-width: 1.07; stroke: #333333; stroke-linecap: butt;' clip-path='url(#cpMHwzMDIuNHwyODh8MA==)' />
<polyline points='194.61,256.49 194.61,253.75 ' style='stroke-width: 1.07; stroke: #333333; stroke-linecap: butt;' clip-path='url(#cpMHwzMDIuNHwyODh8MA==)' />
<polyline points='278.82,256.49 278.82,253.75 ' style='stroke-width: 1.07; stroke: #333333; stroke-linecap: butt;' clip-path='url(#cpMHwzMDIuNHwyODh8MA==)' />
<g clip-path='url(#cpMHwzMDIuNHwyODh8MA==)'><text x='105.41' y='265.12' style='font-size: 8.80px; fill: #4D4D4D; font-family: Arial;' textLength='10.01px' lengthAdjust='spacingAndGlyphs'>10</text></g>
<g clip-path='url(#cpMHwzMDIuNHwyODh8MA==)'><text x='189.61' y='265.12' style='font-size: 8.80px; fill: #4D4D4D; font-family: Arial;' textLength='10.01px' lengthAdjust='spacingAndGlyphs'>20</text></g>
<g clip-path='url(#cpMHwzMDIuNHwyODh8MA==)'><text x='273.81' y='265.12' style='font-size: 8.80px; fill: #4D4D4D; font-family: Arial;' textLength='10.01px' lengthAdjust='spacingAndGlyphs'>30</text></g>
<g clip-path='url(#cpMHwzMDIuNHwyODh8MA==)'><text x='137.56' y='277.88' style='font-size: 10.00px; font-family: Arial;' textLength='63.35px' lengthAdjust='spacingAndGlyphs'>Temperature (</text></g>
<g clip-path='url(#cpMHwzMDIuNHwyODh8MA==)'><text x='200.91' y='277.88' style='font-size: 10.00px; font-family: Symbol;' textLength='4.00px' lengthAdjust='spacingAndGlyphs'>°</text></g>
<g clip-path='url(#cpMHwzMDIuNHwyODh8MA==)'><text x='204.91' y='277.88' style='font-size: 10.00px; font-family: Arial;' textLength='7.22px' lengthAdjust='spacingAndGlyphs'>C</text></g>
<g clip-path='url(#cpMHwzMDIuNHwyODh8MA==)'><text x='212.13' y='277.88' style='font-size: 10.00px; font-family: Arial;' textLength='3.33px' lengthAdjust='spacingAndGlyphs'>)</text></g>
<g clip-path='url(#cpMHwzMDIuNHwyODh8MA==)'><text transform='translate(12.64,178.96) rotate(-90)' style='font-size: 10.00px; font-family: Arial;' textLength='83.39px' lengthAdjust='spacingAndGlyphs'>net photosynthesis</text></g>
<g clip-path='url(#cpMHwzMDIuNHwyODh8MA==)'><text x='56.10' y='14.07' style='font-size: 12.00px; font-family: Arial;' textLength='71.38px' lengthAdjust='spacingAndGlyphs'>Larix decidua</text></g>
</svg>
