<?xml version='1.0' encoding='UTF-8' ?>
<svg xmlns='http://www.w3.org/2000/svg' xmlns:xlink='http://www.w3.org/1999/xlink' viewBox='0 0 302.40 288.00'>
<defs>
  <style type='text/css'><![CDATA[
    line, polyline, path, rect, circle {
      fill: none;
      stroke: #000000;
      stroke-linecap: round;
      stroke-linejoin: round;
      stroke-miterlimit: 10.00;
    }
  ]]></style>
</defs>
<rect width='100%' height='100%' style='stroke: none; fill: #FFFFFF;'/>
<rect x='0.00' y='0.00' width='302.40' height='288.00' style='stroke-width: 1.07; stroke: #FFFFFF; fill: #FFFFFF;' />
<defs>
  <clipPath id='cpNDguNTk2NXwyOTYuOTIxfDI1My43NXwyMC43ODky'>
    <rect x='48.60' y='20.79' width='248.32' height='232.96' />
  </clipPath>
</defs>
<rect x='48.60' y='20.79' width='248.32' height='232.96' style='stroke-width: 1.07; stroke: none; fill: #FFFFFF;' clip-path='url(#cpNDguNTk2NXwyOTYuOTIxfDI1My43NXwyMC43ODky)' />
<polyline points='48.60,214.31 296.92,214.31 ' style='stroke-width: 0.53; stroke: #EBEBEB; stroke-linecap: butt;' clip-path='url(#cpNDguNTk2NXwyOTYuOTIxfDI1My43NXwyMC43ODky)' />
<polyline points='48.60,173.48 296.92,173.48 ' style='stroke-width: 0.53; stroke: #EBEBEB; stroke-linecap: butt;' clip-path='url(#cpNDguNTk2NXwyOTYuOTIxfDI1My43NXwyMC43ODky)' />
<polyline points='48.60,132.64 296.92,132.64 ' style='stroke-width: 0.53; stroke: #EBEBEB; stroke-linecap: butt;' clip-path='url(#cpNDguNTk2NXwyOTYuOTIxfDI1My43NXwyMC43ODky)' />
<polyline points='48.60,91.81 296.92,91.81 ' style='stroke-width: 0.53; stroke: #EBEBEB; stroke-linecap: butt;' clip-path='url(#cpNDguNTk2NXwyOTYuOTIxfDI1My43NXwyMC43ODky)' />
<polyline points='48.60,50.98 296.92,50.98 ' style='stroke-width: 0.53; stroke: #EBEBEB; stroke-linecap: butt;' clip-path='url(#cpNDguNTk2NXwyOTYuOTIxfDI1My43NXwyMC43ODky)' />
<polyline points='104.60,253.75 104.60,20.79 ' style='stroke-width: 0.53; stroke: #EBEBEB; stroke-linecap: butt;' clip-path='url(#cpNDguNTk2NXwyOTYuOTIxfDI1My43NXwyMC43ODky)' />
<polyline points='191.43,253.75 191.43,20.79 ' style='stroke-width: 0.53; stroke: #EBEBEB; stroke-linecap: butt;' clip-path='url(#cpNDguNTk2NXwyOTYuOTIxfDI1My43NXwyMC43ODky)' />
<polyline points='278.25,253.75 278.25,20.79 ' style='stroke-width: 0.53; stroke: #EBEBEB; stroke-linecap: butt;' clip-path='url(#cpNDguNTk2NXwyOTYuOTIxfDI1My43NXwyMC43ODky)' />
<polyline points='48.60,234.73 296.92,234.73 ' style='stroke-width: 1.07; stroke: #EBEBEB; stroke-linecap: butt;' clip-path='url(#cpNDguNTk2NXwyOTYuOTIxfDI1My43NXwyMC43ODky)' />
<polyline points='48.60,193.89 296.92,193.89 ' style='stroke-width: 1.07; stroke: #EBEBEB; stroke-linecap: butt;' clip-path='url(#cpNDguNTk2NXwyOTYuOTIxfDI1My43NXwyMC43ODky)' />
<polyline points='48.60,153.06 296.92,153.06 ' style='stroke-width: 1.07; stroke: #EBEBEB; stroke-linecap: butt;' clip-path='url(#cpNDguNTk2NXwyOTYuOTIxfDI1My43NXwyMC43ODky)' />
<polyline points='48.60,112.23 296.92,112.23 ' style='stroke-width: 1.07; stroke: #EBEBEB; stroke-linecap: butt;' clip-path='url(#cpNDguNTk2NXwyOTYuOTIxfDI1My43NXwyMC43ODky)' />
<polyline points='48.60,71.39 296.92,71.39 ' style='stroke-width: 1.07; stroke: #EBEBEB; stroke-linecap: butt;' clip-path='url(#cpNDguNTk2NXwyOTYuOTIxfDI1My43NXwyMC43ODky)' />
<polyline points='48.60,30.56 296.92,30.56 ' style='stroke-width: 1.07; stroke: #EBEBEB; stroke-linecap: butt;' clip-path='url(#cpNDguNTk2NXwyOTYuOTIxfDI1My43NXwyMC43ODky)' />
<polyline points='61.19,253.75 61.19,20.79 ' style='stroke-width: 1.07; stroke: #EBEBEB; stroke-linecap: butt;' clip-path='url(#cpNDguNTk2NXwyOTYuOTIxfDI1My43NXwyMC43ODky)' />
<polyline points='148.01,253.75 148.01,20.79 ' style='stroke-width: 1.07; stroke: #EBEBEB; stroke-linecap: butt;' clip-path='url(#cpNDguNTk2NXwyOTYuOTIxfDI1My43NXwyMC43ODky)' />
<polyline points='234.84,253.75 234.84,20.79 ' style='stroke-width: 1.07; stroke: #EBEBEB; stroke-linecap: butt;' clip-path='url(#cpNDguNTk2NXwyOTYuOTIxfDI1My43NXwyMC43ODky)' />
<circle cx='61.19' cy='133.09' r='3.56pt' style='stroke-width: 0.71; stroke: #000000; stroke-opacity: 0.70; fill: #D1EEEE; fill-opacity: 0.70;' clip-path='url(#cpNDguNTk2NXwyOTYuOTIxfDI1My43NXwyMC43ODky)' />
<circle cx='104.60' cy='81.60' r='3.56pt' style='stroke-width: 0.71; stroke: #000000; stroke-opacity: 0.70; fill: #D1EEEE; fill-opacity: 0.70;' clip-path='url(#cpNDguNTk2NXwyOTYuOTIxfDI1My43NXwyMC43ODky)' />
<circle cx='148.01' cy='45.55' r='3.56pt' style='stroke-width: 0.71; stroke: #000000; stroke-opacity: 0.70; fill: #D1EEEE; fill-opacity: 0.70;' clip-path='url(#cpNDguNTk2NXwyOTYuOTIxfDI1My43NXwyMC43ODky)' />
<circle cx='191.43' cy='31.38' r='3.56pt' style='stroke-width: 0.71; stroke: #000000; stroke-opacity: 0.70; fill: #D1EEEE; fill-opacity: 0.70;' clip-path='url(#cpNDguNTk2NXwyOTYuOTIxfDI1My43NXwyMC43ODky)' />
<circle cx='234.84' cy='129.26' r='3.56pt' style='stroke-width: 0.71; stroke: #000000; stroke-opacity: 0.70; fill: #D1EEEE; fill-opacity: 0.70;' clip-path='url(#cpNDguNTk2NXwyOTYuOTIxfDI1My43NXwyMC43ODky)' />
<circle cx='278.25' cy='224.15' r='3.56pt' style='stroke-width: 0.71; stroke: #000000; stroke-opacity: 0.70; fill: #D1EEEE; fill-opacity: 0.70;' clip-path='url(#cpNDguNTk2NXwyOTYuOTIxfDI1My43NXwyMC43ODky)' />
<polyline points='59.88,136.98 61.02,135.47 62.15,133.95 63.29,132.44 64.42,130.93 65.56,129.41 66.69,127.90 67.82,126.38 68.96,124.87 70.09,123.35 71.23,121.83 72.36,120.32 73.50,118.81 74.63,117.29 75.77,115.78 76.90,114.27 78.03,112.76 79.17,111.26 80.30,109.75 81.44,108.25 82.57,106.75 83.71,105.26 84.84,103.77 85.98,102.28 87.11,100.79 88.24,99.31 89.38,97.84 90.51,96.37 91.65,94.91 92.78,93.45 93.92,91.99 95.05,90.55 96.19,89.11 97.32,87.67 98.45,86.25 99.59,84.83 100.72,83.43 101.86,82.03 102.99,80.64 104.13,79.26 105.26,77.89 106.40,76.53 107.53,75.18 108.66,73.84 109.80,72.51 110.93,71.20 112.07,69.90 113.20,68.62 114.34,67.35 115.47,66.09 116.60,64.85 117.74,63.62 118.87,62.41 120.01,61.22 121.14,60.04 122.28,58.88 123.41,57.74 124.55,56.62 125.68,55.52 126.81,54.44 127.95,53.38 129.08,52.34 130.22,51.33 131.35,50.33 132.49,49.36 133.62,48.42 134.76,47.50 135.89,46.60 137.02,45.73 138.16,44.89 139.29,44.07 140.43,43.28 141.56,42.53 142.70,41.80 143.83,41.10 144.97,40.43 146.10,39.79 147.23,39.18 148.37,38.61 149.50,38.07 150.64,37.57 151.77,37.09 152.91,36.66 154.04,36.26 155.18,35.90 156.31,35.57 157.44,35.28 158.58,35.03 159.71,34.82 160.85,34.65 161.98,34.52 163.12,34.43 164.25,34.38 165.38,34.37 166.52,34.41 167.65,34.49 168.79,34.61 169.92,34.78 171.06,34.99 172.19,35.24 173.33,35.55 174.46,35.89 175.59,36.28 176.73,36.72 177.86,37.21 179.00,37.74 180.13,38.32 181.27,38.95 182.40,39.63 183.54,40.35 184.67,41.13 185.80,41.95 186.94,42.82 188.07,43.73 189.21,44.70 190.34,45.72 191.48,46.78 192.61,47.89 193.75,49.05 194.88,50.26 196.01,51.52 197.15,52.82 198.28,54.18 199.42,55.58 200.55,57.03 201.69,58.52 202.82,60.06 203.95,61.65 205.09,63.29 206.22,64.97 207.36,66.69 208.49,68.46 209.63,70.27 210.76,72.12 211.90,74.02 213.03,75.96 214.16,77.94 215.30,79.96 216.43,82.02 217.57,84.12 218.70,86.26 219.84,88.43 220.97,90.64 222.11,92.89 223.24,95.17 224.37,97.48 225.51,99.83 226.64,102.21 227.78,104.62 228.91,107.06 230.05,109.52 231.18,112.02 232.32,114.54 233.45,117.09 234.58,119.66 235.72,122.25 236.85,124.87 237.99,127.50 239.12,130.16 240.26,132.84 241.39,135.53 242.53,138.24 243.66,140.97 244.79,143.71 245.93,146.46 247.06,149.23 248.20,152.00 249.33,154.79 250.47,157.58 251.60,160.38 252.73,163.19 253.87,166.01 255.00,168.82 256.14,171.65 257.27,174.47 258.41,177.30 259.54,180.12 260.68,182.95 261.81,185.77 262.94,188.59 264.08,191.41 265.21,194.22 266.35,197.03 267.48,199.83 268.62,202.62 269.75,205.41 270.89,208.19 272.02,210.95 273.15,213.71 274.29,216.46 275.42,219.19 276.56,221.91 277.69,224.62 278.83,227.32 279.96,230.00 281.10,232.66 282.23,235.31 283.36,237.95 284.50,240.56 285.63,243.16 ' style='stroke-width: 2.77; stroke: #1B9E77; stroke-linecap: butt;' clip-path='url(#cpNDguNTk2NXwyOTYuOTIxfDI1My43NXwyMC43ODky)' />
<g clip-path='url(#cpNDguNTk2NXwyOTYuOTIxfDI1My43NXwyMC43ODky)'><text x='61.19' y='98.43' style='font-size: 8.54px; font-style: italic; font-family: Arial;' textLength='60.01px' lengthAdjust='spacingAndGlyphs'>R^2 sch= 0.98 </text></g>
<g clip-path='url(#cpNDguNTk2NXwyOTYuOTIxfDI1My43NXwyMC43ODky)'><text x='61.19' y='110.72' style='font-size: 8.54px; font-style: italic; font-family: Arial;' textLength='55.29px' lengthAdjust='spacingAndGlyphs'>E sch= 0.295 </text></g>
<g clip-path='url(#cpNDguNTk2NXwyOTYuOTIxfDI1My43NXwyMC43ODky)'><text x='61.19' y='123.02' style='font-size: 8.54px; font-style: italic; font-family: Arial;' textLength='52.27px' lengthAdjust='spacingAndGlyphs'>AIC sch= -19</text></g>
<rect x='48.60' y='20.79' width='248.32' height='232.96' style='stroke-width: 1.07; stroke: #333333;' clip-path='url(#cpNDguNTk2NXwyOTYuOTIxfDI1My43NXwyMC43ODky)' />
<defs>
  <clipPath id='cpMHwzMDIuNHwyODh8MA=='>
    <rect x='0.00' y='0.00' width='302.40' height='288.00' />
  </clipPath>
</defs>
<g clip-path='url(#cpMHwzMDIuNHwyODh8MA==)'><text x='20.65' y='237.95' style='font-size: 8.80px; fill: #4D4D4D; font-family: Arial;' textLength='23.02px' lengthAdjust='spacingAndGlyphs'>5e-06</text></g>
<g clip-path='url(#cpMHwzMDIuNHwyODh8MA==)'><text x='20.65' y='197.11' style='font-size: 8.80px; fill: #4D4D4D; font-family: Arial;' textLength='23.02px' lengthAdjust='spacingAndGlyphs'>6e-06</text></g>
<g clip-path='url(#cpMHwzMDIuNHwyODh8MA==)'><text x='20.65' y='156.28' style='font-size: 8.80px; fill: #4D4D4D; font-family: Arial;' textLength='23.02px' lengthAdjust='spacingAndGlyphs'>7e-06</text></g>
<g clip-path='url(#cpMHwzMDIuNHwyODh8MA==)'><text x='20.65' y='115.45' style='font-size: 8.80px; fill: #4D4D4D; font-family: Arial;' textLength='23.02px' lengthAdjust='spacingAndGlyphs'>8e-06</text></g>
<g clip-path='url(#cpMHwzMDIuNHwyODh8MA==)'><text x='20.65' y='74.61' style='font-size: 8.80px; fill: #4D4D4D; font-family: Arial;' textLength='23.02px' lengthAdjust='spacingAndGlyphs'>9e-06</text></g>
<g clip-path='url(#cpMHwzMDIuNHwyODh8MA==)'><text x='20.65' y='33.78' style='font-size: 8.80px; fill: #4D4D4D; font-family: Arial;' textLength='23.02px' lengthAdjust='spacingAndGlyphs'>1e-05</text></g>
<polyline points='45.86,234.73 48.60,234.73 ' style='stroke-width: 1.07; stroke: #333333; stroke-linecap: butt;' clip-path='url(#cpMHwzMDIuNHwyODh8MA==)' />
<polyline points='45.86,193.89 48.60,193.89 ' style='stroke-width: 1.07; stroke: #333333; stroke-linecap: butt;' clip-path='url(#cpMHwzMDIuNHwyODh8MA==)' />
<polyline points='45.86,153.06 48.60,153.06 ' style='stroke-width: 1.07; stroke: #333333; stroke-linecap: butt;' clip-path='url(#cpMHwzMDIuNHwyODh8MA==)' />
<polyline points='45.86,112.23 48.60,112.23 ' style='stroke-width: 1.07; stroke: #333333; stroke-linecap: butt;' clip-path='url(#cpMHwzMDIuNHwyODh8MA==)' />
<polyline points='45.86,71.39 48.60,71.39 ' style='stroke-width: 1.07; stroke: #333333; stroke-linecap: butt;' clip-path='url(#cpMHwzMDIuNHwyODh8MA==)' />
<polyline points='45.86,30.56 48.60,30.56 ' style='stroke-width: 1.07; stroke: #333333; stroke-linecap: butt;' clip-path='url(#cpMHwzMDIuNHwyODh8MA==)' />
<polyline points='61.19,256.49 61.19,253.75 ' style='stroke-width: 1.07; stroke: #333333; stroke-linecap: butt;' clip-path='url(#cpMHwzMDIuNHwyODh8MA==)' />
<polyline points='148.01,256.49 148.01,253.75 ' style='stroke-width: 1.07; stroke: #333333; stroke-linecap: butt;' clip-path='url(#cpMHwzMDIuNHwyODh8MA==)' />
<polyline points='234.84,256.49 234.84,253.75 ' style='stroke-width: 1.07; stroke: #333333; stroke-linecap: butt;' clip-path='url(#cpMHwzMDIuNHwyODh8MA==)' />
<g clip-path='url(#cpMHwzMDIuNHwyODh8MA==)'><text x='56.18' y='265.12' style='font-size: 8.80px; fill: #4D4D4D; font-family: Arial;' textLength='10.01px' lengthAdjust='spacingAndGlyphs'>10</text></g>
<g clip-path='url(#cpMHwzMDIuNHwyODh8MA==)'><text x='143.01' y='265.12' style='font-size: 8.80px; fill: #4D4D4D; font-family: Arial;' textLength='10.01px' lengthAdjust='spacingAndGlyphs'>20</text></g>
<g clip-path='url(#cpMHwzMDIuNHwyODh8MA==)'><text x='229.83' y='265.12' style='font-size: 8.80px; fill: #4D4D4D; font-family: Arial;' textLength='10.01px' lengthAdjust='spacingAndGlyphs'>30</text></g>
<g clip-path='url(#cpMHwzMDIuNHwyODh8MA==)'><text x='133.81' y='277.88' style='font-size: 10.00px; font-family: Arial;' textLength='63.35px' lengthAdjust='spacingAndGlyphs'>Temperature (</text></g>
<g clip-path='url(#cpMHwzMDIuNHwyODh8MA==)'><text x='197.16' y='277.88' style='font-size: 10.00px; font-family: Symbol;' textLength='4.00px' lengthAdjust='spacingAndGlyphs'>°</text></g>
<g clip-path='url(#cpMHwzMDIuNHwyODh8MA==)'><text x='201.16' y='277.88' style='font-size: 10.00px; font-family: Arial;' textLength='7.22px' lengthAdjust='spacingAndGlyphs'>C</text></g>
<g clip-path='url(#cpMHwzMDIuNHwyODh8MA==)'><text x='208.38' y='277.88' style='font-size: 10.00px; font-family: Arial;' textLength='3.33px' lengthAdjust='spacingAndGlyphs'>)</text></g>
<g clip-path='url(#cpMHwzMDIuNHwyODh8MA==)'><text transform='translate(12.64,178.96) rotate(-90)' style='font-size: 10.00px; font-family: Arial;' textLength='83.39px' lengthAdjust='spacingAndGlyphs'>net photosynthesis</text></g>
<g clip-path='url(#cpMHwzMDIuNHwyODh8MA==)'><text x='48.60' y='14.07' style='font-size: 12.00px; font-family: Arial;' textLength='84.71px' lengthAdjust='spacingAndGlyphs'>Rosa bracteata </text></g>
</svg>
