<?xml version='1.0' encoding='UTF-8' ?>
<svg xmlns='http://www.w3.org/2000/svg' xmlns:xlink='http://www.w3.org/1999/xlink' viewBox='0 0 302.40 288.00'>
<defs>
  <style type='text/css'><![CDATA[
    line, polyline, path, rect, circle {
      fill: none;
      stroke: #000000;
      stroke-linecap: round;
      stroke-linejoin: round;
      stroke-miterlimit: 10.00;
    }
  ]]></style>
</defs>
<rect width='100%' height='100%' style='stroke: none; fill: #FFFFFF;'/>
<rect x='0.00' y='0.00' width='302.40' height='288.00' style='stroke-width: 1.07; stroke: #FFFFFF; fill: #FFFFFF;' />
<defs>
  <clipPath id='cpNDguNDU1OHwyOTYuOTIxfDI1My43NXwyMy4wMzky'>
    <rect x='48.46' y='23.04' width='248.46' height='230.71' />
  </clipPath>
</defs>
<rect x='48.46' y='23.04' width='248.46' height='230.71' style='stroke-width: 1.07; stroke: none; fill: #FFFFFF;' clip-path='url(#cpNDguNDU1OHwyOTYuOTIxfDI1My43NXwyMy4wMzky)' />
<polyline points='48.46,234.60 296.92,234.60 ' style='stroke-width: 0.53; stroke: #EBEBEB; stroke-linecap: butt;' clip-path='url(#cpNDguNDU1OHwyOTYuOTIxfDI1My43NXwyMy4wMzky)' />
<polyline points='48.46,194.93 296.92,194.93 ' style='stroke-width: 0.53; stroke: #EBEBEB; stroke-linecap: butt;' clip-path='url(#cpNDguNDU1OHwyOTYuOTIxfDI1My43NXwyMy4wMzky)' />
<polyline points='48.46,155.26 296.92,155.26 ' style='stroke-width: 0.53; stroke: #EBEBEB; stroke-linecap: butt;' clip-path='url(#cpNDguNDU1OHwyOTYuOTIxfDI1My43NXwyMy4wMzky)' />
<polyline points='48.46,115.59 296.92,115.59 ' style='stroke-width: 0.53; stroke: #EBEBEB; stroke-linecap: butt;' clip-path='url(#cpNDguNDU1OHwyOTYuOTIxfDI1My43NXwyMy4wMzky)' />
<polyline points='48.46,75.92 296.92,75.92 ' style='stroke-width: 0.53; stroke: #EBEBEB; stroke-linecap: butt;' clip-path='url(#cpNDguNDU1OHwyOTYuOTIxfDI1My43NXwyMy4wMzky)' />
<polyline points='48.46,36.24 296.92,36.24 ' style='stroke-width: 0.53; stroke: #EBEBEB; stroke-linecap: butt;' clip-path='url(#cpNDguNDU1OHwyOTYuOTIxfDI1My43NXwyMy4wMzky)' />
<polyline points='104.56,253.75 104.56,23.04 ' style='stroke-width: 0.53; stroke: #EBEBEB; stroke-linecap: butt;' clip-path='url(#cpNDguNDU1OHwyOTYuOTIxfDI1My43NXwyMy4wMzky)' />
<polyline points='177.42,253.75 177.42,23.04 ' style='stroke-width: 0.53; stroke: #EBEBEB; stroke-linecap: butt;' clip-path='url(#cpNDguNDU1OHwyOTYuOTIxfDI1My43NXwyMy4wMzky)' />
<polyline points='250.29,253.75 250.29,23.04 ' style='stroke-width: 0.53; stroke: #EBEBEB; stroke-linecap: butt;' clip-path='url(#cpNDguNDU1OHwyOTYuOTIxfDI1My43NXwyMy4wMzky)' />
<polyline points='48.46,214.77 296.92,214.77 ' style='stroke-width: 1.07; stroke: #EBEBEB; stroke-linecap: butt;' clip-path='url(#cpNDguNDU1OHwyOTYuOTIxfDI1My43NXwyMy4wMzky)' />
<polyline points='48.46,175.10 296.92,175.10 ' style='stroke-width: 1.07; stroke: #EBEBEB; stroke-linecap: butt;' clip-path='url(#cpNDguNDU1OHwyOTYuOTIxfDI1My43NXwyMy4wMzky)' />
<polyline points='48.46,135.42 296.92,135.42 ' style='stroke-width: 1.07; stroke: #EBEBEB; stroke-linecap: butt;' clip-path='url(#cpNDguNDU1OHwyOTYuOTIxfDI1My43NXwyMy4wMzky)' />
<polyline points='48.46,95.75 296.92,95.75 ' style='stroke-width: 1.07; stroke: #EBEBEB; stroke-linecap: butt;' clip-path='url(#cpNDguNDU1OHwyOTYuOTIxfDI1My43NXwyMy4wMzky)' />
<polyline points='48.46,56.08 296.92,56.08 ' style='stroke-width: 1.07; stroke: #EBEBEB; stroke-linecap: butt;' clip-path='url(#cpNDguNDU1OHwyOTYuOTIxfDI1My43NXwyMy4wMzky)' />
<polyline points='68.13,253.75 68.13,23.04 ' style='stroke-width: 1.07; stroke: #EBEBEB; stroke-linecap: butt;' clip-path='url(#cpNDguNDU1OHwyOTYuOTIxfDI1My43NXwyMy4wMzky)' />
<polyline points='140.99,253.75 140.99,23.04 ' style='stroke-width: 1.07; stroke: #EBEBEB; stroke-linecap: butt;' clip-path='url(#cpNDguNDU1OHwyOTYuOTIxfDI1My43NXwyMy4wMzky)' />
<polyline points='213.86,253.75 213.86,23.04 ' style='stroke-width: 1.07; stroke: #EBEBEB; stroke-linecap: butt;' clip-path='url(#cpNDguNDU1OHwyOTYuOTIxfDI1My43NXwyMy4wMzky)' />
<polyline points='286.72,253.75 286.72,23.04 ' style='stroke-width: 1.07; stroke: #EBEBEB; stroke-linecap: butt;' clip-path='url(#cpNDguNDU1OHwyOTYuOTIxfDI1My43NXwyMy4wMzky)' />
<circle cx='61.24' cy='233.07' r='3.56pt' style='stroke-width: 0.71; stroke: #000000; stroke-opacity: 0.70; fill: #D1EEEE; fill-opacity: 0.70;' clip-path='url(#cpNDguNDU1OHwyOTYuOTIxfDI1My43NXwyMy4wMzky)' />
<circle cx='82.91' cy='232.54' r='3.56pt' style='stroke-width: 0.71; stroke: #000000; stroke-opacity: 0.70; fill: #D1EEEE; fill-opacity: 0.70;' clip-path='url(#cpNDguNDU1OHwyOTYuOTIxfDI1My43NXwyMy4wMzky)' />
<circle cx='105.20' cy='228.84' r='3.56pt' style='stroke-width: 0.71; stroke: #000000; stroke-opacity: 0.70; fill: #D1EEEE; fill-opacity: 0.70;' clip-path='url(#cpNDguNDU1OHwyOTYuOTIxfDI1My43NXwyMy4wMzky)' />
<circle cx='127.17' cy='226.37' r='3.56pt' style='stroke-width: 0.71; stroke: #000000; stroke-opacity: 0.70; fill: #D1EEEE; fill-opacity: 0.70;' clip-path='url(#cpNDguNDU1OHwyOTYuOTIxfDI1My43NXwyMy4wMzky)' />
<circle cx='149.15' cy='223.16' r='3.56pt' style='stroke-width: 0.71; stroke: #000000; stroke-opacity: 0.70; fill: #D1EEEE; fill-opacity: 0.70;' clip-path='url(#cpNDguNDU1OHwyOTYuOTIxfDI1My43NXwyMy4wMzky)' />
<circle cx='171.12' cy='217.51' r='3.56pt' style='stroke-width: 0.71; stroke: #000000; stroke-opacity: 0.70; fill: #D1EEEE; fill-opacity: 0.70;' clip-path='url(#cpNDguNDU1OHwyOTYuOTIxfDI1My43NXwyMy4wMzky)' />
<circle cx='192.76' cy='207.96' r='3.56pt' style='stroke-width: 0.71; stroke: #000000; stroke-opacity: 0.70; fill: #D1EEEE; fill-opacity: 0.70;' clip-path='url(#cpNDguNDU1OHwyOTYuOTIxfDI1My43NXwyMy4wMzky)' />
<circle cx='214.71' cy='192.79' r='3.56pt' style='stroke-width: 0.71; stroke: #000000; stroke-opacity: 0.70; fill: #D1EEEE; fill-opacity: 0.70;' clip-path='url(#cpNDguNDU1OHwyOTYuOTIxfDI1My43NXwyMy4wMzky)' />
<circle cx='236.35' cy='183.73' r='3.56pt' style='stroke-width: 0.71; stroke: #000000; stroke-opacity: 0.70; fill: #D1EEEE; fill-opacity: 0.70;' clip-path='url(#cpNDguNDU1OHwyOTYuOTIxfDI1My43NXwyMy4wMzky)' />
<circle cx='258.59' cy='160.51' r='3.56pt' style='stroke-width: 0.71; stroke: #000000; stroke-opacity: 0.70; fill: #D1EEEE; fill-opacity: 0.70;' clip-path='url(#cpNDguNDU1OHwyOTYuOTIxfDI1My43NXwyMy4wMzky)' />
<circle cx='280.18' cy='133.88' r='3.56pt' style='stroke-width: 0.71; stroke: #000000; stroke-opacity: 0.70; fill: #D1EEEE; fill-opacity: 0.70;' clip-path='url(#cpNDguNDU1OHwyOTYuOTIxfDI1My43NXwyMy4wMzky)' />
<polyline points='59.75,243.26 60.88,243.12 62.02,242.98 63.15,242.83 64.29,242.69 65.42,242.54 66.56,242.39 67.70,242.23 68.83,242.08 69.97,241.92 71.10,241.76 72.24,241.60 73.37,241.44 74.51,241.27 75.64,241.10 76.78,240.93 77.91,240.76 79.05,240.59 80.18,240.41 81.32,240.23 82.45,240.05 83.59,239.86 84.72,239.68 85.86,239.49 86.99,239.30 88.13,239.10 89.26,238.91 90.40,238.71 91.53,238.50 92.67,238.30 93.80,238.09 94.94,237.88 96.07,237.67 97.21,237.45 98.34,237.23 99.48,237.01 100.61,236.78 101.75,236.56 102.88,236.32 104.02,236.09 105.15,235.85 106.29,235.61 107.42,235.36 108.56,235.12 109.69,234.87 110.83,234.61 111.96,234.35 113.10,234.09 114.23,233.82 115.37,233.55 116.50,233.28 117.64,233.00 118.77,232.72 119.91,232.44 121.04,232.15 122.18,231.85 123.31,231.56 124.45,231.25 125.58,230.95 126.72,230.64 127.85,230.32 128.99,230.00 130.12,229.68 131.26,229.35 132.39,229.01 133.53,228.68 134.66,228.33 135.80,227.98 136.93,227.63 138.07,227.27 139.20,226.91 140.34,226.54 141.47,226.16 142.61,225.78 143.74,225.39 144.88,225.00 146.01,224.60 147.15,224.20 148.28,223.79 149.42,223.37 150.55,222.95 151.69,222.52 152.82,222.09 153.96,221.64 155.09,221.20 156.23,220.74 157.36,220.28 158.50,219.81 159.64,219.33 160.77,218.84 161.91,218.35 163.04,217.85 164.18,217.34 165.31,216.83 166.45,216.30 167.58,215.77 168.72,215.23 169.85,214.68 170.99,214.12 172.12,213.55 173.26,212.98 174.39,212.39 175.53,211.79 176.66,211.19 177.80,210.57 178.93,209.95 180.07,209.31 181.20,208.66 182.34,208.01 183.47,207.34 184.61,206.66 185.74,205.97 186.88,205.27 188.01,204.55 189.15,203.82 190.28,203.08 191.42,202.33 192.55,201.57 193.69,200.79 194.82,200.00 195.96,199.19 197.09,198.37 198.23,197.54 199.36,196.69 200.50,195.82 201.63,194.94 202.77,194.05 203.90,193.13 205.04,192.21 206.17,191.26 207.31,190.30 208.44,189.32 209.58,188.32 210.71,187.30 211.85,186.26 212.98,185.21 214.12,184.13 215.25,183.03 216.39,181.91 217.52,180.77 218.66,179.61 219.79,178.43 220.93,177.22 222.06,175.99 223.20,174.73 224.33,173.45 225.47,172.14 226.60,170.81 227.74,169.45 228.87,168.06 230.01,166.64 231.14,165.19 232.28,163.71 233.41,162.21 234.55,160.66 235.68,159.09 236.82,157.48 237.95,155.84 239.09,154.16 240.22,152.45 241.36,150.70 242.49,148.90 243.63,147.07 244.76,145.20 245.90,143.28 247.03,141.32 248.17,139.31 249.30,137.26 250.44,135.16 251.57,133.01 252.71,130.80 253.85,128.55 254.98,126.24 256.12,123.87 257.25,121.44 258.39,118.95 259.52,116.40 260.66,113.78 261.79,111.10 262.93,108.34 264.06,105.52 265.20,102.62 266.33,99.64 267.47,96.58 268.60,93.43 269.74,90.20 270.87,86.88 272.01,83.46 273.14,79.95 274.28,76.33 275.41,72.61 276.55,68.78 277.68,64.83 278.82,60.76 279.95,56.57 281.09,52.25 282.22,47.79 283.36,43.18 284.49,38.43 285.63,33.53 ' style='stroke-width: 2.77; stroke: #1B9E77; stroke-linecap: butt;' clip-path='url(#cpNDguNDU1OHwyOTYuOTIxfDI1My43NXwyMy4wMzky)' />
<g clip-path='url(#cpNDguNDU1OHwyOTYuOTIxfDI1My43NXwyMy4wMzky)'><text x='61.24' y='194.60' style='font-size: 8.54px; font-style: italic; font-family: Arial;' textLength='60.01px' lengthAdjust='spacingAndGlyphs'>R^2 sch= 0.17 </text></g>
<g clip-path='url(#cpNDguNDU1OHwyOTYuOTIxfDI1My43NXwyMy4wMzky)'><text x='61.24' y='206.89' style='font-size: 8.54px; font-style: italic; font-family: Arial;' textLength='55.29px' lengthAdjust='spacingAndGlyphs'>E sch= 0.365 </text></g>
<g clip-path='url(#cpNDguNDU1OHwyOTYuOTIxfDI1My43NXwyMy4wMzky)'><text x='61.24' y='219.18' style='font-size: 8.54px; font-style: italic; font-family: Arial;' textLength='56.78px' lengthAdjust='spacingAndGlyphs'>AIC sch= 17.1</text></g>
<rect x='48.46' y='23.04' width='248.46' height='230.71' style='stroke-width: 1.07; stroke: #333333;' clip-path='url(#cpNDguNDU1OHwyOTYuOTIxfDI1My43NXwyMy4wMzky)' />
<defs>
  <clipPath id='cpMHwzMDIuNHwyODh8MA=='>
    <rect x='0.00' y='0.00' width='302.40' height='288.00' />
  </clipPath>
</defs>
<g clip-path='url(#cpMHwzMDIuNHwyODh8MA==)'><text x='20.51' y='217.99' style='font-size: 8.80px; fill: #4D4D4D; font-family: Arial;' textLength='23.02px' lengthAdjust='spacingAndGlyphs'>1e-06</text></g>
<g clip-path='url(#cpMHwzMDIuNHwyODh8MA==)'><text x='20.51' y='178.32' style='font-size: 8.80px; fill: #4D4D4D; font-family: Arial;' textLength='23.02px' lengthAdjust='spacingAndGlyphs'>2e-06</text></g>
<g clip-path='url(#cpMHwzMDIuNHwyODh8MA==)'><text x='20.51' y='138.64' style='font-size: 8.80px; fill: #4D4D4D; font-family: Arial;' textLength='23.02px' lengthAdjust='spacingAndGlyphs'>3e-06</text></g>
<g clip-path='url(#cpMHwzMDIuNHwyODh8MA==)'><text x='20.51' y='98.97' style='font-size: 8.80px; fill: #4D4D4D; font-family: Arial;' textLength='23.02px' lengthAdjust='spacingAndGlyphs'>4e-06</text></g>
<g clip-path='url(#cpMHwzMDIuNHwyODh8MA==)'><text x='20.51' y='59.30' style='font-size: 8.80px; fill: #4D4D4D; font-family: Arial;' textLength='23.02px' lengthAdjust='spacingAndGlyphs'>5e-06</text></g>
<polyline points='45.72,214.77 48.46,214.77 ' style='stroke-width: 1.07; stroke: #333333; stroke-linecap: butt;' clip-path='url(#cpMHwzMDIuNHwyODh8MA==)' />
<polyline points='45.72,175.10 48.46,175.10 ' style='stroke-width: 1.07; stroke: #333333; stroke-linecap: butt;' clip-path='url(#cpMHwzMDIuNHwyODh8MA==)' />
<polyline points='45.72,135.42 48.46,135.42 ' style='stroke-width: 1.07; stroke: #333333; stroke-linecap: butt;' clip-path='url(#cpMHwzMDIuNHwyODh8MA==)' />
<polyline points='45.72,95.75 48.46,95.75 ' style='stroke-width: 1.07; stroke: #333333; stroke-linecap: butt;' clip-path='url(#cpMHwzMDIuNHwyODh8MA==)' />
<polyline points='45.72,56.08 48.46,56.08 ' style='stroke-width: 1.07; stroke: #333333; stroke-linecap: butt;' clip-path='url(#cpMHwzMDIuNHwyODh8MA==)' />
<polyline points='68.13,256.49 68.13,253.75 ' style='stroke-width: 1.07; stroke: #333333; stroke-linecap: butt;' clip-path='url(#cpMHwzMDIuNHwyODh8MA==)' />
<polyline points='140.99,256.49 140.99,253.75 ' style='stroke-width: 1.07; stroke: #333333; stroke-linecap: butt;' clip-path='url(#cpMHwzMDIuNHwyODh8MA==)' />
<polyline points='213.86,256.49 213.86,253.75 ' style='stroke-width: 1.07; stroke: #333333; stroke-linecap: butt;' clip-path='url(#cpMHwzMDIuNHwyODh8MA==)' />
<polyline points='286.72,256.49 286.72,253.75 ' style='stroke-width: 1.07; stroke: #333333; stroke-linecap: butt;' clip-path='url(#cpMHwzMDIuNHwyODh8MA==)' />
<g clip-path='url(#cpMHwzMDIuNHwyODh8MA==)'><text x='63.12' y='265.12' style='font-size: 8.80px; fill: #4D4D4D; font-family: Arial;' textLength='10.01px' lengthAdjust='spacingAndGlyphs'>10</text></g>
<g clip-path='url(#cpMHwzMDIuNHwyODh8MA==)'><text x='135.99' y='265.12' style='font-size: 8.80px; fill: #4D4D4D; font-family: Arial;' textLength='10.01px' lengthAdjust='spacingAndGlyphs'>20</text></g>
<g clip-path='url(#cpMHwzMDIuNHwyODh8MA==)'><text x='208.85' y='265.12' style='font-size: 8.80px; fill: #4D4D4D; font-family: Arial;' textLength='10.01px' lengthAdjust='spacingAndGlyphs'>30</text></g>
<g clip-path='url(#cpMHwzMDIuNHwyODh8MA==)'><text x='281.71' y='265.12' style='font-size: 8.80px; fill: #4D4D4D; font-family: Arial;' textLength='10.01px' lengthAdjust='spacingAndGlyphs'>40</text></g>
<g clip-path='url(#cpMHwzMDIuNHwyODh8MA==)'><text x='133.74' y='277.88' style='font-size: 10.00px; font-family: Arial;' textLength='63.35px' lengthAdjust='spacingAndGlyphs'>Temperature (</text></g>
<g clip-path='url(#cpMHwzMDIuNHwyODh8MA==)'><text x='197.09' y='277.88' style='font-size: 10.00px; font-family: Symbol;' textLength='4.00px' lengthAdjust='spacingAndGlyphs'>°</text></g>
<g clip-path='url(#cpMHwzMDIuNHwyODh8MA==)'><text x='201.09' y='277.88' style='font-size: 10.00px; font-family: Arial;' textLength='7.22px' lengthAdjust='spacingAndGlyphs'>C</text></g>
<g clip-path='url(#cpMHwzMDIuNHwyODh8MA==)'><text x='208.31' y='277.88' style='font-size: 10.00px; font-family: Arial;' textLength='3.33px' lengthAdjust='spacingAndGlyphs'>)</text></g>
<g clip-path='url(#cpMHwzMDIuNHwyODh8MA==)'><text transform='translate(12.64,171.74) rotate(-90)' style='font-size: 10.00px; font-family: Arial;' textLength='66.70px' lengthAdjust='spacingAndGlyphs'>respiration rate</text></g>
<g clip-path='url(#cpMHwzMDIuNHwyODh8MA==)'><text x='48.46' y='14.07' style='font-size: 12.00px; font-family: Arial;' textLength='95.40px' lengthAdjust='spacingAndGlyphs'>Spinacia oleracea</text></g>
</svg>
