<?xml version='1.0' encoding='UTF-8' ?>
<svg xmlns='http://www.w3.org/2000/svg' xmlns:xlink='http://www.w3.org/1999/xlink' viewBox='0 0 302.40 288.00'>
<defs>
  <style type='text/css'><![CDATA[
    line, polyline, path, rect, circle {
      fill: none;
      stroke: #000000;
      stroke-linecap: round;
      stroke-linejoin: round;
      stroke-miterlimit: 10.00;
    }
  ]]></style>
</defs>
<rect width='100%' height='100%' style='stroke: none; fill: #FFFFFF;'/>
<rect x='0.00' y='0.00' width='302.40' height='288.00' style='stroke-width: 1.07; stroke: #FFFFFF; fill: #FFFFFF;' />
<defs>
  <clipPath id='cpNjAuOTY3MXwyOTYuOTIxfDI1My43NXwyMy4wMzky'>
    <rect x='60.97' y='23.04' width='235.95' height='230.71' />
  </clipPath>
</defs>
<rect x='60.97' y='23.04' width='235.95' height='230.71' style='stroke-width: 1.07; stroke: none; fill: #FFFFFF;' clip-path='url(#cpNjAuOTY3MXwyOTYuOTIxfDI1My43NXwyMy4wMzky)' />
<polyline points='60.97,222.39 296.92,222.39 ' style='stroke-width: 0.53; stroke: #EBEBEB; stroke-linecap: butt;' clip-path='url(#cpNjAuOTY3MXwyOTYuOTIxfDI1My43NXwyMy4wMzky)' />
<polyline points='60.97,178.43 296.92,178.43 ' style='stroke-width: 0.53; stroke: #EBEBEB; stroke-linecap: butt;' clip-path='url(#cpNjAuOTY3MXwyOTYuOTIxfDI1My43NXwyMy4wMzky)' />
<polyline points='60.97,134.47 296.92,134.47 ' style='stroke-width: 0.53; stroke: #EBEBEB; stroke-linecap: butt;' clip-path='url(#cpNjAuOTY3MXwyOTYuOTIxfDI1My43NXwyMy4wMzky)' />
<polyline points='60.97,90.50 296.92,90.50 ' style='stroke-width: 0.53; stroke: #EBEBEB; stroke-linecap: butt;' clip-path='url(#cpNjAuOTY3MXwyOTYuOTIxfDI1My43NXwyMy4wMzky)' />
<polyline points='60.97,46.54 296.92,46.54 ' style='stroke-width: 0.53; stroke: #EBEBEB; stroke-linecap: butt;' clip-path='url(#cpNjAuOTY3MXwyOTYuOTIxfDI1My43NXwyMy4wMzky)' />
<polyline points='98.76,253.75 98.76,23.04 ' style='stroke-width: 0.53; stroke: #EBEBEB; stroke-linecap: butt;' clip-path='url(#cpNjAuOTY3MXwyOTYuOTIxfDI1My43NXwyMy4wMzky)' />
<polyline points='149.83,253.75 149.83,23.04 ' style='stroke-width: 0.53; stroke: #EBEBEB; stroke-linecap: butt;' clip-path='url(#cpNjAuOTY3MXwyOTYuOTIxfDI1My43NXwyMy4wMzky)' />
<polyline points='200.90,253.75 200.90,23.04 ' style='stroke-width: 0.53; stroke: #EBEBEB; stroke-linecap: butt;' clip-path='url(#cpNjAuOTY3MXwyOTYuOTIxfDI1My43NXwyMy4wMzky)' />
<polyline points='251.98,253.75 251.98,23.04 ' style='stroke-width: 0.53; stroke: #EBEBEB; stroke-linecap: butt;' clip-path='url(#cpNjAuOTY3MXwyOTYuOTIxfDI1My43NXwyMy4wMzky)' />
<polyline points='60.97,244.37 296.92,244.37 ' style='stroke-width: 1.07; stroke: #EBEBEB; stroke-linecap: butt;' clip-path='url(#cpNjAuOTY3MXwyOTYuOTIxfDI1My43NXwyMy4wMzky)' />
<polyline points='60.97,200.41 296.92,200.41 ' style='stroke-width: 1.07; stroke: #EBEBEB; stroke-linecap: butt;' clip-path='url(#cpNjAuOTY3MXwyOTYuOTIxfDI1My43NXwyMy4wMzky)' />
<polyline points='60.97,156.45 296.92,156.45 ' style='stroke-width: 1.07; stroke: #EBEBEB; stroke-linecap: butt;' clip-path='url(#cpNjAuOTY3MXwyOTYuOTIxfDI1My43NXwyMy4wMzky)' />
<polyline points='60.97,112.49 296.92,112.49 ' style='stroke-width: 1.07; stroke: #EBEBEB; stroke-linecap: butt;' clip-path='url(#cpNjAuOTY3MXwyOTYuOTIxfDI1My43NXwyMy4wMzky)' />
<polyline points='60.97,68.52 296.92,68.52 ' style='stroke-width: 1.07; stroke: #EBEBEB; stroke-linecap: butt;' clip-path='url(#cpNjAuOTY3MXwyOTYuOTIxfDI1My43NXwyMy4wMzky)' />
<polyline points='60.97,24.56 296.92,24.56 ' style='stroke-width: 1.07; stroke: #EBEBEB; stroke-linecap: butt;' clip-path='url(#cpNjAuOTY3MXwyOTYuOTIxfDI1My43NXwyMy4wMzky)' />
<polyline points='73.22,253.75 73.22,23.04 ' style='stroke-width: 1.07; stroke: #EBEBEB; stroke-linecap: butt;' clip-path='url(#cpNjAuOTY3MXwyOTYuOTIxfDI1My43NXwyMy4wMzky)' />
<polyline points='124.30,253.75 124.30,23.04 ' style='stroke-width: 1.07; stroke: #EBEBEB; stroke-linecap: butt;' clip-path='url(#cpNjAuOTY3MXwyOTYuOTIxfDI1My43NXwyMy4wMzky)' />
<polyline points='175.37,253.75 175.37,23.04 ' style='stroke-width: 1.07; stroke: #EBEBEB; stroke-linecap: butt;' clip-path='url(#cpNjAuOTY3MXwyOTYuOTIxfDI1My43NXwyMy4wMzky)' />
<polyline points='226.44,253.75 226.44,23.04 ' style='stroke-width: 1.07; stroke: #EBEBEB; stroke-linecap: butt;' clip-path='url(#cpNjAuOTY3MXwyOTYuOTIxfDI1My43NXwyMy4wMzky)' />
<polyline points='277.51,253.75 277.51,23.04 ' style='stroke-width: 1.07; stroke: #EBEBEB; stroke-linecap: butt;' clip-path='url(#cpNjAuOTY3MXwyOTYuOTIxfDI1My43NXwyMy4wMzky)' />
<circle cx='73.22' cy='236.64' r='3.56pt' style='stroke-width: 0.71; stroke: #000000; stroke-opacity: 0.70; fill: #D1EEEE; fill-opacity: 0.70;' clip-path='url(#cpNjAuOTY3MXwyOTYuOTIxfDI1My43NXwyMy4wMzky)' />
<circle cx='124.30' cy='208.08' r='3.56pt' style='stroke-width: 0.71; stroke: #000000; stroke-opacity: 0.70; fill: #D1EEEE; fill-opacity: 0.70;' clip-path='url(#cpNjAuOTY3MXwyOTYuOTIxfDI1My43NXwyMy4wMzky)' />
<circle cx='175.37' cy='112.88' r='3.56pt' style='stroke-width: 0.71; stroke: #000000; stroke-opacity: 0.70; fill: #D1EEEE; fill-opacity: 0.70;' clip-path='url(#cpNjAuOTY3MXwyOTYuOTIxfDI1My43NXwyMy4wMzky)' />
<circle cx='226.44' cy='59.99' r='3.56pt' style='stroke-width: 0.71; stroke: #000000; stroke-opacity: 0.70; fill: #D1EEEE; fill-opacity: 0.70;' clip-path='url(#cpNjAuOTY3MXwyOTYuOTIxfDI1My43NXwyMy4wMzky)' />
<circle cx='277.51' cy='49.42' r='3.56pt' style='stroke-width: 0.71; stroke: #000000; stroke-opacity: 0.70; fill: #D1EEEE; fill-opacity: 0.70;' clip-path='url(#cpNjAuOTY3MXwyOTYuOTIxfDI1My43NXwyMy4wMzky)' />
<polyline points='71.69,243.26 72.77,242.36 73.85,241.46 74.93,240.54 76.00,239.63 77.08,238.70 78.16,237.77 79.24,236.84 80.32,235.90 81.39,234.95 82.47,234.00 83.55,233.05 84.63,232.08 85.70,231.12 86.78,230.14 87.86,229.16 88.94,228.18 90.02,227.19 91.09,226.19 92.17,225.18 93.25,224.18 94.33,223.16 95.41,222.14 96.48,221.11 97.56,220.08 98.64,219.04 99.72,218.00 100.80,216.94 101.87,215.89 102.95,214.82 104.03,213.75 105.11,212.68 106.19,211.60 107.26,210.51 108.34,209.41 109.42,208.31 110.50,207.20 111.57,206.09 112.65,204.97 113.73,203.84 114.81,202.71 115.89,201.57 116.96,200.42 118.04,199.27 119.12,198.11 120.20,196.95 121.28,195.78 122.35,194.60 123.43,193.41 124.51,192.22 125.59,191.02 126.67,189.82 127.74,188.60 128.82,187.38 129.90,186.16 130.98,184.93 132.05,183.69 133.13,182.44 134.21,181.19 135.29,179.93 136.37,178.66 137.44,177.39 138.52,176.11 139.60,174.82 140.68,173.53 141.76,172.23 142.83,170.92 143.91,169.61 144.99,168.29 146.07,166.96 147.15,165.62 148.22,164.28 149.30,162.94 150.38,161.58 151.46,160.22 152.54,158.85 153.61,157.47 154.69,156.09 155.77,154.70 156.85,153.31 157.92,151.91 159.00,150.50 160.08,149.08 161.16,147.66 162.24,146.23 163.31,144.80 164.39,143.36 165.47,141.91 166.55,140.46 167.63,139.00 168.70,137.53 169.78,136.06 170.86,134.58 171.94,133.10 173.02,131.61 174.09,130.12 175.17,128.62 176.25,127.11 177.33,125.60 178.40,124.09 179.48,122.56 180.56,121.04 181.64,119.51 182.72,117.98 183.79,116.44 184.87,114.89 185.95,113.35 187.03,111.80 188.11,110.25 189.18,108.69 190.26,107.13 191.34,105.57 192.42,104.01 193.50,102.44 194.57,100.88 195.65,99.31 196.73,97.74 197.81,96.17 198.89,94.60 199.96,93.03 201.04,91.46 202.12,89.90 203.20,88.33 204.27,86.77 205.35,85.21 206.43,83.66 207.51,82.10 208.59,80.56 209.66,79.01 210.74,77.48 211.82,75.95 212.90,74.43 213.98,72.92 215.05,71.41 216.13,69.92 217.21,68.44 218.29,66.97 219.37,65.51 220.44,64.07 221.52,62.64 222.60,61.22 223.68,59.83 224.75,58.45 225.83,57.09 226.91,55.76 227.99,54.44 229.07,53.15 230.14,51.88 231.22,50.64 232.30,49.43 233.38,48.25 234.46,47.10 235.53,45.98 236.61,44.90 237.69,43.85 238.77,42.85 239.85,41.88 240.92,40.95 242.00,40.07 243.08,39.23 244.16,38.44 245.23,37.70 246.31,37.02 247.39,36.39 248.47,35.81 249.55,35.30 250.62,34.84 251.70,34.45 252.78,34.13 253.86,33.87 254.94,33.68 256.01,33.57 257.09,33.53 258.17,33.56 259.25,33.68 260.33,33.88 261.40,34.16 262.48,34.53 263.56,34.99 264.64,35.54 265.72,36.18 266.79,36.91 267.87,37.75 268.95,38.68 270.03,39.70 271.10,40.83 272.18,42.07 273.26,43.40 274.34,44.84 275.42,46.39 276.49,48.04 277.57,49.80 278.65,51.66 279.73,53.64 280.81,55.72 281.88,57.91 282.96,60.20 284.04,62.60 285.12,65.10 286.20,67.71 ' style='stroke-width: 2.77; stroke: #1B9E77; stroke-linecap: butt;' clip-path='url(#cpNjAuOTY3MXwyOTYuOTIxfDI1My43NXwyMy4wMzky)' />
<g clip-path='url(#cpNjAuOTY3MXwyOTYuOTIxfDI1My43NXwyMy4wMzky)'><text x='73.22' y='124.33' style='font-size: 8.54px; font-style: italic; font-family: Arial;' textLength='60.01px' lengthAdjust='spacingAndGlyphs'>R^2 sch= 0.98 </text></g>
<g clip-path='url(#cpNjAuOTY3MXwyOTYuOTIxfDI1My43NXwyMy4wMzky)'><text x='73.22' y='136.62' style='font-size: 8.54px; font-style: italic; font-family: Arial;' textLength='55.29px' lengthAdjust='spacingAndGlyphs'>E sch= 0.458 </text></g>
<g clip-path='url(#cpNjAuOTY3MXwyOTYuOTIxfDI1My43NXwyMy4wMzky)'><text x='73.22' y='148.91' style='font-size: 8.54px; font-style: italic; font-family: Arial;' textLength='59.78px' lengthAdjust='spacingAndGlyphs'>AIC sch= -5.49</text></g>
<rect x='60.97' y='23.04' width='235.95' height='230.71' style='stroke-width: 1.07; stroke: #333333;' clip-path='url(#cpNjAuOTY3MXwyOTYuOTIxfDI1My43NXwyMy4wMzky)' />
<defs>
  <clipPath id='cpMHwzMDIuNHwyODh8MA=='>
    <rect x='0.00' y='0.00' width='302.40' height='288.00' />
  </clipPath>
</defs>
<g clip-path='url(#cpMHwzMDIuNHwyODh8MA==)'><text x='20.51' y='247.59' style='font-size: 8.80px; fill: #4D4D4D; font-family: Arial;' textLength='35.53px' lengthAdjust='spacingAndGlyphs'>7.50e-07</text></g>
<g clip-path='url(#cpMHwzMDIuNHwyODh8MA==)'><text x='20.51' y='203.63' style='font-size: 8.80px; fill: #4D4D4D; font-family: Arial;' textLength='35.53px' lengthAdjust='spacingAndGlyphs'>1.00e-06</text></g>
<g clip-path='url(#cpMHwzMDIuNHwyODh8MA==)'><text x='20.51' y='159.67' style='font-size: 8.80px; fill: #4D4D4D; font-family: Arial;' textLength='35.53px' lengthAdjust='spacingAndGlyphs'>1.25e-06</text></g>
<g clip-path='url(#cpMHwzMDIuNHwyODh8MA==)'><text x='20.51' y='115.70' style='font-size: 8.80px; fill: #4D4D4D; font-family: Arial;' textLength='35.53px' lengthAdjust='spacingAndGlyphs'>1.50e-06</text></g>
<g clip-path='url(#cpMHwzMDIuNHwyODh8MA==)'><text x='20.51' y='71.74' style='font-size: 8.80px; fill: #4D4D4D; font-family: Arial;' textLength='35.53px' lengthAdjust='spacingAndGlyphs'>1.75e-06</text></g>
<g clip-path='url(#cpMHwzMDIuNHwyODh8MA==)'><text x='20.51' y='27.78' style='font-size: 8.80px; fill: #4D4D4D; font-family: Arial;' textLength='35.53px' lengthAdjust='spacingAndGlyphs'>2.00e-06</text></g>
<polyline points='58.23,244.37 60.97,244.37 ' style='stroke-width: 1.07; stroke: #333333; stroke-linecap: butt;' clip-path='url(#cpMHwzMDIuNHwyODh8MA==)' />
<polyline points='58.23,200.41 60.97,200.41 ' style='stroke-width: 1.07; stroke: #333333; stroke-linecap: butt;' clip-path='url(#cpMHwzMDIuNHwyODh8MA==)' />
<polyline points='58.23,156.45 60.97,156.45 ' style='stroke-width: 1.07; stroke: #333333; stroke-linecap: butt;' clip-path='url(#cpMHwzMDIuNHwyODh8MA==)' />
<polyline points='58.23,112.49 60.97,112.49 ' style='stroke-width: 1.07; stroke: #333333; stroke-linecap: butt;' clip-path='url(#cpMHwzMDIuNHwyODh8MA==)' />
<polyline points='58.23,68.52 60.97,68.52 ' style='stroke-width: 1.07; stroke: #333333; stroke-linecap: butt;' clip-path='url(#cpMHwzMDIuNHwyODh8MA==)' />
<polyline points='58.23,24.56 60.97,24.56 ' style='stroke-width: 1.07; stroke: #333333; stroke-linecap: butt;' clip-path='url(#cpMHwzMDIuNHwyODh8MA==)' />
<polyline points='73.22,256.49 73.22,253.75 ' style='stroke-width: 1.07; stroke: #333333; stroke-linecap: butt;' clip-path='url(#cpMHwzMDIuNHwyODh8MA==)' />
<polyline points='124.30,256.49 124.30,253.75 ' style='stroke-width: 1.07; stroke: #333333; stroke-linecap: butt;' clip-path='url(#cpMHwzMDIuNHwyODh8MA==)' />
<polyline points='175.37,256.49 175.37,253.75 ' style='stroke-width: 1.07; stroke: #333333; stroke-linecap: butt;' clip-path='url(#cpMHwzMDIuNHwyODh8MA==)' />
<polyline points='226.44,256.49 226.44,253.75 ' style='stroke-width: 1.07; stroke: #333333; stroke-linecap: butt;' clip-path='url(#cpMHwzMDIuNHwyODh8MA==)' />
<polyline points='277.51,256.49 277.51,253.75 ' style='stroke-width: 1.07; stroke: #333333; stroke-linecap: butt;' clip-path='url(#cpMHwzMDIuNHwyODh8MA==)' />
<g clip-path='url(#cpMHwzMDIuNHwyODh8MA==)'><text x='68.22' y='265.12' style='font-size: 8.80px; fill: #4D4D4D; font-family: Arial;' textLength='10.01px' lengthAdjust='spacingAndGlyphs'>15</text></g>
<g clip-path='url(#cpMHwzMDIuNHwyODh8MA==)'><text x='119.29' y='265.12' style='font-size: 8.80px; fill: #4D4D4D; font-family: Arial;' textLength='10.01px' lengthAdjust='spacingAndGlyphs'>20</text></g>
<g clip-path='url(#cpMHwzMDIuNHwyODh8MA==)'><text x='170.36' y='265.12' style='font-size: 8.80px; fill: #4D4D4D; font-family: Arial;' textLength='10.01px' lengthAdjust='spacingAndGlyphs'>25</text></g>
<g clip-path='url(#cpMHwzMDIuNHwyODh8MA==)'><text x='221.44' y='265.12' style='font-size: 8.80px; fill: #4D4D4D; font-family: Arial;' textLength='10.01px' lengthAdjust='spacingAndGlyphs'>30</text></g>
<g clip-path='url(#cpMHwzMDIuNHwyODh8MA==)'><text x='272.51' y='265.12' style='font-size: 8.80px; fill: #4D4D4D; font-family: Arial;' textLength='10.01px' lengthAdjust='spacingAndGlyphs'>35</text></g>
<g clip-path='url(#cpMHwzMDIuNHwyODh8MA==)'><text x='139.99' y='277.88' style='font-size: 10.00px; font-family: Arial;' textLength='63.35px' lengthAdjust='spacingAndGlyphs'>Temperature (</text></g>
<g clip-path='url(#cpMHwzMDIuNHwyODh8MA==)'><text x='203.35' y='277.88' style='font-size: 10.00px; font-family: Symbol;' textLength='4.00px' lengthAdjust='spacingAndGlyphs'>°</text></g>
<g clip-path='url(#cpMHwzMDIuNHwyODh8MA==)'><text x='207.35' y='277.88' style='font-size: 10.00px; font-family: Arial;' textLength='7.22px' lengthAdjust='spacingAndGlyphs'>C</text></g>
<g clip-path='url(#cpMHwzMDIuNHwyODh8MA==)'><text x='214.57' y='277.88' style='font-size: 10.00px; font-family: Arial;' textLength='3.33px' lengthAdjust='spacingAndGlyphs'>)</text></g>
<g clip-path='url(#cpMHwzMDIuNHwyODh8MA==)'><text transform='translate(12.64,171.74) rotate(-90)' style='font-size: 10.00px; font-family: Arial;' textLength='66.70px' lengthAdjust='spacingAndGlyphs'>respiration rate</text></g>
<g clip-path='url(#cpMHwzMDIuNHwyODh8MA==)'><text x='60.97' y='14.07' style='font-size: 12.00px; font-family: Arial;' textLength='73.38px' lengthAdjust='spacingAndGlyphs'>Poa pratensis</text></g>
</svg>
