<?xml version='1.0' encoding='UTF-8' ?>
<svg xmlns='http://www.w3.org/2000/svg' xmlns:xlink='http://www.w3.org/1999/xlink' viewBox='0 0 302.40 288.00'>
<defs>
  <style type='text/css'><![CDATA[
    line, polyline, path, rect, circle {
      fill: none;
      stroke: #000000;
      stroke-linecap: round;
      stroke-linejoin: round;
      stroke-miterlimit: 10.00;
    }
  ]]></style>
</defs>
<rect width='100%' height='100%' style='stroke: none; fill: #FFFFFF;'/>
<rect x='0.00' y='0.00' width='302.40' height='288.00' style='stroke-width: 1.07; stroke: #FFFFFF; fill: #FFFFFF;' />
<defs>
  <clipPath id='cpNTUuOTYxN3wyOTYuOTIxfDI1My43NXwyMy4wMzky'>
    <rect x='55.96' y='23.04' width='240.96' height='230.71' />
  </clipPath>
</defs>
<rect x='55.96' y='23.04' width='240.96' height='230.71' style='stroke-width: 1.07; stroke: none; fill: #FFFFFF;' clip-path='url(#cpNTUuOTYxN3wyOTYuOTIxfDI1My43NXwyMy4wMzky)' />
<polyline points='55.96,227.71 296.92,227.71 ' style='stroke-width: 0.53; stroke: #EBEBEB; stroke-linecap: butt;' clip-path='url(#cpNTUuOTYxN3wyOTYuOTIxfDI1My43NXwyMy4wMzky)' />
<polyline points='55.96,166.56 296.92,166.56 ' style='stroke-width: 0.53; stroke: #EBEBEB; stroke-linecap: butt;' clip-path='url(#cpNTUuOTYxN3wyOTYuOTIxfDI1My43NXwyMy4wMzky)' />
<polyline points='55.96,105.41 296.92,105.41 ' style='stroke-width: 0.53; stroke: #EBEBEB; stroke-linecap: butt;' clip-path='url(#cpNTUuOTYxN3wyOTYuOTIxfDI1My43NXwyMy4wMzky)' />
<polyline points='55.96,44.26 296.92,44.26 ' style='stroke-width: 0.53; stroke: #EBEBEB; stroke-linecap: butt;' clip-path='url(#cpNTUuOTYxN3wyOTYuOTIxfDI1My43NXwyMy4wMzky)' />
<polyline points='105.82,253.75 105.82,23.04 ' style='stroke-width: 0.53; stroke: #EBEBEB; stroke-linecap: butt;' clip-path='url(#cpNTUuOTYxN3wyOTYuOTIxfDI1My43NXwyMy4wMzky)' />
<polyline points='181.35,253.75 181.35,23.04 ' style='stroke-width: 0.53; stroke: #EBEBEB; stroke-linecap: butt;' clip-path='url(#cpNTUuOTYxN3wyOTYuOTIxfDI1My43NXwyMy4wMzky)' />
<polyline points='256.89,253.75 256.89,23.04 ' style='stroke-width: 0.53; stroke: #EBEBEB; stroke-linecap: butt;' clip-path='url(#cpNTUuOTYxN3wyOTYuOTIxfDI1My43NXwyMy4wMzky)' />
<polyline points='55.96,197.13 296.92,197.13 ' style='stroke-width: 1.07; stroke: #EBEBEB; stroke-linecap: butt;' clip-path='url(#cpNTUuOTYxN3wyOTYuOTIxfDI1My43NXwyMy4wMzky)' />
<polyline points='55.96,135.98 296.92,135.98 ' style='stroke-width: 1.07; stroke: #EBEBEB; stroke-linecap: butt;' clip-path='url(#cpNTUuOTYxN3wyOTYuOTIxfDI1My43NXwyMy4wMzky)' />
<polyline points='55.96,74.84 296.92,74.84 ' style='stroke-width: 1.07; stroke: #EBEBEB; stroke-linecap: butt;' clip-path='url(#cpNTUuOTYxN3wyOTYuOTIxfDI1My43NXwyMy4wMzky)' />
<polyline points='68.05,253.75 68.05,23.04 ' style='stroke-width: 1.07; stroke: #EBEBEB; stroke-linecap: butt;' clip-path='url(#cpNTUuOTYxN3wyOTYuOTIxfDI1My43NXwyMy4wMzky)' />
<polyline points='143.58,253.75 143.58,23.04 ' style='stroke-width: 1.07; stroke: #EBEBEB; stroke-linecap: butt;' clip-path='url(#cpNTUuOTYxN3wyOTYuOTIxfDI1My43NXwyMy4wMzky)' />
<polyline points='219.12,253.75 219.12,23.04 ' style='stroke-width: 1.07; stroke: #EBEBEB; stroke-linecap: butt;' clip-path='url(#cpNTUuOTYxN3wyOTYuOTIxfDI1My43NXwyMy4wMzky)' />
<polyline points='294.65,253.75 294.65,23.04 ' style='stroke-width: 1.07; stroke: #EBEBEB; stroke-linecap: butt;' clip-path='url(#cpNTUuOTYxN3wyOTYuOTIxfDI1My43NXwyMy4wMzky)' />
<circle cx='68.33' cy='243.09' r='3.56pt' style='stroke-width: 0.71; stroke: #000000; stroke-opacity: 0.70; fill: #D1EEEE; fill-opacity: 0.70;' clip-path='url(#cpNTUuOTYxN3wyOTYuOTIxfDI1My43NXwyMy4wMzky)' />
<circle cx='84.51' cy='237.47' r='3.56pt' style='stroke-width: 0.71; stroke: #000000; stroke-opacity: 0.70; fill: #D1EEEE; fill-opacity: 0.70;' clip-path='url(#cpNTUuOTYxN3wyOTYuOTIxfDI1My43NXwyMy4wMzky)' />
<circle cx='101.31' cy='229.03' r='3.56pt' style='stroke-width: 0.71; stroke: #000000; stroke-opacity: 0.70; fill: #D1EEEE; fill-opacity: 0.70;' clip-path='url(#cpNTUuOTYxN3wyOTYuOTIxfDI1My43NXwyMy4wMzky)' />
<circle cx='124.96' cy='209.34' r='3.56pt' style='stroke-width: 0.71; stroke: #000000; stroke-opacity: 0.70; fill: #D1EEEE; fill-opacity: 0.70;' clip-path='url(#cpNTUuOTYxN3wyOTYuOTIxfDI1My43NXwyMy4wMzky)' />
<circle cx='158.44' cy='184.05' r='3.56pt' style='stroke-width: 0.71; stroke: #000000; stroke-opacity: 0.70; fill: #D1EEEE; fill-opacity: 0.70;' clip-path='url(#cpNTUuOTYxN3wyOTYuOTIxfDI1My43NXwyMy4wMzky)' />
<circle cx='179.81' cy='158.24' r='3.56pt' style='stroke-width: 0.71; stroke: #000000; stroke-opacity: 0.70; fill: #D1EEEE; fill-opacity: 0.70;' clip-path='url(#cpNTUuOTYxN3wyOTYuOTIxfDI1My43NXwyMy4wMzky)' />
<circle cx='196.85' cy='139.95' r='3.56pt' style='stroke-width: 0.71; stroke: #000000; stroke-opacity: 0.70; fill: #D1EEEE; fill-opacity: 0.70;' clip-path='url(#cpNTUuOTYxN3wyOTYuOTIxfDI1My43NXwyMy4wMzky)' />
<circle cx='220.82' cy='108.52' r='3.56pt' style='stroke-width: 0.71; stroke: #000000; stroke-opacity: 0.70; fill: #D1EEEE; fill-opacity: 0.70;' clip-path='url(#cpNTUuOTYxN3wyOTYuOTIxfDI1My43NXwyMy4wMzky)' />
<circle cx='233.80' cy='91.15' r='3.56pt' style='stroke-width: 0.71; stroke: #000000; stroke-opacity: 0.70; fill: #D1EEEE; fill-opacity: 0.70;' clip-path='url(#cpNTUuOTYxN3wyOTYuOTIxfDI1My43NXwyMy4wMzky)' />
<circle cx='256.89' cy='65.86' r='3.56pt' style='stroke-width: 0.71; stroke: #000000; stroke-opacity: 0.70; fill: #D1EEEE; fill-opacity: 0.70;' clip-path='url(#cpNTUuOTYxN3wyOTYuOTIxfDI1My43NXwyMy4wMzky)' />
<circle cx='282.28' cy='33.53' r='3.56pt' style='stroke-width: 0.71; stroke: #000000; stroke-opacity: 0.70; fill: #D1EEEE; fill-opacity: 0.70;' clip-path='url(#cpNTUuOTYxN3wyOTYuOTIxfDI1My43NXwyMy4wMzky)' />
<polyline points='66.91,243.26 68.02,242.92 69.12,242.58 70.22,242.23 71.32,241.87 72.42,241.50 73.52,241.13 74.62,240.75 75.72,240.36 76.82,239.96 77.92,239.56 79.02,239.15 80.12,238.73 81.22,238.30 82.33,237.86 83.43,237.42 84.53,236.97 85.63,236.51 86.73,236.04 87.83,235.56 88.93,235.07 90.03,234.57 91.13,234.07 92.23,233.56 93.33,233.03 94.43,232.50 95.53,231.96 96.64,231.41 97.74,230.84 98.84,230.27 99.94,229.69 101.04,229.10 102.14,228.50 103.24,227.89 104.34,227.27 105.44,226.64 106.54,225.99 107.64,225.34 108.74,224.68 109.84,224.00 110.95,223.32 112.05,222.62 113.15,221.91 114.25,221.19 115.35,220.46 116.45,219.72 117.55,218.97 118.65,218.21 119.75,217.43 120.85,216.64 121.95,215.85 123.05,215.04 124.15,214.21 125.26,213.38 126.36,212.54 127.46,211.68 128.56,210.81 129.66,209.93 130.76,209.04 131.86,208.13 132.96,207.22 134.06,206.29 135.16,205.35 136.26,204.40 137.36,203.44 138.46,202.46 139.57,201.47 140.67,200.48 141.77,199.46 142.87,198.44 143.97,197.41 145.07,196.36 146.17,195.31 147.27,194.24 148.37,193.16 149.47,192.06 150.57,190.96 151.67,189.85 152.77,188.72 153.88,187.59 154.98,186.44 156.08,185.28 157.18,184.11 158.28,182.93 159.38,181.75 160.48,180.55 161.58,179.34 162.68,178.12 163.78,176.89 164.88,175.65 165.98,174.40 167.08,173.14 168.19,171.88 169.29,170.60 170.39,169.32 171.49,168.03 172.59,166.73 173.69,165.42 174.79,164.10 175.89,162.78 176.99,161.45 178.09,160.11 179.19,158.77 180.29,157.42 181.39,156.06 182.50,154.70 183.60,153.33 184.70,151.96 185.80,150.58 186.90,149.19 188.00,147.81 189.10,146.41 190.20,145.02 191.30,143.62 192.40,142.21 193.50,140.81 194.60,139.40 195.70,137.98 196.81,136.57 197.91,135.15 199.01,133.73 200.11,132.32 201.21,130.90 202.31,129.47 203.41,128.05 204.51,126.63 205.61,125.21 206.71,123.79 207.81,122.37 208.91,120.95 210.01,119.54 211.12,118.12 212.22,116.71 213.32,115.30 214.42,113.89 215.52,112.49 216.62,111.08 217.72,109.69 218.82,108.29 219.92,106.90 221.02,105.52 222.12,104.13 223.22,102.76 224.32,101.39 225.43,100.02 226.53,98.66 227.63,97.31 228.73,95.96 229.83,94.62 230.93,93.28 232.03,91.95 233.13,90.63 234.23,89.32 235.33,88.01 236.43,86.72 237.53,85.42 238.63,84.14 239.74,82.87 240.84,81.60 241.94,80.35 243.04,79.10 244.14,77.86 245.24,76.63 246.34,75.41 247.44,74.19 248.54,72.99 249.64,71.80 250.74,70.62 251.84,69.44 252.94,68.28 254.05,67.13 255.15,65.99 256.25,64.85 257.35,63.73 258.45,62.62 259.55,61.52 260.65,60.43 261.75,59.35 262.85,58.28 263.95,57.22 265.05,56.17 266.15,55.13 267.25,54.11 268.36,53.09 269.46,52.09 270.56,51.10 271.66,50.11 272.76,49.14 273.86,48.18 274.96,47.23 276.06,46.29 277.16,45.36 278.26,44.45 279.36,43.54 280.46,42.65 281.56,41.76 282.67,40.89 283.77,40.03 284.87,39.17 285.97,38.33 ' style='stroke-width: 2.77; stroke: #1B9E77; stroke-linecap: butt;' clip-path='url(#cpNTUuOTYxN3wyOTYuOTIxfDI1My43NXwyMy4wMzky)' />
<g clip-path='url(#cpNTUuOTYxN3wyOTYuOTIxfDI1My43NXwyMy4wMzky)'><text x='68.33' y='145.49' style='font-size: 8.54px; font-style: italic; font-family: Arial;' textLength='60.01px' lengthAdjust='spacingAndGlyphs'>R^2 sch= 1.00 </text></g>
<g clip-path='url(#cpNTUuOTYxN3wyOTYuOTIxfDI1My43NXwyMy4wMzky)'><text x='68.33' y='157.78' style='font-size: 8.54px; font-style: italic; font-family: Arial;' textLength='50.28px' lengthAdjust='spacingAndGlyphs'>E sch= 1.04 </text></g>
<g clip-path='url(#cpNTUuOTYxN3wyOTYuOTIxfDI1My43NXwyMy4wMzky)'><text x='68.33' y='170.08' style='font-size: 8.54px; font-style: italic; font-family: Arial;' textLength='59.78px' lengthAdjust='spacingAndGlyphs'>AIC sch= -33.8</text></g>
<rect x='55.96' y='23.04' width='240.96' height='230.71' style='stroke-width: 1.07; stroke: #333333;' clip-path='url(#cpNTUuOTYxN3wyOTYuOTIxfDI1My43NXwyMy4wMzky)' />
<defs>
  <clipPath id='cpMHwzMDIuNHwyODh8MA=='>
    <rect x='0.00' y='0.00' width='302.40' height='288.00' />
  </clipPath>
</defs>
<g clip-path='url(#cpMHwzMDIuNHwyODh8MA==)'><text x='20.51' y='200.35' style='font-size: 8.80px; fill: #4D4D4D; font-family: Arial;' textLength='30.52px' lengthAdjust='spacingAndGlyphs'>2.5e-06</text></g>
<g clip-path='url(#cpMHwzMDIuNHwyODh8MA==)'><text x='20.51' y='139.20' style='font-size: 8.80px; fill: #4D4D4D; font-family: Arial;' textLength='30.52px' lengthAdjust='spacingAndGlyphs'>5.0e-06</text></g>
<g clip-path='url(#cpMHwzMDIuNHwyODh8MA==)'><text x='20.51' y='78.06' style='font-size: 8.80px; fill: #4D4D4D; font-family: Arial;' textLength='30.52px' lengthAdjust='spacingAndGlyphs'>7.5e-06</text></g>
<polyline points='53.22,197.13 55.96,197.13 ' style='stroke-width: 1.07; stroke: #333333; stroke-linecap: butt;' clip-path='url(#cpMHwzMDIuNHwyODh8MA==)' />
<polyline points='53.22,135.98 55.96,135.98 ' style='stroke-width: 1.07; stroke: #333333; stroke-linecap: butt;' clip-path='url(#cpMHwzMDIuNHwyODh8MA==)' />
<polyline points='53.22,74.84 55.96,74.84 ' style='stroke-width: 1.07; stroke: #333333; stroke-linecap: butt;' clip-path='url(#cpMHwzMDIuNHwyODh8MA==)' />
<polyline points='68.05,256.49 68.05,253.75 ' style='stroke-width: 1.07; stroke: #333333; stroke-linecap: butt;' clip-path='url(#cpMHwzMDIuNHwyODh8MA==)' />
<polyline points='143.58,256.49 143.58,253.75 ' style='stroke-width: 1.07; stroke: #333333; stroke-linecap: butt;' clip-path='url(#cpMHwzMDIuNHwyODh8MA==)' />
<polyline points='219.12,256.49 219.12,253.75 ' style='stroke-width: 1.07; stroke: #333333; stroke-linecap: butt;' clip-path='url(#cpMHwzMDIuNHwyODh8MA==)' />
<polyline points='294.65,256.49 294.65,253.75 ' style='stroke-width: 1.07; stroke: #333333; stroke-linecap: butt;' clip-path='url(#cpMHwzMDIuNHwyODh8MA==)' />
<g clip-path='url(#cpMHwzMDIuNHwyODh8MA==)'><text x='65.54' y='265.12' style='font-size: 8.80px; fill: #4D4D4D; font-family: Arial;' textLength='5.01px' lengthAdjust='spacingAndGlyphs'>0</text></g>
<g clip-path='url(#cpMHwzMDIuNHwyODh8MA==)'><text x='138.58' y='265.12' style='font-size: 8.80px; fill: #4D4D4D; font-family: Arial;' textLength='10.01px' lengthAdjust='spacingAndGlyphs'>10</text></g>
<g clip-path='url(#cpMHwzMDIuNHwyODh8MA==)'><text x='214.11' y='265.12' style='font-size: 8.80px; fill: #4D4D4D; font-family: Arial;' textLength='10.01px' lengthAdjust='spacingAndGlyphs'>20</text></g>
<g clip-path='url(#cpMHwzMDIuNHwyODh8MA==)'><text x='289.65' y='265.12' style='font-size: 8.80px; fill: #4D4D4D; font-family: Arial;' textLength='10.01px' lengthAdjust='spacingAndGlyphs'>30</text></g>
<g clip-path='url(#cpMHwzMDIuNHwyODh8MA==)'><text x='137.49' y='277.88' style='font-size: 10.00px; font-family: Arial;' textLength='63.35px' lengthAdjust='spacingAndGlyphs'>Temperature (</text></g>
<g clip-path='url(#cpMHwzMDIuNHwyODh8MA==)'><text x='200.84' y='277.88' style='font-size: 10.00px; font-family: Symbol;' textLength='4.00px' lengthAdjust='spacingAndGlyphs'>°</text></g>
<g clip-path='url(#cpMHwzMDIuNHwyODh8MA==)'><text x='204.84' y='277.88' style='font-size: 10.00px; font-family: Arial;' textLength='7.22px' lengthAdjust='spacingAndGlyphs'>C</text></g>
<g clip-path='url(#cpMHwzMDIuNHwyODh8MA==)'><text x='212.06' y='277.88' style='font-size: 10.00px; font-family: Arial;' textLength='3.33px' lengthAdjust='spacingAndGlyphs'>)</text></g>
<g clip-path='url(#cpMHwzMDIuNHwyODh8MA==)'><text transform='translate(12.64,171.74) rotate(-90)' style='font-size: 10.00px; font-family: Arial;' textLength='66.70px' lengthAdjust='spacingAndGlyphs'>respiration rate</text></g>
<g clip-path='url(#cpMHwzMDIuNHwyODh8MA==)'><text x='55.96' y='14.07' style='font-size: 12.00px; font-family: Arial;' textLength='128.06px' lengthAdjust='spacingAndGlyphs'>Deschampsia antarctica</text></g>
</svg>
