<?xml version='1.0' encoding='UTF-8' ?>
<svg xmlns='http://www.w3.org/2000/svg' xmlns:xlink='http://www.w3.org/1999/xlink' viewBox='0 0 302.40 288.00'>
<defs>
  <style type='text/css'><![CDATA[
    line, polyline, path, rect, circle {
      fill: none;
      stroke: #000000;
      stroke-linecap: round;
      stroke-linejoin: round;
      stroke-miterlimit: 10.00;
    }
  ]]></style>
</defs>
<rect width='100%' height='100%' style='stroke: none; fill: #FFFFFF;'/>
<rect x='0.00' y='0.00' width='302.40' height='288.00' style='stroke-width: 1.07; stroke: #FFFFFF; fill: #FFFFFF;' />
<defs>
  <clipPath id='cpNDguNTk2NXwyOTYuOTIxfDI1My43NXwyMy4xNzk4'>
    <rect x='48.60' y='23.18' width='248.32' height='230.57' />
  </clipPath>
</defs>
<rect x='48.60' y='23.18' width='248.32' height='230.57' style='stroke-width: 1.07; stroke: none; fill: #FFFFFF;' clip-path='url(#cpNDguNTk2NXwyOTYuOTIxfDI1My43NXwyMy4xNzk4)' />
<polyline points='48.60,230.92 296.92,230.92 ' style='stroke-width: 0.53; stroke: #EBEBEB; stroke-linecap: butt;' clip-path='url(#cpNDguNTk2NXwyOTYuOTIxfDI1My43NXwyMy4xNzk4)' />
<polyline points='48.60,182.36 296.92,182.36 ' style='stroke-width: 0.53; stroke: #EBEBEB; stroke-linecap: butt;' clip-path='url(#cpNDguNTk2NXwyOTYuOTIxfDI1My43NXwyMy4xNzk4)' />
<polyline points='48.60,133.80 296.92,133.80 ' style='stroke-width: 0.53; stroke: #EBEBEB; stroke-linecap: butt;' clip-path='url(#cpNDguNTk2NXwyOTYuOTIxfDI1My43NXwyMy4xNzk4)' />
<polyline points='48.60,85.24 296.92,85.24 ' style='stroke-width: 0.53; stroke: #EBEBEB; stroke-linecap: butt;' clip-path='url(#cpNDguNTk2NXwyOTYuOTIxfDI1My43NXwyMy4xNzk4)' />
<polyline points='48.60,36.68 296.92,36.68 ' style='stroke-width: 0.53; stroke: #EBEBEB; stroke-linecap: butt;' clip-path='url(#cpNDguNTk2NXwyOTYuOTIxfDI1My43NXwyMy4xNzk4)' />
<polyline points='56.45,253.75 56.45,23.18 ' style='stroke-width: 0.53; stroke: #EBEBEB; stroke-linecap: butt;' clip-path='url(#cpNDguNTk2NXwyOTYuOTIxfDI1My43NXwyMy4xNzk4)' />
<polyline points='105.52,253.75 105.52,23.18 ' style='stroke-width: 0.53; stroke: #EBEBEB; stroke-linecap: butt;' clip-path='url(#cpNDguNTk2NXwyOTYuOTIxfDI1My43NXwyMy4xNzk4)' />
<polyline points='154.60,253.75 154.60,23.18 ' style='stroke-width: 0.53; stroke: #EBEBEB; stroke-linecap: butt;' clip-path='url(#cpNDguNTk2NXwyOTYuOTIxfDI1My43NXwyMy4xNzk4)' />
<polyline points='203.68,253.75 203.68,23.18 ' style='stroke-width: 0.53; stroke: #EBEBEB; stroke-linecap: butt;' clip-path='url(#cpNDguNTk2NXwyOTYuOTIxfDI1My43NXwyMy4xNzk4)' />
<polyline points='252.75,253.75 252.75,23.18 ' style='stroke-width: 0.53; stroke: #EBEBEB; stroke-linecap: butt;' clip-path='url(#cpNDguNTk2NXwyOTYuOTIxfDI1My43NXwyMy4xNzk4)' />
<polyline points='48.60,206.64 296.92,206.64 ' style='stroke-width: 1.07; stroke: #EBEBEB; stroke-linecap: butt;' clip-path='url(#cpNDguNTk2NXwyOTYuOTIxfDI1My43NXwyMy4xNzk4)' />
<polyline points='48.60,158.08 296.92,158.08 ' style='stroke-width: 1.07; stroke: #EBEBEB; stroke-linecap: butt;' clip-path='url(#cpNDguNTk2NXwyOTYuOTIxfDI1My43NXwyMy4xNzk4)' />
<polyline points='48.60,109.52 296.92,109.52 ' style='stroke-width: 1.07; stroke: #EBEBEB; stroke-linecap: butt;' clip-path='url(#cpNDguNTk2NXwyOTYuOTIxfDI1My43NXwyMy4xNzk4)' />
<polyline points='48.60,60.96 296.92,60.96 ' style='stroke-width: 1.07; stroke: #EBEBEB; stroke-linecap: butt;' clip-path='url(#cpNDguNTk2NXwyOTYuOTIxfDI1My43NXwyMy4xNzk4)' />
<polyline points='80.99,253.75 80.99,23.18 ' style='stroke-width: 1.07; stroke: #EBEBEB; stroke-linecap: butt;' clip-path='url(#cpNDguNTk2NXwyOTYuOTIxfDI1My43NXwyMy4xNzk4)' />
<polyline points='130.06,253.75 130.06,23.18 ' style='stroke-width: 1.07; stroke: #EBEBEB; stroke-linecap: butt;' clip-path='url(#cpNDguNTk2NXwyOTYuOTIxfDI1My43NXwyMy4xNzk4)' />
<polyline points='179.14,253.75 179.14,23.18 ' style='stroke-width: 1.07; stroke: #EBEBEB; stroke-linecap: butt;' clip-path='url(#cpNDguNTk2NXwyOTYuOTIxfDI1My43NXwyMy4xNzk4)' />
<polyline points='228.21,253.75 228.21,23.18 ' style='stroke-width: 1.07; stroke: #EBEBEB; stroke-linecap: butt;' clip-path='url(#cpNDguNTk2NXwyOTYuOTIxfDI1My43NXwyMy4xNzk4)' />
<polyline points='277.29,253.75 277.29,23.18 ' style='stroke-width: 1.07; stroke: #EBEBEB; stroke-linecap: butt;' clip-path='url(#cpNDguNTk2NXwyOTYuOTIxfDI1My43NXwyMy4xNzk4)' />
<circle cx='61.58' cy='109.80' r='3.56pt' style='stroke-width: 0.71; stroke: #000000; stroke-opacity: 0.70; fill: #D1EEEE; fill-opacity: 0.70;' clip-path='url(#cpNDguNTk2NXwyOTYuOTIxfDI1My43NXwyMy4xNzk4)' />
<circle cx='80.60' cy='63.88' r='3.56pt' style='stroke-width: 0.71; stroke: #000000; stroke-opacity: 0.70; fill: #D1EEEE; fill-opacity: 0.70;' clip-path='url(#cpNDguNTk2NXwyOTYuOTIxfDI1My43NXwyMy4xNzk4)' />
<circle cx='126.68' cy='42.63' r='3.56pt' style='stroke-width: 0.71; stroke: #000000; stroke-opacity: 0.70; fill: #D1EEEE; fill-opacity: 0.70;' clip-path='url(#cpNDguNTk2NXwyOTYuOTIxfDI1My43NXwyMy4xNzk4)' />
<circle cx='178.54' cy='49.25' r='3.56pt' style='stroke-width: 0.71; stroke: #000000; stroke-opacity: 0.70; fill: #D1EEEE; fill-opacity: 0.70;' clip-path='url(#cpNDguNTk2NXwyOTYuOTIxfDI1My43NXwyMy4xNzk4)' />
<circle cx='228.81' cy='147.88' r='3.56pt' style='stroke-width: 0.71; stroke: #000000; stroke-opacity: 0.70; fill: #D1EEEE; fill-opacity: 0.70;' clip-path='url(#cpNDguNTk2NXwyOTYuOTIxfDI1My43NXwyMy4xNzk4)' />
<circle cx='278.52' cy='239.14' r='3.56pt' style='stroke-width: 0.71; stroke: #000000; stroke-opacity: 0.70; fill: #D1EEEE; fill-opacity: 0.70;' clip-path='url(#cpNDguNTk2NXwyOTYuOTIxfDI1My43NXwyMy4xNzk4)' />
<polyline points='59.88,95.69 61.02,94.98 62.15,94.27 63.29,93.55 64.42,92.84 65.56,92.12 66.69,91.40 67.82,90.68 68.96,89.95 70.09,89.23 71.23,88.50 72.36,87.76 73.50,87.03 74.63,86.29 75.77,85.55 76.90,84.81 78.03,84.07 79.17,83.33 80.30,82.58 81.44,81.83 82.57,81.08 83.71,80.32 84.84,79.57 85.98,78.81 87.11,78.05 88.24,77.29 89.38,76.52 90.51,75.76 91.65,74.99 92.78,74.22 93.92,73.45 95.05,72.68 96.19,71.91 97.32,71.14 98.45,70.36 99.59,69.58 100.72,68.81 101.86,68.03 102.99,67.25 104.13,66.47 105.26,65.69 106.40,64.90 107.53,64.12 108.66,63.34 109.80,62.56 110.93,61.78 112.07,60.99 113.20,60.21 114.34,59.43 115.47,58.66 116.60,57.88 117.74,57.10 118.87,56.33 120.01,55.56 121.14,54.79 122.28,54.02 123.41,53.26 124.55,52.50 125.68,51.74 126.81,50.99 127.95,50.24 129.08,49.50 130.22,48.77 131.35,48.04 132.49,47.32 133.62,46.60 134.76,45.90 135.89,45.20 137.02,44.51 138.16,43.84 139.29,43.17 140.43,42.52 141.56,41.88 142.70,41.25 143.83,40.64 144.97,40.04 146.10,39.47 147.23,38.91 148.37,38.37 149.50,37.85 150.64,37.35 151.77,36.88 152.91,36.43 154.04,36.01 155.18,35.61 156.31,35.25 157.44,34.92 158.58,34.62 159.71,34.36 160.85,34.14 161.98,33.95 163.12,33.81 164.25,33.71 165.38,33.66 166.52,33.66 167.65,33.71 168.79,33.81 169.92,33.97 171.06,34.19 172.19,34.46 173.33,34.81 174.46,35.22 175.59,35.69 176.73,36.24 177.86,36.87 179.00,37.57 180.13,38.35 181.27,39.22 182.40,40.17 183.54,41.21 184.67,42.33 185.80,43.55 186.94,44.86 188.07,46.27 189.21,47.78 190.34,49.38 191.48,51.08 192.61,52.88 193.75,54.79 194.88,56.79 196.01,58.90 197.15,61.10 198.28,63.41 199.42,65.81 200.55,68.32 201.69,70.91 202.82,73.60 203.95,76.38 205.09,79.24 206.22,82.19 207.36,85.22 208.49,88.32 209.63,91.49 210.76,94.72 211.90,98.01 213.03,101.36 214.16,104.76 215.30,108.19 216.43,111.66 217.57,115.16 218.70,118.69 219.84,122.22 220.97,125.77 222.11,129.32 223.24,132.87 224.37,136.41 225.51,139.93 226.64,143.43 227.78,146.90 228.91,150.34 230.05,153.74 231.18,157.10 232.32,160.41 233.45,163.66 234.58,166.87 235.72,170.01 236.85,173.10 237.99,176.11 239.12,179.06 240.26,181.94 241.39,184.75 242.53,187.49 243.66,190.15 244.79,192.74 245.93,195.25 247.06,197.69 248.20,200.05 249.33,202.34 250.47,204.55 251.60,206.69 252.73,208.75 253.87,210.75 255.00,212.67 256.14,214.52 257.27,216.30 258.41,218.01 259.54,219.66 260.68,221.24 261.81,222.77 262.94,224.23 264.08,225.63 265.21,226.97 266.35,228.26 267.48,229.49 268.62,230.67 269.75,231.80 270.89,232.89 272.02,233.92 273.15,234.91 274.29,235.86 275.42,236.76 276.56,237.63 277.69,238.45 278.83,239.24 279.96,239.99 281.10,240.71 282.23,241.40 283.36,242.05 284.50,242.67 285.63,243.27 ' style='stroke-width: 2.77; stroke: #1B9E77; stroke-linecap: butt;' clip-path='url(#cpNDguNTk2NXwyOTYuOTIxfDI1My43NXwyMy4xNzk4)' />
<g clip-path='url(#cpNDguNTk2NXwyOTYuOTIxfDI1My43NXwyMy4xNzk4)'><text x='61.58' y='99.69' style='font-size: 8.54px; font-style: italic; font-family: Arial;' textLength='60.01px' lengthAdjust='spacingAndGlyphs'>R^2 sch= 0.97 </text></g>
<g clip-path='url(#cpNDguNTk2NXwyOTYuOTIxfDI1My43NXwyMy4xNzk4)'><text x='61.58' y='111.98' style='font-size: 8.54px; font-style: italic; font-family: Arial;' textLength='55.29px' lengthAdjust='spacingAndGlyphs'>E sch= 0.262 </text></g>
<g clip-path='url(#cpNDguNTk2NXwyOTYuOTIxfDI1My43NXwyMy4xNzk4)'><text x='61.58' y='124.27' style='font-size: 8.54px; font-style: italic; font-family: Arial;' textLength='59.78px' lengthAdjust='spacingAndGlyphs'>AIC sch= -5.74</text></g>
<rect x='48.60' y='23.18' width='248.32' height='230.57' style='stroke-width: 1.07; stroke: #333333;' clip-path='url(#cpNDguNTk2NXwyOTYuOTIxfDI1My43NXwyMy4xNzk4)' />
<defs>
  <clipPath id='cpMHwzMDIuNHwyODh8MA=='>
    <rect x='0.00' y='0.00' width='302.40' height='288.00' />
  </clipPath>
</defs>
<g clip-path='url(#cpMHwzMDIuNHwyODh8MA==)'><text x='20.65' y='209.86' style='font-size: 8.80px; fill: #4D4D4D; font-family: Arial;' textLength='23.02px' lengthAdjust='spacingAndGlyphs'>1e-07</text></g>
<g clip-path='url(#cpMHwzMDIuNHwyODh8MA==)'><text x='20.65' y='161.30' style='font-size: 8.80px; fill: #4D4D4D; font-family: Arial;' textLength='23.02px' lengthAdjust='spacingAndGlyphs'>2e-07</text></g>
<g clip-path='url(#cpMHwzMDIuNHwyODh8MA==)'><text x='20.65' y='112.74' style='font-size: 8.80px; fill: #4D4D4D; font-family: Arial;' textLength='23.02px' lengthAdjust='spacingAndGlyphs'>3e-07</text></g>
<g clip-path='url(#cpMHwzMDIuNHwyODh8MA==)'><text x='20.65' y='64.18' style='font-size: 8.80px; fill: #4D4D4D; font-family: Arial;' textLength='23.02px' lengthAdjust='spacingAndGlyphs'>4e-07</text></g>
<polyline points='45.86,206.64 48.60,206.64 ' style='stroke-width: 1.07; stroke: #333333; stroke-linecap: butt;' clip-path='url(#cpMHwzMDIuNHwyODh8MA==)' />
<polyline points='45.86,158.08 48.60,158.08 ' style='stroke-width: 1.07; stroke: #333333; stroke-linecap: butt;' clip-path='url(#cpMHwzMDIuNHwyODh8MA==)' />
<polyline points='45.86,109.52 48.60,109.52 ' style='stroke-width: 1.07; stroke: #333333; stroke-linecap: butt;' clip-path='url(#cpMHwzMDIuNHwyODh8MA==)' />
<polyline points='45.86,60.96 48.60,60.96 ' style='stroke-width: 1.07; stroke: #333333; stroke-linecap: butt;' clip-path='url(#cpMHwzMDIuNHwyODh8MA==)' />
<polyline points='80.99,256.49 80.99,253.75 ' style='stroke-width: 1.07; stroke: #333333; stroke-linecap: butt;' clip-path='url(#cpMHwzMDIuNHwyODh8MA==)' />
<polyline points='130.06,256.49 130.06,253.75 ' style='stroke-width: 1.07; stroke: #333333; stroke-linecap: butt;' clip-path='url(#cpMHwzMDIuNHwyODh8MA==)' />
<polyline points='179.14,256.49 179.14,253.75 ' style='stroke-width: 1.07; stroke: #333333; stroke-linecap: butt;' clip-path='url(#cpMHwzMDIuNHwyODh8MA==)' />
<polyline points='228.21,256.49 228.21,253.75 ' style='stroke-width: 1.07; stroke: #333333; stroke-linecap: butt;' clip-path='url(#cpMHwzMDIuNHwyODh8MA==)' />
<polyline points='277.29,256.49 277.29,253.75 ' style='stroke-width: 1.07; stroke: #333333; stroke-linecap: butt;' clip-path='url(#cpMHwzMDIuNHwyODh8MA==)' />
<g clip-path='url(#cpMHwzMDIuNHwyODh8MA==)'><text x='75.98' y='265.12' style='font-size: 8.80px; fill: #4D4D4D; font-family: Arial;' textLength='10.01px' lengthAdjust='spacingAndGlyphs'>10</text></g>
<g clip-path='url(#cpMHwzMDIuNHwyODh8MA==)'><text x='125.06' y='265.12' style='font-size: 8.80px; fill: #4D4D4D; font-family: Arial;' textLength='10.01px' lengthAdjust='spacingAndGlyphs'>15</text></g>
<g clip-path='url(#cpMHwzMDIuNHwyODh8MA==)'><text x='174.13' y='265.12' style='font-size: 8.80px; fill: #4D4D4D; font-family: Arial;' textLength='10.01px' lengthAdjust='spacingAndGlyphs'>20</text></g>
<g clip-path='url(#cpMHwzMDIuNHwyODh8MA==)'><text x='223.21' y='265.12' style='font-size: 8.80px; fill: #4D4D4D; font-family: Arial;' textLength='10.01px' lengthAdjust='spacingAndGlyphs'>25</text></g>
<g clip-path='url(#cpMHwzMDIuNHwyODh8MA==)'><text x='272.28' y='265.12' style='font-size: 8.80px; fill: #4D4D4D; font-family: Arial;' textLength='10.01px' lengthAdjust='spacingAndGlyphs'>30</text></g>
<g clip-path='url(#cpMHwzMDIuNHwyODh8MA==)'><text x='133.81' y='277.88' style='font-size: 10.00px; font-family: Arial;' textLength='63.35px' lengthAdjust='spacingAndGlyphs'>Temperature (</text></g>
<g clip-path='url(#cpMHwzMDIuNHwyODh8MA==)'><text x='197.16' y='277.88' style='font-size: 10.00px; font-family: Symbol;' textLength='4.00px' lengthAdjust='spacingAndGlyphs'>°</text></g>
<g clip-path='url(#cpMHwzMDIuNHwyODh8MA==)'><text x='201.16' y='277.88' style='font-size: 10.00px; font-family: Arial;' textLength='7.22px' lengthAdjust='spacingAndGlyphs'>C</text></g>
<g clip-path='url(#cpMHwzMDIuNHwyODh8MA==)'><text x='208.38' y='277.88' style='font-size: 10.00px; font-family: Arial;' textLength='3.33px' lengthAdjust='spacingAndGlyphs'>)</text></g>
<g clip-path='url(#cpMHwzMDIuNHwyODh8MA==)'><text transform='translate(12.64,180.16) rotate(-90)' style='font-size: 10.00px; font-family: Arial;' textLength='83.39px' lengthAdjust='spacingAndGlyphs'>net photosynthesis</text></g>
<g clip-path='url(#cpMHwzMDIuNHwyODh8MA==)'><text x='48.60' y='14.07' style='font-size: 12.00px; font-family: Arial;' textLength='158.07px' lengthAdjust='spacingAndGlyphs'>Nothofagus carrii carrii Steen.</text></g>
</svg>
