<?xml version='1.0' encoding='UTF-8' ?>
<svg xmlns='http://www.w3.org/2000/svg' xmlns:xlink='http://www.w3.org/1999/xlink' viewBox='0 0 302.40 288.00'>
<defs>
  <style type='text/css'><![CDATA[
    line, polyline, path, rect, circle {
      fill: none;
      stroke: #000000;
      stroke-linecap: round;
      stroke-linejoin: round;
      stroke-miterlimit: 10.00;
    }
  ]]></style>
</defs>
<rect width='100%' height='100%' style='stroke: none; fill: #FFFFFF;'/>
<rect x='0.00' y='0.00' width='302.40' height='288.00' style='stroke-width: 1.07; stroke: #FFFFFF; fill: #FFFFFF;' />
<defs>
  <clipPath id='cpNDguNDU1OHwyOTYuOTIxfDI1My43NXwyMC43ODky'>
    <rect x='48.46' y='20.79' width='248.46' height='232.96' />
  </clipPath>
</defs>
<rect x='48.46' y='20.79' width='248.46' height='232.96' style='stroke-width: 1.07; stroke: none; fill: #FFFFFF;' clip-path='url(#cpNDguNDU1OHwyOTYuOTIxfDI1My43NXwyMC43ODky)' />
<polyline points='48.46,237.39 296.92,237.39 ' style='stroke-width: 0.53; stroke: #EBEBEB; stroke-linecap: butt;' clip-path='url(#cpNDguNDU1OHwyOTYuOTIxfDI1My43NXwyMC43ODky)' />
<polyline points='48.46,173.79 296.92,173.79 ' style='stroke-width: 0.53; stroke: #EBEBEB; stroke-linecap: butt;' clip-path='url(#cpNDguNDU1OHwyOTYuOTIxfDI1My43NXwyMC43ODky)' />
<polyline points='48.46,110.19 296.92,110.19 ' style='stroke-width: 0.53; stroke: #EBEBEB; stroke-linecap: butt;' clip-path='url(#cpNDguNDU1OHwyOTYuOTIxfDI1My43NXwyMC43ODky)' />
<polyline points='48.46,46.58 296.92,46.58 ' style='stroke-width: 0.53; stroke: #EBEBEB; stroke-linecap: butt;' clip-path='url(#cpNDguNDU1OHwyOTYuOTIxfDI1My43NXwyMC43ODky)' />
<polyline points='61.05,253.75 61.05,20.79 ' style='stroke-width: 0.53; stroke: #EBEBEB; stroke-linecap: butt;' clip-path='url(#cpNDguNDU1OHwyOTYuOTIxfDI1My43NXwyMC43ODky)' />
<polyline points='147.93,253.75 147.93,20.79 ' style='stroke-width: 0.53; stroke: #EBEBEB; stroke-linecap: butt;' clip-path='url(#cpNDguNDU1OHwyOTYuOTIxfDI1My43NXwyMC43ODky)' />
<polyline points='234.80,253.75 234.80,20.79 ' style='stroke-width: 0.53; stroke: #EBEBEB; stroke-linecap: butt;' clip-path='url(#cpNDguNDU1OHwyOTYuOTIxfDI1My43NXwyMC43ODky)' />
<polyline points='48.46,205.59 296.92,205.59 ' style='stroke-width: 1.07; stroke: #EBEBEB; stroke-linecap: butt;' clip-path='url(#cpNDguNDU1OHwyOTYuOTIxfDI1My43NXwyMC43ODky)' />
<polyline points='48.46,141.99 296.92,141.99 ' style='stroke-width: 1.07; stroke: #EBEBEB; stroke-linecap: butt;' clip-path='url(#cpNDguNDU1OHwyOTYuOTIxfDI1My43NXwyMC43ODky)' />
<polyline points='48.46,78.39 296.92,78.39 ' style='stroke-width: 1.07; stroke: #EBEBEB; stroke-linecap: butt;' clip-path='url(#cpNDguNDU1OHwyOTYuOTIxfDI1My43NXwyMC43ODky)' />
<polyline points='104.49,253.75 104.49,20.79 ' style='stroke-width: 1.07; stroke: #EBEBEB; stroke-linecap: butt;' clip-path='url(#cpNDguNDU1OHwyOTYuOTIxfDI1My43NXwyMC43ODky)' />
<polyline points='191.37,253.75 191.37,20.79 ' style='stroke-width: 1.07; stroke: #EBEBEB; stroke-linecap: butt;' clip-path='url(#cpNDguNDU1OHwyOTYuOTIxfDI1My43NXwyMC43ODky)' />
<polyline points='278.24,253.75 278.24,20.79 ' style='stroke-width: 1.07; stroke: #EBEBEB; stroke-linecap: butt;' clip-path='url(#cpNDguNDU1OHwyOTYuOTIxfDI1My43NXwyMC43ODky)' />
<circle cx='61.05' cy='237.41' r='3.56pt' style='stroke-width: 0.71; stroke: #000000; stroke-opacity: 0.70; fill: #D1EEEE; fill-opacity: 0.70;' clip-path='url(#cpNDguNDU1OHwyOTYuOTIxfDI1My43NXwyMC43ODky)' />
<circle cx='104.49' cy='234.55' r='3.56pt' style='stroke-width: 0.71; stroke: #000000; stroke-opacity: 0.70; fill: #D1EEEE; fill-opacity: 0.70;' clip-path='url(#cpNDguNDU1OHwyOTYuOTIxfDI1My43NXwyMC43ODky)' />
<circle cx='147.93' cy='214.79' r='3.56pt' style='stroke-width: 0.71; stroke: #000000; stroke-opacity: 0.70; fill: #D1EEEE; fill-opacity: 0.70;' clip-path='url(#cpNDguNDU1OHwyOTYuOTIxfDI1My43NXwyMC43ODky)' />
<circle cx='191.37' cy='183.05' r='3.56pt' style='stroke-width: 0.71; stroke: #000000; stroke-opacity: 0.70; fill: #D1EEEE; fill-opacity: 0.70;' clip-path='url(#cpNDguNDU1OHwyOTYuOTIxfDI1My43NXwyMC43ODky)' />
<circle cx='234.80' cy='142.11' r='3.56pt' style='stroke-width: 0.71; stroke: #000000; stroke-opacity: 0.70; fill: #D1EEEE; fill-opacity: 0.70;' clip-path='url(#cpNDguNDU1OHwyOTYuOTIxfDI1My43NXwyMC43ODky)' />
<circle cx='278.24' cy='64.82' r='3.56pt' style='stroke-width: 0.71; stroke: #000000; stroke-opacity: 0.70; fill: #D1EEEE; fill-opacity: 0.70;' clip-path='url(#cpNDguNDU1OHwyOTYuOTIxfDI1My43NXwyMC43ODky)' />
<polyline points='59.75,243.16 60.88,242.91 62.02,242.66 63.15,242.40 64.29,242.14 65.42,241.88 66.56,241.62 67.70,241.35 68.83,241.08 69.97,240.81 71.10,240.53 72.24,240.26 73.37,239.98 74.51,239.69 75.64,239.41 76.78,239.12 77.91,238.82 79.05,238.53 80.18,238.23 81.32,237.93 82.45,237.62 83.59,237.32 84.72,237.01 85.86,236.69 86.99,236.37 88.13,236.05 89.26,235.73 90.40,235.40 91.53,235.07 92.67,234.73 93.80,234.40 94.94,234.05 96.07,233.71 97.21,233.36 98.34,233.01 99.48,232.65 100.61,232.29 101.75,231.92 102.88,231.55 104.02,231.18 105.15,230.81 106.29,230.42 107.42,230.04 108.56,229.65 109.69,229.26 110.83,228.86 111.96,228.46 113.10,228.05 114.23,227.64 115.37,227.23 116.50,226.81 117.64,226.38 118.77,225.95 119.91,225.52 121.04,225.08 122.18,224.64 123.31,224.19 124.45,223.74 125.58,223.28 126.72,222.81 127.85,222.35 128.99,221.87 130.12,221.39 131.26,220.91 132.39,220.42 133.53,219.92 134.66,219.42 135.80,218.91 136.93,218.40 138.07,217.88 139.20,217.35 140.34,216.82 141.47,216.28 142.61,215.74 143.74,215.19 144.88,214.64 146.01,214.07 147.15,213.50 148.28,212.93 149.42,212.34 150.55,211.75 151.69,211.16 152.82,210.55 153.96,209.94 155.09,209.32 156.23,208.70 157.36,208.07 158.50,207.43 159.64,206.78 160.77,206.12 161.91,205.46 163.04,204.78 164.18,204.10 165.31,203.41 166.45,202.72 167.58,202.01 168.72,201.30 169.85,200.57 170.99,199.84 172.12,199.10 173.26,198.35 174.39,197.59 175.53,196.82 176.66,196.04 177.80,195.25 178.93,194.45 180.07,193.64 181.20,192.82 182.34,191.99 183.47,191.15 184.61,190.30 185.74,189.44 186.88,188.56 188.01,187.68 189.15,186.78 190.28,185.87 191.42,184.95 192.55,184.02 193.69,183.07 194.82,182.11 195.96,181.14 197.09,180.16 198.23,179.16 199.36,178.15 200.50,177.13 201.63,176.09 202.77,175.04 203.90,173.97 205.04,172.89 206.17,171.79 207.31,170.68 208.44,169.55 209.58,168.41 210.71,167.25 211.85,166.08 212.98,164.88 214.12,163.68 215.25,162.45 216.39,161.21 217.52,159.94 218.66,158.66 219.79,157.37 220.93,156.05 222.06,154.71 223.20,153.35 224.33,151.98 225.47,150.58 226.60,149.16 227.74,147.72 228.87,146.26 230.01,144.78 231.14,143.27 232.28,141.74 233.41,140.19 234.55,138.61 235.68,137.01 236.82,135.39 237.95,133.74 239.09,132.06 240.22,130.35 241.36,128.62 242.49,126.86 243.63,125.07 244.76,123.26 245.90,121.41 247.03,119.53 248.17,117.63 249.30,115.69 250.44,113.71 251.57,111.71 252.71,109.67 253.85,107.60 254.98,105.49 256.12,103.34 257.25,101.16 258.39,98.94 259.52,96.68 260.66,94.38 261.79,92.04 262.93,89.66 264.06,87.24 265.20,84.77 266.33,82.25 267.47,79.69 268.60,77.09 269.74,74.43 270.87,71.73 272.01,68.97 273.14,66.16 274.28,63.30 275.41,60.38 276.55,57.41 277.68,54.38 278.82,51.28 279.95,48.13 281.09,44.91 282.22,41.63 283.36,38.28 284.49,34.87 285.63,31.38 ' style='stroke-width: 2.77; stroke: #1B9E77; stroke-linecap: butt;' clip-path='url(#cpNDguNDU1OHwyOTYuOTIxfDI1My43NXwyMC43ODky)' />
<g clip-path='url(#cpNDguNDU1OHwyOTYuOTIxfDI1My43NXwyMC43ODky)'><text x='61.05' y='170.38' style='font-size: 8.54px; font-style: italic; font-family: Arial;' textLength='60.01px' lengthAdjust='spacingAndGlyphs'>R^2 sch= 0.99 </text></g>
<g clip-path='url(#cpNDguNDU1OHwyOTYuOTIxfDI1My43NXwyMC43ODky)'><text x='61.05' y='182.67' style='font-size: 8.54px; font-style: italic; font-family: Arial;' textLength='55.29px' lengthAdjust='spacingAndGlyphs'>E sch= 0.301 </text></g>
<g clip-path='url(#cpNDguNDU1OHwyOTYuOTIxfDI1My43NXwyMC43ODky)'><text x='61.05' y='194.97' style='font-size: 8.54px; font-style: italic; font-family: Arial;' textLength='59.78px' lengthAdjust='spacingAndGlyphs'>AIC sch= -1.64</text></g>
<rect x='48.46' y='20.79' width='248.46' height='232.96' style='stroke-width: 1.07; stroke: #333333;' clip-path='url(#cpNDguNDU1OHwyOTYuOTIxfDI1My43NXwyMC43ODky)' />
<defs>
  <clipPath id='cpMHwzMDIuNHwyODh8MA=='>
    <rect x='0.00' y='0.00' width='302.40' height='288.00' />
  </clipPath>
</defs>
<g clip-path='url(#cpMHwzMDIuNHwyODh8MA==)'><text x='20.51' y='208.81' style='font-size: 8.80px; fill: #4D4D4D; font-family: Arial;' textLength='23.02px' lengthAdjust='spacingAndGlyphs'>3e-06</text></g>
<g clip-path='url(#cpMHwzMDIuNHwyODh8MA==)'><text x='20.51' y='145.21' style='font-size: 8.80px; fill: #4D4D4D; font-family: Arial;' textLength='23.02px' lengthAdjust='spacingAndGlyphs'>6e-06</text></g>
<g clip-path='url(#cpMHwzMDIuNHwyODh8MA==)'><text x='20.51' y='81.60' style='font-size: 8.80px; fill: #4D4D4D; font-family: Arial;' textLength='23.02px' lengthAdjust='spacingAndGlyphs'>9e-06</text></g>
<polyline points='45.72,205.59 48.46,205.59 ' style='stroke-width: 1.07; stroke: #333333; stroke-linecap: butt;' clip-path='url(#cpMHwzMDIuNHwyODh8MA==)' />
<polyline points='45.72,141.99 48.46,141.99 ' style='stroke-width: 1.07; stroke: #333333; stroke-linecap: butt;' clip-path='url(#cpMHwzMDIuNHwyODh8MA==)' />
<polyline points='45.72,78.39 48.46,78.39 ' style='stroke-width: 1.07; stroke: #333333; stroke-linecap: butt;' clip-path='url(#cpMHwzMDIuNHwyODh8MA==)' />
<polyline points='104.49,256.49 104.49,253.75 ' style='stroke-width: 1.07; stroke: #333333; stroke-linecap: butt;' clip-path='url(#cpMHwzMDIuNHwyODh8MA==)' />
<polyline points='191.37,256.49 191.37,253.75 ' style='stroke-width: 1.07; stroke: #333333; stroke-linecap: butt;' clip-path='url(#cpMHwzMDIuNHwyODh8MA==)' />
<polyline points='278.24,256.49 278.24,253.75 ' style='stroke-width: 1.07; stroke: #333333; stroke-linecap: butt;' clip-path='url(#cpMHwzMDIuNHwyODh8MA==)' />
<g clip-path='url(#cpMHwzMDIuNHwyODh8MA==)'><text x='99.49' y='265.12' style='font-size: 8.80px; fill: #4D4D4D; font-family: Arial;' textLength='10.01px' lengthAdjust='spacingAndGlyphs'>10</text></g>
<g clip-path='url(#cpMHwzMDIuNHwyODh8MA==)'><text x='186.36' y='265.12' style='font-size: 8.80px; fill: #4D4D4D; font-family: Arial;' textLength='10.01px' lengthAdjust='spacingAndGlyphs'>20</text></g>
<g clip-path='url(#cpMHwzMDIuNHwyODh8MA==)'><text x='273.24' y='265.12' style='font-size: 8.80px; fill: #4D4D4D; font-family: Arial;' textLength='10.01px' lengthAdjust='spacingAndGlyphs'>30</text></g>
<g clip-path='url(#cpMHwzMDIuNHwyODh8MA==)'><text x='133.74' y='277.88' style='font-size: 10.00px; font-family: Arial;' textLength='63.35px' lengthAdjust='spacingAndGlyphs'>Temperature (</text></g>
<g clip-path='url(#cpMHwzMDIuNHwyODh8MA==)'><text x='197.09' y='277.88' style='font-size: 10.00px; font-family: Symbol;' textLength='4.00px' lengthAdjust='spacingAndGlyphs'>°</text></g>
<g clip-path='url(#cpMHwzMDIuNHwyODh8MA==)'><text x='201.09' y='277.88' style='font-size: 10.00px; font-family: Arial;' textLength='7.22px' lengthAdjust='spacingAndGlyphs'>C</text></g>
<g clip-path='url(#cpMHwzMDIuNHwyODh8MA==)'><text x='208.31' y='277.88' style='font-size: 10.00px; font-family: Arial;' textLength='3.33px' lengthAdjust='spacingAndGlyphs'>)</text></g>
<g clip-path='url(#cpMHwzMDIuNHwyODh8MA==)'><text transform='translate(12.64,170.62) rotate(-90)' style='font-size: 10.00px; font-family: Arial;' textLength='66.70px' lengthAdjust='spacingAndGlyphs'>respiration rate</text></g>
<g clip-path='url(#cpMHwzMDIuNHwyODh8MA==)'><text x='48.46' y='14.07' style='font-size: 12.00px; font-family: Arial;' textLength='88.06px' lengthAdjust='spacingAndGlyphs'>Pinus banksiana</text></g>
</svg>
