<?xml version='1.0' encoding='UTF-8' ?>
<svg xmlns='http://www.w3.org/2000/svg' xmlns:xlink='http://www.w3.org/1999/xlink' viewBox='0 0 302.40 288.00'>
<defs>
  <style type='text/css'><![CDATA[
    line, polyline, path, rect, circle {
      fill: none;
      stroke: #000000;
      stroke-linecap: round;
      stroke-linejoin: round;
      stroke-miterlimit: 10.00;
    }
  ]]></style>
</defs>
<rect width='100%' height='100%' style='stroke: none; fill: #FFFFFF;'/>
<rect x='-0.00' y='0.00' width='302.40' height='288.00' style='stroke-width: 1.07; stroke: #FFFFFF; fill: #FFFFFF;' />
<defs>
  <clipPath id='cpNTguMzYxMXwyOTYuOTIxfDI1My43NXwyMy4xNzk4'>
    <rect x='58.36' y='23.18' width='238.56' height='230.57' />
  </clipPath>
</defs>
<rect x='58.36' y='23.18' width='238.56' height='230.57' style='stroke-width: 1.07; stroke: none; fill: #FFFFFF;' clip-path='url(#cpNTguMzYxMXwyOTYuOTIxfDI1My43NXwyMy4xNzk4)' />
<polyline points='58.36,225.88 296.92,225.88 ' style='stroke-width: 0.53; stroke: #EBEBEB; stroke-linecap: butt;' clip-path='url(#cpNTguMzYxMXwyOTYuOTIxfDI1My43NXwyMy4xNzk4)' />
<polyline points='58.36,171.17 296.92,171.17 ' style='stroke-width: 0.53; stroke: #EBEBEB; stroke-linecap: butt;' clip-path='url(#cpNTguMzYxMXwyOTYuOTIxfDI1My43NXwyMy4xNzk4)' />
<polyline points='58.36,116.45 296.92,116.45 ' style='stroke-width: 0.53; stroke: #EBEBEB; stroke-linecap: butt;' clip-path='url(#cpNTguMzYxMXwyOTYuOTIxfDI1My43NXwyMy4xNzk4)' />
<polyline points='58.36,61.73 296.92,61.73 ' style='stroke-width: 0.53; stroke: #EBEBEB; stroke-linecap: butt;' clip-path='url(#cpNTguMzYxMXwyOTYuOTIxfDI1My43NXwyMy4xNzk4)' />
<polyline points='124.58,253.75 124.58,23.18 ' style='stroke-width: 0.53; stroke: #EBEBEB; stroke-linecap: butt;' clip-path='url(#cpNTguMzYxMXwyOTYuOTIxfDI1My43NXwyMy4xNzk4)' />
<polyline points='202.04,253.75 202.04,23.18 ' style='stroke-width: 0.53; stroke: #EBEBEB; stroke-linecap: butt;' clip-path='url(#cpNTguMzYxMXwyOTYuOTIxfDI1My43NXwyMy4xNzk4)' />
<polyline points='279.49,253.75 279.49,23.18 ' style='stroke-width: 0.53; stroke: #EBEBEB; stroke-linecap: butt;' clip-path='url(#cpNTguMzYxMXwyOTYuOTIxfDI1My43NXwyMy4xNzk4)' />
<polyline points='58.36,253.24 296.92,253.24 ' style='stroke-width: 1.07; stroke: #EBEBEB; stroke-linecap: butt;' clip-path='url(#cpNTguMzYxMXwyOTYuOTIxfDI1My43NXwyMy4xNzk4)' />
<polyline points='58.36,198.52 296.92,198.52 ' style='stroke-width: 1.07; stroke: #EBEBEB; stroke-linecap: butt;' clip-path='url(#cpNTguMzYxMXwyOTYuOTIxfDI1My43NXwyMy4xNzk4)' />
<polyline points='58.36,143.81 296.92,143.81 ' style='stroke-width: 1.07; stroke: #EBEBEB; stroke-linecap: butt;' clip-path='url(#cpNTguMzYxMXwyOTYuOTIxfDI1My43NXwyMy4xNzk4)' />
<polyline points='58.36,89.09 296.92,89.09 ' style='stroke-width: 1.07; stroke: #EBEBEB; stroke-linecap: butt;' clip-path='url(#cpNTguMzYxMXwyOTYuOTIxfDI1My43NXwyMy4xNzk4)' />
<polyline points='58.36,34.37 296.92,34.37 ' style='stroke-width: 1.07; stroke: #EBEBEB; stroke-linecap: butt;' clip-path='url(#cpNTguMzYxMXwyOTYuOTIxfDI1My43NXwyMy4xNzk4)' />
<polyline points='85.86,253.75 85.86,23.18 ' style='stroke-width: 1.07; stroke: #EBEBEB; stroke-linecap: butt;' clip-path='url(#cpNTguMzYxMXwyOTYuOTIxfDI1My43NXwyMy4xNzk4)' />
<polyline points='163.31,253.75 163.31,23.18 ' style='stroke-width: 1.07; stroke: #EBEBEB; stroke-linecap: butt;' clip-path='url(#cpNTguMzYxMXwyOTYuOTIxfDI1My43NXwyMy4xNzk4)' />
<polyline points='240.77,253.75 240.77,23.18 ' style='stroke-width: 1.07; stroke: #EBEBEB; stroke-linecap: butt;' clip-path='url(#cpNTguMzYxMXwyOTYuOTIxfDI1My43NXwyMy4xNzk4)' />
<circle cx='70.34' cy='129.52' r='3.56pt' style='stroke-width: 0.71; stroke: #000000; stroke-opacity: 0.70; fill: #D1EEEE; fill-opacity: 0.70;' clip-path='url(#cpNTguMzYxMXwyOTYuOTIxfDI1My43NXwyMy4xNzk4)' />
<circle cx='86.21' cy='87.18' r='3.56pt' style='stroke-width: 0.71; stroke: #000000; stroke-opacity: 0.70; fill: #D1EEEE; fill-opacity: 0.70;' clip-path='url(#cpNTguMzYxMXwyOTYuOTIxfDI1My43NXwyMy4xNzk4)' />
<circle cx='125.50' cy='62.06' r='3.56pt' style='stroke-width: 0.71; stroke: #000000; stroke-opacity: 0.70; fill: #D1EEEE; fill-opacity: 0.70;' clip-path='url(#cpNTguMzYxMXwyOTYuOTIxfDI1My43NXwyMy4xNzk4)' />
<circle cx='164.25' cy='45.23' r='3.56pt' style='stroke-width: 0.71; stroke: #000000; stroke-opacity: 0.70; fill: #D1EEEE; fill-opacity: 0.70;' clip-path='url(#cpNTguMzYxMXwyOTYuOTIxfDI1My43NXwyMy4xNzk4)' />
<circle cx='203.45' cy='53.78' r='3.56pt' style='stroke-width: 0.71; stroke: #000000; stroke-opacity: 0.70; fill: #D1EEEE; fill-opacity: 0.70;' clip-path='url(#cpNTguMzYxMXwyOTYuOTIxfDI1My43NXwyMy4xNzk4)' />
<circle cx='242.14' cy='112.07' r='3.56pt' style='stroke-width: 0.71; stroke: #000000; stroke-opacity: 0.70; fill: #D1EEEE; fill-opacity: 0.70;' clip-path='url(#cpNTguMzYxMXwyOTYuOTIxfDI1My43NXwyMy4xNzk4)' />
<circle cx='279.93' cy='237.74' r='3.56pt' style='stroke-width: 0.71; stroke: #000000; stroke-opacity: 0.70; fill: #D1EEEE; fill-opacity: 0.70;' clip-path='url(#cpNTguMzYxMXwyOTYuOTIxfDI1My43NXwyMy4xNzk4)' />
<polyline points='69.20,110.94 70.29,110.36 71.38,109.79 72.47,109.21 73.56,108.63 74.65,108.05 75.74,107.47 76.83,106.89 77.92,106.30 79.01,105.71 80.10,105.12 81.19,104.53 82.28,103.94 83.37,103.35 84.46,102.75 85.55,102.15 86.64,101.55 87.73,100.95 88.82,100.35 89.91,99.74 91.00,99.13 92.09,98.53 93.18,97.91 94.27,97.30 95.36,96.69 96.45,96.07 97.54,95.45 98.63,94.83 99.72,94.21 100.81,93.59 101.90,92.97 102.99,92.34 104.08,91.71 105.17,91.08 106.26,90.45 107.35,89.81 108.44,89.18 109.53,88.54 110.62,87.90 111.71,87.26 112.80,86.61 113.89,85.97 114.98,85.32 116.07,84.67 117.16,84.02 118.25,83.37 119.34,82.72 120.43,82.06 121.52,81.40 122.61,80.74 123.70,80.08 124.79,79.42 125.87,78.75 126.96,78.08 128.05,77.42 129.14,76.74 130.23,76.07 131.32,75.40 132.41,74.72 133.50,74.04 134.59,73.36 135.68,72.68 136.77,72.00 137.86,71.31 138.95,70.63 140.04,69.94 141.13,69.25 142.22,68.56 143.31,67.86 144.40,67.17 145.49,66.47 146.58,65.77 147.67,65.07 148.76,64.37 149.85,63.67 150.94,62.97 152.03,62.26 153.12,61.55 154.21,60.85 155.30,60.14 156.39,59.43 157.48,58.72 158.57,58.01 159.66,57.29 160.75,56.58 161.84,55.87 162.93,55.16 164.02,54.44 165.11,53.73 166.20,53.02 167.29,52.31 168.38,51.60 169.47,50.89 170.56,50.18 171.65,49.48 172.74,48.77 173.83,48.07 174.92,47.37 176.01,46.68 177.10,45.99 178.19,45.31 179.28,44.63 180.37,43.96 181.46,43.29 182.54,42.63 183.63,41.99 184.72,41.35 185.81,40.72 186.90,40.11 187.99,39.51 189.08,38.93 190.17,38.36 191.26,37.81 192.35,37.29 193.44,36.79 194.53,36.31 195.62,35.86 196.71,35.44 197.80,35.06 198.89,34.72 199.98,34.41 201.07,34.16 202.16,33.95 203.25,33.79 204.34,33.69 205.43,33.66 206.52,33.70 207.61,33.81 208.70,34.00 209.79,34.28 210.88,34.65 211.97,35.12 213.06,35.71 214.15,36.41 215.24,37.24 216.33,38.20 217.42,39.30 218.51,40.55 219.60,41.96 220.69,43.54 221.78,45.29 222.87,47.23 223.96,49.35 225.05,51.67 226.14,54.20 227.23,56.93 228.32,59.87 229.41,63.03 230.50,66.39 231.59,69.97 232.68,73.76 233.77,77.75 234.86,81.93 235.95,86.30 237.04,90.85 238.13,95.55 239.22,100.41 240.30,105.39 241.39,110.48 242.48,115.66 243.57,120.91 244.66,126.20 245.75,131.51 246.84,136.83 247.93,142.13 249.02,147.38 250.11,152.57 251.20,157.67 252.29,162.68 253.38,167.57 254.47,172.32 255.56,176.94 256.65,181.40 257.74,185.69 258.83,189.82 259.92,193.78 261.01,197.55 262.10,201.15 263.19,204.57 264.28,207.82 265.37,210.89 266.46,213.79 267.55,216.52 268.64,219.09 269.73,221.50 270.82,223.76 271.91,225.88 273.00,227.87 274.09,229.72 275.18,231.44 276.27,233.05 277.36,234.55 278.45,235.95 279.54,237.24 280.63,238.44 281.72,239.56 282.81,240.60 283.90,241.56 284.99,242.45 286.08,243.27 ' style='stroke-width: 2.77; stroke: #1B9E77; stroke-linecap: butt;' clip-path='url(#cpNTguMzYxMXwyOTYuOTIxfDI1My43NXwyMy4xNzk4)' />
<g clip-path='url(#cpNTguMzYxMXwyOTYuOTIxfDI1My43NXwyMy4xNzk4)'><text x='70.34' y='94.87' style='font-size: 8.54px; font-style: italic; font-family: Arial;' textLength='60.01px' lengthAdjust='spacingAndGlyphs'>R^2 sch= 0.95 </text></g>
<g clip-path='url(#cpNTguMzYxMXwyOTYuOTIxfDI1My43NXwyMy4xNzk4)'><text x='70.34' y='107.16' style='font-size: 8.54px; font-style: italic; font-family: Arial;' textLength='55.29px' lengthAdjust='spacingAndGlyphs'>E sch= 0.195 </text></g>
<g clip-path='url(#cpNTguMzYxMXwyOTYuOTIxfDI1My43NXwyMy4xNzk4)'><text x='70.34' y='119.45' style='font-size: 8.54px; font-style: italic; font-family: Arial;' textLength='59.78px' lengthAdjust='spacingAndGlyphs'>AIC sch= -4.85</text></g>
<rect x='58.36' y='23.18' width='238.56' height='230.57' style='stroke-width: 1.07; stroke: #333333;' clip-path='url(#cpNTguMzYxMXwyOTYuOTIxfDI1My43NXwyMy4xNzk4)' />
<defs>
  <clipPath id='cpMHwzMDIuNHwyODh8MA=='>
    <rect x='0.00' y='0.00' width='302.40' height='288.00' />
  </clipPath>
</defs>
<g clip-path='url(#cpMHwzMDIuNHwyODh8MA==)'><text x='20.65' y='256.46' style='font-size: 8.80px; fill: #4D4D4D; font-family: Arial;' textLength='32.78px' lengthAdjust='spacingAndGlyphs'>0.0e+00</text></g>
<g clip-path='url(#cpMHwzMDIuNHwyODh8MA==)'><text x='22.91' y='201.74' style='font-size: 8.80px; fill: #4D4D4D; font-family: Arial;' textLength='30.52px' lengthAdjust='spacingAndGlyphs'>2.5e-07</text></g>
<g clip-path='url(#cpMHwzMDIuNHwyODh8MA==)'><text x='22.91' y='147.03' style='font-size: 8.80px; fill: #4D4D4D; font-family: Arial;' textLength='30.52px' lengthAdjust='spacingAndGlyphs'>5.0e-07</text></g>
<g clip-path='url(#cpMHwzMDIuNHwyODh8MA==)'><text x='22.91' y='92.31' style='font-size: 8.80px; fill: #4D4D4D; font-family: Arial;' textLength='30.52px' lengthAdjust='spacingAndGlyphs'>7.5e-07</text></g>
<g clip-path='url(#cpMHwzMDIuNHwyODh8MA==)'><text x='22.91' y='37.59' style='font-size: 8.80px; fill: #4D4D4D; font-family: Arial;' textLength='30.52px' lengthAdjust='spacingAndGlyphs'>1.0e-06</text></g>
<polyline points='55.62,253.24 58.36,253.24 ' style='stroke-width: 1.07; stroke: #333333; stroke-linecap: butt;' clip-path='url(#cpMHwzMDIuNHwyODh8MA==)' />
<polyline points='55.62,198.52 58.36,198.52 ' style='stroke-width: 1.07; stroke: #333333; stroke-linecap: butt;' clip-path='url(#cpMHwzMDIuNHwyODh8MA==)' />
<polyline points='55.62,143.81 58.36,143.81 ' style='stroke-width: 1.07; stroke: #333333; stroke-linecap: butt;' clip-path='url(#cpMHwzMDIuNHwyODh8MA==)' />
<polyline points='55.62,89.09 58.36,89.09 ' style='stroke-width: 1.07; stroke: #333333; stroke-linecap: butt;' clip-path='url(#cpMHwzMDIuNHwyODh8MA==)' />
<polyline points='55.62,34.37 58.36,34.37 ' style='stroke-width: 1.07; stroke: #333333; stroke-linecap: butt;' clip-path='url(#cpMHwzMDIuNHwyODh8MA==)' />
<polyline points='85.86,256.49 85.86,253.75 ' style='stroke-width: 1.07; stroke: #333333; stroke-linecap: butt;' clip-path='url(#cpMHwzMDIuNHwyODh8MA==)' />
<polyline points='163.31,256.49 163.31,253.75 ' style='stroke-width: 1.07; stroke: #333333; stroke-linecap: butt;' clip-path='url(#cpMHwzMDIuNHwyODh8MA==)' />
<polyline points='240.77,256.49 240.77,253.75 ' style='stroke-width: 1.07; stroke: #333333; stroke-linecap: butt;' clip-path='url(#cpMHwzMDIuNHwyODh8MA==)' />
<g clip-path='url(#cpMHwzMDIuNHwyODh8MA==)'><text x='80.85' y='265.12' style='font-size: 8.80px; fill: #4D4D4D; font-family: Arial;' textLength='10.01px' lengthAdjust='spacingAndGlyphs'>10</text></g>
<g clip-path='url(#cpMHwzMDIuNHwyODh8MA==)'><text x='158.31' y='265.12' style='font-size: 8.80px; fill: #4D4D4D; font-family: Arial;' textLength='10.01px' lengthAdjust='spacingAndGlyphs'>20</text></g>
<g clip-path='url(#cpMHwzMDIuNHwyODh8MA==)'><text x='235.76' y='265.12' style='font-size: 8.80px; fill: #4D4D4D; font-family: Arial;' textLength='10.01px' lengthAdjust='spacingAndGlyphs'>30</text></g>
<g clip-path='url(#cpMHwzMDIuNHwyODh8MA==)'><text x='138.69' y='277.88' style='font-size: 10.00px; font-family: Arial;' textLength='63.35px' lengthAdjust='spacingAndGlyphs'>Temperature (</text></g>
<g clip-path='url(#cpMHwzMDIuNHwyODh8MA==)'><text x='202.04' y='277.88' style='font-size: 10.00px; font-family: Symbol;' textLength='4.00px' lengthAdjust='spacingAndGlyphs'>°</text></g>
<g clip-path='url(#cpMHwzMDIuNHwyODh8MA==)'><text x='206.04' y='277.88' style='font-size: 10.00px; font-family: Arial;' textLength='7.22px' lengthAdjust='spacingAndGlyphs'>C</text></g>
<g clip-path='url(#cpMHwzMDIuNHwyODh8MA==)'><text x='213.26' y='277.88' style='font-size: 10.00px; font-family: Arial;' textLength='3.33px' lengthAdjust='spacingAndGlyphs'>)</text></g>
<g clip-path='url(#cpMHwzMDIuNHwyODh8MA==)'><text transform='translate(12.64,180.16) rotate(-90)' style='font-size: 10.00px; font-family: Arial;' textLength='83.39px' lengthAdjust='spacingAndGlyphs'>net photosynthesis</text></g>
<g clip-path='url(#cpMHwzMDIuNHwyODh8MA==)'><text x='58.36' y='14.07' style='font-size: 12.00px; font-family: Arial;' textLength='130.76px' lengthAdjust='spacingAndGlyphs'>Nothofagus pullei Steen.</text></g>
</svg>
