<?xml version='1.0' encoding='UTF-8' ?>
<svg xmlns='http://www.w3.org/2000/svg' xmlns:xlink='http://www.w3.org/1999/xlink' viewBox='0 0 302.40 288.00'>
<defs>
  <style type='text/css'><![CDATA[
    line, polyline, path, rect, circle {
      fill: none;
      stroke: #000000;
      stroke-linecap: round;
      stroke-linejoin: round;
      stroke-miterlimit: 10.00;
    }
  ]]></style>
</defs>
<rect width='100%' height='100%' style='stroke: none; fill: #FFFFFF;'/>
<rect x='0.00' y='0.00' width='302.40' height='288.00' style='stroke-width: 1.07; stroke: #FFFFFF; fill: #FFFFFF;' />
<defs>
  <clipPath id='cpNjMuMTE2fDI5Ni45MjF8MjUzLjc1fDIwLjc4OTI='>
    <rect x='63.12' y='20.79' width='233.80' height='232.96' />
  </clipPath>
</defs>
<rect x='63.12' y='20.79' width='233.80' height='232.96' style='stroke-width: 1.07; stroke: none; fill: #FFFFFF;' clip-path='url(#cpNjMuMTE2fDI5Ni45MjF8MjUzLjc1fDIwLjc4OTI=)' />
<polyline points='63.12,245.60 296.92,245.60 ' style='stroke-width: 0.53; stroke: #EBEBEB; stroke-linecap: butt;' clip-path='url(#cpNjMuMTE2fDI5Ni45MjF8MjUzLjc1fDIwLjc4OTI=)' />
<polyline points='63.12,196.28 296.92,196.28 ' style='stroke-width: 0.53; stroke: #EBEBEB; stroke-linecap: butt;' clip-path='url(#cpNjMuMTE2fDI5Ni45MjF8MjUzLjc1fDIwLjc4OTI=)' />
<polyline points='63.12,146.95 296.92,146.95 ' style='stroke-width: 0.53; stroke: #EBEBEB; stroke-linecap: butt;' clip-path='url(#cpNjMuMTE2fDI5Ni45MjF8MjUzLjc1fDIwLjc4OTI=)' />
<polyline points='63.12,97.63 296.92,97.63 ' style='stroke-width: 0.53; stroke: #EBEBEB; stroke-linecap: butt;' clip-path='url(#cpNjMuMTE2fDI5Ni45MjF8MjUzLjc1fDIwLjc4OTI=)' />
<polyline points='63.12,48.31 296.92,48.31 ' style='stroke-width: 0.53; stroke: #EBEBEB; stroke-linecap: butt;' clip-path='url(#cpNjMuMTE2fDI5Ni45MjF8MjUzLjc1fDIwLjc4OTI=)' />
<polyline points='74.77,253.75 74.77,20.79 ' style='stroke-width: 0.53; stroke: #EBEBEB; stroke-linecap: butt;' clip-path='url(#cpNjMuMTE2fDI5Ni45MjF8MjUzLjc1fDIwLjc4OTI=)' />
<polyline points='143.34,253.75 143.34,20.79 ' style='stroke-width: 0.53; stroke: #EBEBEB; stroke-linecap: butt;' clip-path='url(#cpNjMuMTE2fDI5Ni45MjF8MjUzLjc1fDIwLjc4OTI=)' />
<polyline points='211.90,253.75 211.90,20.79 ' style='stroke-width: 0.53; stroke: #EBEBEB; stroke-linecap: butt;' clip-path='url(#cpNjMuMTE2fDI5Ni45MjF8MjUzLjc1fDIwLjc4OTI=)' />
<polyline points='280.47,253.75 280.47,20.79 ' style='stroke-width: 0.53; stroke: #EBEBEB; stroke-linecap: butt;' clip-path='url(#cpNjMuMTE2fDI5Ni45MjF8MjUzLjc1fDIwLjc4OTI=)' />
<polyline points='63.12,220.94 296.92,220.94 ' style='stroke-width: 1.07; stroke: #EBEBEB; stroke-linecap: butt;' clip-path='url(#cpNjMuMTE2fDI5Ni45MjF8MjUzLjc1fDIwLjc4OTI=)' />
<polyline points='63.12,171.62 296.92,171.62 ' style='stroke-width: 1.07; stroke: #EBEBEB; stroke-linecap: butt;' clip-path='url(#cpNjMuMTE2fDI5Ni45MjF8MjUzLjc1fDIwLjc4OTI=)' />
<polyline points='63.12,122.29 296.92,122.29 ' style='stroke-width: 1.07; stroke: #EBEBEB; stroke-linecap: butt;' clip-path='url(#cpNjMuMTE2fDI5Ni45MjF8MjUzLjc1fDIwLjc4OTI=)' />
<polyline points='63.12,72.97 296.92,72.97 ' style='stroke-width: 1.07; stroke: #EBEBEB; stroke-linecap: butt;' clip-path='url(#cpNjMuMTE2fDI5Ni45MjF8MjUzLjc1fDIwLjc4OTI=)' />
<polyline points='63.12,23.64 296.92,23.64 ' style='stroke-width: 1.07; stroke: #EBEBEB; stroke-linecap: butt;' clip-path='url(#cpNjMuMTE2fDI5Ni45MjF8MjUzLjc1fDIwLjc4OTI=)' />
<polyline points='109.05,253.75 109.05,20.79 ' style='stroke-width: 1.07; stroke: #EBEBEB; stroke-linecap: butt;' clip-path='url(#cpNjMuMTE2fDI5Ni45MjF8MjUzLjc1fDIwLjc4OTI=)' />
<polyline points='177.62,253.75 177.62,20.79 ' style='stroke-width: 1.07; stroke: #EBEBEB; stroke-linecap: butt;' clip-path='url(#cpNjMuMTE2fDI5Ni45MjF8MjUzLjc1fDIwLjc4OTI=)' />
<polyline points='246.18,253.75 246.18,20.79 ' style='stroke-width: 1.07; stroke: #EBEBEB; stroke-linecap: butt;' clip-path='url(#cpNjMuMTE2fDI5Ni45MjF8MjUzLjc1fDIwLjc4OTI=)' />
<circle cx='74.77' cy='221.58' r='3.56pt' style='stroke-width: 0.71; stroke: #000000; stroke-opacity: 0.70; fill: #D1EEEE; fill-opacity: 0.70;' clip-path='url(#cpNjMuMTE2fDI5Ni45MjF8MjUzLjc1fDIwLjc4OTI=)' />
<circle cx='109.05' cy='80.63' r='3.56pt' style='stroke-width: 0.71; stroke: #000000; stroke-opacity: 0.70; fill: #D1EEEE; fill-opacity: 0.70;' clip-path='url(#cpNjMuMTE2fDI5Ni45MjF8MjUzLjc1fDIwLjc4OTI=)' />
<circle cx='143.34' cy='60.65' r='3.56pt' style='stroke-width: 0.71; stroke: #000000; stroke-opacity: 0.70; fill: #D1EEEE; fill-opacity: 0.70;' clip-path='url(#cpNjMuMTE2fDI5Ni45MjF8MjUzLjc1fDIwLjc4OTI=)' />
<circle cx='177.62' cy='31.38' r='3.56pt' style='stroke-width: 0.71; stroke: #000000; stroke-opacity: 0.70; fill: #D1EEEE; fill-opacity: 0.70;' clip-path='url(#cpNjMuMTE2fDI5Ni45MjF8MjUzLjc1fDIwLjc4OTI=)' />
<circle cx='211.90' cy='92.35' r='3.56pt' style='stroke-width: 0.71; stroke: #000000; stroke-opacity: 0.70; fill: #D1EEEE; fill-opacity: 0.70;' clip-path='url(#cpNjMuMTE2fDI5Ni45MjF8MjUzLjc1fDIwLjc4OTI=)' />
<circle cx='246.18' cy='172.03' r='3.56pt' style='stroke-width: 0.71; stroke: #000000; stroke-opacity: 0.70; fill: #D1EEEE; fill-opacity: 0.70;' clip-path='url(#cpNjMuMTE2fDI5Ni45MjF8MjUzLjc1fDIwLjc4OTI=)' />
<circle cx='280.47' cy='229.37' r='3.56pt' style='stroke-width: 0.71; stroke: #000000; stroke-opacity: 0.70; fill: #D1EEEE; fill-opacity: 0.70;' clip-path='url(#cpNjMuMTE2fDI5Ni45MjF8MjUzLjc1fDIwLjc4OTI=)' />
<polyline points='73.74,223.69 74.81,219.00 75.88,214.35 76.95,209.72 78.02,205.14 79.08,200.58 80.15,196.07 81.22,191.60 82.29,187.17 83.36,182.78 84.42,178.44 85.49,174.15 86.56,169.90 87.63,165.70 88.70,161.55 89.76,157.46 90.83,153.41 91.90,149.43 92.97,145.49 94.04,141.62 95.11,137.80 96.17,134.04 97.24,130.35 98.31,126.71 99.38,123.14 100.45,119.63 101.51,116.18 102.58,112.80 103.65,109.49 104.72,106.24 105.79,103.06 106.85,99.95 107.92,96.91 108.99,93.94 110.06,91.03 111.13,88.20 112.19,85.45 113.26,82.76 114.33,80.14 115.40,77.60 116.47,75.13 117.54,72.73 118.60,70.41 119.67,68.16 120.74,65.98 121.81,63.88 122.88,61.85 123.94,59.90 125.01,58.01 126.08,56.20 127.15,54.47 128.22,52.81 129.28,51.22 130.35,49.70 131.42,48.26 132.49,46.89 133.56,45.59 134.62,44.36 135.69,43.20 136.76,42.12 137.83,41.10 138.90,40.15 139.96,39.27 141.03,38.46 142.10,37.72 143.17,37.05 144.24,36.44 145.31,35.90 146.37,35.42 147.44,35.01 148.51,34.66 149.58,34.37 150.65,34.15 151.71,33.99 152.78,33.88 153.85,33.84 154.92,33.86 155.99,33.93 157.05,34.07 158.12,34.26 159.19,34.50 160.26,34.80 161.33,35.15 162.39,35.56 163.46,36.02 164.53,36.53 165.60,37.09 166.67,37.69 167.74,38.35 168.80,39.06 169.87,39.81 170.94,40.60 172.01,41.45 173.08,42.33 174.14,43.26 175.21,44.23 176.28,45.24 177.35,46.30 178.42,47.39 179.48,48.52 180.55,49.68 181.62,50.89 182.69,52.13 183.76,53.40 184.82,54.71 185.89,56.06 186.96,57.43 188.03,58.84 189.10,60.28 190.17,61.74 191.23,63.24 192.30,64.76 193.37,66.32 194.44,67.90 195.51,69.50 196.57,71.13 197.64,72.79 198.71,74.46 199.78,76.17 200.85,77.89 201.91,79.64 202.98,81.40 204.05,83.19 205.12,85.00 206.19,86.82 207.25,88.66 208.32,90.53 209.39,92.40 210.46,94.30 211.53,96.21 212.59,98.13 213.66,100.07 214.73,102.03 215.80,103.99 216.87,105.97 217.94,107.97 219.00,109.97 220.07,111.98 221.14,114.01 222.21,116.05 223.28,118.09 224.34,120.15 225.41,122.21 226.48,124.28 227.55,126.36 228.62,128.45 229.68,130.54 230.75,132.65 231.82,134.75 232.89,136.86 233.96,138.98 235.02,141.11 236.09,143.23 237.16,145.36 238.23,147.50 239.30,149.64 240.37,151.78 241.43,153.93 242.50,156.07 243.57,158.22 244.64,160.37 245.71,162.53 246.77,164.68 247.84,166.84 248.91,168.99 249.98,171.15 251.05,173.30 252.11,175.46 253.18,177.62 254.25,179.77 255.32,181.93 256.39,184.08 257.45,186.23 258.52,188.38 259.59,190.53 260.66,192.68 261.73,194.82 262.80,196.96 263.86,199.10 264.93,201.24 266.00,203.37 267.07,205.50 268.14,207.63 269.20,209.75 270.27,211.88 271.34,213.99 272.41,216.10 273.48,218.21 274.54,220.32 275.61,222.42 276.68,224.52 277.75,226.61 278.82,228.69 279.88,230.78 280.95,232.85 282.02,234.92 283.09,236.99 284.16,239.05 285.22,241.11 286.29,243.16 ' style='stroke-width: 2.77; stroke: #1B9E77; stroke-linecap: butt;' clip-path='url(#cpNjMuMTE2fDI5Ni45MjF8MjUzLjc1fDIwLjc4OTI=)' />
<g clip-path='url(#cpNjMuMTE2fDI5Ni45MjF8MjUzLjc1fDIwLjc4OTI=)'><text x='74.77' y='117.78' style='font-size: 8.54px; font-style: italic; font-family: Arial;' textLength='60.01px' lengthAdjust='spacingAndGlyphs'>R^2 sch= 0.97 </text></g>
<g clip-path='url(#cpNjMuMTE2fDI5Ni45MjF8MjUzLjc1fDIwLjc4OTI=)'><text x='74.77' y='130.07' style='font-size: 8.54px; font-style: italic; font-family: Arial;' textLength='55.29px' lengthAdjust='spacingAndGlyphs'>E sch= 0.743 </text></g>
<g clip-path='url(#cpNjMuMTE2fDI5Ni45MjF8MjUzLjc1fDIwLjc4OTI=)'><text x='74.77' y='142.36' style='font-size: 8.54px; font-style: italic; font-family: Arial;' textLength='59.78px' lengthAdjust='spacingAndGlyphs'>AIC sch= -26.6</text></g>
<rect x='63.12' y='20.79' width='233.80' height='232.96' style='stroke-width: 1.07; stroke: #333333;' clip-path='url(#cpNjMuMTE2fDI5Ni45MjF8MjUzLjc1fDIwLjc4OTI=)' />
<defs>
  <clipPath id='cpMHwzMDIuNHwyODh8MA=='>
    <rect x='0.00' y='0.00' width='302.40' height='288.00' />
  </clipPath>
</defs>
<g clip-path='url(#cpMHwzMDIuNHwyODh8MA==)'><text x='20.65' y='224.16' style='font-size: 8.80px; fill: #4D4D4D; font-family: Arial;' textLength='37.54px' lengthAdjust='spacingAndGlyphs'>0.000275</text></g>
<g clip-path='url(#cpMHwzMDIuNHwyODh8MA==)'><text x='20.65' y='174.83' style='font-size: 8.80px; fill: #4D4D4D; font-family: Arial;' textLength='37.54px' lengthAdjust='spacingAndGlyphs'>0.000300</text></g>
<g clip-path='url(#cpMHwzMDIuNHwyODh8MA==)'><text x='20.65' y='125.51' style='font-size: 8.80px; fill: #4D4D4D; font-family: Arial;' textLength='37.54px' lengthAdjust='spacingAndGlyphs'>0.000325</text></g>
<g clip-path='url(#cpMHwzMDIuNHwyODh8MA==)'><text x='20.65' y='76.19' style='font-size: 8.80px; fill: #4D4D4D; font-family: Arial;' textLength='37.54px' lengthAdjust='spacingAndGlyphs'>0.000350</text></g>
<g clip-path='url(#cpMHwzMDIuNHwyODh8MA==)'><text x='20.65' y='26.86' style='font-size: 8.80px; fill: #4D4D4D; font-family: Arial;' textLength='37.54px' lengthAdjust='spacingAndGlyphs'>0.000375</text></g>
<polyline points='60.38,220.94 63.12,220.94 ' style='stroke-width: 1.07; stroke: #333333; stroke-linecap: butt;' clip-path='url(#cpMHwzMDIuNHwyODh8MA==)' />
<polyline points='60.38,171.62 63.12,171.62 ' style='stroke-width: 1.07; stroke: #333333; stroke-linecap: butt;' clip-path='url(#cpMHwzMDIuNHwyODh8MA==)' />
<polyline points='60.38,122.29 63.12,122.29 ' style='stroke-width: 1.07; stroke: #333333; stroke-linecap: butt;' clip-path='url(#cpMHwzMDIuNHwyODh8MA==)' />
<polyline points='60.38,72.97 63.12,72.97 ' style='stroke-width: 1.07; stroke: #333333; stroke-linecap: butt;' clip-path='url(#cpMHwzMDIuNHwyODh8MA==)' />
<polyline points='60.38,23.64 63.12,23.64 ' style='stroke-width: 1.07; stroke: #333333; stroke-linecap: butt;' clip-path='url(#cpMHwzMDIuNHwyODh8MA==)' />
<polyline points='109.05,256.49 109.05,253.75 ' style='stroke-width: 1.07; stroke: #333333; stroke-linecap: butt;' clip-path='url(#cpMHwzMDIuNHwyODh8MA==)' />
<polyline points='177.62,256.49 177.62,253.75 ' style='stroke-width: 1.07; stroke: #333333; stroke-linecap: butt;' clip-path='url(#cpMHwzMDIuNHwyODh8MA==)' />
<polyline points='246.18,256.49 246.18,253.75 ' style='stroke-width: 1.07; stroke: #333333; stroke-linecap: butt;' clip-path='url(#cpMHwzMDIuNHwyODh8MA==)' />
<g clip-path='url(#cpMHwzMDIuNHwyODh8MA==)'><text x='104.05' y='265.12' style='font-size: 8.80px; fill: #4D4D4D; font-family: Arial;' textLength='10.01px' lengthAdjust='spacingAndGlyphs'>10</text></g>
<g clip-path='url(#cpMHwzMDIuNHwyODh8MA==)'><text x='172.61' y='265.12' style='font-size: 8.80px; fill: #4D4D4D; font-family: Arial;' textLength='10.01px' lengthAdjust='spacingAndGlyphs'>20</text></g>
<g clip-path='url(#cpMHwzMDIuNHwyODh8MA==)'><text x='241.18' y='265.12' style='font-size: 8.80px; fill: #4D4D4D; font-family: Arial;' textLength='10.01px' lengthAdjust='spacingAndGlyphs'>30</text></g>
<g clip-path='url(#cpMHwzMDIuNHwyODh8MA==)'><text x='141.07' y='277.88' style='font-size: 10.00px; font-family: Arial;' textLength='63.35px' lengthAdjust='spacingAndGlyphs'>Temperature (</text></g>
<g clip-path='url(#cpMHwzMDIuNHwyODh8MA==)'><text x='204.42' y='277.88' style='font-size: 10.00px; font-family: Symbol;' textLength='4.00px' lengthAdjust='spacingAndGlyphs'>°</text></g>
<g clip-path='url(#cpMHwzMDIuNHwyODh8MA==)'><text x='208.42' y='277.88' style='font-size: 10.00px; font-family: Arial;' textLength='7.22px' lengthAdjust='spacingAndGlyphs'>C</text></g>
<g clip-path='url(#cpMHwzMDIuNHwyODh8MA==)'><text x='215.64' y='277.88' style='font-size: 10.00px; font-family: Arial;' textLength='3.33px' lengthAdjust='spacingAndGlyphs'>)</text></g>
<g clip-path='url(#cpMHwzMDIuNHwyODh8MA==)'><text transform='translate(12.64,178.96) rotate(-90)' style='font-size: 10.00px; font-family: Arial;' textLength='83.39px' lengthAdjust='spacingAndGlyphs'>net photosynthesis</text></g>
<g clip-path='url(#cpMHwzMDIuNHwyODh8MA==)'><text x='63.12' y='14.07' style='font-size: 12.00px; font-family: Arial;' textLength='94.01px' lengthAdjust='spacingAndGlyphs'>Triticum aestivum</text></g>
</svg>
