<?xml version='1.0' encoding='UTF-8' ?>
<svg xmlns='http://www.w3.org/2000/svg' xmlns:xlink='http://www.w3.org/1999/xlink' viewBox='0 0 302.40 288.00'>
<defs>
  <style type='text/css'><![CDATA[
    line, polyline, path, rect, circle {
      fill: none;
      stroke: #000000;
      stroke-linecap: round;
      stroke-linejoin: round;
      stroke-miterlimit: 10.00;
    }
  ]]></style>
</defs>
<rect width='100%' height='100%' style='stroke: none; fill: #FFFFFF;'/>
<rect x='0.00' y='0.00' width='302.40' height='288.00' style='stroke-width: 1.07; stroke: #FFFFFF; fill: #FFFFFF;' />
<defs>
  <clipPath id='cpNTYuMTAyM3wyOTYuOTIxfDI1My43NXwyMy4xNzk4'>
    <rect x='56.10' y='23.18' width='240.82' height='230.57' />
  </clipPath>
</defs>
<rect x='56.10' y='23.18' width='240.82' height='230.57' style='stroke-width: 1.07; stroke: none; fill: #FFFFFF;' clip-path='url(#cpNTYuMTAyM3wyOTYuOTIxfDI1My43NXwyMy4xNzk4)' />
<polyline points='56.10,227.41 296.92,227.41 ' style='stroke-width: 0.53; stroke: #EBEBEB; stroke-linecap: butt;' clip-path='url(#cpNTYuMTAyM3wyOTYuOTIxfDI1My43NXwyMy4xNzk4)' />
<polyline points='56.10,172.64 296.92,172.64 ' style='stroke-width: 0.53; stroke: #EBEBEB; stroke-linecap: butt;' clip-path='url(#cpNTYuMTAyM3wyOTYuOTIxfDI1My43NXwyMy4xNzk4)' />
<polyline points='56.10,117.87 296.92,117.87 ' style='stroke-width: 0.53; stroke: #EBEBEB; stroke-linecap: butt;' clip-path='url(#cpNTYuMTAyM3wyOTYuOTIxfDI1My43NXwyMy4xNzk4)' />
<polyline points='56.10,63.10 296.92,63.10 ' style='stroke-width: 0.53; stroke: #EBEBEB; stroke-linecap: butt;' clip-path='url(#cpNTYuMTAyM3wyOTYuOTIxfDI1My43NXwyMy4xNzk4)' />
<polyline points='94.67,253.75 94.67,23.18 ' style='stroke-width: 0.53; stroke: #EBEBEB; stroke-linecap: butt;' clip-path='url(#cpNTYuMTAyM3wyOTYuOTIxfDI1My43NXwyMy4xNzk4)' />
<polyline points='146.80,253.75 146.80,23.18 ' style='stroke-width: 0.53; stroke: #EBEBEB; stroke-linecap: butt;' clip-path='url(#cpNTYuMTAyM3wyOTYuOTIxfDI1My43NXwyMy4xNzk4)' />
<polyline points='198.93,253.75 198.93,23.18 ' style='stroke-width: 0.53; stroke: #EBEBEB; stroke-linecap: butt;' clip-path='url(#cpNTYuMTAyM3wyOTYuOTIxfDI1My43NXwyMy4xNzk4)' />
<polyline points='251.05,253.75 251.05,23.18 ' style='stroke-width: 0.53; stroke: #EBEBEB; stroke-linecap: butt;' clip-path='url(#cpNTYuMTAyM3wyOTYuOTIxfDI1My43NXwyMy4xNzk4)' />
<polyline points='56.10,200.03 296.92,200.03 ' style='stroke-width: 1.07; stroke: #EBEBEB; stroke-linecap: butt;' clip-path='url(#cpNTYuMTAyM3wyOTYuOTIxfDI1My43NXwyMy4xNzk4)' />
<polyline points='56.10,145.26 296.92,145.26 ' style='stroke-width: 1.07; stroke: #EBEBEB; stroke-linecap: butt;' clip-path='url(#cpNTYuMTAyM3wyOTYuOTIxfDI1My43NXwyMy4xNzk4)' />
<polyline points='56.10,90.49 296.92,90.49 ' style='stroke-width: 1.07; stroke: #EBEBEB; stroke-linecap: butt;' clip-path='url(#cpNTYuMTAyM3wyOTYuOTIxfDI1My43NXwyMy4xNzk4)' />
<polyline points='56.10,35.72 296.92,35.72 ' style='stroke-width: 1.07; stroke: #EBEBEB; stroke-linecap: butt;' clip-path='url(#cpNTYuMTAyM3wyOTYuOTIxfDI1My43NXwyMy4xNzk4)' />
<polyline points='68.61,253.75 68.61,23.18 ' style='stroke-width: 1.07; stroke: #EBEBEB; stroke-linecap: butt;' clip-path='url(#cpNTYuMTAyM3wyOTYuOTIxfDI1My43NXwyMy4xNzk4)' />
<polyline points='120.74,253.75 120.74,23.18 ' style='stroke-width: 1.07; stroke: #EBEBEB; stroke-linecap: butt;' clip-path='url(#cpNTYuMTAyM3wyOTYuOTIxfDI1My43NXwyMy4xNzk4)' />
<polyline points='172.86,253.75 172.86,23.18 ' style='stroke-width: 1.07; stroke: #EBEBEB; stroke-linecap: butt;' clip-path='url(#cpNTYuMTAyM3wyOTYuOTIxfDI1My43NXwyMy4xNzk4)' />
<polyline points='224.99,253.75 224.99,23.18 ' style='stroke-width: 1.07; stroke: #EBEBEB; stroke-linecap: butt;' clip-path='url(#cpNTYuMTAyM3wyOTYuOTIxfDI1My43NXwyMy4xNzk4)' />
<polyline points='277.11,253.75 277.11,23.18 ' style='stroke-width: 1.07; stroke: #EBEBEB; stroke-linecap: butt;' clip-path='url(#cpNTYuMTAyM3wyOTYuOTIxfDI1My43NXwyMy4xNzk4)' />
<circle cx='68.61' cy='165.68' r='3.56pt' style='stroke-width: 0.71; stroke: #000000; stroke-opacity: 0.70; fill: #D1EEEE; fill-opacity: 0.70;' clip-path='url(#cpNTYuMTAyM3wyOTYuOTIxfDI1My43NXwyMy4xNzk4)' />
<circle cx='120.74' cy='79.22' r='3.56pt' style='stroke-width: 0.71; stroke: #000000; stroke-opacity: 0.70; fill: #D1EEEE; fill-opacity: 0.70;' clip-path='url(#cpNTYuMTAyM3wyOTYuOTIxfDI1My43NXwyMy4xNzk4)' />
<circle cx='172.86' cy='33.66' r='3.56pt' style='stroke-width: 0.71; stroke: #000000; stroke-opacity: 0.70; fill: #D1EEEE; fill-opacity: 0.70;' clip-path='url(#cpNTYuMTAyM3wyOTYuOTIxfDI1My43NXwyMy4xNzk4)' />
<circle cx='224.99' cy='100.26' r='3.56pt' style='stroke-width: 0.71; stroke: #000000; stroke-opacity: 0.70; fill: #D1EEEE; fill-opacity: 0.70;' clip-path='url(#cpNTYuMTAyM3wyOTYuOTIxfDI1My43NXwyMy4xNzk4)' />
<circle cx='277.11' cy='218.25' r='3.56pt' style='stroke-width: 0.71; stroke: #000000; stroke-opacity: 0.70; fill: #D1EEEE; fill-opacity: 0.70;' clip-path='url(#cpNTYuMTAyM3wyOTYuOTIxfDI1My43NXwyMy4xNzk4)' />
<polyline points='67.05,170.26 68.15,167.96 69.25,165.67 70.35,163.39 71.45,161.12 72.55,158.86 73.65,156.61 74.75,154.36 75.85,152.13 76.95,149.90 78.05,147.69 79.15,145.49 80.25,143.29 81.35,141.11 82.45,138.95 83.55,136.79 84.65,134.65 85.75,132.52 86.85,130.40 87.95,128.30 89.05,126.21 90.15,124.14 91.25,122.08 92.35,120.03 93.45,118.01 94.55,116.00 95.65,114.00 96.75,112.03 97.85,110.07 98.95,108.13 100.05,106.20 101.15,104.30 102.25,102.42 103.35,100.55 104.45,98.71 105.55,96.88 106.65,95.08 107.75,93.30 108.85,91.54 109.95,89.80 111.05,88.09 112.15,86.40 113.25,84.73 114.35,83.09 115.45,81.47 116.55,79.88 117.65,78.31 118.75,76.77 119.85,75.25 120.95,73.76 122.06,72.30 123.16,70.87 124.26,69.46 125.36,68.08 126.46,66.73 127.56,65.41 128.66,64.12 129.76,62.86 130.86,61.63 131.96,60.43 133.06,59.27 134.16,58.13 135.26,57.03 136.36,55.96 137.46,54.92 138.56,53.91 139.66,52.94 140.76,52.00 141.86,51.10 142.96,50.23 144.06,49.40 145.16,48.60 146.26,47.84 147.36,47.11 148.46,46.42 149.56,45.77 150.66,45.15 151.76,44.57 152.86,44.03 153.96,43.53 155.06,43.06 156.16,42.64 157.26,42.25 158.36,41.90 159.46,41.59 160.56,41.32 161.66,41.09 162.76,40.89 163.86,40.74 164.96,40.63 166.06,40.56 167.16,40.53 168.26,40.54 169.36,40.59 170.46,40.68 171.56,40.81 172.66,40.99 173.76,41.20 174.86,41.46 175.96,41.76 177.06,42.10 178.16,42.48 179.26,42.90 180.36,43.36 181.46,43.87 182.56,44.42 183.66,45.01 184.76,45.64 185.86,46.31 186.96,47.02 188.06,47.78 189.16,48.57 190.26,49.41 191.36,50.29 192.46,51.21 193.56,52.17 194.66,53.17 195.76,54.21 196.86,55.29 197.96,56.41 199.06,57.58 200.16,58.78 201.26,60.02 202.36,61.30 203.46,62.62 204.56,63.98 205.66,65.38 206.76,66.81 207.87,68.29 208.97,69.80 210.07,71.35 211.17,72.94 212.27,74.56 213.37,76.22 214.47,77.92 215.57,79.65 216.67,81.42 217.77,83.22 218.87,85.05 219.97,86.93 221.07,88.83 222.17,90.77 223.27,92.74 224.37,94.75 225.47,96.78 226.57,98.85 227.67,100.95 228.77,103.08 229.87,105.24 230.97,107.43 232.07,109.65 233.17,111.90 234.27,114.17 235.37,116.48 236.47,118.81 237.57,121.17 238.67,123.55 239.77,125.96 240.87,128.40 241.97,130.86 243.07,133.34 244.17,135.85 245.27,138.38 246.37,140.93 247.47,143.51 248.57,146.11 249.67,148.72 250.77,151.36 251.87,154.02 252.97,156.70 254.07,159.39 255.17,162.11 256.27,164.84 257.37,167.59 258.47,170.36 259.57,173.14 260.67,175.93 261.77,178.75 262.87,181.57 263.97,184.41 265.07,187.26 266.17,190.13 267.27,193.01 268.37,195.90 269.47,198.80 270.57,201.71 271.67,204.63 272.77,207.56 273.87,210.50 274.97,213.44 276.07,216.40 277.17,219.36 278.27,222.33 279.37,225.31 280.47,228.29 281.57,231.28 282.67,234.27 283.77,237.27 284.87,240.27 285.97,243.27 ' style='stroke-width: 2.77; stroke: #1B9E77; stroke-linecap: butt;' clip-path='url(#cpNTYuMTAyM3wyOTYuOTIxfDI1My43NXwyMy4xNzk4)' />
<g clip-path='url(#cpNTYuMTAyM3wyOTYuOTIxfDI1My43NXwyMy4xNzk4)'><text x='68.61' y='110.34' style='font-size: 8.54px; font-style: italic; font-family: Arial;' textLength='60.01px' lengthAdjust='spacingAndGlyphs'>R^2 sch= 1.00 </text></g>
<g clip-path='url(#cpNTYuMTAyM3wyOTYuOTIxfDI1My43NXwyMy4xNzk4)'><text x='68.61' y='122.63' style='font-size: 8.54px; font-style: italic; font-family: Arial;' textLength='55.29px' lengthAdjust='spacingAndGlyphs'>E sch= 0.394 </text></g>
<g clip-path='url(#cpNTYuMTAyM3wyOTYuOTIxfDI1My43NXwyMy4xNzk4)'><text x='68.61' y='134.92' style='font-size: 8.54px; font-style: italic; font-family: Arial;' textLength='52.27px' lengthAdjust='spacingAndGlyphs'>AIC sch= -26</text></g>
<rect x='56.10' y='23.18' width='240.82' height='230.57' style='stroke-width: 1.07; stroke: #333333;' clip-path='url(#cpNTYuMTAyM3wyOTYuOTIxfDI1My43NXwyMy4xNzk4)' />
<defs>
  <clipPath id='cpMHwzMDIuNHwyODh8MA=='>
    <rect x='0.00' y='0.00' width='302.40' height='288.00' />
  </clipPath>
</defs>
<g clip-path='url(#cpMHwzMDIuNHwyODh8MA==)'><text x='20.65' y='203.25' style='font-size: 8.80px; fill: #4D4D4D; font-family: Arial;' textLength='30.52px' lengthAdjust='spacingAndGlyphs'>2.0e-05</text></g>
<g clip-path='url(#cpMHwzMDIuNHwyODh8MA==)'><text x='20.65' y='148.48' style='font-size: 8.80px; fill: #4D4D4D; font-family: Arial;' textLength='30.52px' lengthAdjust='spacingAndGlyphs'>2.2e-05</text></g>
<g clip-path='url(#cpMHwzMDIuNHwyODh8MA==)'><text x='20.65' y='93.71' style='font-size: 8.80px; fill: #4D4D4D; font-family: Arial;' textLength='30.52px' lengthAdjust='spacingAndGlyphs'>2.4e-05</text></g>
<g clip-path='url(#cpMHwzMDIuNHwyODh8MA==)'><text x='20.65' y='38.94' style='font-size: 8.80px; fill: #4D4D4D; font-family: Arial;' textLength='30.52px' lengthAdjust='spacingAndGlyphs'>2.6e-05</text></g>
<polyline points='53.36,200.03 56.10,200.03 ' style='stroke-width: 1.07; stroke: #333333; stroke-linecap: butt;' clip-path='url(#cpMHwzMDIuNHwyODh8MA==)' />
<polyline points='53.36,145.26 56.10,145.26 ' style='stroke-width: 1.07; stroke: #333333; stroke-linecap: butt;' clip-path='url(#cpMHwzMDIuNHwyODh8MA==)' />
<polyline points='53.36,90.49 56.10,90.49 ' style='stroke-width: 1.07; stroke: #333333; stroke-linecap: butt;' clip-path='url(#cpMHwzMDIuNHwyODh8MA==)' />
<polyline points='53.36,35.72 56.10,35.72 ' style='stroke-width: 1.07; stroke: #333333; stroke-linecap: butt;' clip-path='url(#cpMHwzMDIuNHwyODh8MA==)' />
<polyline points='68.61,256.49 68.61,253.75 ' style='stroke-width: 1.07; stroke: #333333; stroke-linecap: butt;' clip-path='url(#cpMHwzMDIuNHwyODh8MA==)' />
<polyline points='120.74,256.49 120.74,253.75 ' style='stroke-width: 1.07; stroke: #333333; stroke-linecap: butt;' clip-path='url(#cpMHwzMDIuNHwyODh8MA==)' />
<polyline points='172.86,256.49 172.86,253.75 ' style='stroke-width: 1.07; stroke: #333333; stroke-linecap: butt;' clip-path='url(#cpMHwzMDIuNHwyODh8MA==)' />
<polyline points='224.99,256.49 224.99,253.75 ' style='stroke-width: 1.07; stroke: #333333; stroke-linecap: butt;' clip-path='url(#cpMHwzMDIuNHwyODh8MA==)' />
<polyline points='277.11,256.49 277.11,253.75 ' style='stroke-width: 1.07; stroke: #333333; stroke-linecap: butt;' clip-path='url(#cpMHwzMDIuNHwyODh8MA==)' />
<g clip-path='url(#cpMHwzMDIuNHwyODh8MA==)'><text x='63.61' y='265.12' style='font-size: 8.80px; fill: #4D4D4D; font-family: Arial;' textLength='10.01px' lengthAdjust='spacingAndGlyphs'>20</text></g>
<g clip-path='url(#cpMHwzMDIuNHwyODh8MA==)'><text x='115.73' y='265.12' style='font-size: 8.80px; fill: #4D4D4D; font-family: Arial;' textLength='10.01px' lengthAdjust='spacingAndGlyphs'>25</text></g>
<g clip-path='url(#cpMHwzMDIuNHwyODh8MA==)'><text x='167.86' y='265.12' style='font-size: 8.80px; fill: #4D4D4D; font-family: Arial;' textLength='10.01px' lengthAdjust='spacingAndGlyphs'>30</text></g>
<g clip-path='url(#cpMHwzMDIuNHwyODh8MA==)'><text x='219.98' y='265.12' style='font-size: 8.80px; fill: #4D4D4D; font-family: Arial;' textLength='10.01px' lengthAdjust='spacingAndGlyphs'>35</text></g>
<g clip-path='url(#cpMHwzMDIuNHwyODh8MA==)'><text x='272.11' y='265.12' style='font-size: 8.80px; fill: #4D4D4D; font-family: Arial;' textLength='10.01px' lengthAdjust='spacingAndGlyphs'>40</text></g>
<g clip-path='url(#cpMHwzMDIuNHwyODh8MA==)'><text x='137.56' y='277.88' style='font-size: 10.00px; font-family: Arial;' textLength='63.35px' lengthAdjust='spacingAndGlyphs'>Temperature (</text></g>
<g clip-path='url(#cpMHwzMDIuNHwyODh8MA==)'><text x='200.91' y='277.88' style='font-size: 10.00px; font-family: Symbol;' textLength='4.00px' lengthAdjust='spacingAndGlyphs'>°</text></g>
<g clip-path='url(#cpMHwzMDIuNHwyODh8MA==)'><text x='204.91' y='277.88' style='font-size: 10.00px; font-family: Arial;' textLength='7.22px' lengthAdjust='spacingAndGlyphs'>C</text></g>
<g clip-path='url(#cpMHwzMDIuNHwyODh8MA==)'><text x='212.13' y='277.88' style='font-size: 10.00px; font-family: Arial;' textLength='3.33px' lengthAdjust='spacingAndGlyphs'>)</text></g>
<g clip-path='url(#cpMHwzMDIuNHwyODh8MA==)'><text transform='translate(12.64,180.16) rotate(-90)' style='font-size: 10.00px; font-family: Arial;' textLength='83.39px' lengthAdjust='spacingAndGlyphs'>net photosynthesis</text></g>
<g clip-path='url(#cpMHwzMDIuNHwyODh8MA==)'><text x='56.10' y='14.07' style='font-size: 12.00px; font-family: Arial;' textLength='120.04px' lengthAdjust='spacingAndGlyphs'>Eucalyptus microcorys</text></g>
</svg>
