<?xml version='1.0' encoding='UTF-8' ?>
<svg xmlns='http://www.w3.org/2000/svg' xmlns:xlink='http://www.w3.org/1999/xlink' viewBox='0 0 302.40 288.00'>
<defs>
  <style type='text/css'><![CDATA[
    line, polyline, path, rect, circle {
      fill: none;
      stroke: #000000;
      stroke-linecap: round;
      stroke-linejoin: round;
      stroke-miterlimit: 10.00;
    }
  ]]></style>
</defs>
<rect width='100%' height='100%' style='stroke: none; fill: #FFFFFF;'/>
<rect x='0.00' y='0.00' width='302.40' height='288.00' style='stroke-width: 1.07; stroke: #FFFFFF; fill: #FFFFFF;' />
<defs>
  <clipPath id='cpNjAuOTY3MXwyOTYuOTIxfDI1My43NXwyMy4wMzky'>
    <rect x='60.97' y='23.04' width='235.95' height='230.71' />
  </clipPath>
</defs>
<rect x='60.97' y='23.04' width='235.95' height='230.71' style='stroke-width: 1.07; stroke: none; fill: #FFFFFF;' clip-path='url(#cpNjAuOTY3MXwyOTYuOTIxfDI1My43NXwyMy4wMzky)' />
<polyline points='60.97,225.16 296.92,225.16 ' style='stroke-width: 0.53; stroke: #EBEBEB; stroke-linecap: butt;' clip-path='url(#cpNjAuOTY3MXwyOTYuOTIxfDI1My43NXwyMy4wMzky)' />
<polyline points='60.97,176.62 296.92,176.62 ' style='stroke-width: 0.53; stroke: #EBEBEB; stroke-linecap: butt;' clip-path='url(#cpNjAuOTY3MXwyOTYuOTIxfDI1My43NXwyMy4wMzky)' />
<polyline points='60.97,128.07 296.92,128.07 ' style='stroke-width: 0.53; stroke: #EBEBEB; stroke-linecap: butt;' clip-path='url(#cpNjAuOTY3MXwyOTYuOTIxfDI1My43NXwyMy4wMzky)' />
<polyline points='60.97,79.53 296.92,79.53 ' style='stroke-width: 0.53; stroke: #EBEBEB; stroke-linecap: butt;' clip-path='url(#cpNjAuOTY3MXwyOTYuOTIxfDI1My43NXwyMy4wMzky)' />
<polyline points='60.97,30.98 296.92,30.98 ' style='stroke-width: 0.53; stroke: #EBEBEB; stroke-linecap: butt;' clip-path='url(#cpNjAuOTY3MXwyOTYuOTIxfDI1My43NXwyMy4wMzky)' />
<polyline points='108.52,253.75 108.52,23.04 ' style='stroke-width: 0.53; stroke: #EBEBEB; stroke-linecap: butt;' clip-path='url(#cpNjAuOTY3MXwyOTYuOTIxfDI1My43NXwyMy4wMzky)' />
<polyline points='180.02,253.75 180.02,23.04 ' style='stroke-width: 0.53; stroke: #EBEBEB; stroke-linecap: butt;' clip-path='url(#cpNjAuOTY3MXwyOTYuOTIxfDI1My43NXwyMy4wMzky)' />
<polyline points='251.52,253.75 251.52,23.04 ' style='stroke-width: 0.53; stroke: #EBEBEB; stroke-linecap: butt;' clip-path='url(#cpNjAuOTY3MXwyOTYuOTIxfDI1My43NXwyMy4wMzky)' />
<polyline points='60.97,249.43 296.92,249.43 ' style='stroke-width: 1.07; stroke: #EBEBEB; stroke-linecap: butt;' clip-path='url(#cpNjAuOTY3MXwyOTYuOTIxfDI1My43NXwyMy4wMzky)' />
<polyline points='60.97,200.89 296.92,200.89 ' style='stroke-width: 1.07; stroke: #EBEBEB; stroke-linecap: butt;' clip-path='url(#cpNjAuOTY3MXwyOTYuOTIxfDI1My43NXwyMy4wMzky)' />
<polyline points='60.97,152.34 296.92,152.34 ' style='stroke-width: 1.07; stroke: #EBEBEB; stroke-linecap: butt;' clip-path='url(#cpNjAuOTY3MXwyOTYuOTIxfDI1My43NXwyMy4wMzky)' />
<polyline points='60.97,103.80 296.92,103.80 ' style='stroke-width: 1.07; stroke: #EBEBEB; stroke-linecap: butt;' clip-path='url(#cpNjAuOTY3MXwyOTYuOTIxfDI1My43NXwyMy4wMzky)' />
<polyline points='60.97,55.26 296.92,55.26 ' style='stroke-width: 1.07; stroke: #EBEBEB; stroke-linecap: butt;' clip-path='url(#cpNjAuOTY3MXwyOTYuOTIxfDI1My43NXwyMy4wMzky)' />
<polyline points='72.76,253.75 72.76,23.04 ' style='stroke-width: 1.07; stroke: #EBEBEB; stroke-linecap: butt;' clip-path='url(#cpNjAuOTY3MXwyOTYuOTIxfDI1My43NXwyMy4wMzky)' />
<polyline points='144.27,253.75 144.27,23.04 ' style='stroke-width: 1.07; stroke: #EBEBEB; stroke-linecap: butt;' clip-path='url(#cpNjAuOTY3MXwyOTYuOTIxfDI1My43NXwyMy4wMzky)' />
<polyline points='215.77,253.75 215.77,23.04 ' style='stroke-width: 1.07; stroke: #EBEBEB; stroke-linecap: butt;' clip-path='url(#cpNjAuOTY3MXwyOTYuOTIxfDI1My43NXwyMy4wMzky)' />
<polyline points='287.27,253.75 287.27,23.04 ' style='stroke-width: 1.07; stroke: #EBEBEB; stroke-linecap: butt;' clip-path='url(#cpNjAuOTY3MXwyOTYuOTIxfDI1My43NXwyMy4wMzky)' />
<circle cx='74.00' cy='241.86' r='3.56pt' style='stroke-width: 0.71; stroke: #000000; stroke-opacity: 0.70; fill: #D1EEEE; fill-opacity: 0.70;' clip-path='url(#cpNjAuOTY3MXwyOTYuOTIxfDI1My43NXwyMy4wMzky)' />
<circle cx='86.57' cy='232.93' r='3.56pt' style='stroke-width: 0.71; stroke: #000000; stroke-opacity: 0.70; fill: #D1EEEE; fill-opacity: 0.70;' clip-path='url(#cpNjAuOTY3MXwyOTYuOTIxfDI1My43NXwyMy4wMzky)' />
<circle cx='104.05' cy='223.99' r='3.56pt' style='stroke-width: 0.71; stroke: #000000; stroke-opacity: 0.70; fill: #D1EEEE; fill-opacity: 0.70;' clip-path='url(#cpNjAuOTY3MXwyOTYuOTIxfDI1My43NXwyMy4wMzky)' />
<circle cx='127.56' cy='206.15' r='3.56pt' style='stroke-width: 0.71; stroke: #000000; stroke-opacity: 0.70; fill: #D1EEEE; fill-opacity: 0.70;' clip-path='url(#cpNjAuOTY3MXwyOTYuOTIxfDI1My43NXwyMy4wMzky)' />
<circle cx='157.61' cy='177.12' r='3.56pt' style='stroke-width: 0.71; stroke: #000000; stroke-opacity: 0.70; fill: #D1EEEE; fill-opacity: 0.70;' clip-path='url(#cpNjAuOTY3MXwyOTYuOTIxfDI1My43NXwyMy4wMzky)' />
<circle cx='181.11' cy='145.88' r='3.56pt' style='stroke-width: 0.71; stroke: #000000; stroke-opacity: 0.70; fill: #D1EEEE; fill-opacity: 0.70;' clip-path='url(#cpNjAuOTY3MXwyOTYuOTIxfDI1My43NXwyMy4wMzky)' />
<circle cx='194.79' cy='131.35' r='3.56pt' style='stroke-width: 0.71; stroke: #000000; stroke-opacity: 0.70; fill: #D1EEEE; fill-opacity: 0.70;' clip-path='url(#cpNjAuOTY3MXwyOTYuOTIxfDI1My43NXwyMy4wMzky)' />
<circle cx='216.37' cy='109.04' r='3.56pt' style='stroke-width: 0.71; stroke: #000000; stroke-opacity: 0.70; fill: #D1EEEE; fill-opacity: 0.70;' clip-path='url(#cpNjAuOTY3MXwyOTYuOTIxfDI1My43NXwyMy4wMzky)' />
<circle cx='232.21' cy='95.64' r='3.56pt' style='stroke-width: 0.71; stroke: #000000; stroke-opacity: 0.70; fill: #D1EEEE; fill-opacity: 0.70;' clip-path='url(#cpNjAuOTY3MXwyOTYuOTIxfDI1My43NXwyMy4wMzky)' />
<circle cx='253.50' cy='69.18' r='3.56pt' style='stroke-width: 0.71; stroke: #000000; stroke-opacity: 0.70; fill: #D1EEEE; fill-opacity: 0.70;' clip-path='url(#cpNjAuOTY3MXwyOTYuOTIxfDI1My43NXwyMy4wMzky)' />
<circle cx='279.70' cy='36.34' r='3.56pt' style='stroke-width: 0.71; stroke: #000000; stroke-opacity: 0.70; fill: #D1EEEE; fill-opacity: 0.70;' clip-path='url(#cpNjAuOTY3MXwyOTYuOTIxfDI1My43NXwyMy4wMzky)' />
<polyline points='71.69,243.26 72.77,242.66 73.85,242.05 74.93,241.43 76.00,240.80 77.08,240.18 78.16,239.54 79.24,238.90 80.32,238.26 81.39,237.60 82.47,236.95 83.55,236.28 84.63,235.61 85.70,234.94 86.78,234.26 87.86,233.57 88.94,232.88 90.02,232.18 91.09,231.48 92.17,230.76 93.25,230.05 94.33,229.32 95.41,228.60 96.48,227.86 97.56,227.12 98.64,226.37 99.72,225.62 100.80,224.86 101.87,224.09 102.95,223.32 104.03,222.54 105.11,221.75 106.19,220.96 107.26,220.17 108.34,219.36 109.42,218.55 110.50,217.73 111.57,216.91 112.65,216.08 113.73,215.25 114.81,214.40 115.89,213.55 116.96,212.70 118.04,211.84 119.12,210.97 120.20,210.09 121.28,209.21 122.35,208.33 123.43,207.43 124.51,206.53 125.59,205.62 126.67,204.71 127.74,203.79 128.82,202.87 129.90,201.93 130.98,200.99 132.05,200.05 133.13,199.10 134.21,198.14 135.29,197.17 136.37,196.20 137.44,195.22 138.52,194.24 139.60,193.25 140.68,192.25 141.76,191.25 142.83,190.24 143.91,189.22 144.99,188.20 146.07,187.17 147.15,186.14 148.22,185.10 149.30,184.05 150.38,183.00 151.46,181.94 152.54,180.88 153.61,179.81 154.69,178.73 155.77,177.65 156.85,176.56 157.92,175.46 159.00,174.36 160.08,173.26 161.16,172.15 162.24,171.03 163.31,169.91 164.39,168.78 165.47,167.64 166.55,166.50 167.63,165.36 168.70,164.21 169.78,163.05 170.86,161.89 171.94,160.73 173.02,159.56 174.09,158.38 175.17,157.20 176.25,156.02 177.33,154.83 178.40,153.64 179.48,152.44 180.56,151.23 181.64,150.03 182.72,148.82 183.79,147.60 184.87,146.38 185.95,145.16 187.03,143.93 188.11,142.70 189.18,141.46 190.26,140.22 191.34,138.98 192.42,137.73 193.50,136.49 194.57,135.23 195.65,133.98 196.73,132.72 197.81,131.46 198.89,130.20 199.96,128.93 201.04,127.66 202.12,126.39 203.20,125.12 204.27,123.85 205.35,122.57 206.43,121.29 207.51,120.01 208.59,118.73 209.66,117.45 210.74,116.17 211.82,114.88 212.90,113.60 213.98,112.31 215.05,111.03 216.13,109.74 217.21,108.45 218.29,107.16 219.37,105.88 220.44,104.59 221.52,103.30 222.60,102.02 223.68,100.73 224.75,99.45 225.83,98.17 226.91,96.89 227.99,95.60 229.07,94.33 230.14,93.05 231.22,91.77 232.30,90.50 233.38,89.23 234.46,87.96 235.53,86.70 236.61,85.43 237.69,84.17 238.77,82.92 239.85,81.67 240.92,80.42 242.00,79.17 243.08,77.93 244.16,76.69 245.23,75.46 246.31,74.23 247.39,73.00 248.47,71.78 249.55,70.57 250.62,69.36 251.70,68.16 252.78,66.96 253.86,65.76 254.94,64.58 256.01,63.40 257.09,62.22 258.17,61.05 259.25,59.89 260.33,58.74 261.40,57.59 262.48,56.45 263.56,55.32 264.64,54.19 265.72,53.08 266.79,51.97 267.87,50.86 268.95,49.77 270.03,48.69 271.10,47.61 272.18,46.54 273.26,45.48 274.34,44.43 275.42,43.39 276.49,42.36 277.57,41.34 278.65,40.33 279.73,39.32 280.81,38.33 281.88,37.35 282.96,36.38 284.04,35.42 285.12,34.47 286.20,33.53 ' style='stroke-width: 2.77; stroke: #1B9E77; stroke-linecap: butt;' clip-path='url(#cpNjAuOTY3MXwyOTYuOTIxfDI1My43NXwyMy4wMzky)' />
<g clip-path='url(#cpNjAuOTY3MXwyOTYuOTIxfDI1My43NXwyMy4wMzky)'><text x='74.00' y='142.70' style='font-size: 8.54px; font-style: italic; font-family: Arial;' textLength='60.01px' lengthAdjust='spacingAndGlyphs'>R^2 sch= 1.00 </text></g>
<g clip-path='url(#cpNjAuOTY3MXwyOTYuOTIxfDI1My43NXwyMy4wMzky)'><text x='74.00' y='154.99' style='font-size: 8.54px; font-style: italic; font-family: Arial;' textLength='55.29px' lengthAdjust='spacingAndGlyphs'>E sch= 0.491 </text></g>
<g clip-path='url(#cpNjAuOTY3MXwyOTYuOTIxfDI1My43NXwyMy4wMzky)'><text x='74.00' y='167.28' style='font-size: 8.54px; font-style: italic; font-family: Arial;' textLength='59.78px' lengthAdjust='spacingAndGlyphs'>AIC sch= -45.9</text></g>
<rect x='60.97' y='23.04' width='235.95' height='230.71' style='stroke-width: 1.07; stroke: #333333;' clip-path='url(#cpNjAuOTY3MXwyOTYuOTIxfDI1My43NXwyMy4wMzky)' />
<defs>
  <clipPath id='cpMHwzMDIuNHwyODh8MA=='>
    <rect x='0.00' y='0.00' width='302.40' height='288.00' />
  </clipPath>
</defs>
<g clip-path='url(#cpMHwzMDIuNHwyODh8MA==)'><text x='20.51' y='252.65' style='font-size: 8.80px; fill: #4D4D4D; font-family: Arial;' textLength='35.53px' lengthAdjust='spacingAndGlyphs'>2.50e-06</text></g>
<g clip-path='url(#cpMHwzMDIuNHwyODh8MA==)'><text x='20.51' y='204.11' style='font-size: 8.80px; fill: #4D4D4D; font-family: Arial;' textLength='35.53px' lengthAdjust='spacingAndGlyphs'>5.00e-06</text></g>
<g clip-path='url(#cpMHwzMDIuNHwyODh8MA==)'><text x='20.51' y='155.56' style='font-size: 8.80px; fill: #4D4D4D; font-family: Arial;' textLength='35.53px' lengthAdjust='spacingAndGlyphs'>7.50e-06</text></g>
<g clip-path='url(#cpMHwzMDIuNHwyODh8MA==)'><text x='20.51' y='107.02' style='font-size: 8.80px; fill: #4D4D4D; font-family: Arial;' textLength='35.53px' lengthAdjust='spacingAndGlyphs'>1.00e-05</text></g>
<g clip-path='url(#cpMHwzMDIuNHwyODh8MA==)'><text x='20.51' y='58.48' style='font-size: 8.80px; fill: #4D4D4D; font-family: Arial;' textLength='35.53px' lengthAdjust='spacingAndGlyphs'>1.25e-05</text></g>
<polyline points='58.23,249.43 60.97,249.43 ' style='stroke-width: 1.07; stroke: #333333; stroke-linecap: butt;' clip-path='url(#cpMHwzMDIuNHwyODh8MA==)' />
<polyline points='58.23,200.89 60.97,200.89 ' style='stroke-width: 1.07; stroke: #333333; stroke-linecap: butt;' clip-path='url(#cpMHwzMDIuNHwyODh8MA==)' />
<polyline points='58.23,152.34 60.97,152.34 ' style='stroke-width: 1.07; stroke: #333333; stroke-linecap: butt;' clip-path='url(#cpMHwzMDIuNHwyODh8MA==)' />
<polyline points='58.23,103.80 60.97,103.80 ' style='stroke-width: 1.07; stroke: #333333; stroke-linecap: butt;' clip-path='url(#cpMHwzMDIuNHwyODh8MA==)' />
<polyline points='58.23,55.26 60.97,55.26 ' style='stroke-width: 1.07; stroke: #333333; stroke-linecap: butt;' clip-path='url(#cpMHwzMDIuNHwyODh8MA==)' />
<polyline points='72.76,256.49 72.76,253.75 ' style='stroke-width: 1.07; stroke: #333333; stroke-linecap: butt;' clip-path='url(#cpMHwzMDIuNHwyODh8MA==)' />
<polyline points='144.27,256.49 144.27,253.75 ' style='stroke-width: 1.07; stroke: #333333; stroke-linecap: butt;' clip-path='url(#cpMHwzMDIuNHwyODh8MA==)' />
<polyline points='215.77,256.49 215.77,253.75 ' style='stroke-width: 1.07; stroke: #333333; stroke-linecap: butt;' clip-path='url(#cpMHwzMDIuNHwyODh8MA==)' />
<polyline points='287.27,256.49 287.27,253.75 ' style='stroke-width: 1.07; stroke: #333333; stroke-linecap: butt;' clip-path='url(#cpMHwzMDIuNHwyODh8MA==)' />
<g clip-path='url(#cpMHwzMDIuNHwyODh8MA==)'><text x='70.26' y='265.12' style='font-size: 8.80px; fill: #4D4D4D; font-family: Arial;' textLength='5.01px' lengthAdjust='spacingAndGlyphs'>0</text></g>
<g clip-path='url(#cpMHwzMDIuNHwyODh8MA==)'><text x='139.26' y='265.12' style='font-size: 8.80px; fill: #4D4D4D; font-family: Arial;' textLength='10.01px' lengthAdjust='spacingAndGlyphs'>10</text></g>
<g clip-path='url(#cpMHwzMDIuNHwyODh8MA==)'><text x='210.76' y='265.12' style='font-size: 8.80px; fill: #4D4D4D; font-family: Arial;' textLength='10.01px' lengthAdjust='spacingAndGlyphs'>20</text></g>
<g clip-path='url(#cpMHwzMDIuNHwyODh8MA==)'><text x='282.26' y='265.12' style='font-size: 8.80px; fill: #4D4D4D; font-family: Arial;' textLength='10.01px' lengthAdjust='spacingAndGlyphs'>30</text></g>
<g clip-path='url(#cpMHwzMDIuNHwyODh8MA==)'><text x='139.99' y='277.88' style='font-size: 10.00px; font-family: Arial;' textLength='63.35px' lengthAdjust='spacingAndGlyphs'>Temperature (</text></g>
<g clip-path='url(#cpMHwzMDIuNHwyODh8MA==)'><text x='203.35' y='277.88' style='font-size: 10.00px; font-family: Symbol;' textLength='4.00px' lengthAdjust='spacingAndGlyphs'>°</text></g>
<g clip-path='url(#cpMHwzMDIuNHwyODh8MA==)'><text x='207.35' y='277.88' style='font-size: 10.00px; font-family: Arial;' textLength='7.22px' lengthAdjust='spacingAndGlyphs'>C</text></g>
<g clip-path='url(#cpMHwzMDIuNHwyODh8MA==)'><text x='214.57' y='277.88' style='font-size: 10.00px; font-family: Arial;' textLength='3.33px' lengthAdjust='spacingAndGlyphs'>)</text></g>
<g clip-path='url(#cpMHwzMDIuNHwyODh8MA==)'><text transform='translate(12.64,171.74) rotate(-90)' style='font-size: 10.00px; font-family: Arial;' textLength='66.70px' lengthAdjust='spacingAndGlyphs'>respiration rate</text></g>
<g clip-path='url(#cpMHwzMDIuNHwyODh8MA==)'><text x='60.97' y='14.07' style='font-size: 12.00px; font-family: Arial;' textLength='128.06px' lengthAdjust='spacingAndGlyphs'>Deschampsia antarctica</text></g>
</svg>
